﻿<?xml version="1.0"?>
<!-- Generator: Adobe Illustrator 10.0, SVG Export Plug-In . SVG Version: 3.0.0 Build 77)  -->
<!DOCTYPE svg PUBLIC "-//W3C//DTD SVG 1.0//EN" "http://www.w3.org/TR/2001/REC-SVG-20010904/DTD/svg10.dtd"[
	<!ENTITY ns_flows "http://ns.adobe.com/Flows/1.0/">
	<!ENTITY ns_svg "http://www.w3.org/2000/svg">
	<!ENTITY ns_xlink "http://www.w3.org/1999/xlink">
	<!ENTITY st0 "fill:none;stroke:#000000;stroke-linecap:round;stroke-linejoin:round;">
	<!ENTITY st1 "fill:none;stroke:#000000;stroke-width:0.6;stroke-linecap:round;stroke-linejoin:round;">
	<!ENTITY st2 "font-size:6px;">
	<!ENTITY st3 "font-family:'Arial';">
	<!ATTLIST svg
		xmlns:ewd CDATA #FIXED "http://shcl.co.jp/ewd"
		xmlns:a CDATA #FIXED "http://ns.adobe.com/AdobeSVGViewerExtensions/3.0/"
		ewd:ver CDATA #IMPLIED>
	<!ATTLIST g
		ewd:pinNo CDATA #IMPLIED>
]>
<svg width="135.844" height="91.085" viewBox="0 0 135.844 91.085" style="overflow:visible;enable-background:new 0 0 135.844 91.085" xml:space="preserve" onload="call_execInitLoadProc_svg('connector')" ewd:ver="L2.1.2.6" xmlns="&ns_svg;" xmlns:ewd="http://shcl.co.jp/ewd" xmlns:a="http://ns.adobe.com/AdobeSVGViewerExtensions/3.0/" xmlns:xlink="&ns_xlink;">
<script type="text/javascript" xlink:href="../../../../../system/js/ewd/fig/svgfig.js"/>
<g id="レイヤー_1">
	<path style="&st1;" d="M114.664,44.41c0-3.912-3.171-7.083-7.082-7.083"/>
	<path style="&st1;" d="M28.262,37.327c-3.911,0-7.082,3.171-7.082,7.083"/>
	<path style="&st1;" d="M45.259,21.18c0,1.095,0.888,1.983,1.983,1.983"/>
	<path style="&st1;" d="M11.832,65.656c0,9.074,7.356,16.43,16.43,16.43"/>
	<path style="&st1;" d="M21.18,65.656c0,3.911,3.171,7.082,7.082,7.082"/>
	<path style="&st1;" d="M107.582,72.738c3.911,0,7.082-3.171,7.082-7.082"/>
	<path style="&st1;" d="M28.262,27.979c-9.074,0-16.43,7.356-16.43,16.431"/>
	<path style="&st0;" d="M7.208,72.364c2.978,9.344,11.247,15.389,21.054,15.389"/>
	<path style="&st1;" d="M107.582,82.086c9.074,0,16.431-7.356,16.431-16.43"/>
	<path style="&st0;" d="M129.678,44.41c0-6.139-2.186-11.379-6.547-15.7"/>
	<path style="&st1;" d="M45.259,32.512c0,1.095,0.888,1.983,1.983,1.983"/>
	<path style="&st1;" d="M88.602,34.495c1.095,0,1.983-0.888,1.983-1.983"/>
	<path style="&st1;" d="M47.242,25.996c-1.095,0-1.983,0.888-1.983,1.983"/>
	<path style="&st1;" d="M124.013,44.41c0-9.074-7.356-16.431-16.431-16.431"/>
	<path style="&st1;" d="M90.585,27.979c0-1.095-0.888-1.983-1.983-1.983"/>
	<path style="&st1;" d="M47.242,6.166c-1.095,0-1.983,0.888-1.983,1.983"/>
	<path style="&st1;" d="M88.602,23.163c1.095,0,1.983-0.888,1.983-1.983"/>
	<path style="&st0;" d="M11.832,29.636c-3.804,4.23-5.666,9.084-5.666,14.773"/>
	<path style="&st1;" d="M90.585,8.149c0-1.095-0.888-1.983-1.983-1.983"/>
	<path style="&st0;" d="M107.582,87.752c9.807,0,18.076-6.044,21.054-15.388"/>
	<path style="&st1;" d="M60.84,28.829h14.164"/>
	<path style="&st1;" d="M63.673,28.829v5.666"/>
	<path style="&st1;" d="M72.171,28.829v5.666"/>
	<path style="&st1;" d="M114.664,44.41v21.247"/>
	<path style="&st1;" d="M90.585,8.149V21.18"/>
	<path style="&st1;" d="M21.18,44.41v21.247"/>
	<path style="&st1;" d="M83.503,8.999v14.164"/>
	<path style="&st1;" d="M28.262,72.738h79.32"/>
	<path style="&st1;" d="M52.341,8.999v14.164"/>
	<path style="&st1;" d="M29.678,54.325v12.748"/>
	<path style="&st1;" d="M29.678,54.325h76.487"/>
	<path style="&st1;" d="M29.678,67.072h76.487"/>
	<path style="&st1;" d="M42.426,54.325v12.748"/>
	<path style="&st1;" d="M55.174,54.325v12.748"/>
	<path style="&st1;" d="M67.922,54.325v12.748"/>
	<path style="&st1;" d="M80.67,54.325v12.748"/>
	<path style="&st1;" d="M93.417,54.325v12.748"/>
	<path style="&st1;" d="M106.166,54.325v12.748"/>
	<path style="&st1;" d="M31.095,34.495v2.833"/>
	<path style="&st1;" d="M28.262,37.327h79.32"/>
	<path style="&st1;" d="M104.749,34.495v2.833"/>
	<path style="&st1;" d="M11.832,54.325H3.333v8.499h8.499"/>
	<path style="&st1;" d="M28.262,82.086h79.32"/>
	<path style="&st1;" d="M42.426,87.752h50.991"/>
	<path style="&st1;" d="M45.259,8.149V21.18"/>
	<path style="&st1;" d="M52.341,8.999h31.162"/>
	<path style="&st1;" d="M11.832,62.823v2.833"/>
	<path style="&st1;" d="M31.095,34.495h73.654"/>
	<path style="&st1;" d="M52.341,11.832h5.666v2.833h19.83v-2.833h5.666"/>
	<path style="&st1;" d="M60.84,21.18v7.648"/>
	<path style="&st1;" d="M75.004,21.18v7.648"/>
	<path style="&st1;" d="M124.013,44.41v9.915"/>
	<path style="&st1;" d="M47.242,6.166h41.36"/>
	<path style="&st1;" d="M124.013,62.823v2.833"/>
	<path style="&st1;" d="M45.259,27.979v4.533"/>
	<path style="&st1;" d="M90.585,27.979v4.533"/>
	<path style="&st1;" d="M83.503,25.996v8.499"/>
	<path style="&st1;" d="M77.837,25.996v8.499"/>
	<path style="&st1;" d="M58.007,25.996v8.499"/>
	<path style="&st1;" d="M52.341,25.996v8.499"/>
	<path style="&st1;" d="M28.262,27.979h16.998"/>
	<path style="&st1;" d="M47.242,23.163H60.84"/>
	<path style="&st1;" d="M47.242,25.996H60.84"/>
	<path style="&st1;" d="M90.585,27.979h16.997"/>
	<path style="&st1;" d="M75.004,25.996h13.598"/>
	<path style="&st1;" d="M60.84,21.18h14.164"/>
	<path style="&st1;" d="M124.013,54.325h8.499v8.499h-8.499"/>
	<path style="&st1;" d="M75.004,23.163h13.598"/>
	<path style="&st0;" d="M0.5,51.492v14.165"/>
	<path style="&st0;" d="M6.166,45.826L0.5,51.492"/>
	<path style="&st0;" d="M135.344,51.492v14.165"/>
	<path style="&st0;" d="M0.5,65.656l6.708,6.708"/>
	<path style="&st1;" d="M11.832,44.41v9.915"/>
	<path style="&st0;" d="M129.678,45.826l5.666,5.666"/>
	<path style="&st0;" d="M135.344,65.656l-6.708,6.708"/>
	<path style="&st0;" d="M42.426,87.752l2.833,2.833h45.326l2.833-2.833"/>
	<path style="&st0;" d="M28.262,87.752h14.165"/>
	<path style="&st0;" d="M93.417,87.752h14.165"/>
	<path style="&st1;" d="M100.5,8.999v8.499h-5.666V8.999H100.5"/>
	<path style="&st0;" d="M129.678,44.41v1.417"/>
	<path style="&st0;" d="M6.166,44.41v1.417"/>
	<path style="&st1;" d="M35.344,8.999v8.499h5.666V8.999H35.344"/>
	<path style="&st0;" d="M39.593,0.5H96.25"/>
	<path style="&st0;" d="M11.832,29.636L39.593,0.5"/>
	<path style="&st0;" d="M96.25,0.5l26.881,28.21"/>
	<g ewd:pinNo="1">
		<text transform="matrix(1 0 0 1 34.0991 63.042)"><tspan x="0" y="0" style="&st3; &st2;">1</tspan></text>
	</g>
	<g ewd:pinNo="2">
		<text transform="matrix(1 0 0 1 46.8467 63.042)"><tspan x="0" y="0" style="&st3; &st2;">2</tspan></text>
	</g>
	<g ewd:pinNo="3">
		<text transform="matrix(1 0 0 1 59.5947 63.042)"><tspan x="0" y="0" style="&st3; &st2;">3</tspan></text>
	</g>
	<g ewd:pinNo="4">
		<text transform="matrix(1 0 0 1 72.3428 63.042)"><tspan x="0" y="0" style="&st3; &st2;">4</tspan></text>
	</g>
	<g ewd:pinNo="5">
		<text transform="matrix(1 0 0 1 85.0903 63.042)"><tspan x="0" y="0" style="&st3; &st2;">5</tspan></text>
	</g>
	<g ewd:pinNo="6">
		<text transform="matrix(1 0 0 1 97.8384 63.042)"><tspan x="0" y="0" style="&st3; &st2;">6</tspan></text>
	</g>
</g>
</svg>