﻿<?xml version="1.0"?>
<!-- Generator: Adobe Illustrator 10.0, SVG Export Plug-In . SVG Version: 3.0.0 Build 77)  -->
<!DOCTYPE svg PUBLIC "-//W3C//DTD SVG 1.0//EN" "http://www.w3.org/TR/2001/REC-SVG-20010904/DTD/svg10.dtd"[
	<!ENTITY ns_flows "http://ns.adobe.com/Flows/1.0/">
	<!ENTITY ns_svg "http://www.w3.org/2000/svg">
	<!ENTITY ns_xlink "http://www.w3.org/1999/xlink">
	<!ENTITY st0 "fill:none;stroke:#000000;stroke-linecap:round;stroke-linejoin:round;">
	<!ENTITY st1 "fill:none;stroke:#000000;stroke-width:0.6;stroke-linecap:round;stroke-linejoin:round;">
	<!ENTITY st2 "font-size:6px;">
	<!ENTITY st3 "font-family:'Arial';">
	<!ATTLIST svg
		xmlns:ewd CDATA #FIXED "http://shcl.co.jp/ewd"
		xmlns:a CDATA #FIXED "http://ns.adobe.com/AdobeSVGViewerExtensions/3.0/"
		ewd:ver CDATA #IMPLIED>
	<!ATTLIST g
		ewd:pinNo CDATA #IMPLIED>
]>
<svg width="40.187" height="54.589" viewBox="0 0 40.187 54.589" style="overflow:visible;enable-background:new 0 0 40.187 54.589" xml:space="preserve" onload="call_execInitLoadProc_svg('connector')" ewd:ver="L2.1.2.6" xmlns="&ns_svg;" xmlns:ewd="http://shcl.co.jp/ewd" xmlns:a="http://ns.adobe.com/AdobeSVGViewerExtensions/3.0/" xmlns:xlink="&ns_xlink;">
<script type="text/javascript" xlink:href="../../../../../system/js/ewd/fig/svgfig.js"/>
<g id="レイヤー_1">
	<path style="&st0;" d="M13.645,54.089h12.901"/>
	<path style="&st0;" d="M14.191,0.5h11.805"/>
	<path style="&st0;" d="M5.223,48.186h1.541"/>
	<path style="&st1;" d="M32.25,11.124v4.13"/>
	<path style="&st1;" d="M9.118,24.106h21.955"/>
	<path style="&st0;" d="M6.763,48.186l5.212,5.213"/>
	<path style="&st0;" d="M28.214,53.398l5.209-5.213"/>
	<path style="&st1;" d="M17.024,12.894v2.359"/>
	<path style="&st1;" d="M23.163,12.894v2.359"/>
	<path style="&st1;" d="M11.832,9.942h16.524"/>
	<path style="&st1;" d="M6.763,48.186h26.66"/>
	<path style="&st0;" d="M33.423,48.186h1.544"/>
	<path style="&st1;" d="M32.25,17.616H7.937"/>
	<path style="&st1;" d="M28.355,9.942v2.952"/>
	<path style="&st1;" d="M11.832,12.894V9.942"/>
	<path style="&st1;" d="M7.937,15.253v-4.13"/>
	<path style="&st0;" d="M14.191,0.5c-1.303,0-2.359,1.057-2.359,2.36"/>
	<path style="&st0;" d="M28.355,2.86c0-1.303-1.057-2.36-2.36-2.36"/>
	<path style="&st0;" d="M36.146,11.124c0-0.651-0.528-1.178-1.179-1.178"/>
	<path style="&st0;" d="M5.223,9.942c-0.653,0-1.182,0.528-1.182,1.181"/>
	<path style="&st1;" d="M7.937,11.124c0-0.653-0.529-1.181-1.182-1.181"/>
	<path style="&st1;" d="M33.432,9.942c-0.653,0-1.182,0.528-1.182,1.181"/>
	<path style="&st1;" d="M31.072,24.106c0.651,0,1.178-0.528,1.178-1.178"/>
	<path style="&st1;" d="M7.937,22.928c0,0.652,0.529,1.181,1.181,1.181"/>
	<path style="&st0;" d="M4.041,47.007c0,0.652,0.529,1.181,1.182,1.181"/>
	<path style="&st0;" d="M34.967,48.186c0.651,0,1.179-0.527,1.179-1.178"/>
	<path style="&st0;" d="M11.976,53.398c0.461,0.46,1.018,0.69,1.669,0.69"/>
	<path style="&st0;" d="M26.545,54.089c0.651,0,1.208-0.23,1.669-0.69"/>
	<path style="&st1;" d="M34.967,28.475c0.652,0,1.181-0.529,1.181-1.181"/>
	<path style="&st1;" d="M4.041,27.293c0,0.652,0.529,1.181,1.182,1.181"/>
	<path style="&st1;" d="M36.146,44.056c0-0.651-0.528-1.179-1.179-1.179"/>
	<path style="&st1;" d="M5.223,42.874c-0.653,0-1.182,0.529-1.182,1.182"/>
	<path style="&st0;" d="M4.041,47.007V20.565H0.5v-3.541h3.541v-5.901"/>
	<path style="&st0;" d="M36.146,47.007V17.024h3.541v-3.542h-3.541v-2.359"/>
	<path style="&st1;" d="M23.163,9.942V4.75h-6.139v5.193"/>
	<path style="&st1;" d="M31.426,43.82V29.656H8.763V43.82"/>
	<path style="&st1;" d="M10.534,43.82v2.36H6.993v-2.36h26.204v2.36h-3.541v-2.36"/>
	<path style="&st1;" d="M5.223,42.874H6.4V28.475H5.223"/>
	<path style="&st1;" d="M34.967,42.874h-1.181V28.475h1.181"/>
	<path style="&st0;" d="M11.832,2.86v7.083H5.223"/>
	<path style="&st0;" d="M34.967,9.942h-6.612V2.86"/>
	<path style="&st1;" d="M11.832,17.616v-4.722h16.524v4.722"/>
	<path style="&st1;" d="M32.25,22.928v-7.675H7.937v7.675"/>
	<g ewd:pinNo="1">
		<text transform="matrix(1 0 0 1 18.3921 39.2007)"><tspan x="0" y="0" style="&st3; &st2;">1</tspan></text>
	</g>
</g>
</svg>