﻿<?xml version="1.0"?>
<!-- Generator: Adobe Illustrator 10.0, SVG Export Plug-In . SVG Version: 3.0.0 Build 77)  -->
<!DOCTYPE svg PUBLIC "-//W3C//DTD SVG 1.0//EN" "http://www.w3.org/TR/2001/REC-SVG-20010904/DTD/svg10.dtd"[
	<!ENTITY ns_flows "http://ns.adobe.com/Flows/1.0/">
	<!ENTITY ns_svg "http://www.w3.org/2000/svg">
	<!ENTITY ns_xlink "http://www.w3.org/1999/xlink">
	<!ENTITY st0 "fill:none;">
	<!ENTITY st1 "stroke:#000000;">
	<!ENTITY st2 "stroke-linecap:round;">
	<!ENTITY st3 "stroke-linejoin:round;">
	<!ENTITY st4 "stroke-width:0.6;">
	<!ENTITY st5 "font-size:6px;">
	<!ENTITY st6 "font-family:'Arial';">
	<!ENTITY st7 "stroke-width:1.4;">
	<!ATTLIST svg
		xmlns:ewd CDATA #FIXED "http://shcl.co.jp/ewd"
		xmlns:a CDATA #FIXED "http://ns.adobe.com/AdobeSVGViewerExtensions/3.0/"
		ewd:ver CDATA #IMPLIED>
	<!ATTLIST g
		ewd:pinNo CDATA #IMPLIED>
]>
<svg width="104.844" height="66.562" viewBox="0 0 104.844 66.562" style="overflow:visible;enable-background:new 0 0 45.759 49.556" xml:space="preserve" onload="call_execInitLoadProc_svg('connector')" ewd:ver="L2.1.2.6" xmlns="&ns_svg;" xmlns:ewd="http://shcl.co.jp/ewd" xmlns:a="http://ns.adobe.com/AdobeSVGViewerExtensions/3.0/" xmlns:xlink="&ns_xlink;">
<script type="text/javascript" xlink:href="../../../../../system/js/ewd/fig/svgfig.js"/>
<g id="レイヤー_1" transform="translate(0,17.008)">
	<path style="&st0;&st1;&st4;&st2;&st3;" d="M43.134,30.104v3.399"/>
	<path style="&st0;&st1;&st4;&st2;&st3;" d="M42.001,34.636h-2.408"/>
	<path style="&st0;&st1;&st4;&st2;&st3;" d="M42.001,28.97h-2.408"/>
	<path style="&st0;&st1;&st2;&st3;" d="M41.577,5.316v18.98"/>
	<path style="&st0;&st1;&st4;&st2;&st3;" d="M7.016,27.271v0.85"/>
	<path style="&st0;&st1;&st4;&st2;&st3;" d="M38.744,27.271v0.85"/>
	<path style="&st0;&st1;&st4;&st2;&st3;" d="M3.758,28.97h2.408"/>
	<path style="&st0;&st1;&st4;&st2;&st3;" d="M3.758,34.636h2.408"/>
	<path style="&st0;&st1;&st4;&st2;&st3;" d="M2.625,30.104v3.399"/>
	<path style="&st0;&st1;&st4;&st2;&st3;" d="M7.016,35.486v9.334"/>
	<path style="&st0;&st1;&st2;&st3;" d="M41.577,38.602v7.621"/>
	<path style="&st0;&st1;&st2;&st3;" d="M0.5,28.937v5.025"/>
	<path style="&st0;&st1;&st2;&st3;" d="M15.154,49.056"/>
	<path style="&st0;&st1;&st2;&st3;" d="M4.183,5.316v18.98"/>
	<path style="&st0;&st1;&st2;&st3;" d="M4.183,38.602v7.621"/>
	<path style="&st0;&st1;&st4;&st2;&st3;" d="M22.879,42.197V29.455"/>
	<path style="&st0;&st1;&st2;&st3;" d="M45.259,28.937v5.025"/>
	<path style="&st0;&st1;&st4;&st2;&st3;" d="M38.744,35.486v9.334"/>
	<path style="&st0;&st1;&st4;&st2;&st3;" d="M39.593,34.636c-0.469,0-0.85,0.38-0.85,0.85"/>
	<path style="&st0;&st1;&st4;&st2;&st3;" d="M35.344,19.622c2.347,0,4.249-1.902,4.249-4.249"/>
	<path style="&st0;&st1;&st4;&st2;&st3;" d="M9.848,24.438c-1.564,0-2.833,1.268-2.833,2.833"/>
	<path style="&st0;&st1;&st4;&st2;&st3;" d="M7.016,35.486c0-0.469-0.38-0.85-0.85-0.85"/>
	<path style="&st0;&st1;&st4;&st2;&st3;" d="M6.166,28.97c0.47,0,0.85-0.38,0.85-0.85"/>
	<path style="&st0;&st1;&st2;&st3;" d="M38.744,49.056c1.564,0,2.833-1.269,2.833-2.833"/>
	<path style="&st0;&st1;&st4;&st2;&st3;" d="M3.758,28.97c-0.626,0-1.133,0.508-1.133,1.133"/>
	<path style="&st0;&st1;&st4;&st2;&st3;" d="M2.625,33.503c0,0.626,0.507,1.133,1.133,1.133"/>
	<path style="&st0;&st1;&st2;&st3;" d="M1.412,26.854C0.808,27.412,0.5,28.114,0.5,28.937"/>
	<path style="&st0;&st1;&st2;&st3;" d="M0.5,33.962c0,0.822,0.308,1.525,0.912,2.082"/>
	<path style="&st0;&st1;&st2;&st3;" d="M45.259,28.937c0-0.822-0.308-1.525-0.912-2.083"/>
	<path style="&st0;&st1;&st4;&st2;&st3;" d="M38.744,28.121c0,0.469,0.38,0.85,0.85,0.85"/>
	<path style="&st0;&st1;&st4;&st2;&st3;" d="M43.134,30.104c0-0.625-0.507-1.133-1.133-1.133"/>
	<path style="&st0;&st1;&st4;&st2;&st3;" d="M42.001,34.636c0.625,0,1.133-0.507,1.133-1.133"/>
	<path style="&st0;&st1;&st2;&st3;" d="M44.347,36.044c0.604-0.558,0.912-1.26,0.912-2.082"/>
	<path style="&st0;&st1;&st4;&st2;&st3;" d="M36.619,5.033c0-1.095-0.888-1.983-1.983-1.983"/>
	<path style="&st0;&st1;&st4;&st2;&st3;" d="M6.166,15.373c0,2.347,1.903,4.249,4.25,4.249"/>
	<path style="&st0;&st1;&st4;&st2;&st3;" d="M13.738,47.639c0,0.782,0.634,1.417,1.417,1.417"/>
	<path style="&st0;&st1;&st2;&st3;" d="M4.183,46.223c0,1.564,1.268,2.833,2.833,2.833"/>
	<path style="&st0;&st1;&st4;&st2;&st3;" d="M38.744,27.271c0-1.564-1.269-2.833-2.833-2.833"/>
	<path style="&st0;&st1;&st4;&st2;&st3;" d="M11.123,3.05c-1.095,0-1.983,0.888-1.983,1.983"/>
	<path style="&st0;&st1;&st4;&st2;&st3;" d="M15.154,49.056c0.782,0,1.417-0.634,1.417-1.417"/>
	<path style="&st0;&st1;&st2;&st3;" d="M10.486,0.5c-1.564,0-2.833,1.269-2.833,2.833"/>
	<path style="&st0;&st1;&st2;&st3;" d="M6.166,3.333c-1.095,0-1.983,0.888-1.983,1.983"/>
	<path style="&st0;&st1;&st2;&st3;" d="M41.577,5.316c0-1.095-0.888-1.983-1.983-1.983"/>
	<path style="&st0;&st1;&st2;&st3;" d="M38.106,3.333c0-1.564-1.268-2.833-2.833-2.833"/>
	<path style="&st0;&st1;&st2;&st3;" d="M44.347,36.044l-2.771,2.558"/>
	<path style="&st0;&st1;&st4;&st2;&st3;" d="M27.129,19.622v1.983"/>
	<path style="&st0;&st1;&st4;&st2;&st3;" d="M18.63,19.622v1.983"/>
	<path style="&st0;&st1;&st4;&st2;&st3;" d="M38.106,7.583h3.471"/>
	<path style="&st0;&st1;&st4;&st2;&st3;" d="M35.911,24.438h-2.833"/>
	<path style="&st0;&st1;&st4;&st2;&st3;" d="M18.63,21.605v4.249h8.499v-4.249"/>
	<path style="&st0;&st1;&st4;&st2;&st3;" d="M9.848,24.438h2.833"/>
	<path style="&st0;&st1;&st4;&st2;&st3;" d="M10.415,19.622h24.929"/>
	<path style="&st0;&st1;&st4;&st2;&st3;" d="M33.078,19.622v4.816"/>
	<path style="&st0;&st1;&st4;&st2;&st3;" d="M18.63,16.789v2.833"/>
	<path style="&st0;&st1;&st4;&st2;&st3;" d="M13.738,42.197h18.283"/>
	<path style="&st0;&st1;&st4;&st2;&st3;" d="M27.129,16.789v2.833"/>
	<path style="&st0;&st1;&st2;&st3;" d="M7.016,49.056h31.728"/>
	<path style="&st0;&st1;&st4;&st2;&st3;" d="M39.593,11.124v4.25"/>
	<path style="&st0;&st1;&st4;&st2;&st3;" d="M6.166,11.124H9.14"/>
	<path style="&st0;&st1;&st2;&st3;" d="M1.412,36.044l2.771,2.558"/>
	<path style="&st0;&st1;&st2;&st3;" d="M1.412,26.854l2.771-2.559"/>
	<path style="&st0;&st1;&st4;&st2;&st3;" d="M36.619,11.124h2.974"/>
	<path style="&st0;&st1;&st4;&st2;&st3;" d="M6.166,11.124v4.25"/>
	<path style="&st0;&st1;&st4;&st2;&st3;" d="M13.738,44.82V29.455h18.283V44.82"/>
	<path style="&st0;&st1;&st4;&st2;&st3;" d="M12.681,21.605h20.396"/>
	<path style="&st0;&st1;&st4;&st2;&st3;" d="M12.681,19.622v4.816"/>
	<path style="&st0;&st1;&st2;&st3;" d="M44.347,26.854l-2.771-2.559"/>
	<path style="&st0;&st1;&st4;&st2;&st3;" d="M11.123,3.05h23.513"/>
	<path style="&st0;&st1;&st4;&st2;&st3;" d="M36.619,5.033v6.091"/>
	<path style="&st0;&st1;&st4;&st2;&st3;" d="M24.862,11.124V7.866h11.757"/>
	<path style="&st0;&st1;&st2;&st3;" d="M6.166,3.333h1.487"/>
	<path style="&st0;&st1;&st4;&st2;&st3;" d="M16.571,44.82v2.819"/>
	<path style="&st0;&st1;&st2;&st3;" d="M38.106,3.333h1.487"/>
	<path style="&st0;&st1;&st4;&st2;&st3;" d="M9.14,11.124h27.479"/>
	<path style="&st0;&st1;&st4;&st2;&st3;" d="M4.183,7.583h3.47"/>
	<path style="&st0;&st1;&st4;&st2;&st3;" d="M9.14,11.124V5.033"/>
	<path style="&st0;&st1;&st4;&st2;&st3;" d="M13.956,19.622v-2.833h17.847v2.833"/>
	<path style="&st0;&st1;&st2;&st3;" d="M10.486,0.5h24.788"/>
	<path style="&st0;&st1;&st4;&st2;&st3;" d="M13.738,47.639V44.82"/>
	<path style="&st0;&st1;&st4;&st2;&st3;" d="M9.14,5.033h27.479"/>
	<path style="&st0;&st1;&st4;&st2;&st3;" d="M9.14,7.866h11.756v3.258"/>
	<path style="&st0;&st1;&st4;&st2;&st3;" d="M38.106,3.333v4.25"/>
	<path style="&st0;&st1;&st4;&st2;&st3;" d="M7.653,7.583v-4.25"/>
	<path style="&st0;&st1;&st4;&st2;&st3;" d="M18.63,16.789v-2.833h8.499v2.833"/>
	<path style="&st0;&st1;&st4;&st2;&st3;" d="M4.183,44.82h9.555"/>
	<path style="&st0;&st1;&st4;&st2;&st3;" d="M16.571,44.82h25.006"/>
	<g ewd:pinNo="1">
		<text transform="matrix(1 0 0 1 16.7983 37.998)"><tspan x="0" y="0" style="&st6; &st5;">1</tspan></text>
	</g>
	<g ewd:pinNo="2">
		<text transform="matrix(1 0 0 1 25.937 37.998)"><tspan x="0" y="0" style="&st6; &st5;">2</tspan></text>
	</g>
</g>
<g id="レイヤー_1" transform="translate(65.6,17.008)">
	<path style="&st0;&st1;&st2;&st3;" d="M36.194,10.698c0-2.112-1.712-3.824-3.824-3.824"/>
	<path style="&st0;&st1;&st4;&st2;&st3;" d="M5.599,42.568c0,0.704,0.571,1.274,1.275,1.274"/>
	<path style="&st0;&st1;&st4;&st2;&st3;" d="M32.37,43.843c0.704,0,1.275-0.57,1.275-1.274"/>
	<path style="&st0;&st1;&st2;&st3;" d="M0.5,46.393c0,1.408,1.141,2.55,2.549,2.55"/>
	<path style="&st0;&st1;&st4;&st2;&st3;" d="M6.874,38.744c-0.704,0-1.275,0.571-1.275,1.275"/>
	<path style="&st0;&st1;&st4;&st2;&st3;" d="M33.645,40.019c0-0.704-0.571-1.275-1.275-1.275"/>
	<path style="&st0;&st1;&st2;&st3;" d="M36.194,48.942c1.408,0,2.55-1.142,2.55-2.55"/>
	<path style="&st0;&st1;&st2;&st3;" d="M6.874,6.874c-2.112,0-3.825,1.712-3.825,3.824"/>
	<path style="&st0;&st1;&st4;&st2;&st3;" d="M25.996,38.744v2.55h2.55v2.549"/>
	<path style="&st0;&st1;&st4;&st2;&st3;" d="M13.248,38.744v2.55h-2.55v2.549"/>
	<path style="&st0;&st1;&st2;&st3;" d="M6.874,6.874h5.099"/>
	<path style="&st0;&st1;&st4;&st2;&st3;" d="M11.973,6.874h2.549"/>
	<path style="&st0;&st1;&st2;&st3;" d="M27.271,6.874h5.099"/>
	<path style="&st0;&st1;&st4;&st2;&st3;" d="M15.797,43.843v-2.549h7.649v2.549"/>
	<path style="&st0;&st1;&st4;&st2;&st3;" d="M17.072,43.843v1.785h5.099v-1.785"/>
	<path style="&st0;&st1;&st4;&st2;&st3;" d="M6.874,38.744H32.37"/>
	<path style="&st0;&st1;&st4;&st2;&st3;" d="M33.645,40.019v2.55"/>
	<path style="&st0;&st1;&st4;&st2;&st3;" d="M5.599,42.568v-2.55"/>
	<path style="&st0;&st1;&st4;&st2;&st3;" d="M24.721,6.874h2.55"/>
	<path style="&st0;&st1;&st4;&st2;&st3;" d="M14.522,6.874l1.275,1.275h7.649l1.274-1.275"/>
	<path style="&st0;&st1;&st4;&st2;&st3;" d="M24.721,3.05v3.824"/>
	<path style="&st0;&st1;&st4;&st2;&st3;" d="M14.522,3.05v3.824"/>
	<path style="&st0;&st1;&st2;&st3;" d="M24.721,3.05V0.5h2.55v6.374"/>
	<path style="&st0;&st1;&st4;&st2;&st3;" d="M6.874,43.843H32.37"/>
	<path style="&st0;&st1;&st4;&st2;&st3;" d="M10.698,43.843v5.1"/>
	<path style="&st0;&st1;&st4;&st2;&st3;" d="M28.545,43.843v5.1"/>
	<path style="&st0;&st1;&st2;&st3;" d="M3.049,31.095v-9.051"/>
	<path style="&st0;&st1;&st2;&st3;" d="M36.194,10.698v7.776"/>
	<path style="&st0;&st1;&st2;&st3;" d="M3.049,48.942h33.145"/>
	<path style="&st0;&st1;&st2;&st3;" d="M38.744,31.095v15.297"/>
	<path style="&st0;&st1;&st4;&st2;&st3;" d="M3.049,22.044v-3.569"/>
	<path style="&st0;&st1;&st2;&st3;" d="M0.5,31.095v15.297"/>
	<path style="&st0;&st1;&st2;&st3;" d="M36.194,31.095h2.55"/>
	<path style="&st0;&st1;&st4;&st2;&st3;" d="M33.645,31.095h2.549"/>
	<path style="&st0;&st1;&st2;&st3;" d="M3.049,31.095H0.5"/>
	<path style="&st0;&st1;&st4;&st2;&st3;" d="M28.545,31.095v5.099h5.099"/>
	<path style="&st0;&st1;&st2;&st3;" d="M11.973,6.874V0.5h2.549v2.55"/>
	<path style="&st0;&st1;&st4;&st2;&st3;" d="M5.599,31.095h22.946"/>
	<path style="&st0;&st1;&st4;&st2;&st3;" d="M33.645,9.424v26.771"/>
	<path style="&st0;&st1;&st4;&st2;&st3;" d="M5.599,9.424h28.045"/>
	<path style="&st0;&st1;&st4;&st2;&st3;" d="M5.599,9.424v21.671"/>
	<path style="&st0;&st1;&st2;&st3;" d="M14.522,3.05h10.198"/>
	<path style="&st0;&st1;&st2;&st3;" d="M3.049,18.475H0.5v3.569h2.549"/>
	<path style="&st0;&st1;&st4;&st2;&st3;" d="M5.599,31.095h-2.55"/>
	<path style="&st0;&st1;&st4;&st2;&st3;" d="M36.194,18.475v3.569"/>
	<path style="&st0;&st1;&st2;&st3;" d="M36.194,18.475h2.55v3.569h-2.55"/>
	<path style="&st0;&st1;&st4;&st2;&st3;" d="M19.622,13.886v12.748"/>
	<path style="&st0;&st1;&st4;&st2;&st3;" d="M9.707,13.886v12.748h19.83V13.886H9.707"/>
	<path style="&st0;&st1;&st2;&st3;" d="M36.194,22.044v9.051"/>
	<path style="&st0;&st1;&st2;&st3;" d="M3.049,18.475v-7.776"/>
	<g ewd:pinNo="2">
		<text transform="matrix(1 0 0 1 13.0776 22.2808)"><tspan x="0" y="0" style="&st6; &st5;">2</tspan></text>
	</g>
	<g ewd:pinNo="1">
		<text transform="matrix(1 0 0 1 22.8838 22.2808)"><tspan x="0" y="0" style="&st6; &st5;">1</tspan></text>
	</g>
</g>
<path d="M22.8795,9.069v-8.504h62.3425v8.504" style="&st0;&st1;&st7;&st2;&st3;"/>
</svg>