﻿<?xml version="1.0"?>
<!-- Generator: Adobe Illustrator 10.0, SVG Export Plug-In . SVG Version: 3.0.0 Build 77)  -->
<!DOCTYPE svg PUBLIC "-//W3C//DTD SVG 1.0//EN" "http://www.w3.org/TR/2001/REC-SVG-20010904/DTD/svg10.dtd"[
	<!ENTITY ns_flows "http://ns.adobe.com/Flows/1.0/">
	<!ENTITY ns_svg "http://www.w3.org/2000/svg">
	<!ENTITY ns_xlink "http://www.w3.org/1999/xlink">
	<!ENTITY st0 "fill:none;stroke:#000000;stroke-linecap:round;stroke-linejoin:round;">
	<!ENTITY st1 "fill:none;stroke:#000000;stroke-width:0.6;stroke-linecap:round;stroke-linejoin:round;">
	<!ENTITY st2 "font-size:6px;">
	<!ENTITY st3 "font-family:'Arial';">
	<!ATTLIST svg
		xmlns:ewd CDATA #FIXED "http://shcl.co.jp/ewd"
		xmlns:a CDATA #FIXED "http://ns.adobe.com/AdobeSVGViewerExtensions/3.0/"
		ewd:ver CDATA #IMPLIED>
	<!ATTLIST g
		ewd:pinNo CDATA #IMPLIED>
]>
<svg width="151.708" height="73.805" viewBox="0 0 151.708 73.805" style="overflow:visible;enable-background:new 0 0 151.708 73.805" xml:space="preserve" onload="call_execInitLoadProc_svg('connector')" ewd:ver="L2.1.2.6" xmlns="&ns_svg;" xmlns:ewd="http://shcl.co.jp/ewd" xmlns:a="http://ns.adobe.com/AdobeSVGViewerExtensions/3.0/" xmlns:xlink="&ns_xlink;">
<script type="text/javascript" xlink:href="../../../../../system/js/ewd/fig/svgfig.js"/>
<g id="レイヤー_1">
	<path style="&st0;" d="M146.758,68.617c2.635-0.579,4.449-2.835,4.449-5.532"/>
	<path style="&st0;" d="M0.5,63.308c0,2.6,1.67,4.785,4.178,5.467"/>
	<path style="&st0;" d="M42.143,1.917c0-0.782-0.634-1.417-1.417-1.417"/>
	<path style="&st0;" d="M110.981,0.5c-0.782,0-1.417,0.634-1.417,1.417"/>
	<path style="&st0;" d="M27.435,0.5c-2.785,0-5.16,0.866-7.291,2.658"/>
	<path style="&st0;" d="M5.417,14.665c0.696,0,1.289-0.216,1.822-0.663"/>
	<path style="&st0;" d="M4.749,14.665c-2.347,0-4.249,1.902-4.249,4.25"/>
	<path style="&st0;" d="M131.565,3.158c-2.132-1.792-4.507-2.658-7.292-2.658"/>
	<path style="&st0;" d="M151.208,18.915c0-2.347-1.902-4.25-4.249-4.25"/>
	<path style="&st0;" d="M144.469,14.002c0.533,0.447,1.126,0.664,1.821,0.664"/>
	<path style="&st1;" d="M148.233,61.974l2.975-1.983"/>
	<path style="&st1;" d="M49.933,17.498v-4.25h7.083v4.25"/>
	<path style="&st1;" d="M57.016,15.374h5.666"/>
	<path style="&st1;" d="M62.681,17.498v-5.666h26.346v5.666"/>
	<path style="&st0;" d="M151.208,63.084v-44.17"/>
	<path style="&st0;" d="M0.5,63.308V18.915"/>
	<path style="&st1;" d="M6.449,33.079v25.496h138.81V33.079H6.449"/>
	<path style="&st1;" d="M6.449,45.827h138.81"/>
	<path style="&st1;" d="M16.364,58.574V33.079"/>
	<path style="&st1;" d="M49.933,17.498h51.841"/>
	<path style="&st1;" d="M36.194,58.574V33.079"/>
	<path style="&st1;" d="M46.109,58.574V33.079"/>
	<path style="&st1;" d="M56.024,58.574V33.079"/>
	<path style="&st1;" d="M65.939,58.574V33.079"/>
	<path style="&st1;" d="M75.854,58.574V33.079"/>
	<path style="&st1;" d="M85.769,58.574V33.079"/>
	<path style="&st1;" d="M95.684,58.574V33.079"/>
	<path style="&st1;" d="M105.599,58.574V33.079"/>
	<path style="&st1;" d="M115.514,58.574V33.079"/>
	<path style="&st1;" d="M135.344,58.574V33.079"/>
	<path style="&st1;" d="M3.474,61.974h144.759"/>
	<path style="&st1;" d="M3.474,61.974L0.5,59.991"/>
	<path style="&st1;" d="M0.5,57.158h1.416"/>
	<path style="&st0;" d="M49.933,17.498v9.348"/>
	<path style="&st1;" d="M46.038,9h59.632"/>
	<path style="&st1;" d="M6.449,18.915v7.932"/>
	<path style="&st0;" d="M49.933,17.498h-3.895V6.167l18.06-2.833H87.61l18.06,2.833v11.332h-3.896"/>
	<path style="&st0;" d="M27.435,0.5h13.292"/>
	<path style="&st0;" d="M42.143,1.917v24.929"/>
	<path style="&st1;" d="M101.774,17.498v-4.25h-7.082v4.25"/>
	<path style="&st1;" d="M94.692,15.374h-5.666"/>
	<path style="&st0;" d="M4.678,68.775l16.643,4.53h104.108l21.329-4.688"/>
	<path style="&st0;" d="M101.774,17.498v9.348"/>
	<path style="&st1;" d="M145.259,18.915v7.932"/>
	<path style="&st0;" d="M112.54,0.5h-1.558"/>
	<path style="&st1;" d="M121.463,26.846h-11.898"/>
	<path style="&st0;" d="M109.565,1.917v24.929"/>
	<path style="&st0;" d="M42.143,26.846h7.79"/>
	<path style="&st0;" d="M101.774,26.846h7.791"/>
	<path style="&st1;" d="M5.032,61.974v5.666h141.643v-5.666"/>
	<path style="&st1;" d="M26.279,58.574V33.079"/>
	<path style="&st1;" d="M125.429,58.574V33.079"/>
	<path style="&st1;" d="M6.449,26.846h9.915"/>
	<path style="&st1;" d="M30.245,26.846h11.898"/>
	<path style="&st1;" d="M16.364,26.846v-9.348h13.881v9.348"/>
	<path style="&st1;" d="M36.194,26.846V0.5"/>
	<path style="&st0;" d="M4.749,14.665h0.668"/>
	<path style="&st0;" d="M7.239,14.002L20.143,3.158"/>
	<path style="&st1;" d="M68.347,15.374h15.014"/>
	<path style="&st1;" d="M68.347,11.832v5.666"/>
	<path style="&st1;" d="M83.361,17.498v-5.666"/>
	<path style="&st1;" d="M115.514,26.846V0.5"/>
	<path style="&st1;" d="M135.344,26.846v-9.348h-13.881v9.348"/>
	<path style="&st0;" d="M124.273,0.5h-13.292"/>
	<path style="&st0;" d="M146.959,14.665h-0.669"/>
	<path style="&st0;" d="M144.469,14.002L131.565,3.158"/>
	<path style="&st1;" d="M135.344,26.846h9.915"/>
	<path style="&st1;" d="M1.916,57.158l4.533,3.399"/>
	<path style="&st1;" d="M6.449,61.974v-1.417"/>
	<path style="&st1;" d="M0.5,18.915l1.416-1.417h3.116l1.417,1.417"/>
	<path style="&st1;" d="M1.916,57.158v-39.66"/>
	<path style="&st1;" d="M151.208,57.158h-1.417"/>
	<path style="&st1;" d="M151.208,18.915l-1.417-1.417h-3.116l-1.417,1.417"/>
	<path style="&st1;" d="M149.792,57.158l-4.533,3.399"/>
	<path style="&st1;" d="M145.259,61.974v-1.417"/>
	<path style="&st1;" d="M149.792,57.158v-39.66"/>
	<path style="&st1;" d="M6.449,60.557h138.81"/>
	<path style="&st1;" d="M68.347,17.498v9.348h15.014v-9.348"/>
	<path style="&st1;" d="M23.304,17.498v-2.833h6.941v2.833"/>
	<path style="&st1;" d="M5.032,17.498v9.348h1.417"/>
	<path style="&st1;" d="M145.259,26.846h1.417v-9.348"/>
	<path style="&st1;" d="M121.463,17.498v-2.833h6.94v2.833"/>
	<g ewd:pinNo="2">
		<text transform="matrix(1 0 0 1 19.8672 41.5015)"><tspan x="0" y="0" style="&st3; &st2;">2</tspan></text>
	</g>
	<g ewd:pinNo="1">
		<text transform="matrix(1 0 0 1 9.9521 41.5015)"><tspan x="0" y="0" style="&st3; &st2;">1</tspan></text>
	</g>
	<g ewd:pinNo="15">
		<text transform="matrix(1 0 0 1 7.7329 54.249)"><tspan x="0" y="0" style="&st3; &st2;">15</tspan></text>
	</g>
	<g ewd:pinNo="16">
		<text transform="matrix(1 0 0 1 17.6484 54.249)"><tspan x="0" y="0" style="&st3; &st2;">16</tspan></text>
	</g>
	<g ewd:pinNo="4">
		<text transform="matrix(1 0 0 1 39.6973 41.5015)"><tspan x="0" y="0" style="&st3; &st2;">4</tspan></text>
	</g>
	<g ewd:pinNo="18">
		<text transform="matrix(1 0 0 1 37.478 54.249)"><tspan x="0" y="0" style="&st3; &st2;">18</tspan></text>
	</g>
	<g ewd:pinNo="5">
		<text transform="matrix(1 0 0 1 49.6123 41.5015)"><tspan x="0" y="0" style="&st3; &st2;">5</tspan></text>
	</g>
	<g ewd:pinNo="19">
		<text transform="matrix(1 0 0 1 47.3931 54.249)"><tspan x="0" y="0" style="&st3; &st2;">19</tspan></text>
	</g>
	<g ewd:pinNo="6">
		<text transform="matrix(1 0 0 1 59.5273 41.5015)"><tspan x="0" y="0" style="&st3; &st2;">6</tspan></text>
	</g>
	<g ewd:pinNo="20">
		<text transform="matrix(1 0 0 1 57.6235 54.249)"><tspan x="0" y="0" style="&st3; &st2;">20</tspan></text>
	</g>
	<g ewd:pinNo="7">
		<text transform="matrix(1 0 0 1 69.4424 41.5015)"><tspan x="0" y="0" style="&st3; &st2;">7</tspan></text>
	</g>
	<g ewd:pinNo="21">
		<text transform="matrix(1 0 0 1 67.5386 54.249)"><tspan x="0" y="0" style="&st3; &st2;">21</tspan></text>
	</g>
	<g ewd:pinNo="8">
		<text transform="matrix(1 0 0 1 79.3574 41.5015)"><tspan x="0" y="0" style="&st3; &st2;">8</tspan></text>
	</g>
	<g ewd:pinNo="22">
		<text transform="matrix(1 0 0 1 77.4536 54.249)"><tspan x="0" y="0" style="&st3; &st2;">22</tspan></text>
	</g>
	<g ewd:pinNo="9">
		<text transform="matrix(1 0 0 1 89.2725 41.5015)"><tspan x="0" y="0" style="&st3; &st2;">9</tspan></text>
	</g>
	<g ewd:pinNo="23">
		<text transform="matrix(1 0 0 1 87.3687 54.249)"><tspan x="0" y="0" style="&st3; &st2;">23</tspan></text>
	</g>
	<g ewd:pinNo="10">
		<text transform="matrix(1 0 0 1 96.9683 41.5015)"><tspan x="0" y="0" style="&st3; &st2;">10</tspan></text>
	</g>
	<g ewd:pinNo="24">
		<text transform="matrix(1 0 0 1 97.2837 54.249)"><tspan x="0" y="0" style="&st3; &st2;">24</tspan></text>
	</g>
	<g ewd:pinNo="11">
		<text transform="matrix(1 0 0 1 107.106 41.5015)"><tspan x="0" y="0" style="&st3; &st2;">11</tspan></text>
	</g>
	<g ewd:pinNo="25">
		<text transform="matrix(1 0 0 1 107.1987 54.249)"><tspan x="0" y="0" style="&st3; &st2;">25</tspan></text>
	</g>
	<g ewd:pinNo="13">
		<text transform="matrix(1 0 0 1 126.7134 41.5015)"><tspan x="0" y="0" style="&st3; &st2;">13</tspan></text>
	</g>
	<g ewd:pinNo="27">
		<text transform="matrix(1 0 0 1 127.0288 54.249)"><tspan x="0" y="0" style="&st3; &st2;">27</tspan></text>
	</g>
	<g ewd:pinNo="14">
		<text transform="matrix(1 0 0 1 136.6284 41.5015)"><tspan x="0" y="0" style="&st3; &st2;">14</tspan></text>
	</g>
	<g ewd:pinNo="28">
		<text transform="matrix(1 0 0 1 136.9438 54.249)"><tspan x="0" y="0" style="&st3; &st2;">28</tspan></text>
	</g>
	<g ewd:pinNo="3">
		<text transform="matrix(1 0 0 1 29.7822 41.5015)"><tspan x="0" y="0" style="&st3; &st2;">3</tspan></text>
	</g>
	<g ewd:pinNo="17">
		<text transform="matrix(1 0 0 1 27.563 54.249)"><tspan x="0" y="0" style="&st3; &st2;">17</tspan></text>
	</g>
	<g ewd:pinNo="12">
		<text transform="matrix(1 0 0 1 116.7983 41.5015)"><tspan x="0" y="0" style="&st3; &st2;">12</tspan></text>
	</g>
	<g ewd:pinNo="26">
		<text transform="matrix(1 0 0 1 117.1138 54.249)"><tspan x="0" y="0" style="&st3; &st2;">26</tspan></text>
	</g>
</g>
</svg>