﻿<?xml version="1.0"?>
<!-- Generator: Adobe Illustrator 10.0, SVG Export Plug-In . SVG Version: 3.0.0 Build 77)  -->
<!DOCTYPE svg PUBLIC "-//W3C//DTD SVG 1.0//EN" "http://www.w3.org/TR/2001/REC-SVG-20010904/DTD/svg10.dtd"[
	<!ENTITY ns_flows "http://ns.adobe.com/Flows/1.0/">
	<!ENTITY ns_svg "http://www.w3.org/2000/svg">
	<!ENTITY ns_xlink "http://www.w3.org/1999/xlink">
	<!ENTITY st0 "fill:none;stroke:#000000;stroke-linecap:round;stroke-linejoin:round;">
	<!ENTITY st1 "fill:none;stroke:#000000;stroke-width:0.6;stroke-linecap:round;stroke-linejoin:round;">
	<!ENTITY st2 "font-size:6px;">
	<!ENTITY st3 "font-family:'Arial';">
	<!ATTLIST svg
		xmlns:ewd CDATA #FIXED "http://shcl.co.jp/ewd"
		xmlns:a CDATA #FIXED "http://ns.adobe.com/AdobeSVGViewerExtensions/3.0/"
		ewd:ver CDATA #IMPLIED>
	<!ATTLIST g
		ewd:pinNo CDATA #IMPLIED>
]>
<svg width="89.385" height="49.726" viewBox="0 0 89.385 49.726" style="overflow:visible;enable-background:new 0 0 89.385 49.726" xml:space="preserve" onload="call_execInitLoadProc_svg('connector')" ewd:ver="L2.1.2.6" xmlns="&ns_svg;" xmlns:ewd="http://shcl.co.jp/ewd" xmlns:a="http://ns.adobe.com/AdobeSVGViewerExtensions/3.0/" xmlns:xlink="&ns_xlink;">
<script type="text/javascript" xlink:href="../../../../../system/js/ewd/fig/svgfig.js"/>
<g id="レイヤー_1">
	<path style="&st1;" d="M61.123,23.163h-3.116"/>
	<path style="&st1;" d="M83.273,10.132h-5.72"/>
	<path style="&st1;" d="M83.786,8.716H82.37"/>
	<path style="&st1;" d="M87.469,13.628v5.002"/>
	<path style="&st1;" d="M64.806,10.132H62.54"/>
	<path style="&st1;" d="M88.035,34.495h-1.133"/>
	<path style="&st1;" d="M88.035,18.63h-1.133"/>
	<path style="&st1;" d="M69.984,8.716h-8.861"/>
	<path style="&st0;" d="M82.37,8.716H69.984"/>
	<path style="&st0;" d="M58.007,23.163H56.59"/>
	<path style="&st1;" d="M37.327,23.163h3.116"/>
	<path style="&st1;" d="M6.112,10.132h5.72"/>
	<path style="&st1;" d="M1.916,13.628v5.002"/>
	<path style="&st1;" d="M33.645,10.132h2.266"/>
	<path style="&st1;" d="M1.35,34.495h1.133"/>
	<path style="&st1;" d="M1.35,18.63h1.133"/>
	<path style="&st1;" d="M1.916,34.495v6.232"/>
	<path style="&st0;" d="M40.443,23.163h1.417"/>
	<path style="&st1;" d="M4.749,39.594v0.283"/>
	<path style="&st1;" d="M84.636,39.594v0.283"/>
	<path style="&st1;" d="M14.522,39.594v0.283"/>
	<path style="&st1;" d="M18.772,39.594v0.283"/>
	<path style="&st1;" d="M28.545,39.594v0.283"/>
	<path style="&st1;" d="M32.794,39.594v0.283"/>
	<path style="&st1;" d="M42.568,39.594v0.283"/>
	<path style="&st1;" d="M46.817,39.594v0.283"/>
	<path style="&st1;" d="M56.59,39.594v0.283"/>
	<path style="&st1;" d="M60.84,39.594v0.283"/>
	<path style="&st1;" d="M70.613,39.594v0.283"/>
	<path style="&st1;" d="M74.862,39.594v0.283"/>
	<path style="&st0;" d="M1.916,46.959v-2.833"/>
	<path style="&st0;" d="M87.469,44.126v2.833"/>
	<path style="&st0;" d="M88.885,42.143V5.316"/>
	<path style="&st1;" d="M37.327,8.716h-8.861"/>
	<path style="&st1;" d="M7.016,8.716H5.599"/>
	<path style="&st0;" d="M28.466,8.716H7.016"/>
	<path style="&st0;" d="M84.636,3.05c-1.251,0-2.266,1.015-2.266,2.266"/>
	<path style="&st0;" d="M88.885,5.316c0-1.251-1.015-2.266-2.267-2.266"/>
	<path style="&st0;" d="M61.525,3.812c-1.18,0.822-1.82,2.049-1.82,3.487"/>
	<path style="&st0;" d="M67.316,6.826c-0.534-1.51-1.538-2.606-2.996-3.269"/>
	<path style="&st0;" d="M64.319,3.56c-0.939-0.427-1.946-0.335-2.792,0.254"/>
	<path style="&st1;" d="M62.823,7.299c0,0.782,0.634,1.417,1.417,1.417"/>
	<path style="&st0;" d="M67.316,6.826c0.408,1.155,1.443,1.887,2.668,1.887"/>
	<path style="&st1;" d="M61.123,8.716c-0.782,0-1.417,0.634-1.417,1.416"/>
	<path style="&st1;" d="M62.54,10.132c-0.782,0-1.417,0.634-1.417,1.417"/>
	<path style="&st0;" d="M58.007,23.163c0.939,0,1.7-0.761,1.7-1.7"/>
	<path style="&st0;" d="M57.735,7.806c0.368-0.335,0.556-0.76,0.556-1.258"/>
	<path style="&st0;" d="M58.29,3.333c0-1.564-1.268-2.833-2.833-2.833"/>
	<path style="&st0;" d="M55.174,21.747c0,0.782,0.634,1.417,1.416,1.417"/>
	<path style="&st0;" d="M87.469,43.56c0.782,0,1.417-0.634,1.417-1.417"/>
	<path style="&st1;" d="M86.052,42.143c0.782,0,1.417-0.634,1.417-1.417"/>
	<path style="&st0;" d="M86.619,47.809c0.47,0,0.85-0.38,0.85-0.85"/>
	<path style="&st1;" d="M86.902,18.63c-0.939,0-1.7,0.761-1.7,1.7"/>
	<path style="&st1;" d="M85.203,32.795c0,0.938,0.761,1.7,1.7,1.7"/>
	<path style="&st1;" d="M88.885,35.344c0-0.469-0.381-0.85-0.85-0.85"/>
	<path style="&st1;" d="M88.035,18.63c0.469,0,0.85-0.38,0.85-0.85"/>
	<path style="&st0;" d="M7.016,5.316C7.016,4.064,6,3.05,4.749,3.05"/>
	<path style="&st0;" d="M2.766,3.05C1.515,3.05,0.5,4.064,0.5,5.316"/>
	<path style="&st0;" d="M38.744,7.299c0-1.438-0.641-2.665-1.82-3.486"/>
	<path style="&st0;" d="M34.132,3.56c-1.458,0.663-2.461,1.758-2.995,3.268"/>
	<path style="&st0;" d="M36.925,3.812c-0.847-0.59-1.855-0.682-2.794-0.254"/>
	<path style="&st1;" d="M34.211,8.716c0.782,0,1.417-0.635,1.417-1.417"/>
	<path style="&st0;" d="M28.466,8.716c1.226,0,2.262-0.733,2.671-1.889"/>
	<path style="&st1;" d="M38.744,10.132c0-0.782-0.634-1.416-1.417-1.416"/>
	<path style="&st1;" d="M37.327,11.548c0-0.782-0.634-1.417-1.417-1.417"/>
	<path style="&st0;" d="M38.744,21.463c0,0.939,0.761,1.7,1.7,1.7"/>
	<path style="&st0;" d="M40.16,6.548c0,0.498,0.188,0.922,0.556,1.257"/>
	<path style="&st0;" d="M42.993,0.5c-1.564,0-2.833,1.269-2.833,2.833"/>
	<path style="&st0;" d="M41.86,23.163c0.782,0,1.416-0.634,1.416-1.417"/>
	<path style="&st0;" d="M0.5,42.143c0,0.783,0.634,1.417,1.416,1.417"/>
	<path style="&st1;" d="M1.916,40.727c0,0.783,0.634,1.417,1.417,1.417"/>
	<path style="&st0;" d="M1.916,46.959c0,0.47,0.381,0.85,0.85,0.85"/>
	<path style="&st1;" d="M4.183,20.33c0-0.938-0.761-1.7-1.7-1.7"/>
	<path style="&st1;" d="M2.483,34.495c0.938,0,1.7-0.761,1.7-1.7"/>
	<path style="&st1;" d="M1.35,34.495c-0.469,0-0.85,0.38-0.85,0.85"/>
	<path style="&st1;" d="M0.5,17.781c0,0.469,0.38,0.85,0.85,0.85"/>
	<path style="&st1;" d="M4.749,39.877c0,0.469,0.38,0.85,0.85,0.85"/>
	<path style="&st1;" d="M5.599,38.744c-0.47,0-0.85,0.381-0.85,0.85"/>
	<path style="&st1;" d="M14.522,39.594c0-0.469-0.38-0.85-0.85-0.85"/>
	<path style="&st1;" d="M13.673,40.727c0.469,0,0.85-0.38,0.85-0.85"/>
	<path style="&st1;" d="M18.772,39.877c0,0.469,0.38,0.85,0.85,0.85"/>
	<path style="&st1;" d="M19.622,38.744c-0.469,0-0.85,0.381-0.85,0.85"/>
	<path style="&st1;" d="M28.545,39.594c0-0.469-0.381-0.85-0.85-0.85"/>
	<path style="&st1;" d="M27.695,40.727c0.469,0,0.85-0.38,0.85-0.85"/>
	<path style="&st1;" d="M32.794,39.877c0,0.469,0.38,0.85,0.85,0.85"/>
	<path style="&st1;" d="M33.645,38.744c-0.47,0-0.85,0.381-0.85,0.85"/>
	<path style="&st1;" d="M42.568,39.594c0-0.469-0.38-0.85-0.85-0.85"/>
	<path style="&st1;" d="M41.718,40.727c0.469,0,0.85-0.38,0.85-0.85"/>
	<path style="&st1;" d="M46.817,39.877c0,0.469,0.38,0.85,0.85,0.85"/>
	<path style="&st1;" d="M47.667,38.744c-0.469,0-0.85,0.381-0.85,0.85"/>
	<path style="&st1;" d="M56.59,39.594c0-0.469-0.38-0.85-0.85-0.85"/>
	<path style="&st1;" d="M55.741,40.727c0.469,0,0.85-0.38,0.85-0.85"/>
	<path style="&st1;" d="M60.84,39.877c0,0.469,0.38,0.85,0.85,0.85"/>
	<path style="&st1;" d="M61.69,38.744c-0.47,0-0.85,0.381-0.85,0.85"/>
	<path style="&st1;" d="M70.613,39.594c0-0.469-0.38-0.85-0.85-0.85"/>
	<path style="&st1;" d="M69.763,40.727c0.47,0,0.85-0.38,0.85-0.85"/>
	<path style="&st1;" d="M74.862,39.877c0,0.469,0.381,0.85,0.85,0.85"/>
	<path style="&st1;" d="M75.712,38.744c-0.469,0-0.85,0.381-0.85,0.85"/>
	<path style="&st1;" d="M83.786,40.727c0.469,0,0.85-0.38,0.85-0.85"/>
	<path style="&st1;" d="M84.636,39.594c0-0.469-0.38-0.85-0.85-0.85"/>
	<path style="&st1;" d="M53.758,26.563v10.765"/>
	<path style="&st1;" d="M71.888,15.798v21.529"/>
	<path style="&st1;" d="M61.123,11.548v11.615"/>
	<path style="&st0;" d="M59.707,7.299v14.164"/>
	<path style="&st1;" d="M62.823,3.322v3.978"/>
	<path style="&st0;" d="M84.636,3.05h1.983"/>
	<path style="&st0;" d="M82.37,5.316v3.4"/>
	<path style="&st1;" d="M83.786,8.716l5.099,4.249"/>
	<path style="&st1;" d="M83.273,10.132l4.195,3.496"/>
	<path style="&st0;" d="M58.29,3.333v3.215"/>
	<path style="&st0;" d="M55.174,10.132v11.615"/>
	<path style="&st0;" d="M55.174,10.132l2.561-2.326"/>
	<path style="&st1;" d="M66.222,8.716v3.399"/>
	<path style="&st1;" d="M76.137,8.716v3.399"/>
	<path style="&st1;" d="M52.341,6.166h2.833"/>
	<path style="&st1;" d="M55.174,6.166v3.966"/>
	<path style="&st1;" d="M44.692,26.563v10.765"/>
	<path style="&st1;" d="M26.562,15.798v21.529"/>
	<path style="&st1;" d="M37.327,11.548v11.615"/>
	<path style="&st0;" d="M38.744,7.299v14.164"/>
	<path style="&st1;" d="M35.627,3.322v3.978"/>
	<path style="&st0;" d="M4.749,3.05H2.766"/>
	<path style="&st0;" d="M7.016,5.316v3.4"/>
	<path style="&st1;" d="M5.599,8.716L0.5,12.965"/>
	<path style="&st1;" d="M6.112,10.132l-4.196,3.496"/>
	<path style="&st0;" d="M40.16,3.333v3.215"/>
	<path style="&st0;" d="M43.276,10.132v11.615"/>
	<path style="&st0;" d="M43.276,10.132l-2.561-2.326"/>
	<path style="&st1;" d="M32.228,8.716v3.399"/>
	<path style="&st1;" d="M13.248,8.716v3.399"/>
	<path style="&st1;" d="M46.109,6.166h-2.833"/>
	<path style="&st1;" d="M43.276,6.166v3.966"/>
	<path style="&st1;" d="M17.497,15.798v21.529"/>
	<path style="&st1;" d="M75.712,38.744h8.074"/>
	<path style="&st1;" d="M1.916,43.56h85.553"/>
	<path style="&st1;" d="M3.333,42.143h82.72"/>
	<path style="&st1;" d="M75.712,40.727h8.074"/>
	<path style="&st0;" d="M55.458,0.5H42.993"/>
	<path style="&st1;" d="M33.645,40.727h8.074"/>
	<path style="&st1;" d="M33.645,38.744h8.074"/>
	<path style="&st1;" d="M19.622,38.744h8.074"/>
	<path style="&st1;" d="M19.622,40.727h8.074"/>
	<path style="&st1;" d="M5.599,38.744h8.074"/>
	<path style="&st1;" d="M5.599,40.727h8.074"/>
	<path style="&st1;" d="M47.667,38.744h8.074"/>
	<path style="&st1;" d="M47.667,40.727h8.074"/>
	<path style="&st1;" d="M61.69,38.744h8.073"/>
	<path style="&st1;" d="M61.69,40.727h8.073"/>
	<path style="&st1;" d="M4.183,43.56v1.983h3.966V43.56"/>
	<path style="&st1;" d="M14.098,43.56v1.983h3.966V43.56"/>
	<path style="&st1;" d="M24.013,43.56v1.983h3.966V43.56"/>
	<path style="&st1;" d="M35.061,43.56v1.983h3.966V43.56"/>
	<path style="&st0;" d="M77.837,47.809h8.782"/>
	<path style="&st0;" d="M11.548,47.809l2.266,1.417h61.756l2.266-1.417"/>
	<path style="&st1;" d="M59.423,43.56v1.983h3.966V43.56"/>
	<path style="&st1;" d="M73.871,43.56v1.983h-3.966V43.56"/>
	<path style="&st1;" d="M85.203,43.56v1.983h-3.966V43.56"/>
	<path style="&st1;" d="M51.208,43.56v2.833h-3.966V43.56"/>
	<path style="&st1;" d="M8.432,26.563h72.521"/>
	<path style="&st1;" d="M62.823,37.327V15.798h18.13v21.529H8.432V15.798h27.195v21.529"/>
	<path style="&st1;" d="M33.645,8.716v3.399H11.832V8.716"/>
	<path style="&st1;" d="M64.806,8.716v3.399h12.748V8.716"/>
	<path style="&st1;" d="M51.208,44.976h-3.966"/>
	<path style="&st0;" d="M0.5,42.143V5.316"/>
	<path style="&st1;" d="M85.203,32.795V20.33"/>
	<path style="&st1;" d="M87.469,40.727v-6.232"/>
	<path style="&st1;" d="M4.183,32.795V20.33"/>
	<path style="&st0;" d="M2.766,47.809h8.782"/>
	<path style="&st1;" d="M11.548,47.809h66.289"/>
	<path style="&st1;" d="M55.174,7.866H43.276"/>
	<path style="&st1;" d="M53.475,6.166V2.767h-8.499v3.399"/>
	<path style="&st1;" d="M46.104,3.899h6.238v2.833h-6.232V3.899"/>
	<g ewd:pinNo="1">
		<text transform="matrix(1 0 0 1 11.0356 23.6123)"><tspan x="0" y="0" style="&st3; &st2;">1</tspan></text>
	</g>
	<g ewd:pinNo="2">
		<text transform="matrix(1 0 0 1 20.4229 23.6123)"><tspan x="0" y="0" style="&st3; &st2;">2</tspan></text>
	</g>
	<g ewd:pinNo="3">
		<text transform="matrix(1 0 0 1 29.4883 23.6123)"><tspan x="0" y="0" style="&st3; &st2;">3</tspan></text>
	</g>
	<g ewd:pinNo="4">
		<text transform="matrix(1 0 0 1 65.5459 23.6123)"><tspan x="0" y="0" style="&st3; &st2;">4</tspan></text>
	</g>
	<g ewd:pinNo="5">
		<text transform="matrix(1 0 0 1 74.6108 23.6123)"><tspan x="0" y="0" style="&st3; &st2;">5</tspan></text>
	</g>
	<g ewd:pinNo="6">
		<text transform="matrix(1 0 0 1 11.3579 34.2593)"><tspan x="0" y="0" style="&st3; &st2;">6</tspan></text>
	</g>
	<g ewd:pinNo="7">
		<text transform="matrix(1 0 0 1 20.4229 34.2593)"><tspan x="0" y="0" style="&st3; &st2;">7</tspan></text>
	</g>
	<g ewd:pinNo="8">
		<text transform="matrix(1 0 0 1 29.4883 34.2593)"><tspan x="0" y="0" style="&st3; &st2;">8</tspan></text>
	</g>
	<g ewd:pinNo="9">
		<text transform="matrix(1 0 0 1 38.5532 34.2593)"><tspan x="0" y="0" style="&st3; &st2;">9</tspan></text>
	</g>
	<g ewd:pinNo="10">
		<text transform="matrix(1 0 0 1 45.6792 34.2593)"><tspan x="0" y="0" style="&st3; &st2;">10</tspan></text>
	</g>
	<g ewd:pinNo="11">
		<text transform="matrix(1 0 0 1 54.9673 34.2593)"><tspan x="0" y="0" style="&st3; &st2;">11</tspan></text>
	</g>
	<g ewd:pinNo="12">
		<text transform="matrix(1 0 0 1 63.8096 34.2593)"><tspan x="0" y="0" style="&st3; &st2;">12</tspan></text>
	</g>
	<g ewd:pinNo="13">
		<text transform="matrix(1 0 0 1 72.875 34.2593)"><tspan x="0" y="0" style="&st3; &st2;">13</tspan></text>
	</g>
</g>
</svg>