﻿<?xml version="1.0"?>
<!-- Generator: Adobe Illustrator 10.0, SVG Export Plug-In . SVG Version: 3.0.0 Build 77)  -->
<!DOCTYPE svg PUBLIC "-//W3C//DTD SVG 1.0//EN" "http://www.w3.org/TR/2001/REC-SVG-20010904/DTD/svg10.dtd"[
	<!ENTITY ns_flows "http://ns.adobe.com/Flows/1.0/">
	<!ENTITY ns_svg "http://www.w3.org/2000/svg">
	<!ENTITY ns_xlink "http://www.w3.org/1999/xlink">
	<!ENTITY st0 "fill:none;stroke:#000000;stroke-linecap:round;stroke-linejoin:round;">
	<!ENTITY st1 "fill:none;stroke:#000000;stroke-width:0.6;stroke-linecap:round;stroke-linejoin:round;">
	<!ENTITY st2 "font-size:6px;">
	<!ENTITY st3 "font-family:'Arial';">
	<!ATTLIST svg
		xmlns:ewd CDATA #FIXED "http://shcl.co.jp/ewd"
		xmlns:a CDATA #FIXED "http://ns.adobe.com/AdobeSVGViewerExtensions/3.0/"
		ewd:ver CDATA #IMPLIED>
	<!ATTLIST g
		ewd:pinNo CDATA #IMPLIED>
]>
<svg width="275.788" height="87.402" viewBox="0 0 275.788 87.402" style="overflow:visible;enable-background:new 0 0 275.788 87.402" xml:space="preserve" onload="call_execInitLoadProc_svg('connector')" ewd:ver="L2.1.2.6" xmlns="&ns_svg;" xmlns:ewd="http://shcl.co.jp/ewd" xmlns:a="http://ns.adobe.com/AdobeSVGViewerExtensions/3.0/" xmlns:xlink="&ns_xlink;">
<script type="text/javascript" xlink:href="../../../../../system/js/ewd/fig/svgfig.js"/>
<g id="レイヤー_1">
	<path style="&st1;" d="M170.472,8.999c0-1.564-1.269-2.833-2.833-2.833"/>
	<path style="&st1;" d="M200.216,14.665c-1.564,0-2.833,1.268-2.833,2.833"/>
	<path style="&st1;" d="M240.584,27.413c1.564,0,2.833-1.269,2.833-2.833"/>
	<path style="&st1;" d="M32.37,72.738c0,1.564,1.268,2.833,2.833,2.833"/>
	<path style="&st1;" d="M243.417,17.498c0-1.565-1.269-2.833-2.833-2.833"/>
	<path style="&st1;" d="M197.384,24.58c0,1.564,1.268,2.833,2.833,2.833"/>
	<path style="&st1;" d="M75.571,75.571c1.564,0,2.833-1.268,2.833-2.833"/>
	<path style="&st1;" d="M190.302,3.333c0-1.564-1.269-2.833-2.833-2.833"/>
	<path style="&st1;" d="M88.319,0.5c-1.565,0-2.833,1.269-2.833,2.833"/>
	<path style="&st0;" d="M269.622,20.817c0-2.395-1.391-4.422-3.624-5.285"/>
	<path style="&st1;" d="M110.981,11.832c-1.564,0-2.833,1.269-2.833,2.833"/>
	<path style="&st1;" d="M108.148,6.166c-1.564,0-2.833,1.269-2.833,2.833"/>
	<path style="&st1;" d="M184.636,27.413c3.129,0,5.666-2.537,5.666-5.666"/>
	<path style="&st1;" d="M78.404,17.498c0-1.565-1.269-2.833-2.833-2.833"/>
	<path style="&st1;" d="M32.37,24.58c0,1.564,1.268,2.833,2.833,2.833"/>
	<path style="&st1;" d="M35.203,14.665c-1.565,0-2.833,1.268-2.833,2.833"/>
	<path style="&st1;" d="M75.571,27.413c1.564,0,2.833-1.269,2.833-2.833"/>
	<path style="&st1;" d="M167.639,14.665c0-1.564-1.269-2.833-2.833-2.833"/>
	<path style="&st1;" d="M240.584,75.571c1.564,0,2.833-1.268,2.833-2.833"/>
	<path style="&st1;" d="M197.384,72.738c0,1.564,1.268,2.833,2.833,2.833"/>
	<path style="&st0;" d="M9.789,15.531c-2.234,0.863-3.625,2.891-3.625,5.286"/>
	<path style="&st1;" d="M85.486,21.747c0,3.129,2.537,5.666,5.666,5.666"/>
	<path style="&st1;" d="M45.826,40.16v-9.915"/>
	<path style="&st1;" d="M220.046,40.16v-9.915"/>
	<path style="&st1;" d="M35.911,30.245v9.915h69.405v-9.915H35.911"/>
	<path style="&st1;" d="M210.131,40.16v-9.915"/>
	<path style="&st1;" d="M200.216,40.16v-9.915"/>
	<path style="&st1;" d="M190.302,40.16v-9.915"/>
	<path style="&st1;" d="M180.387,40.16v-9.915"/>
	<path style="&st1;" d="M254.042,30.245v9.915h9.914v-9.915H254.042"/>
	<path style="&st1;" d="M241.292,30.245v9.915h9.915v-9.915H241.292"/>
	<path style="&st0;" d="M269.622,20.817v25.009h5.666v5.666h-5.666v24.079L258.29,86.902H17.497L6.166,75.571V51.492H0.5v-5.666    h5.666V20.817"/>
	<path style="&st1;" d="M11.832,45.826v12.748H8.999V45.826H11.832"/>
	<path style="&st1;" d="M68.489,45.826v9.915h138.81v-9.915H68.489"/>
	<path style="&st1;" d="M78.404,55.741v-9.915"/>
	<path style="&st1;" d="M58.574,47.809h9.915"/>
	<path style="&st1;" d="M88.319,55.741v-9.915"/>
	<path style="&st1;" d="M98.233,55.741v-9.915"/>
	<path style="&st1;" d="M108.148,55.741v-9.915"/>
	<path style="&st1;" d="M118.063,55.741v-9.915"/>
	<path style="&st1;" d="M127.979,55.741v-9.915"/>
	<path style="&st1;" d="M137.894,55.741v-9.915"/>
	<path style="&st1;" d="M147.809,55.741v-9.915"/>
	<path style="&st1;" d="M157.724,55.741v-9.915"/>
	<path style="&st1;" d="M167.639,55.741v-9.915"/>
	<path style="&st1;" d="M177.554,55.741v-9.915"/>
	<path style="&st1;" d="M187.469,55.741v-9.915"/>
	<path style="&st1;" d="M197.384,55.741v-9.915"/>
	<path style="&st1;" d="M229.961,27.413V25.43l-2.833-2.833h-14.165l-2.833,2.833v1.983"/>
	<path style="&st1;" d="M263.956,45.826v12.748h2.833V45.826H263.956"/>
	<path style="&st1;" d="M24.579,45.826v9.915h-9.915v-9.915H24.579"/>
	<path style="&st1;" d="M251.208,45.826v9.915h9.915v-9.915H251.208"/>
	<path style="&st1;" d="M58.574,55.741v11.331h9.915V55.741"/>
	<path style="&st1;" d="M217.214,45.826v9.915h19.83v-9.915H217.214"/>
	<path style="&st1;" d="M6.166,45.826v5.666"/>
	<path style="&st1;" d="M227.129,55.741v-9.915"/>
	<path style="&st1;" d="M238.459,45.826v9.915h9.916v-9.915H238.459"/>
	<path style="&st1;" d="M37.327,45.826v9.915h-9.915v-9.915H37.327"/>
	<path style="&st1;" d="M239.876,30.245v9.915h-69.405v-9.915H239.876"/>
	<path style="&st1;" d="M48.659,55.741v-9.915"/>
	<path style="&st1;" d="M55.741,40.16v-9.915"/>
	<path style="&st1;" d="M58.574,45.826v9.915h-19.83v-9.915H58.574"/>
	<path style="&st1;" d="M65.656,40.16v-9.915"/>
	<path style="&st1;" d="M75.571,40.16v-9.915"/>
	<path style="&st1;" d="M85.486,40.16v-9.915"/>
	<path style="&st1;" d="M95.401,40.16v-9.915"/>
	<path style="&st1;" d="M229.961,40.16v-9.915"/>
	<path style="&st1;" d="M21.747,30.245v9.915h-9.915v-9.915H21.747"/>
	<path style="&st1;" d="M34.494,30.245v9.915h-9.915v-9.915H34.494"/>
	<path style="&st1;" d="M269.622,22.597l-1.983-1.983h-6.657l-1.982,1.983v4.816"/>
	<path style="&st1;" d="M35.203,75.571h40.368"/>
	<path style="&st1;" d="M6.166,61.407h52.408"/>
	<path style="&st1;" d="M6.166,27.413h99.15"/>
	<path style="&st1;" d="M108.148,42.993V27.413"/>
	<path style="&st1;" d="M78.404,67.072v5.666"/>
	<path style="&st1;" d="M129.961,28.829V20.33h15.864v8.499"/>
	<path style="&st0;" d="M265.999,15.531l-22.581-9.365"/>
	<path style="&st1;" d="M32.37,67.072v5.666"/>
	<path style="&st1;" d="M190.302,3.333v18.414"/>
	<path style="&st1;" d="M68.489,67.072h138.81"/>
	<path style="&st1;" d="M108.148,42.993h9.915V27.413h9.915v1.416h19.83v-1.416h9.915v15.581h9.915"/>
	<path style="&st1;" d="M217.214,47.809h-9.915"/>
	<path style="&st1;" d="M78.404,20.613h7.082"/>
	<path style="&st1;" d="M197.384,20.613h-7.082"/>
	<path style="&st1;" d="M68.489,61.407h138.81"/>
	<path style="&st1;" d="M260.981,20.613h-17.563"/>
	<path style="&st1;" d="M108.148,6.166h59.49"/>
	<path style="&st1;" d="M8.999,61.407v8.499h8.499l2.833-2.833h38.244"/>
	<path style="&st1;" d="M105.316,27.413V8.999"/>
	<path style="&st1;" d="M108.148,27.413V14.665"/>
	<path style="&st1;" d="M110.981,11.832h53.824"/>
	<path style="&st1;" d="M108.148,17.498h59.49"/>
	<path style="&st1;" d="M32.37,24.58v-7.082"/>
	<path style="&st1;" d="M78.404,24.58v-7.082"/>
	<path style="&st1;" d="M35.203,14.665h40.368"/>
	<path style="&st1;" d="M45.826,27.413V25.43l2.833-2.833h14.164l2.833,2.833v1.983"/>
	<path style="&st1;" d="M167.639,27.413V14.665"/>
	<path style="&st1;" d="M170.472,27.413V8.999"/>
	<path style="&st1;" d="M240.584,14.665h-40.368"/>
	<path style="&st1;" d="M197.384,24.58v-7.082"/>
	<path style="&st1;" d="M266.789,61.407v8.499h-8.499l-2.832-2.833h-38.244"/>
	<path style="&st1;" d="M243.417,24.58v-7.082"/>
	<path style="&st1;" d="M6.166,22.597l1.983-1.983h6.657l1.983,1.983v4.816"/>
	<path style="&st1;" d="M217.214,55.741v11.331h-9.915V55.741"/>
	<path style="&st1;" d="M269.622,45.826v5.666"/>
	<path style="&st1;" d="M240.584,75.571h-40.368"/>
	<path style="&st0;" d="M9.789,15.531L32.37,6.166"/>
	<path style="&st1;" d="M269.622,61.407h-52.408"/>
	<path style="&st1;" d="M85.486,3.333v18.414"/>
	<path style="&st1;" d="M243.417,67.072v5.666"/>
	<path style="&st1;" d="M14.806,20.613H32.37"/>
	<path style="&st1;" d="M167.639,42.993V27.413"/>
	<path style="&st1;" d="M197.384,67.072v5.666"/>
	<path style="&st1;" d="M269.622,27.413h-99.15"/>
	<path style="&st0;" d="M243.417,6.166h-30.453L197.384,0.5H78.404L62.823,6.166H32.37"/>
	<g ewd:pinNo="11">
		<text transform="matrix(1 0 0 1 182.0269 37.3677)"><tspan x="0" y="0" style="&st3; &st2;">11</tspan></text>
	</g>
	<g ewd:pinNo="3">
		<text transform="matrix(1 0 0 1 39.2925 37.3677)"><tspan x="0" y="0" style="&st3; &st2;">3</tspan></text>
	</g>
	<g ewd:pinNo="7">
		<text transform="matrix(1 0 0 1 78.9521 37.3677)"><tspan x="0" y="0" style="&st3; &st2;">7</tspan></text>
	</g>
	<g ewd:pinNo="8">
		<text transform="matrix(1 0 0 1 88.8672 37.3677)"><tspan x="0" y="0" style="&st3; &st2;">8</tspan></text>
	</g>
	<g ewd:pinNo="9">
		<text transform="matrix(1 0 0 1 98.7822 37.3677)"><tspan x="0" y="0" style="&st3; &st2;">9</tspan></text>
	</g>
	<g ewd:pinNo="4">
		<text transform="matrix(1 0 0 1 49.207 37.3677)"><tspan x="0" y="0" style="&st3; &st2;">4</tspan></text>
	</g>
	<g ewd:pinNo="12">
		<text transform="matrix(1 0 0 1 191.7192 37.3677)"><tspan x="0" y="0" style="&st3; &st2;">12</tspan></text>
	</g>
	<g ewd:pinNo="5">
		<text transform="matrix(1 0 0 1 59.1226 37.3677)"><tspan x="0" y="0" style="&st3; &st2;">5</tspan></text>
	</g>
	<g ewd:pinNo="6">
		<text transform="matrix(1 0 0 1 69.0376 37.3677)"><tspan x="0" y="0" style="&st3; &st2;">6</tspan></text>
	</g>
	<g ewd:pinNo="13">
		<text transform="matrix(1 0 0 1 201.6343 37.3677)"><tspan x="0" y="0" style="&st3; &st2;">13</tspan></text>
	</g>
	<g ewd:pinNo="20">
		<text transform="matrix(1 0 0 1 29.0513 52.9487)"><tspan x="0" y="0" style="&st3; &st2;">20</tspan></text>
	</g>
	<g ewd:pinNo="19">
		<text transform="matrix(1 0 0 1 16.082 52.9487)"><tspan x="0" y="0" style="&st3; &st2;">19</tspan></text>
	</g>
	<g ewd:pinNo="23">
		<text transform="matrix(1 0 0 1 70.1187 52.9487)"><tspan x="0" y="0" style="&st3; &st2;">23</tspan></text>
	</g>
	<g ewd:pinNo="22">
		<text transform="matrix(1 0 0 1 50.4219 52.9487)"><tspan x="0" y="0" style="&st3; &st2;">22</tspan></text>
	</g>
	<g ewd:pinNo="21">
		<text transform="matrix(1 0 0 1 40.5068 52.9487)"><tspan x="0" y="0" style="&st3; &st2;">21</tspan></text>
	</g>
	<g ewd:pinNo="10">
		<text transform="matrix(1 0 0 1 171.8892 37.3677)"><tspan x="0" y="0" style="&st3; &st2;">10</tspan></text>
	</g>
	<g ewd:pinNo="14">
		<text transform="matrix(1 0 0 1 211.5498 37.3677)"><tspan x="0" y="0" style="&st3; &st2;">14</tspan></text>
	</g>
	<g ewd:pinNo="15">
		<text transform="matrix(1 0 0 1 221.4639 37.3677)"><tspan x="0" y="0" style="&st3; &st2;">15</tspan></text>
	</g>
	<g ewd:pinNo="1">
		<text transform="matrix(1 0 0 1 15.2129 37.3677)"><tspan x="0" y="0" style="&st3; &st2;">1</tspan></text>
	</g>
	<g ewd:pinNo="16">
		<text transform="matrix(1 0 0 1 231.3784 37.3677)"><tspan x="0" y="0" style="&st3; &st2;">16</tspan></text>
	</g>
	<g ewd:pinNo="2">
		<text transform="matrix(1 0 0 1 27.9609 37.3677)"><tspan x="0" y="0" style="&st3; &st2;">2</tspan></text>
	</g>
	<g ewd:pinNo="17">
		<text transform="matrix(1 0 0 1 242.7104 37.3677)"><tspan x="0" y="0" style="&st3; &st2;">17</tspan></text>
	</g>
	<g ewd:pinNo="18">
		<text transform="matrix(1 0 0 1 255.4585 37.3677)"><tspan x="0" y="0" style="&st3; &st2;">18</tspan></text>
	</g>
	<g ewd:pinNo="24">
		<text transform="matrix(1 0 0 1 80.0337 52.9487)"><tspan x="0" y="0" style="&st3; &st2;">24</tspan></text>
	</g>
	<g ewd:pinNo="25">
		<text transform="matrix(1 0 0 1 89.9487 52.9487)"><tspan x="0" y="0" style="&st3; &st2;">25</tspan></text>
	</g>
	<g ewd:pinNo="26">
		<text transform="matrix(1 0 0 1 99.8638 52.9487)"><tspan x="0" y="0" style="&st3; &st2;">26</tspan></text>
	</g>
	<g ewd:pinNo="27">
		<text transform="matrix(1 0 0 1 109.7788 52.9487)"><tspan x="0" y="0" style="&st3; &st2;">27</tspan></text>
	</g>
	<g ewd:pinNo="28">
		<text transform="matrix(1 0 0 1 119.6938 52.9487)"><tspan x="0" y="0" style="&st3; &st2;">28</tspan></text>
	</g>
	<g ewd:pinNo="29">
		<text transform="matrix(1 0 0 1 129.6089 52.9487)"><tspan x="0" y="0" style="&st3; &st2;">29</tspan></text>
	</g>
	<g ewd:pinNo="30">
		<text transform="matrix(1 0 0 1 139.5234 52.9487)"><tspan x="0" y="0" style="&st3; &st2;">30</tspan></text>
	</g>
	<g ewd:pinNo="31">
		<text transform="matrix(1 0 0 1 149.4385 52.9487)"><tspan x="0" y="0" style="&st3; &st2;">31</tspan></text>
	</g>
	<g ewd:pinNo="32">
		<text transform="matrix(1 0 0 1 159.3535 52.9487)"><tspan x="0" y="0" style="&st3; &st2;">32</tspan></text>
	</g>
	<g ewd:pinNo="33">
		<text transform="matrix(1 0 0 1 169.2686 52.9487)"><tspan x="0" y="0" style="&st3; &st2;">33</tspan></text>
	</g>
	<g ewd:pinNo="34">
		<text transform="matrix(1 0 0 1 179.1836 52.9487)"><tspan x="0" y="0" style="&st3; &st2;">34</tspan></text>
	</g>
	<g ewd:pinNo="35">
		<text transform="matrix(1 0 0 1 189.0986 52.9487)"><tspan x="0" y="0" style="&st3; &st2;">35</tspan></text>
	</g>
	<g ewd:pinNo="36">
		<text transform="matrix(1 0 0 1 199.0137 52.9487)"><tspan x="0" y="0" style="&st3; &st2;">36</tspan></text>
	</g>
	<g ewd:pinNo="37">
		<text transform="matrix(1 0 0 1 218.8662 52.9487)"><tspan x="0" y="0" style="&st3; &st2;">37</tspan></text>
	</g>
	<g ewd:pinNo="38">
		<text transform="matrix(1 0 0 1 228.7803 52.9487)"><tspan x="0" y="0" style="&st3; &st2;">38</tspan></text>
	</g>
	<g ewd:pinNo="39">
		<text transform="matrix(1 0 0 1 240.0767 52.9487)"><tspan x="0" y="0" style="&st3; &st2;">39</tspan></text>
	</g>
	<g ewd:pinNo="40">
		<text transform="matrix(1 0 0 1 252.9722 52.9487)"><tspan x="0" y="0" style="&st3; &st2;">40</tspan></text>
	</g>
</g>
</svg>