﻿<?xml version="1.0"?>
<!-- Generator: Adobe Illustrator 10.0, SVG Export Plug-In . SVG Version: 3.0.0 Build 77)  -->
<!DOCTYPE svg PUBLIC "-//W3C//DTD SVG 1.0//EN" "http://www.w3.org/TR/2001/REC-SVG-20010904/DTD/svg10.dtd"[
	<!ENTITY ns_flows "http://ns.adobe.com/Flows/1.0/">
	<!ENTITY ns_svg "http://www.w3.org/2000/svg">
	<!ENTITY ns_xlink "http://www.w3.org/1999/xlink">
	<!ENTITY st0 "fill:none;stroke:#000000;stroke-linecap:round;stroke-linejoin:round;">
	<!ENTITY st1 "fill:none;stroke:#000000;stroke-width:0.6;stroke-linecap:round;stroke-linejoin:round;">
	<!ENTITY st2 "font-size:6px;">
	<!ENTITY st3 "font-family:'Arial';">
	<!ATTLIST svg
		xmlns:ewd CDATA #FIXED "http://shcl.co.jp/ewd"
		xmlns:a CDATA #FIXED "http://ns.adobe.com/AdobeSVGViewerExtensions/3.0/"
		ewd:ver CDATA #IMPLIED>
	<!ATTLIST g
		ewd:pinNo CDATA #IMPLIED>
]>
<svg width="122.813" height="60.491" viewBox="0 0 122.813 60.491" style="overflow:visible;enable-background:new 0 0 122.813 60.491" xml:space="preserve" onload="call_execInitLoadProc_svg('connector')" ewd:ver="L2.1.2.6" xmlns="&ns_svg;" xmlns:ewd="http://shcl.co.jp/ewd" xmlns:a="http://ns.adobe.com/AdobeSVGViewerExtensions/3.0/" xmlns:xlink="&ns_xlink;">
<script type="text/javascript" xlink:href="../../../../../system/js/ewd/fig/svgfig.js"/>
<g id="レイヤー_1">
	<path style="&st0;" d="M85.486,59.99c6.053,0,11.208-1.708,16.064-5.321"/>
	<path style="&st0;" d="M0.5,18.962c0,3.36,0.826,6.22,2.617,9.063"/>
	<path style="&st0;" d="M119.695,28.024c1.792-2.843,2.617-5.702,2.617-9.063"/>
	<path style="&st1;" d="M37.327,14.665c-10.169,0-18.414,8.244-18.414,18.414"/>
	<path style="&st1;" d="M18.914,33.078c0,10.169,8.244,18.414,18.414,18.414"/>
	<path style="&st1;" d="M85.486,51.492c10.169,0,18.414-8.244,18.414-18.414"/>
	<path style="&st1;" d="M103.899,33.078c0-10.169-8.244-18.414-18.414-18.414"/>
	<path style="&st0;" d="M21.262,54.67c4.856,3.613,10.013,5.321,16.065,5.321"/>
	<path style="&st0;" d="M101.551,54.67c1.768-1.315,3.059-2.709,4.233-4.574"/>
	<path style="&st0;" d="M17.03,50.095c1.175,1.864,2.465,3.258,4.233,4.574"/>
	<path style="&st0;" d="M3.117,28.024L17.03,50.095"/>
	<path style="&st1;" d="M54.324,25.996V40.16h14.165V25.996H54.324"/>
	<path style="&st1;" d="M79.82,25.996V40.16h14.165V25.996H79.82"/>
	<path style="&st1;" d="M28.829,25.996V40.16h14.164V25.996H28.829"/>
	<path style="&st0;" d="M0.5,0.5h121.813"/>
	<path style="&st0;" d="M0.5,0.5v18.462"/>
	<path style="&st1;" d="M0.5,3.333h121.813"/>
	<path style="&st0;" d="M122.313,0.5v18.462"/>
	<path style="&st0;" d="M37.327,59.99h48.159"/>
	<path style="&st0;" d="M119.695,28.024l-13.912,22.071"/>
	<path style="&st1;" d="M37.327,14.665h48.159"/>
	<path style="&st1;" d="M37.327,51.492h48.159"/>
	<path style="&st1;" d="M30.245,0.5v2.833"/>
	<path style="&st1;" d="M92.568,0.5v2.833"/>
	<path style="&st1;" d="M61.406,0.5v2.833"/>
	<path style="&st1;" d="M82.653,0.5v2.833"/>
	<g ewd:pinNo="3">
		<text transform="matrix(1 0 0 1 85.2397 35.1748)"><tspan x="0" y="0" style="&st3; &st2;">3</tspan></text>
	</g>
	<g ewd:pinNo="1">
		<text transform="matrix(1 0 0 1 34.2485 35.1748)"><tspan x="0" y="0" style="&st3; &st2;">1</tspan></text>
	</g>
	<g ewd:pinNo="2">
		<text transform="matrix(1 0 0 1 59.7441 35.1748)"><tspan x="0" y="0" style="&st3; &st2;">2</tspan></text>
	</g>
</g>
</svg>