﻿<?xml version="1.0" encoding="utf-8"?>
<!DOCTYPE svg PUBLIC "-//W3C//DTD SVG 1.0//EN" "http://www.w3.org/TR/2001/REC-SVG-20010904/DTD/svg10.dtd"[
	<!ENTITY ns_flows "http://ns.adobe.com/Flows/1.0/">
	<!ENTITY ns_svg "http://www.w3.org/2000/svg">
	<!ENTITY ns_xlink "http://www.w3.org/1999/xlink">
	<!ENTITY st0 "font-size:7px;font-family:'MS-PGothic';adobe-font-script:japanese;">
	<!ENTITY st1 "font-size:6px;font-family:'ArialMT';">
	<!-- White fill  -->
	<!ENTITY st2 "fill:#FFFFFF;stroke:#000000; stroke-width:1.41;stroke-linecap:round;stroke-linejoin:round;">
	<!-- Yellow fill  -->
	<!ENTITY st3 "fill:#FFFFCC;stroke:#FFFFCC; stroke-width:0.1;stroke-linecap:round;stroke-linejoin:round;">
	<!-- Gray fill  -->
	<!ENTITY st4 "fill:#CCCCCC;stroke:#CCCCCC; stroke-width:0.1;stroke-linecap:round;stroke-linejoin:round;">
	<!-- Light-blue fill -->
	<!ENTITY st5 "fill:#CCECF4;stroke:#000000; stroke-width:1.133;stroke-linecap:round;stroke-linejoin:round;">
	<!ENTITY st6 "fill:none;stroke-linecap:butt; stroke-linejoin:round;">
	<!ENTITY st7 "fill:none;stroke:#000000;stroke-linecap:round;stroke-linejoin:round;">
	<!ENTITY st8 "enable-background:new    ;">
	<!-- Black fill -->
	<!ENTITY st9 "fill:#000000;stroke:#000000; stroke-linecap:round;stroke-linejoin:round;">
	<!-- SRS note   -->
	<!ENTITY st10 "font-size:9px;font-family:'ArialMT';">
	<!ENTITY st11 "font-size:9px;font-family:'Svg Symbol';">
	<!ENTITY st12 "font-size:6px;font-family:'Svg Symbol';">
	<!ENTITY st13 "fill:none;stroke:#ff0000;stroke-linecap:round;stroke-linejoin:round;">
	<!-- Yellow fill  -->
	<!ENTITY st14 "fill:#FFFF00;stroke:#FFFF00; stroke-width:0.1;stroke-linecap:round;stroke-linejoin:round;">
	<!ENTITY st15 "font-size:6px;font-family:'MS-PGothic';adobe-font-script:japanese;">
	<!ENTITY st16 "1.00 0.00 0.00 1.00">
	<!ENTITY st17 "0.00 -1.00 1.00 0.00">
	<!ENTITY st18 "font-size:6px;font-family:'Arial';">
	<!ENTITY st19 "font-size:9px;font-family:'Arial';">
	<!ENTITY st20 "font-size:6px;font-family:'MS-PGothic','MS PGothic';adobe-font-script:japanese;">
	<!ENTITY st21 "font-size:7px;font-family:'MS-PGothic','MS PGothic';adobe-font-script:japanese;">
	<!ATTLIST svg
		xmlns:ewd CDATA #FIXED "http://shcl.co.jp/ewd"
		xmlns:a CDATA #FIXED "http://ns.adobe.com/AdobeSVGViewerExtensions/3.0/"
		ewd:ver CDATA #IMPLIED
	>
	<!ATTLIST a
		ewd:lineID CDATA #IMPLIED
		ewd:groupID CDATA #IMPLIED
		ewd:figtype CDATA #IMPLIED
		ewd:code CDATA #IMPLIED
		ewd:figID CDATA #IMPLIED
		ewd:pinNo CDATA #IMPLIED
		ewd:comment CDATA #IMPLIED >
	<!ATTLIST g
		ewd:lineID CDATA #IMPLIED
		ewd:groupID CDATA #IMPLIED
		ewd:figtype CDATA #IMPLIED
		ewd:code CDATA #IMPLIED
		ewd:figID CDATA #IMPLIED
		ewd:pinNo CDATA #IMPLIED
		ewd:comment CDATA #IMPLIED >
	<!ATTLIST text
		ewd:textID CDATA #IMPLIED >
	<!ATTLIST title
		ewd:textID CDATA #IMPLIED >
]>
<!-- Generator: Shintec Hozumi YS   -->
<svg onload="call_execInitLoadProc_svg('system')" style="overflow:visible;  enable-background:new 0 0 5102.161 710.000" viewBox="0 0 5102.161 710.000" height="710.000" width="5102.161" xml:space="preserve" ewd:ver="L2.1.2.6" xmlns="&ns_svg;" xmlns:a="http://ns.adobe.com/AdobeSVGViewerExtensions/3.0/" xmlns:ewd="http://shcl.co.jp/ewd" xmlns:xlink="&ns_xlink;">
<path d=" M 3679.89,   69.77  L 3679.89,   95.27 " style="stroke-width: 0.85 ;&st7; " /><path d=" M 3682.01,   95.27  L 3677.76,   95.27 " style="stroke-width: 1.42 ;&st7; " /><path d=" M 3934.84,  188.75  L 3943.34,  188.75 " style="stroke-width: 1.42 ;&st7; " /><path d=" M 3671.39,  307.73  L 3679.89,  307.73 " style="stroke-width: 1.42 ;&st7; " /><path d=" M 3834.98,  239.75  L 3830.73,  239.75 " style="stroke-width: 1.42 ;&st7; " /><path d=" M 3834.98,  231.25  L 3830.73,  231.25 " style="stroke-width: 1.42 ;&st7; " /><path d=" M 3809.49,  239.75  L 3805.24,  239.75 " style="stroke-width: 1.42 ;&st7; " /><path d=" M 3809.49,  231.25  L 3805.24,  231.25 " style="stroke-width: 1.42 ;&st7; " /><path d=" M 3834.98,  163.26  L 3830.73,  163.26 " style="stroke-width: 1.42 ;&st7; " /><path d=" M 3834.98,  154.76  L 3830.73,  154.76 " style="stroke-width: 1.42 ;&st7; " /><path d=" M 3741.50,  239.75  L 3737.25,  239.75 " style="stroke-width: 1.42 ;&st7; " /><path d=" M 3741.50,  231.25  L 3737.25,  231.25 " style="stroke-width: 1.42 ;&st7; " /><path d=" M 3707.51,  239.75  L 3703.26,  239.75 " style="stroke-width: 1.42 ;&st7; " /><path d=" M 3707.51,  231.25  L 3703.26,  231.25 " style="stroke-width: 1.42 ;&st7; " /><path d=" M 3682.01,  239.75  L 3677.76,  239.75 " style="stroke-width: 1.42 ;&st7; " /><path d=" M 3682.01,  231.25  L 3677.76,  231.25 " style="stroke-width: 1.42 ;&st7; " /><path d=" M 3682.01,  146.26  L 3677.76,  146.26 " style="stroke-width: 1.42 ;&st7; " /><path d=" M 3682.01,  137.76  L 3677.76,  137.76 " style="stroke-width: 1.42 ;&st7; " /><path d=" M 3705.38,  197.25  L 3705.38,  205.75 " style="stroke-width: 0.85 ;&st7; " /><path d=" M 3705.38,  171.76  L 3705.38,  180.26 " style="stroke-width: 0.85 ;&st7; " /><path d=" M 3679.89,  176.01  L 3679.89,  171.76 " style="stroke-width: 0.85 ;&st7; " /><path d=" M 3679.89,  205.75  L 3679.89,  201.50 " style="stroke-width: 0.85 ;&st7; " /><path d=" M 3679.89,  198.67  L 3674.22,  176.01 " style="stroke-width: 1.42 ;&st7; " /><path d=" M 3682.01,  103.77  L 3677.76,  103.77 " style="stroke-width: 1.42 ;&st7; " /><path d=" M 3807.36,  187.34  L 3801.70,  210.00 " style="stroke-width: 1.42 ;&st7; " /><path d=" M 3807.36,  180.26  L 3807.36,  184.50 " style="stroke-width: 0.85 ;&st7; " /><path d=" M 3807.36,  214.25  L 3807.36,  210.00 " style="stroke-width: 0.85 ;&st7; " /><path d=" M 3832.86,  214.25  L 3832.86,  205.75 " style="stroke-width: 0.85 ;&st7; " /><path d=" M 3832.86,  188.75  L 3832.86,  180.26 " style="stroke-width: 0.85 ;&st7; " /><path d=" M 3535.41,  129.26  L 3535.41,  180.26 " style="stroke-width: 0.85 ;&st7; " /><path d=" M 3509.91,  129.26  L 3509.91,  180.26 " style="stroke-width: 0.85 ;&st7; " /><path d=" M 3508.72,  145.26  L 3508.45,  145.73  L 3508.35,  146.26  L 3508.45,  146.79  L 3508.72,  147.26  L 3509.13,  147.61  L 3509.64,  147.80  L 3510.18,  147.80  L 3510.69,  147.61  L 3511.10,  147.26  L 3511.38,  146.79  L 3511.47,  146.26  L 3511.38,  145.73  L 3511.10,  145.26  L 3510.69,  144.91  L 3510.18,  144.73  L 3509.64,  144.73  L 3509.13,  144.91  L 3508.72,  145.26  L 3509.11,  145.97  L 3509.11,  146.55  L 3509.49,  147.00  L 3510.06,  147.10  L 3510.56,  146.81  L 3510.76,  146.26  L 3510.56,  145.71  L 3510.06,  145.43  L 3509.49,  145.52  L 3509.91,  146.26 " style="stroke-width: 0.85 ;&st7; " /><path d=" M 3534.22,  162.26  L 3533.94,  162.73  L 3533.85,  163.26  L 3533.94,  163.79  L 3534.22,  164.26  L 3534.63,  164.61  L 3535.14,  164.79  L 3535.68,  164.79  L 3536.19,  164.61  L 3536.60,  164.26  L 3536.87,  163.79  L 3536.97,  163.26  L 3536.87,  162.73  L 3536.60,  162.26  L 3536.19,  161.91  L 3535.68,  161.72  L 3535.14,  161.72  L 3534.63,  161.91  L 3534.22,  162.26  L 3534.61,  162.97  L 3534.61,  163.55  L 3534.98,  163.99  L 3535.56,  164.09  L 3536.06,  163.80  L 3536.26,  163.26  L 3536.06,  162.71  L 3535.56,  162.42  L 3534.98,  162.52  L 3535.41,  163.26 " style="stroke-width: 0.85 ;&st7; " /><path d=" M 3560.90,  129.26  L 3560.90,  180.26 " style="stroke-width: 0.85 ;&st7; " /><path d=" M 3756.37,   69.77  L 3756.37,  112.27  L 3807.36,  112.27  L 3807.36,  180.26 " style="stroke-width: 0.85 ;&st7; " /><path d=" M 3831.67,  408.71  L 3831.39,  409.18  L 3831.30,  409.72  L 3831.39,  410.25  L 3831.67,  410.72  L 3832.08,  411.07  L 3832.59,  411.25  L 3833.13,  411.25  L 3833.64,  411.07  L 3834.05,  410.72  L 3834.32,  410.25  L 3834.42,  409.72  L 3834.32,  409.18  L 3834.05,  408.71  L 3833.64,  408.37  L 3833.13,  408.18  L 3832.59,  408.18  L 3832.08,  408.37  L 3831.67,  408.71  L 3832.06,  409.43  L 3832.06,  410.01  L 3832.43,  410.45  L 3833.01,  410.55  L 3833.51,  410.26  L 3833.71,  409.72  L 3833.51,  409.17  L 3833.01,  408.88  L 3832.43,  408.98  L 3832.86,  409.72 " style="stroke-width: 0.85 ;&st7; " /><path d=" M 3947.59,  183.09  L 3943.34,  187.34  L 3939.09,  183.09 " style="stroke-width: 1.42 ;&st7; " /><path d=" M 3939.09,  179.69  L 3943.34,  183.94  L 3947.59,  179.69 " style="stroke-width: 1.42 ;&st7; " /><path d=" M 3926.34,  265.24  L 3926.34,  316.23  L 4028.33,  316.23  L 4028.33,  265.24  L 3926.34,  265.24 " style="stroke-width: 1.42 ;&st7; " /><path d=" M 3684.13,  302.07  L 3679.88,  306.32  L 3675.63,  302.07 " style="stroke-width: 1.42 ;&st7; " /><path d=" M 3675.63,  298.67  L 3679.88,  302.92  L 3684.13,  298.67 " style="stroke-width: 1.42 ;&st7; " /><path d=" M 3832.86,  214.25  L 3832.86,  231.25 " style="stroke-width: 0.85 ;&st7; " /><path d=" M 3807.36,  214.25  L 3807.36,  231.25 " style="stroke-width: 0.85 ;&st7; " /><path d=" M 3832.86,  163.26  L 3832.86,  180.26 " style="stroke-width: 0.85 ;&st7; " /><path d=" M 3832.86,  409.72  L 3824.36,  409.72 " style="stroke-width: 0.85 ;&st7; " /><path d=" M 3832.86,  401.22  L 3832.86,  418.22 " style="stroke-width: 0.85 ;&st7; " /><path d=" M 3824.36,  401.22  L 3841.36,  401.22  L 3841.36,  418.22  L 3824.36,  418.22  L 3824.36,  401.22 " style="stroke-width: 1.42 ;&st7; " /><path d=" M 3831.44,  710.00  L 3834.27,  710.00 " style="stroke-width: 0.85 ;&st7; " /><path d=" M 3830.03,  707.17  L 3835.69,  707.17 " style="stroke-width: 0.85 ;&st7; " /><path d=" M 3828.61,  704.33  L 3837.11,  704.33 " style="stroke-width: 0.85 ;&st7; " /><path d=" M 3824.36,  701.50  L 3841.36,  701.50 " style="stroke-width: 0.85 ;&st7; " /><path d=" M 3832.86,  697.25  L 3832.86,  701.50 " style="stroke-width: 0.85 ;&st7; " /><path d=" M 3832.86,  226.35  L 3830.03,  223.52  L 3830.03,  227.77  L 3832.86,  230.60  L 3835.69,  227.77  L 3835.69,  223.52  L 3832.86,  226.35 " style="stroke-width: 0.28 ;&st9;" /><path d=" M 3807.36,  226.35  L 3804.53,  223.52  L 3804.53,  227.77  L 3807.36,  230.60  L 3810.20,  227.77  L 3810.20,  223.52  L 3807.36,  226.35 " style="stroke-width: 0.28 ;&st9;" /><path d=" M 3832.86,  168.15  L 3835.69,  170.99  L 3835.69,  166.74  L 3832.86,  163.90  L 3830.03,  166.74  L 3830.03,  170.99  L 3832.86,  168.15 " style="stroke-width: 0.28 ;&st9;" /><path d=" M 3705.38,  205.75  L 3705.38,  231.25 " style="stroke-width: 0.85 ;&st7; " /><path d=" M 3679.88,  205.75  L 3679.88,  231.25 " style="stroke-width: 0.85 ;&st7; " /><path d=" M 3739.37,  231.25  L 3739.37,  137.76  L 3705.38,  137.76  L 3705.38,  171.76 " style="stroke-width: 0.85 ;&st7; " /><path d=" M 3679.88,  146.26  L 3679.88,  171.76 " style="stroke-width: 0.85 ;&st7; " /><path d=" M 3739.37,  226.35  L 3736.54,  223.52  L 3736.54,  227.77  L 3739.37,  230.60  L 3742.21,  227.77  L 3742.21,  223.52  L 3739.37,  226.35 " style="stroke-width: 0.28 ;&st9;" /><path d=" M 3705.38,  226.35  L 3702.55,  223.52  L 3702.55,  227.77  L 3705.38,  230.60  L 3708.21,  227.77  L 3708.21,  223.52  L 3705.38,  226.35 " style="stroke-width: 0.28 ;&st9;" /><path d=" M 3679.88,  226.35  L 3677.05,  223.52  L 3677.05,  227.77  L 3679.88,  230.60  L 3682.72,  227.77  L 3682.72,  223.52  L 3679.88,  226.35 " style="stroke-width: 0.28 ;&st9;" /><path d=" M 3679.88,  151.16  L 3682.72,  153.99  L 3682.72,  149.74  L 3679.88,  146.91  L 3677.05,  149.74  L 3677.05,  153.99  L 3679.88,  151.16 " style="stroke-width: 0.28 ;&st9;" /><path d=" M 3713.88,  171.76  L 3671.39,  171.76  L 3671.39,  205.75  L 3713.88,  205.75  L 3713.88,  171.76 " style="stroke-width: 1.42 ;&st7; " /><path d=" M 3743.62,   35.78  L 3743.62,   78.27  L 3769.12,   78.27  L 3769.12,   35.78  L 3743.62,   35.78 " style="stroke-width: 1.42 ;&st7; " /><path d=" M 3667.14,   35.78  L 3667.14,   78.27  L 3692.63,   78.27  L 3692.63,   35.78  L 3667.14,   35.78 " style="stroke-width: 1.42 ;&st7; " /><path d=" M 3679.88,   90.37  L 3677.05,   87.54  L 3677.05,   91.79  L 3679.88,   94.62  L 3682.72,   91.79  L 3682.72,   87.54  L 3679.88,   90.37 " style="stroke-width: 0.28 ;&st9;" /><path d=" M 3798.86,  214.25  L 3841.36,  214.25  L 3841.36,  180.26  L 3798.86,  180.26  L 3798.86,  214.25 " style="stroke-width: 1.42 ;&st7; " /><path d=" M 3807.36,   35.78  L 3807.36,   86.77  L 4606.23,   86.77  L 4606.23,   35.78  L 3807.36,   35.78 " style="stroke-width: 1.42 ;&st7; " /><path d=" M 3594.90,  129.26  L 3594.90,  180.26 " style="stroke-width: 0.85 ;&st7; " /><path d=" M 3509.91,  146.26  L 3560.90,  146.26 " style="stroke-width: 0.85 ;&st7; " /><path d=" M 3535.41,  163.26  L 3594.90,  163.26 " style="stroke-width: 0.85 ;&st7; " /><path d=" M 3559.71,  145.26  L 3559.44,  145.73  L 3559.35,  146.26  L 3559.44,  146.79  L 3559.71,  147.26  L 3560.12,  147.61  L 3560.63,  147.80  L 3561.17,  147.80  L 3561.68,  147.61  L 3562.10,  147.26  L 3562.37,  146.79  L 3562.46,  146.26  L 3562.37,  145.73  L 3562.10,  145.26  L 3561.68,  144.91  L 3561.17,  144.73  L 3560.63,  144.73  L 3560.12,  144.91  L 3559.71,  145.26  L 3560.10,  145.97  L 3560.10,  146.55  L 3560.48,  147.00  L 3561.05,  147.10  L 3561.56,  146.81  L 3561.75,  146.26  L 3561.56,  145.71  L 3561.05,  145.43  L 3560.48,  145.52  L 3560.90,  146.26 " style="stroke-width: 0.85 ;&st7; " /><path d=" M 3593.71,  162.26  L 3593.43,  162.73  L 3593.34,  163.26  L 3593.43,  163.79  L 3593.71,  164.26  L 3594.12,  164.61  L 3594.63,  164.79  L 3595.17,  164.79  L 3595.68,  164.61  L 3596.09,  164.26  L 3596.36,  163.79  L 3596.46,  163.26  L 3596.36,  162.73  L 3596.09,  162.26  L 3595.68,  161.91  L 3595.17,  161.72  L 3594.63,  161.72  L 3594.12,  161.91  L 3593.71,  162.26  L 3594.10,  162.97  L 3594.10,  163.55  L 3594.47,  163.99  L 3595.05,  164.09  L 3595.55,  163.80  L 3595.75,  163.26  L 3595.55,  162.71  L 3595.05,  162.42  L 3594.47,  162.52  L 3594.90,  163.26 " style="stroke-width: 0.85 ;&st7; " /><path d=" M 3673.51,   99.52  C 3673.51   101.87  3675.41   103.77  3677.76   103.77 " style="stroke-width: 1.42 ;&st7; " /><path d=" M 3677.76,   95.27  C 3675.41    95.27  3673.51    97.17  3673.51    99.52 " style="stroke-width: 1.42 ;&st7; " /><path d=" M 3681.30,   68.36  C 3681.30    67.57  3680.67    66.94  3679.89    66.94 " style="stroke-width: 0.85 ;&st7; " /><path d=" M 3679.89,   66.94  C 3679.10    66.94  3678.47    67.57  3678.47    68.36 " style="stroke-width: 0.85 ;&st7; " /><path d=" M 3678.47,   68.36  C 3678.47    69.14  3679.10    69.77  3679.89    69.77 " style="stroke-width: 0.85 ;&st7; " /><path d=" M 3679.89,   69.77  C 3680.67    69.77  3681.30    69.14  3681.30    68.36 " style="stroke-width: 0.85 ;&st7; " /><path d=" M 3681.30,   45.69  C 3681.30    44.91  3680.67    44.28  3679.89    44.28 " style="stroke-width: 0.85 ;&st7; " /><path d=" M 3679.89,   44.28  C 3679.10    44.28  3678.47    44.91  3678.47    45.69 " style="stroke-width: 0.85 ;&st7; " /><path d=" M 3678.47,   45.69  C 3678.47    46.48  3679.10    47.11  3679.89    47.11 " style="stroke-width: 0.85 ;&st7; " /><path d=" M 3679.89,   47.11  C 3680.67    47.11  3681.30    46.48  3681.30    45.69 " style="stroke-width: 0.85 ;&st7; " /><path d=" M 3679.89,   66.94  C 3682.62    65.33  3683.53    61.80  3681.92    59.06 " style="stroke-width: 1.42 ;&st7; " /><path d=" M 3681.92,   59.06  C 3681.40    58.18  3680.77    57.55  3679.89    57.03 " style="stroke-width: 1.42 ;&st7; " /><path d=" M 3679.89,   47.11  C 3677.15    48.72  3676.24    52.25  3677.85    54.99 " style="stroke-width: 1.42 ;&st7; " /><path d=" M 3677.85,   54.99  C 3678.37    55.87  3679.00    56.51  3679.89    57.03 " style="stroke-width: 1.42 ;&st7; " /><path d=" M 3808.78,  185.92  C 3808.78   185.14  3808.15   184.50  3807.36   184.50 " style="stroke-width: 0.85 ;&st7; " /><path d=" M 3807.36,  184.50  C 3806.58   184.50  3805.95   185.14  3805.95   185.92 " style="stroke-width: 0.85 ;&st7; " /><path d=" M 3805.95,  185.92  C 3805.95   186.70  3806.58   187.34  3807.36   187.34 " style="stroke-width: 0.85 ;&st7; " /><path d=" M 3807.36,  187.34  C 3808.15   187.34  3808.78   186.70  3808.78   185.92 " style="stroke-width: 0.85 ;&st7; " /><path d=" M 3808.78,  208.58  C 3808.78   207.80  3808.15   207.17  3807.36   207.17 " style="stroke-width: 0.85 ;&st7; " /><path d=" M 3807.36,  207.17  C 3806.58   207.17  3805.95   207.80  3805.95   208.58 " style="stroke-width: 0.85 ;&st7; " /><path d=" M 3805.95,  208.58  C 3805.95   209.37  3806.58   210.00  3807.36   210.00 " style="stroke-width: 0.85 ;&st7; " /><path d=" M 3807.36,  210.00  C 3808.15   210.00  3808.78   209.37  3808.78   208.58 " style="stroke-width: 0.85 ;&st7; " /><path d=" M 3832.86,  205.75  C 3834.82   205.75  3836.40   204.17  3836.40   202.21 " style="stroke-width: 0.85 ;&st7; " /><path d=" M 3836.40,  202.21  C 3836.40   200.25  3834.82   198.67  3832.86   198.67 " style="stroke-width: 0.85 ;&st7; " /><path d=" M 3832.86,  198.67  C 3831.87   198.67  3831.02   199.02  3830.33   199.73 " style="stroke-width: 0.85 ;&st7; " /><path d=" M 3830.33,  199.73  C 3831.70   201.13  3833.94   201.15  3835.34   199.78 " style="stroke-width: 0.85 ;&st7; " /><path d=" M 3835.34,  199.78  C 3836.74   198.41  3836.76   196.17  3835.39   194.77 " style="stroke-width: 0.85 ;&st7; " /><path d=" M 3835.39,  194.77  C 3834.02   193.38  3831.78   193.35  3830.38   194.72 " style="stroke-width: 0.85 ;&st7; " /><path d=" M 3830.38,  194.72  C 3830.36   194.74  3830.35   194.76  3830.33   194.77 " style="stroke-width: 0.85 ;&st7; " /><path d=" M 3830.33,  194.77  C 3831.70   196.17  3833.94   196.19  3835.34   194.82 " style="stroke-width: 0.85 ;&st7; " /><path d=" M 3835.34,  194.82  C 3836.74   193.46  3836.76   191.21  3835.39   189.82 " style="stroke-width: 0.85 ;&st7; " /><path d=" M 3835.39,  189.82  C 3834.70   189.11  3833.85   188.75  3832.86   188.75 " style="stroke-width: 0.85 ;&st7; " /><path d=" M 3947.87,   91.30  C 3947.87    88.80  3945.84    86.77  3943.34    86.77 " style="stroke-width: 1.42 ;&st7; " /><path d=" M 3943.34,   86.77  C 3940.84    86.77  3938.81    88.80  3938.81    91.30 " style="stroke-width: 1.42 ;&st7; " /><path d=" M 3938.81,   91.30  C 3938.81    93.81  3940.84    95.84  3943.34    95.84 " style="stroke-width: 1.42 ;&st7; " /><path d=" M 3943.34,   95.84  C 3945.84    95.84  3947.87    93.81  3947.87    91.30 " style="stroke-width: 1.42 ;&st7; " /><path d=" M 3837.39,   91.30  C 3837.39    88.80  3835.36    86.77  3832.86    86.77 " style="stroke-width: 1.42 ;&st7; " /><path d=" M 3832.86,   86.77  C 3830.36    86.77  3828.33    88.80  3828.33    91.30 " style="stroke-width: 1.42 ;&st7; " /><path d=" M 3828.33,   91.30  C 3828.33    93.81  3830.36    95.84  3832.86    95.84 " style="stroke-width: 1.42 ;&st7; " /><path d=" M 3832.86,   95.84  C 3835.36    95.84  3837.39    93.81  3837.39    91.30 " style="stroke-width: 1.42 ;&st7; " /><path d=" M 3839.23,  235.50  C 3839.23   233.15  3837.33   231.25  3834.98   231.25 " style="stroke-width: 1.42 ;&st7; " /><path d=" M 3834.98,  239.75  C 3837.33   239.75  3839.23   237.84  3839.23   235.50 " style="stroke-width: 1.42 ;&st7; " /><path d=" M 3826.49,  235.50  C 3826.49   237.84  3828.39   239.75  3830.73   239.75 " style="stroke-width: 1.42 ;&st7; " /><path d=" M 3830.73,  231.25  C 3828.39   231.25  3826.49   233.15  3826.49   235.50 " style="stroke-width: 1.42 ;&st7; " /><path d=" M 3813.74,  235.50  C 3813.74   233.15  3811.84   231.25  3809.49   231.25 " style="stroke-width: 1.42 ;&st7; " /><path d=" M 3809.49,  239.75  C 3811.84   239.75  3813.74   237.84  3813.74   235.50 " style="stroke-width: 1.42 ;&st7; " /><path d=" M 3800.99,  235.50  C 3800.99   237.84  3802.89   239.75  3805.24   239.75 " style="stroke-width: 1.42 ;&st7; " /><path d=" M 3805.24,  231.25  C 3802.89   231.25  3800.99   233.15  3800.99   235.50 " style="stroke-width: 1.42 ;&st7; " /><path d=" M 3839.23,  159.01  C 3839.23   156.66  3837.33   154.76  3834.98   154.76 " style="stroke-width: 1.42 ;&st7; " /><path d=" M 3834.98,  163.26  C 3837.33   163.26  3839.23   161.36  3839.23   159.01 " style="stroke-width: 1.42 ;&st7; " /><path d=" M 3826.49,  159.01  C 3826.49   161.36  3828.39   163.26  3830.73   163.26 " style="stroke-width: 1.42 ;&st7; " /><path d=" M 3830.73,  154.76  C 3828.39   154.76  3826.49   156.66  3826.49   159.01 " style="stroke-width: 1.42 ;&st7; " /><path d=" M 3745.75,  235.50  C 3745.75   233.15  3743.85   231.25  3741.50   231.25 " style="stroke-width: 1.42 ;&st7; " /><path d=" M 3741.50,  239.75  C 3743.85   239.75  3745.75   237.84  3745.75   235.50 " style="stroke-width: 1.42 ;&st7; " /><path d=" M 3733.00,  235.50  C 3733.00   237.84  3734.90   239.75  3737.25   239.75 " style="stroke-width: 1.42 ;&st7; " /><path d=" M 3737.25,  231.25  C 3734.90   231.25  3733.00   233.15  3733.00   235.50 " style="stroke-width: 1.42 ;&st7; " /><path d=" M 3711.75,  235.50  C 3711.75   233.15  3709.85   231.25  3707.51   231.25 " style="stroke-width: 1.42 ;&st7; " /><path d=" M 3707.51,  239.75  C 3709.85   239.75  3711.75   237.84  3711.75   235.50 " style="stroke-width: 1.42 ;&st7; " /><path d=" M 3699.01,  235.50  C 3699.01   237.84  3700.91   239.75  3703.26   239.75 " style="stroke-width: 1.42 ;&st7; " /><path d=" M 3703.26,  231.25  C 3700.91   231.25  3699.01   233.15  3699.01   235.50 " style="stroke-width: 1.42 ;&st7; " /><path d=" M 3686.26,  235.50  C 3686.26   233.15  3684.36   231.25  3682.01   231.25 " style="stroke-width: 1.42 ;&st7; " /><path d=" M 3682.01,  239.75  C 3684.36   239.75  3686.26   237.84  3686.26   235.50 " style="stroke-width: 1.42 ;&st7; " /><path d=" M 3673.51,  235.50  C 3673.51   237.84  3675.41   239.75  3677.76   239.75 " style="stroke-width: 1.42 ;&st7; " /><path d=" M 3677.76,  231.25  C 3675.41   231.25  3673.51   233.15  3673.51   235.50 " style="stroke-width: 1.42 ;&st7; " /><path d=" M 3686.26,  142.01  C 3686.26   139.66  3684.36   137.76  3682.01   137.76 " style="stroke-width: 1.42 ;&st7; " /><path d=" M 3682.01,  146.26  C 3684.36   146.26  3686.26   144.36  3686.26   142.01 " style="stroke-width: 1.42 ;&st7; " /><path d=" M 3673.51,  142.01  C 3673.51   144.36  3675.41   146.26  3677.76   146.26 " style="stroke-width: 1.42 ;&st7; " /><path d=" M 3677.76,  137.76  C 3675.41   137.76  3673.51   139.66  3673.51   142.01 " style="stroke-width: 1.42 ;&st7; " /><path d=" M 3705.38,  197.25  C 3707.34   197.25  3708.92   195.67  3708.92   193.71 " style="stroke-width: 0.85 ;&st7; " /><path d=" M 3708.92,  193.71  C 3708.92   191.76  3707.34   190.17  3705.38   190.17 " style="stroke-width: 0.85 ;&st7; " /><path d=" M 3705.38,  190.17  C 3704.39   190.17  3703.54   190.53  3702.85   191.23 " style="stroke-width: 0.85 ;&st7; " /><path d=" M 3702.85,  191.23  C 3704.22   192.63  3706.46   192.65  3707.86   191.28 " style="stroke-width: 0.85 ;&st7; " /><path d=" M 3707.86,  191.28  C 3709.26   189.91  3709.28   187.67  3707.91   186.28 " style="stroke-width: 0.85 ;&st7; " /><path d=" M 3707.91,  186.28  C 3706.54   184.88  3704.30   184.86  3702.90   186.22 " style="stroke-width: 0.85 ;&st7; " /><path d=" M 3702.90,  186.22  C 3702.88   186.24  3702.87   186.26  3702.85   186.28 " style="stroke-width: 0.85 ;&st7; " /><path d=" M 3702.85,  186.28  C 3704.22   187.67  3706.46   187.69  3707.86   186.33 " style="stroke-width: 0.85 ;&st7; " /><path d=" M 3707.86,  186.33  C 3709.26   184.96  3709.28   182.71  3707.91   181.32 " style="stroke-width: 0.85 ;&st7; " /><path d=" M 3707.91,  181.32  C 3707.22   180.61  3706.37   180.25  3705.38   180.25 " style="stroke-width: 0.85 ;&st7; " /><path d=" M 3681.30,  177.42  C 3681.30   176.64  3680.67   176.01  3679.89   176.01 " style="stroke-width: 0.85 ;&st7; " /><path d=" M 3679.89,  176.01  C 3679.10   176.01  3678.47   176.64  3678.47   177.42 " style="stroke-width: 0.85 ;&st7; " /><path d=" M 3678.47,  177.42  C 3678.47   178.20  3679.10   178.84  3679.89   178.84 " style="stroke-width: 0.85 ;&st7; " /><path d=" M 3679.89,  178.84  C 3680.67   178.84  3681.30   178.20  3681.30   177.42 " style="stroke-width: 0.85 ;&st7; " /><path d=" M 3681.30,  200.09  C 3681.30   199.30  3680.67   198.67  3679.89   198.67 " style="stroke-width: 0.85 ;&st7; " /><path d=" M 3679.89,  198.67  C 3679.10   198.67  3678.47   199.30  3678.47   200.09 " style="stroke-width: 0.85 ;&st7; " /><path d=" M 3678.47,  200.09  C 3678.47   200.87  3679.10   201.50  3679.89   201.50 " style="stroke-width: 0.85 ;&st7; " /><path d=" M 3679.89,  201.50  C 3680.67   201.50  3681.30   200.87  3681.30   200.09 " style="stroke-width: 0.85 ;&st7; " /><path d=" M 3757.79,   68.36  C 3757.79    67.57  3757.15    66.94  3756.37    66.94 " style="stroke-width: 0.85 ;&st7; " /><path d=" M 3756.37,   66.94  C 3755.59    66.94  3754.96    67.57  3754.96    68.36 " style="stroke-width: 0.85 ;&st7; " /><path d=" M 3754.96,   68.36  C 3754.96    69.14  3755.59    69.77  3756.37    69.77 " style="stroke-width: 0.85 ;&st7; " /><path d=" M 3756.37,   69.77  C 3757.15    69.77  3757.79    69.14  3757.79    68.36 " style="stroke-width: 0.85 ;&st7; " /><path d=" M 3757.79,   45.69  C 3757.79    44.91  3757.15    44.28  3756.37    44.28 " style="stroke-width: 0.85 ;&st7; " /><path d=" M 3756.37,   44.28  C 3755.59    44.28  3754.96    44.91  3754.96    45.69 " style="stroke-width: 0.85 ;&st7; " /><path d=" M 3754.96,   45.69  C 3754.96    46.48  3755.59    47.11  3756.37    47.11 " style="stroke-width: 0.85 ;&st7; " /><path d=" M 3756.37,   47.11  C 3757.15    47.11  3757.79    46.48  3757.79    45.69 " style="stroke-width: 0.85 ;&st7; " /><path d=" M 3756.37,   66.94  C 3759.11    65.33  3760.02    61.80  3758.41    59.06 " style="stroke-width: 1.42 ;&st7; " /><path d=" M 3758.41,   59.06  C 3757.89    58.18  3757.25    57.55  3756.37    57.03 " style="stroke-width: 1.42 ;&st7; " /><path d=" M 3756.37,   47.11  C 3753.63    48.72  3752.72    52.25  3754.34    54.99 " style="stroke-width: 1.42 ;&st7; " /><path d=" M 3754.34,   54.99  C 3754.86    55.87  3755.49    56.51  3756.37    57.03 " style="stroke-width: 1.42 ;&st7; " /><path d=" M 3686.26,   99.52  C 3686.26    97.17  3684.36    95.27  3682.01    95.27 " style="stroke-width: 1.42 ;&st7; " /><path d=" M 3682.01,  103.77  C 3684.36   103.77  3686.26   101.87  3686.26    99.52 " style="stroke-width: 1.42 ;&st7; " /><text style="&st18;" transform="matrix(&st16;  3528.62  125.57 )">3</text><text style="&st18;" transform="matrix(&st16;  3528.62  188.45 )">6</text><text ewd:textID="44" style="&st18;" transform="matrix(&st17;  3856.08  420.74 )">Junction <tspan dy="6" x="0">Connector</tspan></text><text style="&st18;" transform="matrix(&st17;  3848.97  420.74 )">A56</text><text style="&st18;" transform="matrix(&st16;  3815.17  406.03 )">11</text><text style="&st18;" transform="matrix(&st16;  3550.94  188.45 )">12</text><text style="&st18;" transform="matrix(&st16;  3588.89  188.45 )">1</text><text style="&st18;" transform="matrix(&st17;  3557.21  209.11 )">W</text><text style="&st18;" transform="matrix(&st17;  3591.2  208.08 )">P</text><text style="&st18;" transform="matrix(&st17;  3531.71  208.08 )">B</text><text style="&st18;" transform="matrix(&st17;  3506.22  209.11 )">W</text><text style="&st18;" transform="matrix(&st16;  3804.84  32.08 )">ECM</text><text style="&st18;" transform="matrix(&st16;  3804.84  24.98 )">A57(A),D28(B)</text><text style="&st18;" transform="matrix(&st16;  3600.64  635.48 )">G</text><text style="&st18;" transform="matrix(&st16;  3651.63  635.48 )">G</text><text style="&st18;" transform="matrix(&st16;  3600.04  584.49 )">W</text><text style="&st18;" transform="matrix(&st16;  3651.03  584.49 )">W</text><text style="&st18;" transform="matrix(&st16;  3601.07  567.49 )">B</text><text style="&st18;" transform="matrix(&st16;  3652.06  567.49 )">B</text><text style="&st18;" transform="matrix(&st16;  3601.07  542.0 )">P</text><text style="&st18;" transform="matrix(&st16;  3652.06  542.0 )">P</text><text style="&st18;" transform="matrix(&st16;  3600.04  525.0 )">W</text><text style="&st18;" transform="matrix(&st16;  3651.03  525.0 )">W</text><text style="&st18;" transform="matrix(&st16;  3601.07  499.5 )">V</text><text style="&st18;" transform="matrix(&st16;  3652.06  499.5 )">V</text><text style="&st18;" transform="matrix(&st16;  3601.07  482.51 )">P</text><text style="&st18;" transform="matrix(&st16;  3652.06  482.51 )">P</text><text ewd:textID="37" style="&st18;" transform="matrix(&st17;  3795.17  222.61 )">EFI MAIN Relay</text><text style="&st18;" transform="matrix(&st17;  3829.16  660.98 )">BR</text><text style="&st18;" transform="matrix(&st16;  3935.18  272.88 )">NWP</text><text style="&st18;" transform="matrix(&st16;  3939.0  312.54 )">+B</text><text style="&st18;" transform="matrix(&st16;  3936.55  261.55 )">2</text><text style="&st18;" transform="matrix(&st16;  3937.33  324.43 )">1</text><text style="&st18;" transform="matrix(&st17;  3939.65  352.2 )">L</text><text style="&st18;" transform="matrix(&st17;  3939.65  225.5 )">G</text><text style="&st18;" transform="matrix(&st17;  3939.65  123.52 )">G</text><text style="&st18;" transform="matrix(&st17;  3829.16  123.52 )">G</text><text style="&st18;" transform="matrix(&st17;  3676.19  123.24 )">R</text><text style="&st18;" transform="matrix(&st16;  3762.54  372.03 )">B</text><text style="&st18;" transform="matrix(&st17;  3829.16  272.94 )">W-B</text><text style="&st18;" transform="matrix(&st17;  3803.67  267.57 )">B</text><text style="&st18;" transform="matrix(&st17;  3829.16  457.01 )">BR</text><text style="&st18;" transform="matrix(&st17;  3676.19  352.2 )">L</text><text style="&st18;" transform="matrix(&st17;  3735.68  272.94 )">W-B</text><text style="&st18;" transform="matrix(&st17;  3701.68  267.57 )">B</text><text style="&st18;" transform="matrix(&st17;  3676.19  267.22 )">L</text><text ewd:textID="38" style="&st18;" transform="matrix(&st17;  3667.7  214.26 )">ENG W/P Relay</text><text style="&st18;" transform="matrix(&st16;  3936.67  83.07 )">WPI</text><text style="&st18;" transform="matrix(&st16;  3823.18  83.07 )">MREL</text><text style="&st18;" transform="matrix(&st16;  3997.27  93.27 )">10</text><text style="&st18;" transform="matrix(&st16;  3941.01  93.27 )">A</text><text style="&st18;" transform="matrix(&st16;  3930.06  93.27 )">11</text><text style="&st18;" transform="matrix(&st16;  3830.53  93.27 )">A</text><text style="&st18;" transform="matrix(&st16;  3821.98  93.27 )">6</text><text style="&st18;" transform="matrix(&st16;  3993.34  194.97 )">10</text><text style="&st18;" transform="matrix(&st16;  3926.12  194.97 )">11</text><text style="&st18;" transform="matrix(&st16;  3661.89  313.95 )">12</text><text style="&st18;" transform="matrix(&st16;  3826.07  397.53 )">3</text><text style="&st18;" transform="matrix(&st16;  3826.07  426.41 )">8</text><text style="&st18;" transform="matrix(&st16;  3820.17  237.47 )">3</text><text style="&st18;" transform="matrix(&st16;  3828.94  237.47 )">1B</text><text style="&st18;" transform="matrix(&st16;  3794.67  237.47 )">4</text><text style="&st18;" transform="matrix(&st16;  3803.44  237.47 )">1B</text><text style="&st18;" transform="matrix(&st16;  3820.17  160.98 )">2</text><text style="&st18;" transform="matrix(&st16;  3828.94  160.98 )">1B</text><text style="&st18;" transform="matrix(&st16;  3737.79  237.47 )">1</text><text style="&st18;" transform="matrix(&st16;  3703.79  237.47 )">1</text><text style="&st18;" transform="matrix(&st16;  3678.3  237.47 )">1</text><text style="&st18;" transform="matrix(&st16;  3678.3  143.98 )">1</text><text style="&st18;" transform="matrix(&st16;  3699.36  168.07 )">1</text><text style="&st18;" transform="matrix(&st16;  3673.09  168.07 )">3</text><text style="&st18;" transform="matrix(&st16;  3698.59  213.94 )">2</text><text style="&st18;" transform="matrix(&st16;  3673.1  213.94 )">5</text><text style="&st18;" transform="matrix(&st16;  3747.26  32.08 )">(BAT)</text><text style="&st18;" transform="matrix(&st16;  3749.58  86.47 )">2</text><text style="&st18;" transform="matrix(&st16;  3773.68  53.34 )">20A <tspan dy="6" x="0">EFI </tspan><tspan dy="6" x="0">MAIN</tspan></text><text style="&st18;" transform="matrix(&st16;  3670.77  32.08 )">(BAT)</text><text style="&st18;" transform="matrix(&st16;  3673.1  86.47 )">2</text><text style="&st18;" transform="matrix(&st16;  3678.3  101.49 )">1</text><text style="&st18;" transform="matrix(&st16;  3697.19  53.34 )">30A <tspan dy="6" x="0">ENG </tspan><tspan dy="6" x="0">W/P</tspan></text><text style="&st18;" transform="matrix(&st16;  3550.94  125.57 )">13</text><text style="&st18;" transform="matrix(&st16;  3588.11  125.57 )">2</text></svg>