﻿<?xml version="1.0" encoding="utf-8"?>
<!DOCTYPE svg PUBLIC "-//W3C//DTD SVG 1.0//EN" "http://www.w3.org/TR/2001/REC-SVG-20010904/DTD/svg10.dtd"[
	<!ENTITY ns_flows "http://ns.adobe.com/Flows/1.0/">
	<!ENTITY ns_svg "http://www.w3.org/2000/svg">
	<!ENTITY ns_xlink "http://www.w3.org/1999/xlink">
	<!ENTITY st0 "font-size:7px;font-family:'MS-PGothic';adobe-font-script:japanese;">
	<!ENTITY st1 "font-size:6px;font-family:'ArialMT';">
	<!-- White fill  -->
	<!ENTITY st2 "fill:#FFFFFF;stroke:#000000; stroke-width:1.41;stroke-linecap:round;stroke-linejoin:round;">
	<!-- Yellow fill  -->
	<!ENTITY st3 "fill:#FFFFCC;stroke:#FFFFCC; stroke-width:0.1;stroke-linecap:round;stroke-linejoin:round;">
	<!-- Gray fill  -->
	<!ENTITY st4 "fill:#CCCCCC;stroke:#CCCCCC; stroke-width:0.1;stroke-linecap:round;stroke-linejoin:round;">
	<!-- Light-blue fill -->
	<!ENTITY st5 "fill:#CCECF4;stroke:#000000; stroke-width:1.133;stroke-linecap:round;stroke-linejoin:round;">
	<!ENTITY st6 "fill:none;stroke-linecap:butt; stroke-linejoin:round;">
	<!ENTITY st7 "fill:none;stroke:#000000;stroke-linecap:round;stroke-linejoin:round;">
	<!ENTITY st8 "enable-background:new    ;">
	<!-- Black fill -->
	<!ENTITY st9 "fill:#000000;stroke:#000000; stroke-linecap:round;stroke-linejoin:round;">
	<!-- SRS note   -->
	<!ENTITY st10 "font-size:9px;font-family:'ArialMT';">
	<!ENTITY st11 "font-size:9px;font-family:'Svg Symbol';">
	<!ENTITY st12 "font-size:6px;font-family:'Svg Symbol';">
	<!ENTITY st13 "fill:none;stroke:#ff0000;stroke-linecap:round;stroke-linejoin:round;">
	<!-- Yellow fill  -->
	<!ENTITY st14 "fill:#FFFF00;stroke:#FFFF00; stroke-width:0.1;stroke-linecap:round;stroke-linejoin:round;">
	<!ENTITY st15 "font-size:6px;font-family:'MS-PGothic';adobe-font-script:japanese;">
	<!ENTITY st16 "1.00 0.00 0.00 1.00">
	<!ENTITY st17 "0.00 -1.00 1.00 0.00">
	<!ENTITY st18 "font-size:6px;font-family:'Arial';">
	<!ENTITY st19 "font-size:9px;font-family:'Arial';">
	<!ENTITY st20 "font-size:6px;font-family:'MS-PGothic','MS PGothic';adobe-font-script:japanese;">
	<!ENTITY st21 "font-size:7px;font-family:'MS-PGothic','MS PGothic';adobe-font-script:japanese;">
	<!ATTLIST svg
		xmlns:ewd CDATA #FIXED "http://shcl.co.jp/ewd"
		xmlns:a CDATA #FIXED "http://ns.adobe.com/AdobeSVGViewerExtensions/3.0/"
		ewd:ver CDATA #IMPLIED
	>
	<!ATTLIST a
		ewd:lineID CDATA #IMPLIED
		ewd:groupID CDATA #IMPLIED
		ewd:figtype CDATA #IMPLIED
		ewd:code CDATA #IMPLIED
		ewd:figID CDATA #IMPLIED
		ewd:pinNo CDATA #IMPLIED
		ewd:comment CDATA #IMPLIED >
	<!ATTLIST g
		ewd:lineID CDATA #IMPLIED
		ewd:groupID CDATA #IMPLIED
		ewd:figtype CDATA #IMPLIED
		ewd:code CDATA #IMPLIED
		ewd:figID CDATA #IMPLIED
		ewd:pinNo CDATA #IMPLIED
		ewd:comment CDATA #IMPLIED >
	<!ATTLIST text
		ewd:textID CDATA #IMPLIED >
	<!ATTLIST title
		ewd:textID CDATA #IMPLIED >
]>
<!-- Generator: Shintec Hozumi YS   -->
<svg onload="call_execInitLoadProc_svg('system')" style="overflow:visible;  enable-background:new 0 0 5102.161 710.000" viewBox="0 0 5102.161 710.000" height="710.000" width="5102.161" xml:space="preserve" ewd:ver="L2.1.2.6" xmlns="&ns_svg;" xmlns:a="http://ns.adobe.com/AdobeSVGViewerExtensions/3.0/" xmlns:ewd="http://shcl.co.jp/ewd" xmlns:xlink="&ns_xlink;">
<path d=" M 1967.42,  432.38  L 1967.42,  436.35 " style="stroke-width: 1.42 ;&st7; " /><path d=" M 1958.92,  436.35  L 1958.92,  432.38 " style="stroke-width: 1.42 ;&st7; " /><path d=" M 1958.92,  432.38  L 1967.42,  432.38 " style="stroke-width: 1.42 ;&st7; " /><path d=" M 1967.42,  455.04  L 1967.42,  451.08 " style="stroke-width: 1.42 ;&st7; " /><path d=" M 1958.92,  451.08  L 1958.92,  455.04 " style="stroke-width: 1.42 ;&st7; " /><path d=" M 1958.92,  455.04  L 1967.42,  455.04 " style="stroke-width: 1.42 ;&st7; " /><path d=" M 1784.70,  430.96  L 1784.70,  418.22 " style="stroke-width: 0.85 ;&st7; " /><path d=" M 1784.70,  460.71  L 1784.70,  456.46 " style="stroke-width: 0.85 ;&st7; " /><path d=" M 1784.70,  453.63  L 1790.37,  430.96 " style="stroke-width: 1.42 ;&st7; " /><path d=" M 1767.70,  430.96  L 1767.70,  418.22 " style="stroke-width: 0.85 ;&st7; " /><path d=" M 1767.70,  469.21  L 1767.70,  456.46 " style="stroke-width: 0.85 ;&st7; " /><path d=" M 1767.70,  453.63  L 1773.37,  430.96 " style="stroke-width: 1.42 ;&st7; " /><path d=" M 1729.46,  432.38  L 1729.46,  436.35 " style="stroke-width: 1.42 ;&st7; " /><path d=" M 1720.96,  436.35  L 1720.96,  432.38 " style="stroke-width: 1.42 ;&st7; " /><path d=" M 1720.96,  432.38  L 1729.46,  432.38 " style="stroke-width: 1.42 ;&st7; " /><path d=" M 1729.46,  455.04  L 1729.46,  451.08 " style="stroke-width: 1.42 ;&st7; " /><path d=" M 1720.96,  451.08  L 1720.96,  455.04 " style="stroke-width: 1.42 ;&st7; " /><path d=" M 1720.96,  455.04  L 1729.46,  455.04 " style="stroke-width: 1.42 ;&st7; " /><path d=" M 1652.97,  426.71  L 1635.98,  426.71 " style="stroke-width: 0.85 ;&st7; " /><path d=" M 1652.97,  443.71  L 1635.98,  443.71 " style="stroke-width: 0.85 ;&st7; " /><path d=" M 1635.98,  435.21  L 1623.23,  435.21 " style="stroke-width: 0.85 ;&st7; " /><path d=" M 1651.56,  438.05  L 1652.97,  435.21 " style="stroke-width: 0.85 ;&st7; " /><path d=" M 1635.98,  435.21  L 1637.39,  432.38 " style="stroke-width: 0.85 ;&st7; " /><path d=" M 1637.39,  432.38  L 1640.23,  438.05 " style="stroke-width: 0.85 ;&st7; " /><path d=" M 1640.23,  438.05  L 1643.06,  432.38 " style="stroke-width: 0.85 ;&st7; " /><path d=" M 1643.06,  432.38  L 1645.89,  438.05 " style="stroke-width: 0.85 ;&st7; " /><path d=" M 1645.89,  438.05  L 1648.72,  432.38 " style="stroke-width: 0.85 ;&st7; " /><path d=" M 1648.72,  432.38  L 1651.56,  438.05 " style="stroke-width: 0.85 ;&st7; " /><path d=" M 1665.72,  435.21  L 1652.97,  435.21 " style="stroke-width: 0.85 ;&st7; " /><path d=" M 1903.68,  430.96  L 1903.68,  418.22 " style="stroke-width: 0.85 ;&st7; " /><path d=" M 1903.68,  460.71  L 1903.68,  456.46 " style="stroke-width: 0.85 ;&st7; " /><path d=" M 1903.68,  453.63  L 1909.35,  430.96 " style="stroke-width: 1.42 ;&st7; " /><path d=" M 1886.68,  430.96  L 1886.68,  418.22 " style="stroke-width: 0.85 ;&st7; " /><path d=" M 1886.68,  469.21  L 1886.68,  456.46 " style="stroke-width: 0.85 ;&st7; " /><path d=" M 1886.68,  453.63  L 1892.35,  430.96 " style="stroke-width: 1.42 ;&st7; " /><path d=" M 1848.44,  432.38  L 1848.44,  436.35 " style="stroke-width: 1.42 ;&st7; " /><path d=" M 1839.94,  436.35  L 1839.94,  432.38 " style="stroke-width: 1.42 ;&st7; " /><path d=" M 1839.94,  432.38  L 1848.44,  432.38 " style="stroke-width: 1.42 ;&st7; " /><path d=" M 1848.44,  455.04  L 1848.44,  451.08 " style="stroke-width: 1.42 ;&st7; " /><path d=" M 1839.94,  451.08  L 1839.94,  455.04 " style="stroke-width: 1.42 ;&st7; " /><path d=" M 1839.94,  455.04  L 1848.44,  455.04 " style="stroke-width: 1.42 ;&st7; " /><path d=" M 1766.51,  468.20  L 1766.24,  468.67  L 1766.15,  469.21  L 1766.24,  469.74  L 1766.51,  470.21  L 1766.92,  470.56  L 1767.43,  470.74  L 1767.98,  470.74  L 1768.48,  470.56  L 1768.90,  470.21  L 1769.17,  469.74  L 1769.26,  469.21  L 1769.17,  468.67  L 1768.90,  468.20  L 1768.48,  467.86  L 1767.98,  467.67  L 1767.43,  467.67  L 1766.92,  467.86  L 1766.51,  468.20  L 1766.91,  468.92  L 1766.91,  469.50  L 1767.28,  469.94  L 1767.85,  470.04  L 1768.36,  469.75  L 1768.55,  469.21  L 1768.36,  468.66  L 1767.85,  468.37  L 1767.28,  468.47  L 1767.70,  469.21 " style="stroke-width: 0.85 ;&st7; " /><path d=" M 1885.49,  468.20  L 1885.22,  468.67  L 1885.13,  469.21  L 1885.22,  469.74  L 1885.49,  470.21  L 1885.90,  470.56  L 1886.41,  470.74  L 1886.96,  470.74  L 1887.46,  470.56  L 1887.88,  470.21  L 1888.15,  469.74  L 1888.24,  469.21  L 1888.15,  468.67  L 1887.88,  468.20  L 1887.46,  467.86  L 1886.96,  467.67  L 1886.41,  467.67  L 1885.90,  467.86  L 1885.49,  468.20  L 1885.89,  468.92  L 1885.89,  469.50  L 1886.26,  469.94  L 1886.83,  470.04  L 1887.34,  469.75  L 1887.53,  469.21  L 1887.34,  468.66  L 1886.83,  468.37  L 1886.26,  468.47  L 1886.68,  469.21 " style="stroke-width: 0.85 ;&st7; " /><path d=" M 1580.74,  316.80  L 1580.74,  528.70  L 2056.66,  528.70  L 2056.66,  316.80  L 1580.74,  316.80 " style="stroke-width: 1.42 ;&st7; " /><path d=" M 1724.02,  366.22  L 1723.75,  366.69  L 1723.65,  367.22  L 1723.75,  367.76  L 1724.02,  368.23  L 1724.43,  368.57  L 1724.94,  368.76  L 1725.48,  368.76  L 1725.99,  368.57  L 1726.40,  368.23  L 1726.68,  367.76  L 1726.77,  367.22  L 1726.68,  366.69  L 1726.40,  366.22  L 1725.99,  365.88  L 1725.48,  365.69  L 1724.94,  365.69  L 1724.43,  365.88  L 1724.02,  366.22  L 1724.41,  366.93  L 1724.41,  367.52  L 1724.79,  367.96  L 1725.36,  368.06  L 1725.86,  367.77  L 1726.06,  367.22  L 1725.86,  366.68  L 1725.36,  366.39  L 1724.79,  366.49  L 1725.21,  367.22 " style="stroke-width: 0.85 ;&st7; " /><path d=" M 1758.01,  349.22  L 1757.74,  349.69  L 1757.65,  350.23  L 1757.74,  350.76  L 1758.01,  351.23  L 1758.43,  351.58  L 1758.93,  351.76  L 1759.48,  351.76  L 1759.98,  351.58  L 1760.40,  351.23  L 1760.67,  350.76  L 1760.76,  350.23  L 1760.67,  349.69  L 1760.40,  349.22  L 1759.98,  348.88  L 1759.48,  348.69  L 1758.93,  348.69  L 1758.43,  348.88  L 1758.01,  349.22  L 1758.41,  349.94  L 1758.41,  350.52  L 1758.78,  350.96  L 1759.35,  351.06  L 1759.86,  350.77  L 1760.06,  350.23  L 1759.86,  349.68  L 1759.35,  349.39  L 1758.78,  349.49  L 1759.21,  350.23 " style="stroke-width: 0.85 ;&st7; " /><path d=" M 1843.00,  366.22  L 1842.73,  366.69  L 1842.63,  367.22  L 1842.73,  367.76  L 1843.00,  368.23  L 1843.41,  368.57  L 1843.92,  368.76  L 1844.46,  368.76  L 1844.97,  368.57  L 1845.38,  368.23  L 1845.66,  367.76  L 1845.75,  367.22  L 1845.66,  366.69  L 1845.38,  366.22  L 1844.97,  365.88  L 1844.46,  365.69  L 1843.92,  365.69  L 1843.41,  365.88  L 1843.00,  366.22  L 1843.39,  366.93  L 1843.39,  367.52  L 1843.77,  367.96  L 1844.34,  368.06  L 1844.84,  367.77  L 1845.04,  367.22  L 1844.84,  366.68  L 1844.34,  366.39  L 1843.77,  366.49  L 1844.19,  367.22 " style="stroke-width: 0.85 ;&st7; " /><path d=" M 1868.49,  349.22  L 1868.22,  349.69  L 1868.13,  350.23  L 1868.22,  350.76  L 1868.49,  351.23  L 1868.91,  351.58  L 1869.41,  351.76  L 1869.96,  351.76  L 1870.47,  351.58  L 1870.88,  351.23  L 1871.15,  350.76  L 1871.24,  350.23  L 1871.15,  349.69  L 1870.88,  349.22  L 1870.47,  348.88  L 1869.96,  348.69  L 1869.41,  348.69  L 1868.91,  348.88  L 1868.49,  349.22  L 1868.89,  349.94  L 1868.89,  350.52  L 1869.26,  350.96  L 1869.83,  351.06  L 1870.34,  350.77  L 1870.54,  350.23  L 1870.34,  349.68  L 1869.83,  349.39  L 1869.26,  349.49  L 1869.69,  350.23 " style="stroke-width: 0.85 ;&st7; " /><path d=" M 1910.99,  332.23  L 1910.72,  332.70  L 1910.62,  333.23  L 1910.72,  333.76  L 1910.99,  334.23  L 1911.40,  334.58  L 1911.91,  334.77  L 1912.45,  334.77  L 1912.96,  334.58  L 1913.37,  334.23  L 1913.64,  333.76  L 1913.74,  333.23  L 1913.64,  332.70  L 1913.37,  332.23  L 1912.96,  331.88  L 1912.45,  331.69  L 1911.91,  331.69  L 1911.40,  331.88  L 1910.99,  332.23  L 1911.38,  332.94  L 1911.38,  333.52  L 1911.75,  333.97  L 1912.33,  334.07  L 1912.83,  333.78  L 1913.03,  333.23  L 1912.83,  332.68  L 1912.33,  332.39  L 1911.75,  332.49  L 1912.18,  333.23 " style="stroke-width: 0.85 ;&st7; " /><path d=" M 1792.01,  332.23  L 1791.74,  332.70  L 1791.64,  333.23  L 1791.74,  333.76  L 1792.01,  334.23  L 1792.42,  334.58  L 1792.93,  334.77  L 1793.47,  334.77  L 1793.98,  334.58  L 1794.39,  334.23  L 1794.66,  333.76  L 1794.76,  333.23  L 1794.66,  332.70  L 1794.39,  332.23  L 1793.98,  331.88  L 1793.47,  331.69  L 1792.93,  331.69  L 1792.42,  331.88  L 1792.01,  332.23  L 1792.40,  332.94  L 1792.40,  333.52  L 1792.77,  333.97  L 1793.35,  334.07  L 1793.85,  333.78  L 1794.05,  333.23  L 1793.85,  332.68  L 1793.35,  332.39  L 1792.77,  332.49  L 1793.20,  333.23 " style="stroke-width: 0.85 ;&st7; " /><path d=" M 1844.19,  367.22  L 1844.19,  392.72 " style="stroke-width: 0.85 ;&st7; " /><path d=" M 1725.21,  367.22  L 1963.17,  367.22  L 1963.17,  392.72 " style="stroke-width: 0.85 ;&st7; " /><path d=" M 1869.69,  350.23  L 1869.69,  392.72 " style="stroke-width: 0.85 ;&st7; " /><path d=" M 1759.21,  350.23  L 1988.67,  350.23  L 1988.67,  392.72 " style="stroke-width: 0.85 ;&st7; " /><path d=" M 1912.18,  392.72  L 1912.18,  333.23 " style="stroke-width: 0.85 ;&st7; " /><path d=" M 1793.20,  333.23  L 2031.16,  333.23  L 2031.16,  392.72 " style="stroke-width: 0.85 ;&st7; " /><path d=" M 1793.20,  316.80  L 1793.20,  392.72 " style="stroke-width: 0.85 ;&st7; " /><path d=" M 1759.21,  316.80  L 1759.21,  392.72 " style="stroke-width: 0.85 ;&st7; " /><path d=" M 1725.21,  316.80  L 1725.21,  392.72 " style="stroke-width: 0.85 ;&st7; " /><path d=" M 1920.68,  418.22  L 1827.19,  418.22 " style="stroke-width: 1.42 ;&st7; " /><path d=" M 1844.19,  432.38  L 1844.19,  418.22 " style="stroke-width: 0.85 ;&st7; " /><path d=" M 1844.19,  455.04  L 1844.19,  469.21  L 1861.19,  469.21  L 1861.19,  418.22 " style="stroke-width: 0.85 ;&st7; " /><path d=" M 1869.69,  418.22  L 1869.69,  469.21  L 1903.68,  469.21  L 1903.68,  460.71 " style="stroke-width: 0.85 ;&st7; " /><path d=" M 1827.19,  392.72  L 1827.19,  486.20  L 1920.68,  486.20  L 1920.68,  392.72  L 1827.19,  392.72 " style="stroke-width: 1.42 ;&st7; " /><path d=" M 2039.66,  418.22  L 1946.17,  418.22 " style="stroke-width: 1.42 ;&st7; " /><path d=" M 1963.17,  432.38  L 1963.17,  418.22 " style="stroke-width: 0.85 ;&st7; " /><path d=" M 1963.17,  455.04  L 1963.17,  469.21  L 1980.17,  469.21  L 1980.17,  418.22 " style="stroke-width: 0.85 ;&st7; " /><path d=" M 1988.67,  418.22  L 1988.67,  469.21  L 2022.66,  469.21  L 2022.66,  460.71 " style="stroke-width: 0.85 ;&st7; " /><path d=" M 1946.17,  392.72  L 1946.17,  486.20  L 2039.66,  486.20  L 2039.66,  392.72  L 1946.17,  392.72 " style="stroke-width: 1.42 ;&st7; " /><path d=" M 1801.70,  418.22  L 1708.21,  418.22 " style="stroke-width: 1.42 ;&st7; " /><path d=" M 1725.21,  432.38  L 1725.21,  418.22 " style="stroke-width: 0.85 ;&st7; " /><path d=" M 1725.21,  455.04  L 1725.21,  469.21  L 1742.21,  469.21  L 1742.21,  418.22 " style="stroke-width: 0.85 ;&st7; " /><path d=" M 1750.71,  418.22  L 1750.71,  469.21  L 1784.70,  469.21  L 1784.70,  460.71 " style="stroke-width: 0.85 ;&st7; " /><path d=" M 1708.21,  392.72  L 1708.21,  486.20  L 1801.70,  486.20  L 1801.70,  392.72  L 1708.21,  392.72 " style="stroke-width: 1.42 ;&st7; " /><path d=" M 1665.72,  435.21  L 1682.72,  435.21  L 1682.72,  316.80 " style="stroke-width: 0.85 ;&st7; " /><path d=" M 1606.23,  316.80  L 1606.23,  435.21  L 1623.23,  435.21 " style="stroke-width: 0.85 ;&st7; " /><path d=" M 1665.72,  447.96  L 1623.23,  447.96  L 1623.23,  422.46  L 1665.72,  422.46  L 1665.72,  447.96 " style="stroke-width: 1.42 ;&st7; " /><path d=" M 1797.73,  312.27  C 1797.73   309.76  1795.70   307.73  1793.20   307.73 " style="stroke-width: 1.42 ;&st7; " /><path d=" M 1793.20,  307.73  C 1790.70   307.73  1788.67   309.76  1788.67   312.27 " style="stroke-width: 1.42 ;&st7; " /><path d=" M 1788.67,  312.27  C 1788.67   314.77  1790.70   316.80  1793.20   316.80 " style="stroke-width: 1.42 ;&st7; " /><path d=" M 1793.20,  316.80  C 1795.70   316.80  1797.73   314.77  1797.73   312.27 " style="stroke-width: 1.42 ;&st7; " /><path d=" M 1763.74,  312.27  C 1763.74   309.76  1761.71   307.73  1759.21   307.73 " style="stroke-width: 1.42 ;&st7; " /><path d=" M 1759.21,  307.73  C 1756.70   307.73  1754.67   309.76  1754.67   312.27 " style="stroke-width: 1.42 ;&st7; " /><path d=" M 1754.67,  312.27  C 1754.67   314.77  1756.70   316.80  1759.21   316.80 " style="stroke-width: 1.42 ;&st7; " /><path d=" M 1759.21,  316.80  C 1761.71   316.80  1763.74   314.77  1763.74   312.27 " style="stroke-width: 1.42 ;&st7; " /><path d=" M 1729.74,  312.27  C 1729.74   309.76  1727.71   307.73  1725.21   307.73 " style="stroke-width: 1.42 ;&st7; " /><path d=" M 1725.21,  307.73  C 1722.71   307.73  1720.68   309.76  1720.68   312.27 " style="stroke-width: 1.42 ;&st7; " /><path d=" M 1720.68,  312.27  C 1720.68   314.77  1722.71   316.80  1725.21   316.80 " style="stroke-width: 1.42 ;&st7; " /><path d=" M 1725.21,  316.80  C 1727.71   316.80  1729.74   314.77  1729.74   312.27 " style="stroke-width: 1.42 ;&st7; " /><path d=" M 1905.10,  432.38  C 1905.10   431.60  1904.46   430.96  1903.68   430.96 " style="stroke-width: 0.85 ;&st7; " /><path d=" M 1903.68,  430.96  C 1902.90   430.96  1902.27   431.60  1902.27   432.38 " style="stroke-width: 0.85 ;&st7; " /><path d=" M 1902.27,  432.38  C 1902.27   433.16  1902.90   433.80  1903.68   433.80 " style="stroke-width: 0.85 ;&st7; " /><path d=" M 1903.68,  433.80  C 1904.46   433.80  1905.10   433.16  1905.10   432.38 " style="stroke-width: 0.85 ;&st7; " /><path d=" M 1905.10,  455.04  C 1905.10   454.26  1904.46   453.63  1903.68   453.63 " style="stroke-width: 0.85 ;&st7; " /><path d=" M 1903.68,  453.63  C 1902.90   453.63  1902.27   454.26  1902.27   455.04 " style="stroke-width: 0.85 ;&st7; " /><path d=" M 1902.27,  455.04  C 1902.27   455.82  1902.90   456.46  1903.68   456.46 " style="stroke-width: 0.85 ;&st7; " /><path d=" M 1903.68,  456.46  C 1904.46   456.46  1905.10   455.82  1905.10   455.04 " style="stroke-width: 0.85 ;&st7; " /><path d=" M 1888.10,  432.38  C 1888.10   431.60  1887.47   430.96  1886.68   430.96 " style="stroke-width: 0.85 ;&st7; " /><path d=" M 1886.68,  430.96  C 1885.90   430.96  1885.27   431.60  1885.27   432.38 " style="stroke-width: 0.85 ;&st7; " /><path d=" M 1885.27,  432.38  C 1885.27   433.16  1885.90   433.80  1886.68   433.80 " style="stroke-width: 0.85 ;&st7; " /><path d=" M 1886.68,  433.80  C 1887.47   433.80  1888.10   433.16  1888.10   432.38 " style="stroke-width: 0.85 ;&st7; " /><path d=" M 1888.10,  455.04  C 1888.10   454.26  1887.47   453.63  1886.68   453.63 " style="stroke-width: 0.85 ;&st7; " /><path d=" M 1886.68,  453.63  C 1885.90   453.63  1885.27   454.26  1885.27   455.04 " style="stroke-width: 0.85 ;&st7; " /><path d=" M 1885.27,  455.04  C 1885.27   455.82  1885.90   456.46  1886.68   456.46 " style="stroke-width: 0.85 ;&st7; " /><path d=" M 1886.68,  456.46  C 1887.47   456.46  1888.10   455.82  1888.10   455.04 " style="stroke-width: 0.85 ;&st7; " /><path d=" M 1852.69,  443.71  C 1852.69   439.02  1848.89   435.21  1844.19   435.21 " style="stroke-width: 1.42 ;&st7; " /><path d=" M 1844.19,  435.21  C 1839.50   435.21  1835.69   439.02  1835.69   443.71 " style="stroke-width: 1.42 ;&st7; " /><path d=" M 1835.69,  443.71  C 1835.69   448.40  1839.50   452.21  1844.19   452.21 " style="stroke-width: 1.42 ;&st7; " /><path d=" M 1844.19,  452.21  C 1848.89   452.21  1852.69   448.40  1852.69   443.71 " style="stroke-width: 1.42 ;&st7; " /><path d=" M 1971.67,  443.71  C 1971.67   439.02  1967.87   435.21  1963.17   435.21 " style="stroke-width: 1.42 ;&st7; " /><path d=" M 1963.17,  435.21  C 1958.48   435.21  1954.67   439.02  1954.67   443.71 " style="stroke-width: 1.42 ;&st7; " /><path d=" M 1954.67,  443.71  C 1954.67   448.40  1958.48   452.21  1963.17   452.21 " style="stroke-width: 1.42 ;&st7; " /><path d=" M 1963.17,  452.21  C 1967.87   452.21  1971.67   448.40  1971.67   443.71 " style="stroke-width: 1.42 ;&st7; " /><path d=" M 1786.12,  432.38  C 1786.12   431.60  1785.48   430.96  1784.70   430.96 " style="stroke-width: 0.85 ;&st7; " /><path d=" M 1784.70,  430.96  C 1783.92   430.96  1783.29   431.60  1783.29   432.38 " style="stroke-width: 0.85 ;&st7; " /><path d=" M 1783.29,  432.38  C 1783.29   433.16  1783.92   433.80  1784.70   433.80 " style="stroke-width: 0.85 ;&st7; " /><path d=" M 1784.70,  433.80  C 1785.48   433.80  1786.12   433.16  1786.12   432.38 " style="stroke-width: 0.85 ;&st7; " /><path d=" M 1786.12,  455.04  C 1786.12   454.26  1785.48   453.63  1784.70   453.63 " style="stroke-width: 0.85 ;&st7; " /><path d=" M 1784.70,  453.63  C 1783.92   453.63  1783.29   454.26  1783.29   455.04 " style="stroke-width: 0.85 ;&st7; " /><path d=" M 1783.29,  455.04  C 1783.29   455.82  1783.92   456.46  1784.70   456.46 " style="stroke-width: 0.85 ;&st7; " /><path d=" M 1784.70,  456.46  C 1785.48   456.46  1786.12   455.82  1786.12   455.04 " style="stroke-width: 0.85 ;&st7; " /><path d=" M 1769.12,  432.38  C 1769.12   431.60  1768.49   430.96  1767.70   430.96 " style="stroke-width: 0.85 ;&st7; " /><path d=" M 1767.70,  430.96  C 1766.92   430.96  1766.29   431.60  1766.29   432.38 " style="stroke-width: 0.85 ;&st7; " /><path d=" M 1766.29,  432.38  C 1766.29   433.16  1766.92   433.80  1767.70   433.80 " style="stroke-width: 0.85 ;&st7; " /><path d=" M 1767.70,  433.80  C 1768.49   433.80  1769.12   433.16  1769.12   432.38 " style="stroke-width: 0.85 ;&st7; " /><path d=" M 1769.12,  455.04  C 1769.12   454.26  1768.49   453.63  1767.70   453.63 " style="stroke-width: 0.85 ;&st7; " /><path d=" M 1767.70,  453.63  C 1766.92   453.63  1766.29   454.26  1766.29   455.04 " style="stroke-width: 0.85 ;&st7; " /><path d=" M 1766.29,  455.04  C 1766.29   455.82  1766.92   456.46  1767.70   456.46 " style="stroke-width: 0.85 ;&st7; " /><path d=" M 1767.70,  456.46  C 1768.49   456.46  1769.12   455.82  1769.12   455.04 " style="stroke-width: 0.85 ;&st7; " /><path d=" M 1733.71,  443.71  C 1733.71   439.02  1729.91   435.21  1725.21   435.21 " style="stroke-width: 1.42 ;&st7; " /><path d=" M 1725.21,  435.21  C 1720.52   435.21  1716.71   439.02  1716.71   443.71 " style="stroke-width: 1.42 ;&st7; " /><path d=" M 1716.71,  443.71  C 1716.71   448.40  1720.52   452.21  1725.21   452.21 " style="stroke-width: 1.42 ;&st7; " /><path d=" M 1725.21,  452.21  C 1729.91   452.21  1733.71   448.40  1733.71   443.71 " style="stroke-width: 1.42 ;&st7; " /><path d=" M 1652.97,  443.71  C 1657.67   443.71  1661.47   439.91  1661.47   435.21 " style="stroke-width: 0.85 ;&st7; " /><path d=" M 1661.47,  435.21  C 1661.47   430.52  1657.67   426.71  1652.97   426.71 " style="stroke-width: 0.85 ;&st7; " /><path d=" M 1635.98,  426.71  C 1631.28   426.71  1627.48   430.52  1627.48   435.21 " style="stroke-width: 0.85 ;&st7; " /><path d=" M 1627.48,  435.21  C 1627.48   439.91  1631.28   443.71  1635.98   443.71 " style="stroke-width: 0.85 ;&st7; " /><path d=" M 1687.25,  312.27  C 1687.25   309.76  1685.22   307.73  1682.72   307.73 " style="stroke-width: 1.42 ;&st7; " /><path d=" M 1682.72,  307.73  C 1680.22   307.73  1678.19   309.76  1678.19   312.27 " style="stroke-width: 1.42 ;&st7; " /><path d=" M 1678.19,  312.27  C 1678.19   314.77  1680.22   316.80  1682.72   316.80 " style="stroke-width: 1.42 ;&st7; " /><path d=" M 1682.72,  316.80  C 1685.22   316.80  1687.25   314.77  1687.25   312.27 " style="stroke-width: 1.42 ;&st7; " /><path d=" M 1610.76,  312.27  C 1610.76   309.76  1608.73   307.73  1606.23   307.73 " style="stroke-width: 1.42 ;&st7; " /><path d=" M 1606.23,  307.73  C 1603.73   307.73  1601.70   309.76  1601.70   312.27 " style="stroke-width: 1.42 ;&st7; " /><path d=" M 1601.70,  312.27  C 1601.70   314.77  1603.73   316.80  1606.23   316.80 " style="stroke-width: 1.42 ;&st7; " /><path d=" M 1606.23,  316.80  C 1608.73   316.80  1610.76   314.77  1610.76   312.27 " style="stroke-width: 1.42 ;&st7; " /><text ewd:textID="15" style="&st18;" transform="matrix(&st16;  1578.21  543.41 )">A/C Blower Assembly</text><text ewd:textID="30" style="&st18;" transform="matrix(&st16;  1959.71  493.84 )">Damper Servo Motor <tspan dy="6" x="0">(Air Inlet)</tspan></text><text ewd:textID="32" style="&st18;" transform="matrix(&st16;  1840.73  493.84 )">Damper Servo Motor <tspan dy="6" x="0">(Air Vent Mode)</tspan></text><text ewd:textID="31" style="&st18;" transform="matrix(&st16;  1721.75  493.84 )">Damper Servo Motor <tspan dy="6" x="0">(Air Mix)</tspan></text><text style="&st18;" transform="matrix(&st16;  1782.57  304.04 )">B BUS</text><text style="&st18;" transform="matrix(&st16;  1752.07  304.04 )">BUS</text><text style="&st18;" transform="matrix(&st16;  1714.16  304.04 )">BUS G</text><text style="&st18;" transform="matrix(&st16;  1578.21  536.31 )">z11(B)</text><text style="&st18;" transform="matrix(&st16;  1782.35  314.24 )">4</text><text style="&st18;" transform="matrix(&st16;  1790.87  314.24 )">B</text><text style="&st18;" transform="matrix(&st16;  1748.36  314.24 )">3</text><text style="&st18;" transform="matrix(&st16;  1756.87  314.24 )">B</text><text style="&st18;" transform="matrix(&st16;  1714.36  314.24 )">2</text><text style="&st18;" transform="matrix(&st16;  1722.88  314.24 )">B</text><text ewd:textID="28" style="&st18;" transform="matrix(&st16;  1851.54  401.79 )">Connector <tspan dy="6" x="0">Housing Color </tspan><tspan dy="6" x="0">(Red)</tspan></text><text style="&st18;" transform="matrix(&st16;  1841.3  445.68 )">M</text><text ewd:textID="26" style="&st18;" transform="matrix(&st16;  1970.52  401.79 )">Connector <tspan dy="6" x="0">Housing Color </tspan><tspan dy="6" x="0">(Black)</tspan></text><text style="&st18;" transform="matrix(&st16;  1960.28  445.68 )">M</text><text ewd:textID="27" style="&st18;" transform="matrix(&st16;  1732.56  401.79 )">Connector <tspan dy="6" x="0">Housing Color </tspan><tspan dy="6" x="0">(Blue)</tspan></text><text style="&st18;" transform="matrix(&st16;  1722.32  445.68 )">M</text><text style="&st18;" transform="matrix(&st16;  1578.4  193.56 )">V</text><text style="&st18;" transform="matrix(&st16;  1526.99  635.48 )">G</text><text style="&st18;" transform="matrix(&st16;  1577.98  635.48 )">G</text><text style="&st18;" transform="matrix(&st16;  1675.3  304.04 )">SGA</text><text style="&st18;" transform="matrix(&st16;  1599.45  304.04 )">TEA</text><text ewd:textID="18" style="&st18;" transform="matrix(&st16;  1611.73  455.6 )">A/C Evaporator <tspan dy="6" x="0">Temperature Sensor</tspan></text><text style="&st18;" transform="matrix(&st16;  1680.39  314.24 )">B</text><text style="&st18;" transform="matrix(&st16;  1671.87  314.24 )">5</text><text style="&st18;" transform="matrix(&st16;  1595.38  314.24 )">6</text><text style="&st18;" transform="matrix(&st16;  1603.9  314.24 )">B</text><text ewd:textID="13" style="&st18;" transform="matrix(&st16;  1790.68  244.55 )">A/C Amplifier Assembly</text><text style="&st18;" transform="matrix(&st16;  1790.68  237.44 )">L17(A),z11(B)</text><text style="&st18;" transform="matrix(&st16;  1527.41  193.56 )">V</text></svg>