﻿<?xml version="1.0" encoding="UTF-8"?>
<!DOCTYPE svg PUBLIC "-//W3C//DTD SVG 1.0//EN" "http://www.w3.org/TR/2001/REC-SVG-20010904/DTD/svg10.dtd"[
	<!ENTITY ns_flows "http://ns.adobe.com/Flows/1.0/">
	<!ENTITY ns_svg "http://www.w3.org/2000/svg">
	<!ENTITY ns_xlink "http://www.w3.org/1999/xlink">
	<!ENTITY st0 "font-size:7px;font-family:'MS-PGothic';adobe-font-script:japanese;">
	<!ENTITY st1 "font-size:6px;font-family:'ArialMT';">
	<!-- White fill  -->
	<!ENTITY st2 "fill:#FFFFFF;stroke:#000000; stroke-width:1.41;stroke-linecap:round;stroke-linejoin:round;">
	<!-- Yellow fill  -->
	<!ENTITY st3 "fill:#FFFFCC;stroke:#FFFFCC; stroke-width:0.1;stroke-linecap:round;stroke-linejoin:round;">
	<!-- Gray fill  -->
	<!ENTITY st4 "fill:#CCCCCC;stroke:#CCCCCC; stroke-width:0.1;stroke-linecap:round;stroke-linejoin:round;">
	<!-- Light-blue fill -->
	<!ENTITY st5 "fill:#CCECF4;stroke:#000000; stroke-width:1.133;stroke-linecap:round;stroke-linejoin:round;">
	<!ENTITY st6 "fill:none;stroke-linecap:butt; stroke-linejoin:round;">
	<!ENTITY st7 "fill:none;stroke:#000000;stroke-linecap:round;stroke-linejoin:round;">
	<!ENTITY st8 "enable-background:new    ;">
	<!-- Black fill -->
	<!ENTITY st9 "fill:#000000;stroke:#000000; stroke-linecap:round;stroke-linejoin:round;">
	<!-- SRS note   -->
	<!ENTITY st10 "font-size:9px;font-family:'ArialMT';">
	<!ENTITY st11 "font-size:9px;font-family:'Svg Symbol';">
	<!ENTITY st12 "font-size:6px;font-family:'Svg Symbol';">
	<!ENTITY st13 "fill:none;stroke:#ff0000;stroke-linecap:round;stroke-linejoin:round;">
	<!-- Yellow fill  -->
	<!ENTITY st14 "fill:#FFFF00;stroke:#FFFF00; stroke-width:0.1;stroke-linecap:round;stroke-linejoin:round;">
	<!ENTITY st15 "font-size:6px;font-family:'MS-PGothic';adobe-font-script:japanese;">
	<!ENTITY st16 "1.00 0.00 0.00 1.00">
	<!ENTITY st17 "0.00 -1.00 1.00 0.00">
	<!ENTITY st18 "font-size:6px;font-family:'Arial';">
	<!ENTITY st19 "font-size:9px;font-family:'Arial';">
	<!ENTITY st20 "font-size:6px;font-family:'MS-PGothic','MS PGothic';adobe-font-script:japanese;">
	<!ENTITY st21 "font-size:7px;font-family:'MS-PGothic','MS PGothic';adobe-font-script:japanese;">
	<!ATTLIST svg
		xmlns:ewd CDATA #FIXED "http://shcl.co.jp/ewd"
		xmlns:a CDATA #FIXED "http://ns.adobe.com/AdobeSVGViewerExtensions/3.0/"
		ewd:ver CDATA #IMPLIED
	>
	<!ATTLIST a
		ewd:lineID CDATA #IMPLIED
		ewd:groupID CDATA #IMPLIED
		ewd:figtype CDATA #IMPLIED
		ewd:code CDATA #IMPLIED
		ewd:figID CDATA #IMPLIED
		ewd:pinNo CDATA #IMPLIED
		ewd:comment CDATA #IMPLIED >
	<!ATTLIST g
		ewd:lineID CDATA #IMPLIED
		ewd:groupID CDATA #IMPLIED
		ewd:figtype CDATA #IMPLIED
		ewd:code CDATA #IMPLIED
		ewd:figID CDATA #IMPLIED
		ewd:pinNo CDATA #IMPLIED
		ewd:comment CDATA #IMPLIED >
	<!ATTLIST text
		ewd:textID CDATA #IMPLIED >
	<!ATTLIST title
		ewd:textID CDATA #IMPLIED >
]>
<!-- Generator: Shintec Hozumi YS   -->
<svg onload="call_execInitLoadProc_svg('system')" style="overflow:visible;  enable-background:new 0 0 318.936 710.000" viewBox="0 0 318.936 710.000" height="710.000" width="318.936" xml:space="preserve" ewd:ver="L2.1.2.6" xmlns="&ns_svg;" xmlns:a="http://ns.adobe.com/AdobeSVGViewerExtensions/3.0/" xmlns:ewd="http://shcl.co.jp/ewd" xmlns:xlink="&ns_xlink;">
	<script type="text/javascript" xlink:href="../../../../../system/js/ewd/fig/svgfig.js"/>
	<defs>
		<font horiz-adv-x="1229">
			<font-face font-family="Svg Symbol" units-per-em="2048" panose-1="5 5 1 2 1 7 6 2 5 7" ascent="2059" descent="450" alphabetic="0"/>
			<missing-glyph d="M 103,0 l 0,1280 1024,0 0,-1280 -1024,0 z m 32,32 l 960,0 0,1216 -960,0 0,-1216 z"/>
			<glyph unicode="&#xF057;" horiz-adv-x="1573" d="M 1517,0 l -567,0 24,279 q 141,59 207.5,168 66.5,109 66.5,306    0,272 -132.5,417.5 -132.5,145.5 -333.5,145.5 -194,0 -328,-147.5 -134,-147.5 -134,-401.5 0,-200 68.5,-319 68.5,-119     206.5,-169 l 25,-279 -564,0 0,279 35,0 q 3,-61 32,-83 45,-35 137,-35 l 270,0 0,70 q -210,61 -324.5,209 -114.5,148     -114.5,349 0,252 186.5,425 186.5,173 504.5,173 195,0 358.5,-73.5 163.5,-73.5 252,-214.5 88.5,-141 88.5,-310 0,-207     -121.5,-360.5 -121.5,-153.5 -317.5,-197.5 l -8,-70 275,0 q 92,0 128,28 36,28 42,90 l 38,0 0,-279 z"/>
		</font>
	</defs>
<g id="ewd_top">
	<a ewd:code="U5" ewd:figID="1" ewd:figtype="conn" style="cursor:pointer;">
		<path d=" M  195.47,  282.24  L  195.47,  316.23  L  229.46,  316.23  L  229.46,  282.24  L  195.47,  282.24 " style="&st5;"/>
		<title ewd:textID="1">Inner Rear View Mirror Assembly</title>
	</a>
	<a ewd:code="L93" ewd:figID="2" ewd:figtype="conn" style="cursor:pointer;">
		<path d=" M  203.97,  605.18  L  220.96,  605.18  L  220.96,  622.18  L  203.97,  622.18  L  203.97,  605.18 " style="&st5;"/>
		<title ewd:textID="2">Junction Connector</title>
	</a>
	<a ewd:code="3" ewd:figID="3" ewd:figtype="jb" style="cursor:pointer;">
		<path d=" M  195.47,  129.26  L  246.46,  129.26  L  246.46,  188.75  L  195.47,  188.75  L  195.47,  129.26 " style="&st4;"/>
	</a>
	<a ewd:code="3" ewd:figID="4" ewd:figtype="jb" style="cursor:pointer;">
		<path d=" M  195.47,  494.70  L  246.46,  494.70  L  246.46,  554.19  L  195.47,  554.19  L  195.47,  494.70 " style="&st4;"/>
	</a>
	<a ewd:code="2" ewd:figID="5" ewd:figtype="jb" style="cursor:pointer;">
		<path d=" M  195.47,   35.78  L  195.47,  103.77  L  254.96,  103.77  L  254.96,   35.78  L  195.47,   35.78 " style="&st4;"/>
	</a>
	<a ewd:code="FUSE49" ewd:figID="6" ewd:figtype="fuse" style="cursor:pointer;">
		<path d=" M  199.72,   35.78  L  199.72,   78.27  L  225.21,   78.27  L  225.21,   35.78  L  199.72,   35.78 " style="&st7;"/>
	</a>
	<a ewd:lineID="1" style="cursor:pointer;">
		<path d=" M  212.46,  622.18  L  212.46,  681.67 " style="stroke:#000000;stroke-width: 5.10 ;&st6;"/>
		<path d=" M  212.46,  622.18  L  212.46,  681.67 " style="stroke:#FFFFFF;stroke-width: 4.53 ;&st6;"/>
		<path d=" M  212.46,  622.18  L  212.46,  681.67 " style="stroke:#000000;stroke-width: 1.13 ;&st6;"/>
	</a>
	<a ewd:lineID="2" style="cursor:pointer;">
		<path d=" M  212.46,  554.19  L  212.46,  605.18 " style="stroke:#000000;stroke-width: 5.10 ;&st6;"/>
		<path d=" M  212.46,  554.19  L  212.46,  605.18 " style="stroke:#FFFFFF;stroke-width: 4.53 ;&st6;"/>
		<path d=" M  212.46,  554.19  L  212.46,  605.18 " style="stroke:#000000;stroke-width: 1.13 ;&st6;"/>
	</a>
	<a ewd:lineID="3" style="cursor:pointer;">
		<path d=" M  212.46,  390.45  L  212.46,  494.70 " style="stroke:#000000;stroke-width: 5.10 ;&st6;"/>
		<path d=" M  212.46,  390.45  L  212.46,  494.70 " style="stroke:#FFFFFF;stroke-width: 4.53 ;&st6;"/>
		<path d=" M  212.46,  390.45  L  212.46,  494.70 " style="stroke:#000000;stroke-width: 1.13 ;&st6;"/>
	</a>
	<a ewd:lineID="4" style="cursor:pointer;">
		<path d=" M  212.46,  316.23  L  212.46,  375.72 " style="stroke:#000000;stroke-width: 5.10 ;&st6;"/>
		<path d=" M  212.46,  316.23  L  212.46,  375.72 " style="stroke:#FFFFFF;stroke-width: 4.53 ;&st6;"/>
		<path d=" M  212.46,  316.23  L  212.46,  375.72 " style="stroke:#000000;stroke-width: 1.13 ;&st6;"/>
	</a>
	<a ewd:lineID="5" style="cursor:pointer;">
		<path d=" M  212.46,  239.75  L  212.46,  282.24 " style="stroke:#C3AF96;stroke-width: 5.10 ;&st6;"/>
	</a>
	<a ewd:lineID="6" style="cursor:pointer;">
		<path d=" M  212.46,  188.75  L  212.46,  225.01 " style="stroke:#C3AF96;stroke-width: 5.10 ;&st6;"/>
	</a>
	<a ewd:lineID="7" style="cursor:pointer;">
		<path d=" M  212.46,  103.77  L  212.46,  129.26 " style="stroke:#C3AF96;stroke-width: 5.10 ;&st6;"/>
	</a>
	<path d=" M  212.46,   69.77  L  212.46,   95.27 " style="stroke-width: 0.85 ;&st7; "/>
	<path d=" M  214.59,   95.27  L  210.34,   95.27 " style="stroke-width: 1.42 ;&st7; "/>
	<path d=" M  214.59,  103.77  L  210.34,  103.77 " style="stroke-width: 1.42 ;&st7; "/>
	<path d=" M  203.97,  231.25  L  212.46,  231.25 " style="stroke-width: 1.42 ;&st7; "/>
	<path d=" M  220.96,  384.22  L  212.46,  384.22 " style="stroke-width: 1.42 ;&st7; "/>
	<path d=" M  214.59,  146.26  L  210.34,  146.26 " style="stroke-width: 1.42 ;&st7; "/>
	<path d=" M  210.34,  129.26  L  214.59,  129.26 " style="stroke-width: 1.42 ;&st7; "/>
	<path d=" M  214.59,  137.76  L  210.34,  137.76 " style="stroke-width: 1.42 ;&st7; "/>
	<path d=" M  214.59,  171.76  L  210.34,  171.76 " style="stroke-width: 1.42 ;&st7; "/>
	<path d=" M  214.59,  188.75  L  210.34,  188.75 " style="stroke-width: 1.42 ;&st7; "/>
	<path d=" M  214.59,  180.26  L  210.34,  180.26 " style="stroke-width: 1.42 ;&st7; "/>
	<path d=" M  214.59,  511.70  L  210.34,  511.70 " style="stroke-width: 1.42 ;&st7; "/>
	<path d=" M  210.34,  494.70  L  214.59,  494.70 " style="stroke-width: 1.42 ;&st7; "/>
	<path d=" M  214.59,  503.20  L  210.34,  503.20 " style="stroke-width: 1.42 ;&st7; "/>
	<path d=" M  214.59,  537.20  L  210.34,  537.20 " style="stroke-width: 1.42 ;&st7; "/>
	<path d=" M  214.59,  554.19  L  210.34,  554.19 " style="stroke-width: 1.42 ;&st7; "/>
	<path d=" M  214.59,  545.69  L  210.34,  545.69 " style="stroke-width: 1.42 ;&st7; "/>
	<path d=" M  212.46,   90.37  L  209.63,   87.54  L  209.63,   91.79  L  212.46,   94.62  L  215.30,   91.79  L  215.30,   87.54  L  212.46,   90.37 " style="stroke-width: 0.28 ;&st9;"/>
	<path d=" M  199.72,   35.78  L  199.72,   78.27  L  225.21,   78.27  L  225.21,   35.78  L  199.72,   35.78 " style="stroke-width: 1.42 ;&st7; "/>
	<path d=" M  208.22,  222.18  L  212.46,  226.43  L  216.71,  222.18 " style="stroke-width: 1.42 ;&st7; "/>
	<path d=" M  216.71,  225.58  L  212.46,  229.83  L  208.22,  225.58 " style="stroke-width: 1.42 ;&st7; "/>
	<path d=" M  195.47,  282.24  L  195.47,  316.23  L  229.46,  316.23  L  229.46,  282.24  L  195.47,  282.24 " style="stroke-width: 1.42 ;&st7; "/>
	<path d=" M  216.71,  393.29  L  212.46,  389.04  L  208.22,  393.29 " style="stroke-width: 1.42 ;&st7; "/>
	<path d=" M  216.71,  389.89  L  212.46,  385.64  L  208.22,  389.89 " style="stroke-width: 1.42 ;&st7; "/>
	<path d=" M  203.97,  605.18  L  220.96,  605.18  L  220.96,  622.18  L  203.97,  622.18  L  203.97,  605.18 " style="stroke-width: 1.42 ;&st7; "/>
	<path d=" M  212.46,  605.18  L  212.46,  622.18 " style="stroke-width: 0.85 ;&st7; "/>
	<path d=" M  212.46,  697.25  L  212.46,  701.50 " style="stroke-width: 0.85 ;&st7; "/>
	<path d=" M  203.97,  701.50  L  220.96,  701.50 " style="stroke-width: 0.85 ;&st7; "/>
	<path d=" M  208.22,  704.33  L  216.71,  704.33 " style="stroke-width: 0.85 ;&st7; "/>
	<path d=" M  209.63,  707.17  L  215.30,  707.17 " style="stroke-width: 0.85 ;&st7; "/>
	<path d=" M  211.05,  710.00  L  213.88,  710.00 " style="stroke-width: 0.85 ;&st7; "/>
	<path d=" M  212.46,  146.26  L  212.46,  171.76 " style="stroke-width: 0.85 ;&st7; "/>
	<path d=" M  212.46,  151.16  L  215.30,  153.99  L  215.30,  149.74  L  212.46,  146.91  L  209.63,  149.74  L  209.63,  153.99  L  212.46,  151.16 " style="stroke-width: 0.28 ;&st9;"/>
	<path d=" M  212.46,  166.86  L  209.63,  164.03  L  209.63,  168.28  L  212.46,  171.11  L  215.30,  168.28  L  215.30,  164.03  L  212.46,  166.86 " style="stroke-width: 0.28 ;&st9;"/>
	<path d=" M  212.46,  511.70  L  212.46,  537.20 " style="stroke-width: 0.85 ;&st7; "/>
	<path d=" M  212.46,  516.60  L  215.30,  519.43  L  215.30,  515.18  L  212.46,  512.35  L  209.63,  515.18  L  209.63,  519.43  L  212.46,  516.60 " style="stroke-width: 0.28 ;&st9;"/>
	<path d=" M  212.46,  532.30  L  209.63,  529.47  L  209.63,  533.72  L  212.46,  536.55  L  215.30,  533.72  L  215.30,  529.47  L  212.46,  532.30 " style="stroke-width: 0.28 ;&st9;"/>
	<path d=" M  212.46,   47.11  C  209.73    48.72   208.81    52.25   210.43    54.99 " style="stroke-width: 1.42 ;&st7; "/>
	<path d=" M  210.43,   54.99  C  210.95    55.87   211.58    56.51   212.46    57.03 " style="stroke-width: 1.42 ;&st7; "/>
	<path d=" M  212.46,   66.94  C  215.20    65.33   216.11    61.80   214.50    59.06 " style="stroke-width: 1.42 ;&st7; "/>
	<path d=" M  214.50,   59.06  C  213.98    58.18   213.35    57.55   212.46    57.03 " style="stroke-width: 1.42 ;&st7; "/>
	<path d=" M  213.88,   45.69  C  213.88    44.91   213.25    44.28   212.46    44.28 " style="stroke-width: 0.85 ;&st7; "/>
	<path d=" M  212.46,   44.28  C  211.68    44.28   211.05    44.91   211.05    45.69 " style="stroke-width: 0.85 ;&st7; "/>
	<path d=" M  211.05,   45.69  C  211.05    46.48   211.68    47.11   212.46    47.11 " style="stroke-width: 0.85 ;&st7; "/>
	<path d=" M  212.46,   47.11  C  213.25    47.11   213.88    46.48   213.88    45.69 " style="stroke-width: 0.85 ;&st7; "/>
	<path d=" M  213.88,   68.36  C  213.88    67.57   213.25    66.94   212.46    66.94 " style="stroke-width: 0.85 ;&st7; "/>
	<path d=" M  212.46,   66.94  C  211.68    66.94   211.05    67.57   211.05    68.36 " style="stroke-width: 0.85 ;&st7; "/>
	<path d=" M  211.05,   68.36  C  211.05    69.14   211.68    69.77   212.46    69.77 " style="stroke-width: 0.85 ;&st7; "/>
	<path d=" M  212.46,   69.77  C  213.25    69.77   213.88    69.14   213.88    68.36 " style="stroke-width: 0.85 ;&st7; "/>
	<path d=" M  210.34,   95.27  C  207.99    95.27   206.09    97.17   206.09    99.52 " style="stroke-width: 1.42 ;&st7; "/>
	<path d=" M  206.09,   99.52  C  206.09   101.87   207.99   103.77   210.34   103.77 " style="stroke-width: 1.42 ;&st7; "/>
	<path d=" M  214.59,  103.77  C  216.94   103.77   218.84   101.87   218.84    99.52 " style="stroke-width: 1.42 ;&st7; "/>
	<path d=" M  218.84,   99.52  C  218.84    97.17   216.94    95.27   214.59    95.27 " style="stroke-width: 1.42 ;&st7; "/>
	<path d=" M  206.09,  142.01  C  206.09   144.36   207.99   146.26   210.34   146.26 " style="stroke-width: 1.42 ;&st7; "/>
	<path d=" M  210.34,  137.76  C  207.99   137.76   206.09   139.66   206.09   142.01 " style="stroke-width: 1.42 ;&st7; "/>
	<path d=" M  218.84,  142.01  C  218.84   139.66   216.94   137.76   214.59   137.76 " style="stroke-width: 1.42 ;&st7; "/>
	<path d=" M  214.59,  146.26  C  216.94   146.26   218.84   144.36   218.84   142.01 " style="stroke-width: 1.42 ;&st7; "/>
	<path d=" M  210.34,  129.26  C  207.99   129.26   206.09   131.17   206.09   133.51 " style="stroke-width: 1.42 ;&st7; "/>
	<path d=" M  206.09,  133.51  C  206.09   135.86   207.99   137.76   210.34   137.76 " style="stroke-width: 1.42 ;&st7; "/>
	<path d=" M  214.59,  137.76  C  216.94   137.76   218.84   135.86   218.84   133.51 " style="stroke-width: 1.42 ;&st7; "/>
	<path d=" M  218.84,  133.51  C  218.84   131.17   216.94   129.26   214.59   129.26 " style="stroke-width: 1.42 ;&st7; "/>
	<path d=" M  210.34,  171.76  C  207.99   171.76   206.09   173.66   206.09   176.01 " style="stroke-width: 1.42 ;&st7; "/>
	<path d=" M  206.09,  176.01  C  206.09   178.35   207.99   180.26   210.34   180.26 " style="stroke-width: 1.42 ;&st7; "/>
	<path d=" M  214.59,  180.26  C  216.94   180.26   218.84   178.35   218.84   176.01 " style="stroke-width: 1.42 ;&st7; "/>
	<path d=" M  218.84,  176.01  C  218.84   173.66   216.94   171.76   214.59   171.76 " style="stroke-width: 1.42 ;&st7; "/>
	<path d=" M  206.09,  184.50  C  206.09   186.85   207.99   188.75   210.34   188.75 " style="stroke-width: 1.42 ;&st7; "/>
	<path d=" M  210.34,  180.26  C  207.99   180.26   206.09   182.16   206.09   184.50 " style="stroke-width: 1.42 ;&st7; "/>
	<path d=" M  218.84,  184.50  C  218.84   182.16   216.94   180.26   214.59   180.26 " style="stroke-width: 1.42 ;&st7; "/>
	<path d=" M  214.59,  188.75  C  216.94   188.75   218.84   186.85   218.84   184.50 " style="stroke-width: 1.42 ;&st7; "/>
	<path d=" M  206.09,  507.45  C  206.09   509.80   207.99   511.70   210.34   511.70 " style="stroke-width: 1.42 ;&st7; "/>
	<path d=" M  210.34,  503.20  C  207.99   503.20   206.09   505.10   206.09   507.45 " style="stroke-width: 1.42 ;&st7; "/>
	<path d=" M  218.84,  507.45  C  218.84   505.10   216.94   503.20   214.59   503.20 " style="stroke-width: 1.42 ;&st7; "/>
	<path d=" M  214.59,  511.70  C  216.94   511.70   218.84   509.80   218.84   507.45 " style="stroke-width: 1.42 ;&st7; "/>
	<path d=" M  210.34,  494.70  C  207.99   494.70   206.09   496.61   206.09   498.95 " style="stroke-width: 1.42 ;&st7; "/>
	<path d=" M  206.09,  498.95  C  206.09   501.30   207.99   503.20   210.34   503.20 " style="stroke-width: 1.42 ;&st7; "/>
	<path d=" M  214.59,  503.20  C  216.94   503.20   218.84   501.30   218.84   498.95 " style="stroke-width: 1.42 ;&st7; "/>
	<path d=" M  218.84,  498.95  C  218.84   496.61   216.94   494.70   214.59   494.70 " style="stroke-width: 1.42 ;&st7; "/>
	<path d=" M  210.34,  537.20  C  207.99   537.20   206.09   539.10   206.09   541.44 " style="stroke-width: 1.42 ;&st7; "/>
	<path d=" M  206.09,  541.44  C  206.09   543.79   207.99   545.69   210.34   545.69 " style="stroke-width: 1.42 ;&st7; "/>
	<path d=" M  214.59,  545.69  C  216.94   545.69   218.84   543.79   218.84   541.44 " style="stroke-width: 1.42 ;&st7; "/>
	<path d=" M  218.84,  541.44  C  218.84   539.10   216.94   537.20   214.59   537.20 " style="stroke-width: 1.42 ;&st7; "/>
	<path d=" M  206.09,  549.94  C  206.09   552.29   207.99   554.19   210.34   554.19 " style="stroke-width: 1.42 ;&st7; "/>
	<path d=" M  210.34,  545.69  C  207.99   545.69   206.09   547.60   206.09   549.94 " style="stroke-width: 1.42 ;&st7; "/>
	<path d=" M  218.84,  549.94  C  218.84   547.60   216.94   545.69   214.59   545.69 " style="stroke-width: 1.42 ;&st7; "/>
	<path d=" M  214.59,  554.19  C  216.94   554.19   218.84   552.29   218.84   549.94 " style="stroke-width: 1.42 ;&st7; "/>
	<text style="&st18;" transform="matrix(&st16;  229.77  53.34 )">10A <tspan dy="6" x="0">ECU-IG </tspan><tspan dy="6" x="0">NO.2</tspan></text>
	<text style="&st18;" transform="matrix(&st16;  208.16  101.49 )">2B</text>
	<text style="&st18;" transform="matrix(&st16;  196.6  101.49 )">16</text>
	<text style="&st18;" transform="matrix(&st16;  206.39  32.08 )">(IG)</text>
	<text style="&st18;" transform="matrix(&st16;  194.47  237.47 )">13</text>
	<text style="&st18;" transform="matrix(&st16;  210.13  312.54 )">E</text>
	<text style="&st18;" transform="matrix(&st16;  194.47  381.94 )">12</text>
	<text style="&st18;" transform="matrix(&st16;  205.68  630.37 )">3</text>
	<text style="&st18;" transform="matrix(&st16;  205.68  601.49 )">4</text>
	<text ewd:textID="2" style="&st18;" transform="matrix(&st17;  235.68  624.71 )">Junction <tspan dy="6" x="-0.01">Connector</tspan></text>
	<text style="&st18;" transform="matrix(&st17;  228.57  624.71 )">L93</text>
	<text style="&st18;" transform="matrix(&st17;  208.77  357.93 )">W-B</text>
	<text style="&st18;" transform="matrix(&st17;  208.77  476.91 )">W-B</text>
	<text style="&st18;" transform="matrix(&st17;  208.77  583.14 )">W-B</text>
	<text style="&st18;" transform="matrix(&st17;  208.77  655.38 )">W-B</text>
	<text style="&st18;" transform="matrix(&st17;  208.77  119.76 )">BE</text>
	<text style="&st18;" transform="matrix(&st17;  208.77  210.41 )">BE</text>
	<text style="&st18;" transform="matrix(&st17;  208.77  261.4 )">BE</text>
	<text style="&st18;" transform="matrix(&st16;  205.68  278.55 )">4</text>
	<text style="&st18;" transform="matrix(&st16;  208.16  143.98 )">3B</text>
	<text style="&st18;" transform="matrix(&st16;  208.16  135.48 )">3B</text>
	<text style="&st18;" transform="matrix(&st16;  195.82  143.98 )">68</text>
	<text style="&st18;" transform="matrix(&st16;  195.82  135.48 )">76</text>
	<text style="&st18;" transform="matrix(&st16;  220.25  135.48 )">(LHD)</text>
	<text style="&st18;" transform="matrix(&st16;  220.25  143.98 )">(RHD)</text>
	<text style="&st18;" transform="matrix(&st16;  208.16  186.47 )">3B</text>
	<text style="&st18;" transform="matrix(&st16;  208.16  177.98 )">3B</text>
	<text style="&st18;" transform="matrix(&st16;  196.6  186.47 )">12</text>
	<text style="&st18;" transform="matrix(&st16;  196.6  177.98 )">15</text>
	<text style="&st18;" transform="matrix(&st16;  220.25  177.98 )">(LHD)</text>
	<text style="&st18;" transform="matrix(&st16;  220.25  186.47 )">(RHD)</text>
	<text style="&st18;" transform="matrix(&st16;  206.45  324.43 )">1</text>
	<text style="&st18;" transform="matrix(&st16;  208.72  289.87 )">IG</text>
	<text style="&st18;" transform="matrix(&st16;  208.16  509.42 )">3B</text>
	<text style="&st18;" transform="matrix(&st16;  208.16  500.92 )">3B</text>
	<text style="&st18;" transform="matrix(&st16;  199.77  509.42 )">3</text>
	<text style="&st18;" transform="matrix(&st16;  196.6  500.92 )">14</text>
	<text style="&st18;" transform="matrix(&st16;  220.25  500.92 )">(LHD)</text>
	<text style="&st18;" transform="matrix(&st16;  220.25  509.42 )">(RHD)</text>
	<text style="&st18;" transform="matrix(&st16;  208.16  551.91 )">3A</text>
	<text style="&st18;" transform="matrix(&st16;  208.16  543.41 )">3A</text>
	<text style="&st18;" transform="matrix(&st16;  195.82  551.91 )">63</text>
	<text style="&st18;" transform="matrix(&st16;  195.82  543.41 )">64</text>
	<text style="&st18;" transform="matrix(&st16;  220.25  543.41 )">(LHD)</text>
	<text style="&st18;" transform="matrix(&st16;  220.25  551.91 )">(RHD)</text>
	<text ewd:textID="1" style="&st18;" transform="matrix(&st17;  244.18  318.76 )">Inner Rear View <tspan dy="6" x="0">Mirror Assembly</tspan></text>
	<text style="&st18;" transform="matrix(&st17;  237.07  318.76 )">U5</text>
	<a ewd:code="UL1" ewd:figID="7" ewd:figtype="w2w" ewd:pinNo="13" style="cursor:pointer;">
		<path d=" M  220.96,  231.25  L  203.97,  231.25  L  203.97,  239.75  L  220.96,  239.75  L  220.96,  231.25 " style="&st2;"/>
		<text style="&st8;" transform="matrix(&st16;  206.11  237.99 )"><tspan style="&st18;" x="0" y="0">UL1</tspan></text>
	</a>
	<a ewd:code="UL1" ewd:figID="8" ewd:figtype="w2w" ewd:pinNo="12" style="cursor:pointer;">
		<path d=" M  220.96,  375.72  L  203.97,  375.72  L  203.97,  384.22  L  220.96,  384.22  L  220.96,  375.72 " style="&st2;"/>
		<text style="&st8;" transform="matrix(&st16;  206.11  382.47 )"><tspan style="&st18;" x="0" y="0">UL1</tspan></text>
	</a>
	<a ewd:code="L1" ewd:figID="9" ewd:figtype="gp" style="cursor:pointer;">
		<path d=" M  201.84,  681.67  L  223.09,  681.67  L  212.46,  697.25  L  201.84,  681.67 " style="&st2;"/>
		<text style="&st8;" transform="matrix(&st16;  208.71  689.83 )"><tspan style="&st18;" x="0" y="0">L1</tspan></text>
	</a>
</g>
</svg>