﻿<?xml version="1.0" encoding="utf-8"?>
<!DOCTYPE svg PUBLIC "-//W3C//DTD SVG 1.0//EN" "http://www.w3.org/TR/2001/REC-SVG-20010904/DTD/svg10.dtd"[
	<!ENTITY ns_flows "http://ns.adobe.com/Flows/1.0/">
	<!ENTITY ns_svg "http://www.w3.org/2000/svg">
	<!ENTITY ns_xlink "http://www.w3.org/1999/xlink">
	<!ENTITY st0 "font-size:7px;font-family:'MS-PGothic';adobe-font-script:japanese;">
	<!ENTITY st1 "font-size:6px;font-family:'ArialMT';">
	<!-- White fill  -->
	<!ENTITY st2 "fill:#FFFFFF;stroke:#000000; stroke-width:1.41;stroke-linecap:round;stroke-linejoin:round;">
	<!-- Yellow fill  -->
	<!ENTITY st3 "fill:#FFFFCC;stroke:#FFFFCC; stroke-width:0.1;stroke-linecap:round;stroke-linejoin:round;">
	<!-- Gray fill  -->
	<!ENTITY st4 "fill:#CCCCCC;stroke:#CCCCCC; stroke-width:0.1;stroke-linecap:round;stroke-linejoin:round;">
	<!-- Light-blue fill -->
	<!ENTITY st5 "fill:#CCECF4;stroke:#000000; stroke-width:1.133;stroke-linecap:round;stroke-linejoin:round;">
	<!ENTITY st6 "fill:none;stroke-linecap:butt; stroke-linejoin:round;">
	<!ENTITY st7 "fill:none;stroke:#000000;stroke-linecap:round;stroke-linejoin:round;">
	<!ENTITY st8 "enable-background:new    ;">
	<!-- Black fill -->
	<!ENTITY st9 "fill:#000000;stroke:#000000; stroke-linecap:round;stroke-linejoin:round;">
	<!-- SRS note   -->
	<!ENTITY st10 "font-size:9px;font-family:'ArialMT';">
	<!ENTITY st11 "font-size:9px;font-family:'Svg Symbol';">
	<!ENTITY st12 "font-size:6px;font-family:'Svg Symbol';">
	<!ENTITY st13 "fill:none;stroke:#ff0000;stroke-linecap:round;stroke-linejoin:round;">
	<!-- Yellow fill  -->
	<!ENTITY st14 "fill:#FFFF00;stroke:#FFFF00; stroke-width:0.1;stroke-linecap:round;stroke-linejoin:round;">
	<!ENTITY st15 "font-size:6px;font-family:'MS-PGothic';adobe-font-script:japanese;">
	<!ENTITY st16 "1.00 0.00 0.00 1.00">
	<!ENTITY st17 "0.00 -1.00 1.00 0.00">
	<!ENTITY st18 "font-size:6px;font-family:'Arial';">
	<!ENTITY st19 "font-size:9px;font-family:'Arial';">
	<!ENTITY st20 "font-size:6px;font-family:'MS-PGothic','MS PGothic';adobe-font-script:japanese;">
	<!ENTITY st21 "font-size:7px;font-family:'MS-PGothic','MS PGothic';adobe-font-script:japanese;">
	<!ATTLIST svg
		xmlns:ewd CDATA #FIXED "http://shcl.co.jp/ewd"
		xmlns:a CDATA #FIXED "http://ns.adobe.com/AdobeSVGViewerExtensions/3.0/"
		ewd:ver CDATA #IMPLIED
	>
	<!ATTLIST a
		ewd:lineID CDATA #IMPLIED
		ewd:groupID CDATA #IMPLIED
		ewd:figtype CDATA #IMPLIED
		ewd:code CDATA #IMPLIED
		ewd:figID CDATA #IMPLIED
		ewd:pinNo CDATA #IMPLIED
		ewd:comment CDATA #IMPLIED >
	<!ATTLIST g
		ewd:lineID CDATA #IMPLIED
		ewd:groupID CDATA #IMPLIED
		ewd:figtype CDATA #IMPLIED
		ewd:code CDATA #IMPLIED
		ewd:figID CDATA #IMPLIED
		ewd:pinNo CDATA #IMPLIED
		ewd:comment CDATA #IMPLIED >
	<!ATTLIST text
		ewd:textID CDATA #IMPLIED >
	<!ATTLIST title
		ewd:textID CDATA #IMPLIED >
]>
<!-- Generator: Shintec Hozumi YS   -->
<svg onload="call_execInitLoadProc_svg('system')" style="overflow:visible;  enable-background:new 0 0 2909.886 710.000" viewBox="0 0 2909.886 710.000" height="710.000" width="2909.886" xml:space="preserve" ewd:ver="L2.1.2.6" xmlns="&ns_svg;" xmlns:a="http://ns.adobe.com/AdobeSVGViewerExtensions/3.0/" xmlns:ewd="http://shcl.co.jp/ewd" xmlns:xlink="&ns_xlink;">
<path d=" M 1172.80,  171.76  L 1164.31,  171.76 " style="stroke-width: 1.42 ;&st7; " /><path d=" M 1376.77,  171.76  L 1368.27,  171.76 " style="stroke-width: 1.42 ;&st7; " /><path d=" M 1155.81,  273.74  L 1164.31,  273.74 " style="stroke-width: 1.42 ;&st7; " /><path d=" M 1419.26,  171.76  L 1410.76,  171.76 " style="stroke-width: 1.42 ;&st7; " /><path d=" M 1130.31,  171.76  L 1121.81,  171.76 " style="stroke-width: 1.42 ;&st7; " /><path d=" M 1113.31,  273.74  L 1121.81,  273.74 " style="stroke-width: 1.42 ;&st7; " /><path d=" M 1359.77,  273.74  L 1368.27,  273.74 " style="stroke-width: 1.42 ;&st7; " /><path d=" M 1402.27,  273.74  L 1410.76,  273.74 " style="stroke-width: 1.42 ;&st7; " /><path d=" M 1168.55,  180.82  L 1164.30,  176.57  L 1160.06,  180.82 " style="stroke-width: 1.42 ;&st7; " /><path d=" M 1372.52,  177.42  L 1368.27,  173.17  L 1364.02,  177.42 " style="stroke-width: 1.42 ;&st7; " /><path d=" M 1372.52,  180.82  L 1368.27,  176.57  L 1364.02,  180.82 " style="stroke-width: 1.42 ;&st7; " /><path d=" M 1126.06,  268.07  L 1121.81,  272.32  L 1117.56,  268.07 " style="stroke-width: 1.42 ;&st7; " /><path d=" M 1415.01,  177.42  L 1410.76,  173.17  L 1406.51,  177.42 " style="stroke-width: 1.42 ;&st7; " /><path d=" M 1415.01,  180.82  L 1410.76,  176.57  L 1406.51,  180.82 " style="stroke-width: 1.42 ;&st7; " /><path d=" M 1117.56,  264.67  L 1121.81,  268.92  L 1126.06,  264.67 " style="stroke-width: 1.42 ;&st7; " /><path d=" M 1168.55,  177.42  L 1164.30,  173.17  L 1160.06,  177.42 " style="stroke-width: 1.42 ;&st7; " /><path d=" M 1126.06,  180.82  L 1121.81,  176.57  L 1117.56,  180.82 " style="stroke-width: 1.42 ;&st7; " /><path d=" M 1126.06,  177.42  L 1121.81,  173.17  L 1117.56,  177.42 " style="stroke-width: 1.42 ;&st7; " /><path d=" M 1160.06,  264.67  L 1164.30,  268.92  L 1168.55,  264.67 " style="stroke-width: 1.42 ;&st7; " /><path d=" M 1168.55,  268.07  L 1164.30,  272.32  L 1160.06,  268.07 " style="stroke-width: 1.42 ;&st7; " /><path d=" M 1364.02,  264.67  L 1368.27,  268.92  L 1372.52,  264.67 " style="stroke-width: 1.42 ;&st7; " /><path d=" M 1372.52,  268.07  L 1368.27,  272.32  L 1364.02,  268.07 " style="stroke-width: 1.42 ;&st7; " /><path d=" M 1406.51,  264.67  L 1410.76,  268.92  L 1415.01,  264.67 " style="stroke-width: 1.42 ;&st7; " /><path d=" M 1415.01,  268.07  L 1410.76,  272.32  L 1406.51,  268.07 " style="stroke-width: 1.42 ;&st7; " /><path d=" M 1206.80,  345.98  L 1223.80,  345.98 " style="stroke-width: 1.42 ;&st7; " /><path d=" M 1206.80,  354.48  L 1206.80,  345.98  L 1202.55,  337.48  L 1228.04,  337.48  L 1223.80,  345.98  L 1223.80,  354.48  L 1206.80,  354.48 " style="stroke-width: 1.42 ;&st7; " /><path d=" M 1104.81,  443.71  L 1257.79,  443.71 " style="stroke-width: 1.42 ;&st7; " /><path d=" M 1104.81,  426.71  L 1104.81,  460.71  L 1257.79,  460.71  L 1257.79,  426.71  L 1104.81,  426.71 " style="stroke-width: 1.42 ;&st7; " /><path d=" M 1453.26,  345.98  L 1470.25,  345.98 " style="stroke-width: 1.42 ;&st7; " /><path d=" M 1453.26,  354.48  L 1453.26,  345.98  L 1449.01,  337.48  L 1474.50,  337.48  L 1470.25,  345.98  L 1470.25,  354.48  L 1453.26,  354.48 " style="stroke-width: 1.42 ;&st7; " /><path d=" M 1351.27,  443.71  L 1504.25,  443.71 " style="stroke-width: 1.42 ;&st7; " /><path d=" M 1351.27,  426.71  L 1351.27,  460.71  L 1504.25,  460.71  L 1504.25,  426.71  L 1351.27,  426.71 " style="stroke-width: 1.42 ;&st7; " /><path d=" M 1415.30,  422.18  C 1415.30   419.68  1413.27   417.65  1410.76   417.65 " style="stroke-width: 1.42 ;&st7; " /><path d=" M 1410.76,  417.65  C 1408.26   417.65  1406.23   419.68  1406.23   422.18 " style="stroke-width: 1.42 ;&st7; " /><path d=" M 1406.23,  422.18  C 1406.23   424.68  1408.26   426.71  1410.76   426.71 " style="stroke-width: 1.42 ;&st7; " /><path d=" M 1410.76,  426.71  C 1413.27   426.71  1415.30   424.68  1415.30   422.18 " style="stroke-width: 1.42 ;&st7; " /><path d=" M 1168.84,  422.18  C 1168.84   419.68  1166.81   417.65  1164.31   417.65 " style="stroke-width: 1.42 ;&st7; " /><path d=" M 1164.31,  417.65  C 1161.80   417.65  1159.77   419.68  1159.77   422.18 " style="stroke-width: 1.42 ;&st7; " /><path d=" M 1159.77,  422.18  C 1159.77   424.68  1161.80   426.71  1164.31   426.71 " style="stroke-width: 1.42 ;&st7; " /><path d=" M 1164.31,  426.71  C 1166.81   426.71  1168.84   424.68  1168.84   422.18 " style="stroke-width: 1.42 ;&st7; " /><path d=" M 1126.35,  422.18  C 1126.35   419.68  1124.32   417.65  1121.81   417.65 " style="stroke-width: 1.42 ;&st7; " /><path d=" M 1121.81,  417.65  C 1119.31   417.65  1117.28   419.68  1117.28   422.18 " style="stroke-width: 1.42 ;&st7; " /><path d=" M 1117.28,  422.18  C 1117.28   424.68  1119.31   426.71  1121.81   426.71 " style="stroke-width: 1.42 ;&st7; " /><path d=" M 1121.81,  426.71  C 1124.32   426.71  1126.35   424.68  1126.35   422.18 " style="stroke-width: 1.42 ;&st7; " /><path d=" M 1440.79,  422.18  C 1440.79   419.68  1438.76   417.65  1436.26   417.65 " style="stroke-width: 1.42 ;&st7; " /><path d=" M 1436.26,  417.65  C 1433.76   417.65  1431.73   419.68  1431.73   422.18 " style="stroke-width: 1.42 ;&st7; " /><path d=" M 1431.73,  422.18  C 1431.73   424.68  1433.76   426.71  1436.26   426.71 " style="stroke-width: 1.42 ;&st7; " /><path d=" M 1436.26,  426.71  C 1438.76   426.71  1440.79   424.68  1440.79   422.18 " style="stroke-width: 1.42 ;&st7; " /><path d=" M 1245.33,  422.18  C 1245.33   419.68  1243.30   417.65  1240.79   417.65 " style="stroke-width: 1.42 ;&st7; " /><path d=" M 1240.79,  417.65  C 1238.29   417.65  1236.26   419.68  1236.26   422.18 " style="stroke-width: 1.42 ;&st7; " /><path d=" M 1236.26,  422.18  C 1236.26   424.68  1238.29   426.71  1240.79   426.71 " style="stroke-width: 1.42 ;&st7; " /><path d=" M 1240.79,  426.71  C 1243.30   426.71  1245.33   424.68  1245.33   422.18 " style="stroke-width: 1.42 ;&st7; " /><path d=" M 1194.33,  422.18  C 1194.33   419.68  1192.30   417.65  1189.80   417.65 " style="stroke-width: 1.42 ;&st7; " /><path d=" M 1189.80,  417.65  C 1187.30   417.65  1185.27   419.68  1185.27   422.18 " style="stroke-width: 1.42 ;&st7; " /><path d=" M 1185.27,  422.18  C 1185.27   424.68  1187.30   426.71  1189.80   426.71 " style="stroke-width: 1.42 ;&st7; " /><path d=" M 1189.80,  426.71  C 1192.30   426.71  1194.33   424.68  1194.33   422.18 " style="stroke-width: 1.42 ;&st7; " /><path d=" M 1491.78,  422.18  C 1491.78   419.68  1489.75   417.65  1487.25   417.65 " style="stroke-width: 1.42 ;&st7; " /><path d=" M 1487.25,  417.65  C 1484.75   417.65  1482.72   419.68  1482.72   422.18 " style="stroke-width: 1.42 ;&st7; " /><path d=" M 1482.72,  422.18  C 1482.72   424.68  1484.75   426.71  1487.25   426.71 " style="stroke-width: 1.42 ;&st7; " /><path d=" M 1487.25,  426.71  C 1489.75   426.71  1491.78   424.68  1491.78   422.18 " style="stroke-width: 1.42 ;&st7; " /><path d=" M 1168.84,  465.24  C 1168.84   462.74  1166.81   460.71  1164.31   460.71 " style="stroke-width: 1.42 ;&st7; " /><path d=" M 1164.31,  460.71  C 1161.80   460.71  1159.77   462.74  1159.77   465.24 " style="stroke-width: 1.42 ;&st7; " /><path d=" M 1159.77,  465.24  C 1159.77   467.74  1161.80   469.77  1164.31   469.77 " style="stroke-width: 1.42 ;&st7; " /><path d=" M 1164.31,  469.77  C 1166.81   469.77  1168.84   467.74  1168.84   465.24 " style="stroke-width: 1.42 ;&st7; " /><path d=" M 1372.80,  422.18  C 1372.80   419.68  1370.77   417.65  1368.27   417.65 " style="stroke-width: 1.42 ;&st7; " /><path d=" M 1368.27,  417.65  C 1365.77   417.65  1363.74   419.68  1363.74   422.18 " style="stroke-width: 1.42 ;&st7; " /><path d=" M 1363.74,  422.18  C 1363.74   424.68  1365.77   426.71  1368.27   426.71 " style="stroke-width: 1.42 ;&st7; " /><path d=" M 1368.27,  426.71  C 1370.77   426.71  1372.80   424.68  1372.80   422.18 " style="stroke-width: 1.42 ;&st7; " /><path d=" M 1194.33,  465.24  C 1194.33   462.74  1192.30   460.71  1189.80   460.71 " style="stroke-width: 1.42 ;&st7; " /><path d=" M 1189.80,  460.71  C 1187.30   460.71  1185.27   462.74  1185.27   465.24 " style="stroke-width: 1.42 ;&st7; " /><path d=" M 1185.27,  465.24  C 1185.27   467.74  1187.30   469.77  1189.80   469.77 " style="stroke-width: 1.42 ;&st7; " /><path d=" M 1189.80,  469.77  C 1192.30   469.77  1194.33   467.74  1194.33   465.24 " style="stroke-width: 1.42 ;&st7; " /><path d=" M 1491.78,  465.24  C 1491.78   462.74  1489.75   460.71  1487.25   460.71 " style="stroke-width: 1.42 ;&st7; " /><path d=" M 1487.25,  460.71  C 1484.75   460.71  1482.72   462.74  1482.72   465.24 " style="stroke-width: 1.42 ;&st7; " /><path d=" M 1482.72,  465.24  C 1482.72   467.74  1484.75   469.77  1487.25   469.77 " style="stroke-width: 1.42 ;&st7; " /><path d=" M 1487.25,  469.77  C 1489.75   469.77  1491.78   467.74  1491.78   465.24 " style="stroke-width: 1.42 ;&st7; " /><path d=" M 1126.35,  465.24  C 1126.35   462.74  1124.32   460.71  1121.81   460.71 " style="stroke-width: 1.42 ;&st7; " /><path d=" M 1121.81,  460.71  C 1119.31   460.71  1117.28   462.74  1117.28   465.24 " style="stroke-width: 1.42 ;&st7; " /><path d=" M 1117.28,  465.24  C 1117.28   467.74  1119.31   469.77  1121.81   469.77 " style="stroke-width: 1.42 ;&st7; " /><path d=" M 1121.81,  469.77  C 1124.32   469.77  1126.35   467.74  1126.35   465.24 " style="stroke-width: 1.42 ;&st7; " /><path d=" M 1245.33,  465.24  C 1245.33   462.74  1243.30   460.71  1240.79   460.71 " style="stroke-width: 1.42 ;&st7; " /><path d=" M 1240.79,  460.71  C 1238.29   460.71  1236.26   462.74  1236.26   465.24 " style="stroke-width: 1.42 ;&st7; " /><path d=" M 1236.26,  465.24  C 1236.26   467.74  1238.29   469.77  1240.79   469.77 " style="stroke-width: 1.42 ;&st7; " /><path d=" M 1240.79,  469.77  C 1243.30   469.77  1245.33   467.74  1245.33   465.24 " style="stroke-width: 1.42 ;&st7; " /><path d=" M 1372.80,  465.24  C 1372.80   462.74  1370.77   460.71  1368.27   460.71 " style="stroke-width: 1.42 ;&st7; " /><path d=" M 1368.27,  460.71  C 1365.77   460.71  1363.74   462.74  1363.74   465.24 " style="stroke-width: 1.42 ;&st7; " /><path d=" M 1363.74,  465.24  C 1363.74   467.74  1365.77   469.77  1368.27   469.77 " style="stroke-width: 1.42 ;&st7; " /><path d=" M 1368.27,  469.77  C 1370.77   469.77  1372.80   467.74  1372.80   465.24 " style="stroke-width: 1.42 ;&st7; " /><path d=" M 1440.79,  465.24  C 1440.79   462.74  1438.76   460.71  1436.26   460.71 " style="stroke-width: 1.42 ;&st7; " /><path d=" M 1436.26,  460.71  C 1433.76   460.71  1431.73   462.74  1431.73   465.24 " style="stroke-width: 1.42 ;&st7; " /><path d=" M 1431.73,  465.24  C 1431.73   467.74  1433.76   469.77  1436.26   469.77 " style="stroke-width: 1.42 ;&st7; " /><path d=" M 1436.26,  469.77  C 1438.76   469.77  1440.79   467.74  1440.79   465.24 " style="stroke-width: 1.42 ;&st7; " /><path d=" M 1415.30,  465.24  C 1415.30   462.74  1413.27   460.71  1410.76   460.71 " style="stroke-width: 1.42 ;&st7; " /><path d=" M 1410.76,  460.71  C 1408.26   460.71  1406.23   462.74  1406.23   465.24 " style="stroke-width: 1.42 ;&st7; " /><path d=" M 1406.23,  465.24  C 1406.23   467.74  1408.26   469.77  1410.76   469.77 " style="stroke-width: 1.42 ;&st7; " /><path d=" M 1410.76,  469.77  C 1413.27   469.77  1415.30   467.74  1415.30   465.24 " style="stroke-width: 1.42 ;&st7; " /><path d=" M 1126.35,   91.30  C 1126.35    88.80  1124.32    86.77  1121.81    86.77 " style="stroke-width: 1.42 ;&st7; " /><path d=" M 1121.81,   86.77  C 1119.31    86.77  1117.28    88.80  1117.28    91.30 " style="stroke-width: 1.42 ;&st7; " /><path d=" M 1117.28,   91.30  C 1117.28    93.81  1119.31    95.84  1121.81    95.84 " style="stroke-width: 1.42 ;&st7; " /><path d=" M 1121.81,   95.84  C 1124.32    95.84  1126.35    93.81  1126.35    91.30 " style="stroke-width: 1.42 ;&st7; " /><path d=" M 1415.30,   91.30  C 1415.30    88.80  1413.27    86.77  1410.76    86.77 " style="stroke-width: 1.42 ;&st7; " /><path d=" M 1410.76,   86.77  C 1408.26    86.77  1406.23    88.80  1406.23    91.30 " style="stroke-width: 1.42 ;&st7; " /><path d=" M 1406.23,   91.30  C 1406.23    93.81  1408.26    95.84  1410.76    95.84 " style="stroke-width: 1.42 ;&st7; " /><path d=" M 1410.76,   95.84  C 1413.27    95.84  1415.30    93.81  1415.30    91.30 " style="stroke-width: 1.42 ;&st7; " /><path d=" M 1168.84,   91.30  C 1168.84    88.80  1166.81    86.77  1164.31    86.77 " style="stroke-width: 1.42 ;&st7; " /><path d=" M 1164.31,   86.77  C 1161.80    86.77  1159.77    88.80  1159.77    91.30 " style="stroke-width: 1.42 ;&st7; " /><path d=" M 1159.77,   91.30  C 1159.77    93.81  1161.80    95.84  1164.31    95.84 " style="stroke-width: 1.42 ;&st7; " /><path d=" M 1164.31,   95.84  C 1166.81    95.84  1168.84    93.81  1168.84    91.30 " style="stroke-width: 1.42 ;&st7; " /><path d=" M 1372.80,   91.30  C 1372.80    88.80  1370.77    86.77  1368.27    86.77 " style="stroke-width: 1.42 ;&st7; " /><path d=" M 1368.27,   86.77  C 1365.77    86.77  1363.74    88.80  1363.74    91.30 " style="stroke-width: 1.42 ;&st7; " /><path d=" M 1363.74,   91.30  C 1363.74    93.81  1365.77    95.84  1368.27    95.84 " style="stroke-width: 1.42 ;&st7; " /><path d=" M 1368.27,   95.84  C 1370.77    95.84  1372.80    93.81  1372.80    91.30 " style="stroke-width: 1.42 ;&st7; " /><text style="&st18;" transform="matrix(&st16;  1399.89  93.27 )">6</text><text style="&st18;" transform="matrix(&st16;  1408.43  93.27 )">B</text><text style="&st18;" transform="matrix(&st16;  1353.46  169.48 )">7</text><text style="&st18;" transform="matrix(&st17;  1118.12  140.23 )">R</text><text style="&st18;" transform="matrix(&st17;  1160.61  141.12 )">W</text><text style="&st18;" transform="matrix(&st17;  1160.61  209.11 )">W</text><text style="&st18;" transform="matrix(&st17;  1118.12  208.22 )">R</text><text style="&st18;" transform="matrix(&st16;  1395.95  169.48 )">8</text><text style="&st18;" transform="matrix(&st17;  1364.58  140.09 )">B</text><text style="&st18;" transform="matrix(&st17;  1407.07  140.09 )">Y</text><text style="&st18;" transform="matrix(&st17;  1407.07  208.08 )">Y</text><text style="&st18;" transform="matrix(&st17;  1364.58  208.08 )">B</text><text style="&st18;" transform="matrix(&st16;  1157.35  83.07 )">RR-</text><text style="&st18;" transform="matrix(&st16;  1114.85  83.07 )">RR+</text><text style="&st18;" transform="matrix(&st16;  1149.49  169.48 )">8</text><text style="&st18;" transform="matrix(&st16;  1107.0  169.48 )">2</text><text style="&st18;" transform="matrix(&st16;  1361.81  83.07 )">RL+</text><text style="&st18;" transform="matrix(&st16;  1404.3  83.07 )">RL-</text><text style="&st18;" transform="matrix(&st16;  1111.71  93.27 )">1</text><text style="&st18;" transform="matrix(&st16;  1153.43  93.27 )">3</text><text style="&st18;" transform="matrix(&st16;  1161.97  93.27 )">B</text><text style="&st18;" transform="matrix(&st16;  1365.94  93.27 )">B</text><text style="&st18;" transform="matrix(&st16;  1357.39  93.27 )">2</text><text style="&st18;" transform="matrix(&st16;  1354.23  279.96 )">1</text><text style="&st18;" transform="matrix(&st16;  1392.77  279.96 )">12</text><text style="&st18;" transform="matrix(&st17;  1118.12  318.7 )">R</text><text style="&st18;" transform="matrix(&st17;  1160.61  319.59 )">W</text><text style="&st18;" transform="matrix(&st17;  1364.58  318.56 )">B</text><text style="&st18;" transform="matrix(&st17;  1407.07  318.56 )">Y</text><text style="&st18;" transform="matrix(&st16;  1146.31  279.96 )">12</text><text style="&st18;" transform="matrix(&st16;  1107.78  279.96 )">1</text><text style="&st18;" transform="matrix(&st16;  1119.48  93.27 )">B</text><text style="&st18;" transform="matrix(&st16;  1476.37  424.15 )">3</text><text style="&st18;" transform="matrix(&st16;  1173.7  499.5 )">W</text><text style="&st18;" transform="matrix(&st16;  1425.38  424.15 )">4</text><text ewd:textID="19" style="&st18;" transform="matrix(&st16;  1200.02  327.83 )">Rear Speaker <tspan dy="6" x="0">Assembly RH</tspan></text><text style="&st18;" transform="matrix(&st16;  1161.97  424.15 )">A</text><text style="&st18;" transform="matrix(&st16;  1153.43  424.15 )">2</text><text style="&st18;" transform="matrix(&st16;  1200.02  320.73 )">P3</text><text style="&st18;" transform="matrix(&st16;  1473.09  346.54 )">1</text><text style="&st18;" transform="matrix(&st16;  1119.48  424.15 )">A</text><text style="&st18;" transform="matrix(&st16;  1111.71  424.15 )">1</text><text style="&st18;" transform="matrix(&st16;  1446.46  346.54 )">2</text><text style="&st18;" transform="matrix(&st16;  1399.89  424.15 )">2</text><text style="&st18;" transform="matrix(&st16;  1238.46  424.15 )">A</text><text style="&st18;" transform="matrix(&st16;  1229.92  424.15 )">3</text><text style="&st18;" transform="matrix(&st16;  1408.43  424.15 )">A</text><text style="&st18;" transform="matrix(&st16;  1187.47  424.15 )">A</text><text style="&st18;" transform="matrix(&st16;  1178.92  424.15 )">4</text><text style="&st18;" transform="matrix(&st17;  1432.56  395.05 )">Y</text><text style="&st18;" transform="matrix(&st16;  1421.18  499.5 )">Y</text><text style="&st18;" transform="matrix(&st16;  1421.18  516.5 )">B</text><text style="&st18;" transform="matrix(&st16;  1226.63  346.54 )">1</text><text style="&st18;" transform="matrix(&st16;  1200.0  346.54 )">2</text><text style="&st18;" transform="matrix(&st16;  1153.43  467.21 )">2</text><text style="&st18;" transform="matrix(&st16;  1161.97  467.21 )">B</text><text style="&st18;" transform="matrix(&st16;  1433.93  424.15 )">A</text><text style="&st18;" transform="matrix(&st16;  1365.94  467.21 )">B</text><text style="&st18;" transform="matrix(&st16;  1178.92  467.21 )">4</text><text style="&st18;" transform="matrix(&st16;  1187.47  467.21 )">B</text><text style="&st18;" transform="matrix(&st16;  1476.37  467.21 )">3</text><text style="&st18;" transform="matrix(&st16;  1484.92  467.21 )">B</text><text style="&st18;" transform="matrix(&st16;  1111.71  467.21 )">1</text><text style="&st18;" transform="matrix(&st16;  1119.48  467.21 )">B</text><text style="&st18;" transform="matrix(&st17;  1483.56  395.05 )">B</text><text style="&st18;" transform="matrix(&st16;  1358.17  467.21 )">1</text><text style="&st18;" transform="matrix(&st16;  1229.92  467.21 )">3</text><text style="&st18;" transform="matrix(&st16;  1238.46  467.21 )">B</text><text style="&st18;" transform="matrix(&st16;  1484.92  424.15 )">A</text><text style="&st18;" transform="matrix(&st16;  1358.17  424.15 )">1</text><text style="&st18;" transform="matrix(&st16;  1174.58  516.5 )">R</text><text style="&st18;" transform="matrix(&st16;  1433.93  467.21 )">B</text><text style="&st18;" transform="matrix(&st16;  1425.38  467.21 )">4</text><text style="&st18;" transform="matrix(&st16;  1408.43  467.21 )">B</text><text style="&st18;" transform="matrix(&st16;  1399.89  467.21 )">2</text><text style="&st18;" transform="matrix(&st17;  1237.1  395.19 )">R</text><text style="&st18;" transform="matrix(&st16;  1446.48  320.73 )">Q3</text><text style="&st18;" transform="matrix(&st17;  1186.11  396.07 )">W</text><text ewd:textID="18" style="&st18;" transform="matrix(&st16;  1446.48  327.83 )">Rear Speaker <tspan dy="6" x="0">Assembly LH</tspan></text><text style="&st18;" transform="matrix(&st16;  1365.94  424.15 )">A</text><text ewd:textID="23" style="&st18;" transform="matrix(&st17;  1101.12  463.23 )">Short Connector</text><text style="&st18;" transform="matrix(&st17;  1094.01  463.23 )">P6(A),P7(B)</text><text ewd:textID="23" style="&st18;" transform="matrix(&st17;  1347.58  463.23 )">Short Connector</text><text style="&st18;" transform="matrix(&st17;  1340.47  463.23 )">Q6(A),Q7(B)</text><text ewd:textID="17" style="&st18;" transform="matrix(&st16;  1272.26  61.83 )">Radio Receiver Assembly</text><text style="&st18;" transform="matrix(&st16;  1272.26  54.72 )">L34(O),L35(B),L50(D)</text></svg>