﻿<?xml version="1.0" encoding="utf-8"?>
<!DOCTYPE svg PUBLIC "-//W3C//DTD SVG 1.0//EN" "http://www.w3.org/TR/2001/REC-SVG-20010904/DTD/svg10.dtd"[
	<!ENTITY ns_flows "http://ns.adobe.com/Flows/1.0/">
	<!ENTITY ns_svg "http://www.w3.org/2000/svg">
	<!ENTITY ns_xlink "http://www.w3.org/1999/xlink">
	<!ENTITY st0 "font-size:7px;font-family:'MS-PGothic';adobe-font-script:japanese;">
	<!ENTITY st1 "font-size:6px;font-family:'ArialMT';">
	<!-- White fill  -->
	<!ENTITY st2 "fill:#FFFFFF;stroke:#000000; stroke-width:1.41;stroke-linecap:round;stroke-linejoin:round;">
	<!-- Yellow fill  -->
	<!ENTITY st3 "fill:#FFFFCC;stroke:#FFFFCC; stroke-width:0.1;stroke-linecap:round;stroke-linejoin:round;">
	<!-- Gray fill  -->
	<!ENTITY st4 "fill:#CCCCCC;stroke:#CCCCCC; stroke-width:0.1;stroke-linecap:round;stroke-linejoin:round;">
	<!-- Light-blue fill -->
	<!ENTITY st5 "fill:#CCECF4;stroke:#000000; stroke-width:1.133;stroke-linecap:round;stroke-linejoin:round;">
	<!ENTITY st6 "fill:none;stroke-linecap:butt; stroke-linejoin:round;">
	<!ENTITY st7 "fill:none;stroke:#000000;stroke-linecap:round;stroke-linejoin:round;">
	<!ENTITY st8 "enable-background:new    ;">
	<!-- Black fill -->
	<!ENTITY st9 "fill:#000000;stroke:#000000; stroke-linecap:round;stroke-linejoin:round;">
	<!-- SRS note   -->
	<!ENTITY st10 "font-size:9px;font-family:'ArialMT';">
	<!ENTITY st11 "font-size:9px;font-family:'Svg Symbol';">
	<!ENTITY st12 "font-size:6px;font-family:'Svg Symbol';">
	<!ENTITY st13 "fill:none;stroke:#ff0000;stroke-linecap:round;stroke-linejoin:round;">
	<!-- Yellow fill  -->
	<!ENTITY st14 "fill:#FFFF00;stroke:#FFFF00; stroke-width:0.1;stroke-linecap:round;stroke-linejoin:round;">
	<!ENTITY st15 "font-size:6px;font-family:'MS-PGothic';adobe-font-script:japanese;">
	<!ENTITY st16 "1.00 0.00 0.00 1.00">
	<!ENTITY st17 "0.00 -1.00 1.00 0.00">
	<!ENTITY st18 "font-size:6px;font-family:'Arial';">
	<!ENTITY st19 "font-size:9px;font-family:'Arial';">
	<!ENTITY st20 "font-size:6px;font-family:'MS-PGothic','MS PGothic';adobe-font-script:japanese;">
	<!ENTITY st21 "font-size:7px;font-family:'MS-PGothic','MS PGothic';adobe-font-script:japanese;">
	<!ATTLIST svg
		xmlns:ewd CDATA #FIXED "http://shcl.co.jp/ewd"
		xmlns:a CDATA #FIXED "http://ns.adobe.com/AdobeSVGViewerExtensions/3.0/"
		ewd:ver CDATA #IMPLIED
	>
	<!ATTLIST a
		ewd:lineID CDATA #IMPLIED
		ewd:groupID CDATA #IMPLIED
		ewd:figtype CDATA #IMPLIED
		ewd:code CDATA #IMPLIED
		ewd:figID CDATA #IMPLIED
		ewd:pinNo CDATA #IMPLIED
		ewd:comment CDATA #IMPLIED >
	<!ATTLIST g
		ewd:lineID CDATA #IMPLIED
		ewd:groupID CDATA #IMPLIED
		ewd:figtype CDATA #IMPLIED
		ewd:code CDATA #IMPLIED
		ewd:figID CDATA #IMPLIED
		ewd:pinNo CDATA #IMPLIED
		ewd:comment CDATA #IMPLIED >
	<!ATTLIST text
		ewd:textID CDATA #IMPLIED >
	<!ATTLIST title
		ewd:textID CDATA #IMPLIED >
]>
<!-- Generator: Shintec Hozumi YS   -->
<svg onload="call_execInitLoadProc_svg('system')" style="overflow:visible;  enable-background:new 0 0 7635.097 710.000" viewBox="0 0 7635.097 710.000" height="710.000" width="7635.097" xml:space="preserve" ewd:ver="L2.1.2.6" xmlns="&ns_svg;" xmlns:a="http://ns.adobe.com/AdobeSVGViewerExtensions/3.0/" xmlns:ewd="http://shcl.co.jp/ewd" xmlns:xlink="&ns_xlink;">
<path d=" M 6127.48,  435.21  L 6135.97,  435.21 " style="stroke-width: 1.42 ;&st7; " /><path d=" M 6161.47,  435.21  L 6169.97,  435.21 " style="stroke-width: 1.42 ;&st7; " /><path d=" M 6424.93,  435.21  L 6433.43,  435.21 " style="stroke-width: 1.42 ;&st7; " /><path d=" M 6390.93,  435.21  L 6399.43,  435.21 " style="stroke-width: 1.42 ;&st7; " /><path d=" M 6140.22,  429.55  L 6135.97,  433.80  L 6131.72,  429.55 " style="stroke-width: 1.42 ;&st7; " /><path d=" M 6131.72,  426.15  L 6135.97,  430.40  L 6140.22,  426.15 " style="stroke-width: 1.42 ;&st7; " /><path d=" M 6042.49,  231.25  L 6042.49,  248.24  L 6093.48,  248.24  L 6093.48,  231.25  L 6042.49,  231.25 " style="stroke-width: 1.42 ;&st7; " /><path d=" M 6084.98,  358.73  L 6169.97,  358.73 " style="stroke-width: 0.85 ;&st7; " /><path d=" M 6084.98,  231.25  L 6084.98,  248.24 " style="stroke-width: 0.85 ;&st7; " /><path d=" M 6050.99,  333.23  L 6135.97,  333.23 " style="stroke-width: 0.85 ;&st7; " /><path d=" M 6042.49,  316.23  L 6042.49,  375.72  L 6178.47,  375.72  L 6178.47,  316.23  L 6042.49,  316.23 " style="stroke-width: 1.42 ;&st7; " /><path d=" M 6050.99,  231.25  L 6050.99,  248.24 " style="stroke-width: 0.85 ;&st7; " /><path d=" M 6169.97,  358.73  L 6169.97,  375.72 " style="stroke-width: 0.85 ;&st7; " /><path d=" M 6135.97,  333.23  L 6135.97,  375.72 " style="stroke-width: 0.85 ;&st7; " /><path d=" M 6165.72,  426.15  L 6169.97,  430.40  L 6174.22,  426.15 " style="stroke-width: 1.42 ;&st7; " /><path d=" M 6174.22,  429.55  L 6169.97,  433.80  L 6165.72,  429.55 " style="stroke-width: 1.42 ;&st7; " /><path d=" M 6083.79,  357.72  L 6083.52,  358.19  L 6083.42,  358.73  L 6083.52,  359.26  L 6083.79,  359.73  L 6084.20,  360.07  L 6084.71,  360.26  L 6085.25,  360.26  L 6085.76,  360.07  L 6086.17,  359.73  L 6086.45,  359.26  L 6086.54,  358.73  L 6086.45,  358.19  L 6086.17,  357.72  L 6085.76,  357.38  L 6085.25,  357.19  L 6084.71,  357.19  L 6084.20,  357.38  L 6083.79,  357.72  L 6084.18,  358.43  L 6084.18,  359.02  L 6084.56,  359.46  L 6085.13,  359.56  L 6085.63,  359.27  L 6085.83,  358.73  L 6085.63,  358.18  L 6085.13,  357.89  L 6084.56,  357.99  L 6084.98,  358.73 " style="stroke-width: 0.85 ;&st7; " /><path d=" M 6084.98,  316.23  L 6084.98,  375.72 " style="stroke-width: 0.85 ;&st7; " /><path d=" M 6049.79,  332.23  L 6049.52,  332.70  L 6049.43,  333.23  L 6049.52,  333.76  L 6049.79,  334.23  L 6050.21,  334.58  L 6050.72,  334.77  L 6051.26,  334.77  L 6051.77,  334.58  L 6052.18,  334.23  L 6052.45,  333.76  L 6052.54,  333.23  L 6052.45,  332.70  L 6052.18,  332.23  L 6051.77,  331.88  L 6051.26,  331.69  L 6050.72,  331.69  L 6050.21,  331.88  L 6049.79,  332.23  L 6050.19,  332.94  L 6050.19,  333.52  L 6050.56,  333.97  L 6051.13,  334.07  L 6051.64,  333.78  L 6051.84,  333.23  L 6051.64,  332.68  L 6051.13,  332.39  L 6050.56,  332.49  L 6050.99,  333.23 " style="stroke-width: 0.85 ;&st7; " /><path d=" M 6050.99,  316.23  L 6050.99,  375.72 " style="stroke-width: 0.85 ;&st7; " /><path d=" M 6433.42,  358.73  L 6433.42,  375.72 " style="stroke-width: 0.85 ;&st7; " /><path d=" M 6331.44,  358.73  L 6331.44,  316.23 " style="stroke-width: 0.85 ;&st7; " /><path d=" M 6296.25,  332.23  L 6295.98,  332.70  L 6295.89,  333.23  L 6295.98,  333.76  L 6296.25,  334.23  L 6296.67,  334.58  L 6297.18,  334.77  L 6297.71,  334.77  L 6298.22,  334.58  L 6298.64,  334.23  L 6298.91,  333.76  L 6299.00,  333.23  L 6298.91,  332.70  L 6298.64,  332.23  L 6298.22,  331.88  L 6297.71,  331.69  L 6297.18,  331.69  L 6296.67,  331.88  L 6296.25,  332.23  L 6296.65,  332.94  L 6296.65,  333.52  L 6297.02,  333.97  L 6297.59,  334.07  L 6298.10,  333.78  L 6298.29,  333.23  L 6298.10,  332.68  L 6297.59,  332.39  L 6297.02,  332.49  L 6297.45,  333.23 " style="stroke-width: 0.85 ;&st7; " /><path d=" M 6330.25,  357.72  L 6329.97,  358.19  L 6329.88,  358.73  L 6329.97,  359.26  L 6330.25,  359.73  L 6330.66,  360.07  L 6331.17,  360.26  L 6331.71,  360.26  L 6332.22,  360.07  L 6332.63,  359.73  L 6332.90,  359.26  L 6333.00,  358.73  L 6332.90,  358.19  L 6332.63,  357.72  L 6332.22,  357.38  L 6331.71,  357.19  L 6331.17,  357.19  L 6330.66,  357.38  L 6330.25,  357.72  L 6330.64,  358.43  L 6330.64,  359.02  L 6331.01,  359.46  L 6331.59,  359.56  L 6332.09,  359.27  L 6332.29,  358.73  L 6332.09,  358.18  L 6331.59,  357.89  L 6331.01,  357.99  L 6331.44,  358.73 " style="stroke-width: 0.85 ;&st7; " /><path d=" M 6429.17,  426.15  L 6433.42,  430.40  L 6437.67,  426.15 " style="stroke-width: 1.42 ;&st7; " /><path d=" M 6437.67,  429.55  L 6433.42,  433.80  L 6429.17,  429.55 " style="stroke-width: 1.42 ;&st7; " /><path d=" M 6297.45,  333.23  L 6297.45,  316.23 " style="stroke-width: 0.85 ;&st7; " /><path d=" M 6297.45,  375.72  L 6297.45,  333.23  L 6399.43,  333.23 " style="stroke-width: 0.85 ;&st7; " /><path d=" M 6288.95,  316.23  L 6288.95,  375.72  L 6441.92,  375.72  L 6441.92,  316.23  L 6288.95,  316.23 " style="stroke-width: 1.42 ;&st7; " /><path d=" M 6331.44,  375.72  L 6331.44,  358.73  L 6433.42,  358.73 " style="stroke-width: 0.85 ;&st7; " /><path d=" M 6403.68,  429.55  L 6399.43,  433.80  L 6395.18,  429.55 " style="stroke-width: 1.42 ;&st7; " /><path d=" M 6395.18,  426.15  L 6399.43,  430.40  L 6403.68,  426.15 " style="stroke-width: 1.42 ;&st7; " /><path d=" M 6399.43,  333.23  L 6399.43,  375.72 " style="stroke-width: 0.85 ;&st7; " /><path d=" M 6331.44,  231.25  L 6331.44,  248.24 " style="stroke-width: 0.85 ;&st7; " /><path d=" M 6297.45,  231.25  L 6297.45,  248.24 " style="stroke-width: 0.85 ;&st7; " /><path d=" M 6288.95,  231.25  L 6288.95,  248.24  L 6339.94,  248.24  L 6339.94,  231.25  L 6288.95,  231.25 " style="stroke-width: 1.42 ;&st7; " /><path d=" M 6089.52,  125.30  C 6089.52   122.79  6087.49   120.77  6084.98   120.77 " style="stroke-width: 1.42 ;&st7; " /><path d=" M 6084.98,  120.77  C 6082.48   120.77  6080.45   122.79  6080.45   125.30 " style="stroke-width: 1.42 ;&st7; " /><path d=" M 6080.45,  125.30  C 6080.45   127.80  6082.48   129.83  6084.98   129.83 " style="stroke-width: 1.42 ;&st7; " /><path d=" M 6084.98,  129.83  C 6087.49   129.83  6089.52   127.80  6089.52   125.30 " style="stroke-width: 1.42 ;&st7; " /><path d=" M 6055.52,  125.30  C 6055.52   122.79  6053.49   120.77  6050.99   120.77 " style="stroke-width: 1.42 ;&st7; " /><path d=" M 6050.99,  120.77  C 6048.49   120.77  6046.46   122.79  6046.46   125.30 " style="stroke-width: 1.42 ;&st7; " /><path d=" M 6046.46,  125.30  C 6046.46   127.80  6048.49   129.83  6050.99   129.83 " style="stroke-width: 1.42 ;&st7; " /><path d=" M 6050.99,  129.83  C 6053.49   129.83  6055.52   127.80  6055.52   125.30 " style="stroke-width: 1.42 ;&st7; " /><text style="&st18;" transform="matrix(&st17;  6047.29  284.57 )">V</text><text style="&st18;" transform="matrix(&st16;  6082.51  127.27 )">D</text><text style="&st18;" transform="matrix(&st16;  6070.15  127.27 )">24</text><text style="&st18;" transform="matrix(&st16;  6048.52  127.27 )">D</text><text style="&st18;" transform="matrix(&st16;  6036.16  127.27 )">25</text><text style="&st18;" transform="matrix(&st16;  6075.02  256.44 )">14</text><text style="&st18;" transform="matrix(&st16;  6044.2  256.44 )">3</text><text style="&st18;" transform="matrix(&st16;  6076.61  117.07 )">CA1L</text><text style="&st18;" transform="matrix(&st17;  6132.28  405.95 )">LG</text><text style="&st18;" transform="matrix(&st17;  6166.27  403.2 )">L</text><text style="&st18;" transform="matrix(&st16;  6044.2  383.92 )">6</text><text style="&st18;" transform="matrix(&st16;  6160.0  383.92 )">21</text><text style="&st18;" transform="matrix(&st16;  6126.01  383.92 )">10</text><text style="&st18;" transform="matrix(&st16;  6075.02  383.92 )">17</text><text style="&st18;" transform="matrix(&st16;  6042.12  117.07 )">CA1H</text><text style="&st18;" transform="matrix(&st17;  6047.29  403.97 )">G</text><text style="&st18;" transform="matrix(&st17;  6081.29  404.57 )">W</text><text style="&st18;" transform="matrix(&st17;  6081.29  209.11 )">W</text><text style="&st18;" transform="matrix(&st17;  6047.29  208.08 )">B</text><text style="&st18;" transform="matrix(&st16;  6044.2  227.56 )">8</text><text style="&st18;" transform="matrix(&st16;  6155.15  441.43 )">2</text><text style="&st18;" transform="matrix(&st16;  6190.73  550.5 )">LG</text><text style="&st18;" transform="matrix(&st16;  6193.49  499.5 )">L</text><text style="&st18;" transform="matrix(&st16;  6241.72  550.5 )">LG</text><text style="&st18;" transform="matrix(&st16;  6244.48  499.5 )">L</text><text style="&st18;" transform="matrix(&st16;  6244.13  626.98 )">V</text><text style="&st18;" transform="matrix(&st16;  6193.13  626.98 )">V</text><text style="&st18;" transform="matrix(&st16;  6121.16  441.43 )">3</text><text style="&st18;" transform="matrix(&st16;  6075.02  227.56 )">19</text><text style="&st18;" transform="matrix(&st17;  6101.09  250.77 )">L95</text><text ewd:textID="20" style="&st18;" transform="matrix(&st17;  6108.2  250.77 )">Junction <tspan dy="6" x="0">Connector</tspan></text><text style="&st18;" transform="matrix(&st17;  6186.08  378.25 )">L94</text><text ewd:textID="20" style="&st18;" transform="matrix(&st17;  6193.19  378.25 )">Junction <tspan dy="6" x="0">Connector</tspan></text><text style="&st18;" transform="matrix(&st16;  6075.02  312.54 )">18</text><text style="&st18;" transform="matrix(&st16;  6044.2  312.54 )">7</text><text style="&st18;" transform="matrix(&st17;  6081.29  285.59 )">W</text><text style="&st18;" transform="matrix(&st17;  6058.63  417.08 )">(LHD *13)</text><text style="&st18;" transform="matrix(&st17;  6092.62  417.08 )">(LHD *13)</text><text style="&st18;" transform="matrix(&st17;  6395.74  405.95 )">LG</text><text style="&st18;" transform="matrix(&st17;  6429.73  403.2 )">L</text><text style="&st18;" transform="matrix(&st16;  6416.21  441.43 )">11</text><text style="&st18;" transform="matrix(&st16;  6381.44  441.43 )">10</text><text style="&st18;" transform="matrix(&st16;  6290.66  383.92 )">5</text><text style="&st18;" transform="matrix(&st16;  6321.47  383.92 )">16</text><text style="&st18;" transform="matrix(&st16;  6290.66  312.54 )">6</text><text style="&st18;" transform="matrix(&st16;  6423.46  383.92 )">14</text><text style="&st18;" transform="matrix(&st17;  6449.53  378.25 )">L95</text><text ewd:textID="20" style="&st18;" transform="matrix(&st17;  6456.64  378.25 )">Junction Connector</text><text style="&st18;" transform="matrix(&st16;  6392.64  383.92 )">3</text><text style="&st18;" transform="matrix(&st17;  6339.08  417.57 )">(RHD *13)</text><text style="&st18;" transform="matrix(&st17;  6327.75  404.57 )">W</text><text style="&st18;" transform="matrix(&st17;  6293.75  284.57 )">V</text><text style="&st18;" transform="matrix(&st17;  6327.75  285.59 )">W</text><text style="&st18;" transform="matrix(&st16;  6321.47  312.54 )">17</text><text style="&st18;" transform="matrix(&st17;  6305.09  417.57 )">(RHD *13)</text><text style="&st18;" transform="matrix(&st17;  6293.75  403.97 )">G</text><text style="&st18;" transform="matrix(&st17;  6347.55  250.77 )">L94</text><text ewd:textID="20" style="&st18;" transform="matrix(&st17;  6354.66  250.77 )">Junction Connector</text><text style="&st18;" transform="matrix(&st16;  6290.66  227.56 )">6</text><text style="&st18;" transform="matrix(&st16;  6321.47  227.56 )">17</text><text style="&st18;" transform="matrix(&st16;  6290.66  256.44 )">3</text><text style="&st18;" transform="matrix(&st16;  6321.47  256.44 )">14</text><text style="&st18;" transform="matrix(&st16;  6243.1  151.06 )">W</text><text style="&st18;" transform="matrix(&st16;  6230.1  162.39 )">(RHD *13)</text><text style="&st18;" transform="matrix(&st16;  6192.11  151.06 )">W</text><text style="&st18;" transform="matrix(&st16;  6179.11  162.39 )">(RHD *13)</text><text style="&st18;" transform="matrix(&st16;  6179.11  187.89 )">(RHD *13)</text><text style="&st18;" transform="matrix(&st16;  6193.13  176.56 )">B</text><text style="&st18;" transform="matrix(&st16;  6230.1  187.89 )">(RHD *13)</text><text style="&st18;" transform="matrix(&st16;  6244.13  176.56 )">B</text><text style="&st18;" transform="matrix(&st17;  6092.62  221.61 )">(LHD *13)</text><text style="&st18;" transform="matrix(&st17;  6058.63  221.61 )">(LHD *13)</text><text style="&st18;" transform="matrix(&st17;  6058.63  298.1 )">(LHD *13)</text><text style="&st18;" transform="matrix(&st17;  6092.62  298.1 )">(LHD *13)</text><text style="&st18;" transform="matrix(&st17;  6305.09  298.59 )">(RHD *13)</text><text style="&st18;" transform="matrix(&st17;  6339.08  298.59 )">(RHD *13)</text><text style="&st18;" transform="matrix(&st17;  6441.06  417.57 )">(RHD *13)</text><text style="&st18;" transform="matrix(&st17;  6407.07  417.57 )">(RHD *13)</text><text style="&st18;" transform="matrix(&st16;  6482.44  474.01 )">L</text><text style="&st18;" transform="matrix(&st16;  6468.06  485.34 )">(RHD *13)</text><text style="&st18;" transform="matrix(&st16;  6482.44  499.5 )">L</text><text style="&st18;" transform="matrix(&st16;  6468.56  510.84 )">(LHD *13)</text><text style="&st18;" transform="matrix(&st16;  6479.68  525.0 )">LG</text><text style="&st18;" transform="matrix(&st16;  6468.06  536.33 )">(RHD *13)</text><text style="&st18;" transform="matrix(&st16;  6479.68  550.5 )">LG</text><text style="&st18;" transform="matrix(&st16;  6468.56  561.83 )">(LHD *13)</text><text style="&st18;" transform="matrix(&st16;  6230.6  561.83 )">(LHD *13)</text><text style="&st18;" transform="matrix(&st16;  6179.61  561.83 )">(LHD *13)</text><text style="&st18;" transform="matrix(&st16;  6230.6  510.84 )">(LHD *13)</text><text style="&st18;" transform="matrix(&st16;  6179.61  510.84 )">(LHD *13)</text><text style="&st18;" transform="matrix(&st17;  6177.61  417.08 )">(LHD *13)</text><text style="&st18;" transform="matrix(&st17;  6143.61  417.08 )">(LHD *13)</text><text style="&st18;" transform="matrix(&st16;  6179.11  587.32 )">(RHD *13)</text><text style="&st18;" transform="matrix(&st16;  6230.1  612.82 )">(RHD *13)</text><text style="&st18;" transform="matrix(&st16;  6230.1  587.32 )">(RHD *13)</text><text style="&st18;" transform="matrix(&st16;  6243.7  575.99 )">G</text><text style="&st18;" transform="matrix(&st16;  6192.11  601.49 )">W</text><text style="&st18;" transform="matrix(&st16;  6243.1  601.49 )">W</text><text style="&st18;" transform="matrix(&st16;  6192.71  575.99 )">G</text><text style="&st18;" transform="matrix(&st16;  6179.11  612.82 )">(RHD *13)</text></svg>