﻿<?xml version="1.0" encoding="utf-8"?>
<!DOCTYPE svg PUBLIC "-//W3C//DTD SVG 1.0//EN" "http://www.w3.org/TR/2001/REC-SVG-20010904/DTD/svg10.dtd"[
	<!ENTITY ns_flows "http://ns.adobe.com/Flows/1.0/">
	<!ENTITY ns_svg "http://www.w3.org/2000/svg">
	<!ENTITY ns_xlink "http://www.w3.org/1999/xlink">
	<!ENTITY st0 "font-size:7px;font-family:'MS-PGothic';adobe-font-script:japanese;">
	<!ENTITY st1 "font-size:6px;font-family:'ArialMT';">
	<!-- White fill  -->
	<!ENTITY st2 "fill:#FFFFFF;stroke:#000000; stroke-width:1.41;stroke-linecap:round;stroke-linejoin:round;">
	<!-- Yellow fill  -->
	<!ENTITY st3 "fill:#FFFFCC;stroke:#FFFFCC; stroke-width:0.1;stroke-linecap:round;stroke-linejoin:round;">
	<!-- Gray fill  -->
	<!ENTITY st4 "fill:#CCCCCC;stroke:#CCCCCC; stroke-width:0.1;stroke-linecap:round;stroke-linejoin:round;">
	<!-- Light-blue fill -->
	<!ENTITY st5 "fill:#CCECF4;stroke:#000000; stroke-width:1.133;stroke-linecap:round;stroke-linejoin:round;">
	<!ENTITY st6 "fill:none;stroke-linecap:butt; stroke-linejoin:round;">
	<!ENTITY st7 "fill:none;stroke:#000000;stroke-linecap:round;stroke-linejoin:round;">
	<!ENTITY st8 "enable-background:new    ;">
	<!-- Black fill -->
	<!ENTITY st9 "fill:#000000;stroke:#000000; stroke-linecap:round;stroke-linejoin:round;">
	<!-- SRS note   -->
	<!ENTITY st10 "font-size:9px;font-family:'ArialMT';">
	<!ENTITY st11 "font-size:9px;font-family:'Svg Symbol';">
	<!ENTITY st12 "font-size:6px;font-family:'Svg Symbol';">
	<!ENTITY st13 "fill:none;stroke:#ff0000;stroke-linecap:round;stroke-linejoin:round;">
	<!-- Yellow fill  -->
	<!ENTITY st14 "fill:#FFFF00;stroke:#FFFF00; stroke-width:0.1;stroke-linecap:round;stroke-linejoin:round;">
	<!ENTITY st15 "font-size:6px;font-family:'MS-PGothic';adobe-font-script:japanese;">
	<!ENTITY st16 "1.00 0.00 0.00 1.00">
	<!ENTITY st17 "0.00 -1.00 1.00 0.00">
	<!ENTITY st18 "font-size:6px;font-family:'Arial';">
	<!ENTITY st19 "font-size:9px;font-family:'Arial';">
	<!ENTITY st20 "font-size:6px;font-family:'MS-PGothic','MS PGothic';adobe-font-script:japanese;">
	<!ENTITY st21 "font-size:7px;font-family:'MS-PGothic','MS PGothic';adobe-font-script:japanese;">
	<!ATTLIST svg
		xmlns:ewd CDATA #FIXED "http://shcl.co.jp/ewd"
		xmlns:a CDATA #FIXED "http://ns.adobe.com/AdobeSVGViewerExtensions/3.0/"
		ewd:ver CDATA #IMPLIED
	>
	<!ATTLIST a
		ewd:lineID CDATA #IMPLIED
		ewd:groupID CDATA #IMPLIED
		ewd:figtype CDATA #IMPLIED
		ewd:code CDATA #IMPLIED
		ewd:figID CDATA #IMPLIED
		ewd:pinNo CDATA #IMPLIED
		ewd:comment CDATA #IMPLIED >
	<!ATTLIST g
		ewd:lineID CDATA #IMPLIED
		ewd:groupID CDATA #IMPLIED
		ewd:figtype CDATA #IMPLIED
		ewd:code CDATA #IMPLIED
		ewd:figID CDATA #IMPLIED
		ewd:pinNo CDATA #IMPLIED
		ewd:comment CDATA #IMPLIED >
	<!ATTLIST text
		ewd:textID CDATA #IMPLIED >
	<!ATTLIST title
		ewd:textID CDATA #IMPLIED >
]>
<!-- Generator: Shintec Hozumi YS   -->
<svg onload="call_execInitLoadProc_svg('system')" style="overflow:visible;  enable-background:new 0 0 7635.097 710.000" viewBox="0 0 7635.097 710.000" height="710.000" width="7635.097" xml:space="preserve" ewd:ver="L2.1.2.6" xmlns="&ns_svg;" xmlns:a="http://ns.adobe.com/AdobeSVGViewerExtensions/3.0/" xmlns:ewd="http://shcl.co.jp/ewd" xmlns:xlink="&ns_xlink;">
<path d=" M 2694.05,  154.76  L 2694.05,  171.76 " style="stroke-width: 0.85 ;&st7; " /><path d=" M 2677.05,  129.26  L 2694.05,  154.76  L 2711.05,  129.26  L 2677.05,  129.26 " style="stroke-width: 1.42 ;&st7; " /><path d=" M 2694.05,  129.26  L 2694.05,  154.76 " style="stroke-width: 1.42 ;&st7; " /><path d=" M 2677.05,  171.76  L 2711.05,  171.76  L 2711.05,  205.75  L 2677.05,  205.75  L 2677.05,  171.76 " style="stroke-width: 1.42 ;&st7; " /><path d=" M 2838.52,  154.76  L 2838.52,  188.75  L 2872.52,  188.75  L 2872.52,   86.77 " style="stroke-width: 0.85 ;&st7; " /><path d=" M 2821.53,  129.26  L 2838.52,  154.76  L 2855.52,  129.26  L 2821.53,  129.26 " style="stroke-width: 1.42 ;&st7; " /><path d=" M 2838.52,  129.26  L 2838.52,  154.76 " style="stroke-width: 1.42 ;&st7; " /><path d=" M 2923.51,  154.76  L 2923.51,  188.75  L 2957.50,  188.75  L 2957.50,   86.77 " style="stroke-width: 0.85 ;&st7; " /><path d=" M 2906.51,  129.26  L 2923.51,  154.76  L 2940.51,  129.26  L 2906.51,  129.26 " style="stroke-width: 1.42 ;&st7; " /><path d=" M 2923.51,  129.26  L 2923.51,  154.76 " style="stroke-width: 1.42 ;&st7; " /><path d=" M 2758.07,   91.30  C 2758.07    88.80  2756.04    86.77  2753.54    86.77 " style="stroke-width: 1.42 ;&st7; " /><path d=" M 2753.54,   86.77  C 2751.04    86.77  2749.01    88.80  2749.01    91.30 " style="stroke-width: 1.42 ;&st7; " /><path d=" M 2749.01,   91.30  C 2749.01    93.81  2751.04    95.84  2753.54    95.84 " style="stroke-width: 1.42 ;&st7; " /><path d=" M 2753.54,   95.84  C 2756.04    95.84  2758.07    93.81  2758.07    91.30 " style="stroke-width: 1.42 ;&st7; " /><text ewd:textID="45" style="&st18;" transform="matrix(&st16;  2901.36  119.63 )">Sub <tspan dy="6" x="0">Antenna (*13)</tspan></text><text ewd:textID="21" style="&st18;" transform="matrix(&st16;  2816.38  119.63 )">Main <tspan dy="6" x="0">Antenna (*13)</tspan></text><text style="&st18;" transform="matrix(&st16;  2746.62  83.07 )">ANT</text><text style="&st18;" transform="matrix(&st17;  2718.66  208.28 )">L36</text><text style="&st18;" transform="matrix(&st17;  2749.84  150.92 )">BE</text><text style="&st18;" transform="matrix(&st16;  2750.78  93.27 )">O</text><text style="&st18;" transform="matrix(&st16;  2742.66  93.27 )">8</text><text ewd:textID="9" style="&st18;" transform="matrix(&st17;  2725.76  208.28 )">Amplifier Antenna Assembly</text><text ewd:textID="10" style="&st18;" transform="matrix(&st16;  2680.84  125.85 )">Antenna</text><text style="&st18;" transform="matrix(&st16;  2691.72  202.05 )">B</text><text style="&st18;" transform="matrix(&st16;  2687.26  213.94 )">2</text><text ewd:textID="32" style="&st18;" transform="matrix(&st16;  2759.51  58.99 )">Radio Receiver Assembly</text><text style="&st18;" transform="matrix(&st16;  2759.51  51.89 )">L34(O),L35(B),L126(Q)</text><text style="&st18;" transform="matrix(&st16;  2759.51  66.05 )">L146(P),L147(H),L148(I),L149(J),L153(K),z22(M),z23(N)</text><text ewd:textID="31" style="&st18;" transform="matrix(&st16;  2759.51  73.16 )">Radio &amp; Display Receiver Assembly</text><text ewd:textID="5" style="&st18;" transform="matrix(&st16;  2793.51  360.69 )">*13 :w/ Radio &amp; Display Receiver Assembly Type</text><text ewd:textID="4" style="&st18;" transform="matrix(&st16;  2793.51  352.2 )">*12 :w/ Radio Receiver Assembly Type</text><text style="&st18;" transform="matrix(&st17;  2761.18  154.03 )">(*12)</text><text ewd:textID="7" style="&st18;" transform="matrix(&st16;  2793.51  369.19 )">*15 :Before May 2014 Production</text><text ewd:textID="8" style="&st18;" transform="matrix(&st16;  2793.51  377.69 )">*16 :From May 2014 Production</text></svg>