﻿<?xml version="1.0" encoding="utf-8"?>
<!DOCTYPE svg PUBLIC "-//W3C//DTD SVG 1.0//EN" "http://www.w3.org/TR/2001/REC-SVG-20010904/DTD/svg10.dtd"[
	<!ENTITY ns_flows "http://ns.adobe.com/Flows/1.0/">
	<!ENTITY ns_svg "http://www.w3.org/2000/svg">
	<!ENTITY ns_xlink "http://www.w3.org/1999/xlink">
	<!ENTITY st0 "font-size:7px;font-family:'MS-PGothic';adobe-font-script:japanese;">
	<!ENTITY st1 "font-size:6px;font-family:'ArialMT';">
	<!-- White fill  -->
	<!ENTITY st2 "fill:#FFFFFF;stroke:#000000; stroke-width:1.41;stroke-linecap:round;stroke-linejoin:round;">
	<!-- Yellow fill  -->
	<!ENTITY st3 "fill:#FFFFCC;stroke:#FFFFCC; stroke-width:0.1;stroke-linecap:round;stroke-linejoin:round;">
	<!-- Gray fill  -->
	<!ENTITY st4 "fill:#CCCCCC;stroke:#CCCCCC; stroke-width:0.1;stroke-linecap:round;stroke-linejoin:round;">
	<!-- Light-blue fill -->
	<!ENTITY st5 "fill:#CCECF4;stroke:#000000; stroke-width:1.133;stroke-linecap:round;stroke-linejoin:round;">
	<!ENTITY st6 "fill:none;stroke-linecap:butt; stroke-linejoin:round;">
	<!ENTITY st7 "fill:none;stroke:#000000;stroke-linecap:round;stroke-linejoin:round;">
	<!ENTITY st8 "enable-background:new    ;">
	<!-- Black fill -->
	<!ENTITY st9 "fill:#000000;stroke:#000000; stroke-linecap:round;stroke-linejoin:round;">
	<!-- SRS note   -->
	<!ENTITY st10 "font-size:9px;font-family:'ArialMT';">
	<!ENTITY st11 "font-size:9px;font-family:'Svg Symbol';">
	<!ENTITY st12 "font-size:6px;font-family:'Svg Symbol';">
	<!ENTITY st13 "fill:none;stroke:#ff0000;stroke-linecap:round;stroke-linejoin:round;">
	<!-- Yellow fill  -->
	<!ENTITY st14 "fill:#FFFF00;stroke:#FFFF00; stroke-width:0.1;stroke-linecap:round;stroke-linejoin:round;">
	<!ENTITY st15 "font-size:6px;font-family:'MS-PGothic';adobe-font-script:japanese;">
	<!ENTITY st16 "1.00 0.00 0.00 1.00">
	<!ENTITY st17 "0.00 -1.00 1.00 0.00">
	<!ENTITY st18 "font-size:6px;font-family:'Arial';">
	<!ENTITY st19 "font-size:9px;font-family:'Arial';">
	<!ENTITY st20 "font-size:6px;font-family:'MS-PGothic','MS PGothic';adobe-font-script:japanese;">
	<!ENTITY st21 "font-size:7px;font-family:'MS-PGothic','MS PGothic';adobe-font-script:japanese;">
	<!ATTLIST svg
		xmlns:ewd CDATA #FIXED "http://shcl.co.jp/ewd"
		xmlns:a CDATA #FIXED "http://ns.adobe.com/AdobeSVGViewerExtensions/3.0/"
		ewd:ver CDATA #IMPLIED
	>
	<!ATTLIST a
		ewd:lineID CDATA #IMPLIED
		ewd:groupID CDATA #IMPLIED
		ewd:figtype CDATA #IMPLIED
		ewd:code CDATA #IMPLIED
		ewd:figID CDATA #IMPLIED
		ewd:pinNo CDATA #IMPLIED
		ewd:comment CDATA #IMPLIED >
	<!ATTLIST g
		ewd:lineID CDATA #IMPLIED
		ewd:groupID CDATA #IMPLIED
		ewd:figtype CDATA #IMPLIED
		ewd:code CDATA #IMPLIED
		ewd:figID CDATA #IMPLIED
		ewd:pinNo CDATA #IMPLIED
		ewd:comment CDATA #IMPLIED >
	<!ATTLIST text
		ewd:textID CDATA #IMPLIED >
	<!ATTLIST title
		ewd:textID CDATA #IMPLIED >
]>
<!-- Generator: Shintec Hozumi YS   -->
<svg onload="call_execInitLoadProc_svg('system')" style="overflow:visible;  enable-background:new 0 0 4139.333 710.000" viewBox="0 0 4139.333 710.000" height="710.000" width="4139.333" xml:space="preserve" ewd:ver="L2.1.2.6" xmlns="&ns_svg;" xmlns:a="http://ns.adobe.com/AdobeSVGViewerExtensions/3.0/" xmlns:ewd="http://shcl.co.jp/ewd" xmlns:xlink="&ns_xlink;">
<path d=" M 2424.22,   95.27  L 2419.97,   95.27 " style="stroke-width: 1.42 ;&st7; " /><path d=" M 2424.22,  103.77  L 2419.97,  103.77 " style="stroke-width: 1.42 ;&st7; " /><path d=" M 2235.13,  316.23  L 2235.13,  299.24 " style="stroke-width: 1.42 ;&st7; " /><path d=" M 2235.13,  307.73  L 2240.79,  307.73 " style="stroke-width: 0.85 ;&st7; " /><path d=" M 2234.56,  304.52  L 2226.63,  299.24 " style="stroke-width: 0.85 ;&st7; " /><path d=" M 2226.63,  316.23  L 2235.13,  310.57 " style="stroke-width: 0.85 ;&st7; " /><path d=" M 2426.34,  307.73  L 2417.85,  307.73 " style="stroke-width: 0.85 ;&st7; " /><path d=" M 2434.83,  298.07  L 2427.47,  302.32 " style="stroke-width: 0.85 ;&st7; " /><path d=" M 2429.47,  305.79  L 2436.83,  301.54 " style="stroke-width: 0.85 ;&st7; " /><path d=" M 2485.83,  307.73  L 2477.34,  307.73 " style="stroke-width: 0.85 ;&st7; " /><path d=" M 2494.32,  298.07  L 2486.96,  302.32 " style="stroke-width: 0.85 ;&st7; " /><path d=" M 2488.96,  305.79  L 2496.32,  301.54 " style="stroke-width: 0.85 ;&st7; " /><path d=" M 2485.83,  333.23  L 2477.34,  333.23 " style="stroke-width: 0.85 ;&st7; " /><path d=" M 2456.09,  333.23  L 2456.09,  322.61 " style="stroke-width: 0.85 ;&st7; " /><path d=" M 2456.09,  318.36  L 2456.09,  307.73 " style="stroke-width: 0.85 ;&st7; " /><path d=" M 2460.34,  318.36  L 2451.84,  318.36 " style="stroke-width: 1.42 ;&st7; " /><path d=" M 2460.34,  322.61  L 2451.84,  322.61 " style="stroke-width: 1.42 ;&st7; " /><path d=" M 2235.13,  452.21  L 2226.63,  452.21 " style="stroke-width: 1.42 ;&st7; " /><path d=" M 2277.62,  452.21  L 2269.12,  452.21 " style="stroke-width: 1.42 ;&st7; " /><path d=" M 2386.98,  305.79  L 2394.34,  301.54 " style="stroke-width: 0.85 ;&st7; " /><path d=" M 2392.34,  298.07  L 2384.97,  302.32 " style="stroke-width: 0.85 ;&st7; " /><path d=" M 2383.85,  307.73  L 2375.35,  307.73 " style="stroke-width: 0.85 ;&st7; " /><path d=" M 2422.10,  443.71  L 2417.04,  432.35 " style="stroke-width: 1.42 ;&st7; " /><path d=" M 2422.10,  443.71  L 2427.15,  432.35 " style="stroke-width: 1.42 ;&st7; " /><path d=" M 2379.60,  180.26  L 2374.54,  168.89 " style="stroke-width: 1.42 ;&st7; " /><path d=" M 2379.60,  180.26  L 2384.66,  168.89 " style="stroke-width: 1.42 ;&st7; " /><path d=" M 2481.59,  180.26  L 2476.53,  168.89 " style="stroke-width: 1.42 ;&st7; " /><path d=" M 2481.59,  180.26  L 2486.64,  168.89 " style="stroke-width: 1.42 ;&st7; " /><path d=" M 2394.34,  301.54  L 2392.00,  304.58  L 2390.54,  302.04  L 2394.34,  301.54  L 2393.05,  302.28  L 2392.07,  303.56  L 2391.45,  302.49  L 2393.05,  302.28  L 2392.41,  302.65  L 2392.10,  303.05  L 2391.91,  302.72  L 2392.41,  302.65 " style="stroke-width: 0.85 ;&st7; " /><path d=" M 2392.34,  298.07  L 2390.00,  301.11  L 2388.53,  298.57  L 2392.34,  298.07  L 2391.05,  298.81  L 2390.07,  300.09  L 2389.45,  299.02  L 2391.05,  298.81  L 2390.41,  299.18  L 2390.10,  299.58  L 2389.90,  299.25  L 2390.41,  299.18 " style="stroke-width: 0.85 ;&st7; " /><path d=" M 2379.60,  307.73  L 2373.94,  299.24  L 2385.27,  299.24  L 2379.60,  307.73 " style="stroke-width: 0.28 ;&st9;" /><path d=" M 2379.60,  358.73  L 2379.60,  350.23  L 2376.77,  348.81  L 2382.43,  345.98  L 2376.77,  343.14  L 2382.43,  340.31  L 2376.77,  337.48  L 2382.43,  334.65  L 2379.60,  333.23  L 2379.60,  222.75 " style="stroke-width: 0.85 ;&st7; " /><path d=" M 2378.18,  375.72  L 2381.02,  375.72 " style="stroke-width: 0.85 ;&st7; " /><path d=" M 2376.77,  372.89  L 2382.43,  372.89 " style="stroke-width: 0.85 ;&st7; " /><path d=" M 2375.35,  370.06  L 2383.85,  370.06 " style="stroke-width: 0.85 ;&st7; " /><path d=" M 2371.10,  367.22  L 2388.10,  367.22 " style="stroke-width: 0.85 ;&st7; " /><path d=" M 2379.60,  358.73  L 2379.60,  367.22 " style="stroke-width: 0.85 ;&st7; " /><path d=" M 2167.14,  316.23  L 2167.14,  333.23  L 2201.13,  333.23  L 2201.13,  316.23  L 2167.14,  316.23 " style="stroke-width: 1.42 ;&st7; " /><path d=" M 2226.63,  367.22  L 2184.13,  367.22  L 2184.13,  333.23 " style="stroke-width: 0.85 ;&st7; " /><path d=" M 2234.56,  304.52  L 2232.43,  301.34  L 2230.80,  303.78  L 2234.56,  304.52  L 2233.33,  303.70  L 2232.43,  302.36  L 2231.74,  303.39  L 2233.33,  303.70  L 2232.71,  303.29  L 2232.43,  302.87  L 2232.21,  303.19  L 2232.71,  303.29 " style="stroke-width: 0.85 ;&st7; " /><path d=" M 2226.63,  358.73  L 2226.63,  350.23  L 2223.79,  348.81  L 2229.46,  345.98  L 2223.79,  343.14  L 2229.46,  340.31  L 2223.79,  337.48  L 2229.46,  334.65  L 2226.63,  333.23  L 2226.63,  324.73 " style="stroke-width: 0.85 ;&st7; " /><path d=" M 2226.63,  316.23  L 2226.63,  324.73 " style="stroke-width: 0.85 ;&st7; " /><path d=" M 2226.63,  358.73  L 2226.63,  392.72 " style="stroke-width: 0.85 ;&st7; " /><path d=" M 2226.63,  299.24  L 2226.63,  290.74 " style="stroke-width: 0.85 ;&st7; " /><path d=" M 2133.14,  324.73  L 2167.14,  324.73 " style="stroke-width: 0.85 ;&st7; " /><path d=" M 2218.13,  290.74  L 2235.13,  290.74 " style="stroke-width: 0.85 ;&st7; " /><path d=" M 2225.43,  289.73  L 2225.16,  290.20  L 2225.07,  290.74  L 2225.16,  291.27  L 2225.43,  291.74  L 2225.85,  292.09  L 2226.36,  292.27  L 2226.90,  292.27  L 2227.41,  292.09  L 2227.82,  291.74  L 2228.09,  291.27  L 2228.19,  290.74  L 2228.09,  290.20  L 2227.82,  289.73  L 2227.41,  289.39  L 2226.90,  289.20  L 2226.36,  289.20  L 2225.85,  289.39  L 2225.43,  289.73  L 2225.83,  290.45  L 2225.83,  291.03  L 2226.20,  291.47  L 2226.77,  291.57  L 2227.28,  291.28  L 2227.48,  290.74  L 2227.28,  290.19  L 2226.77,  289.90  L 2226.20,  290.00  L 2226.63,  290.74 " style="stroke-width: 0.85 ;&st7; " /><path d=" M 2225.43,  366.22  L 2225.16,  366.69  L 2225.07,  367.22  L 2225.16,  367.76  L 2225.43,  368.23  L 2225.85,  368.57  L 2226.36,  368.76  L 2226.90,  368.76  L 2227.41,  368.57  L 2227.82,  368.23  L 2228.09,  367.76  L 2228.19,  367.22  L 2228.09,  366.69  L 2227.82,  366.22  L 2227.41,  365.88  L 2226.90,  365.69  L 2226.36,  365.69  L 2225.85,  365.88  L 2225.43,  366.22  L 2225.83,  366.93  L 2225.83,  367.52  L 2226.20,  367.96  L 2226.77,  368.06  L 2227.28,  367.77  L 2227.48,  367.22  L 2227.28,  366.68  L 2226.77,  366.39  L 2226.20,  366.49  L 2226.63,  367.22 " style="stroke-width: 0.85 ;&st7; " /><path d=" M 2303.11,  358.73  L 2303.11,  367.22 " style="stroke-width: 0.85 ;&st7; " /><path d=" M 2294.62,  367.22  L 2311.61,  367.22 " style="stroke-width: 0.85 ;&st7; " /><path d=" M 2298.86,  370.06  L 2307.36,  370.06 " style="stroke-width: 0.85 ;&st7; " /><path d=" M 2300.28,  372.89  L 2305.95,  372.89 " style="stroke-width: 0.85 ;&st7; " /><path d=" M 2301.70,  375.72  L 2304.53,  375.72 " style="stroke-width: 0.85 ;&st7; " /><path d=" M 2269.12,  392.72  L 2269.12,  350.23  L 2303.11,  350.23  L 2303.11,  358.73 " style="stroke-width: 0.85 ;&st7; " /><path d=" M 2116.15,  375.72  L 2141.64,  375.72  L 2141.64,  392.72 " style="stroke-width: 0.85 ;&st7; " /><path d=" M 2099.15,  350.23  L 2099.15,  367.22  L 2133.14,  367.22  L 2133.14,  350.23  L 2099.15,  350.23 " style="stroke-width: 1.42 ;&st7; " /><path d=" M 2116.15,  350.23  L 2116.15,  333.23 " style="stroke-width: 0.85 ;&st7; " /><path d=" M 2116.15,  367.22  L 2116.15,  392.72 " style="stroke-width: 0.85 ;&st7; " /><path d=" M 2422.09,  307.73  L 2416.43,  299.24  L 2427.76,  299.24  L 2422.09,  307.73 " style="stroke-width: 0.28 ;&st9;" /><path d=" M 2434.83,  298.07  L 2432.49,  301.11  L 2431.03,  298.57  L 2434.83,  298.07  L 2433.54,  298.81  L 2432.56,  300.09  L 2431.94,  299.02  L 2433.54,  298.81  L 2432.90,  299.18  L 2432.59,  299.58  L 2432.40,  299.25  L 2432.90,  299.18 " style="stroke-width: 0.85 ;&st7; " /><path d=" M 2436.83,  301.54  L 2434.50,  304.58  L 2433.03,  302.04  L 2436.83,  301.54  L 2435.55,  302.28  L 2434.56,  303.56  L 2433.94,  302.49  L 2435.55,  302.28  L 2434.91,  302.65  L 2434.60,  303.05  L 2434.40,  302.72  L 2434.91,  302.65 " style="stroke-width: 0.85 ;&st7; " /><path d=" M 2422.09,  392.72  L 2422.09,  350.23  L 2419.26,  348.81  L 2424.93,  345.98  L 2419.26,  343.14  L 2424.93,  340.31  L 2419.26,  337.48  L 2424.93,  334.65  L 2422.09,  333.23  L 2422.09,  222.75 " style="stroke-width: 0.85 ;&st7; " /><path d=" M 2481.58,  307.73  L 2475.92,  299.24  L 2487.25,  299.24  L 2481.58,  307.73 " style="stroke-width: 0.28 ;&st9;" /><path d=" M 2494.32,  298.07  L 2491.98,  301.11  L 2490.52,  298.57  L 2494.32,  298.07  L 2493.03,  298.81  L 2492.05,  300.09  L 2491.43,  299.02  L 2493.03,  298.81  L 2492.39,  299.18  L 2492.08,  299.58  L 2491.89,  299.25  L 2492.39,  299.18 " style="stroke-width: 0.85 ;&st7; " /><path d=" M 2496.32,  301.54  L 2493.99,  304.58  L 2492.52,  302.04  L 2496.32,  301.54  L 2495.04,  302.28  L 2494.05,  303.56  L 2493.43,  302.49  L 2495.04,  302.28  L 2494.40,  302.65  L 2494.09,  303.05  L 2493.89,  302.72  L 2494.40,  302.65 " style="stroke-width: 0.85 ;&st7; " /><path d=" M 2481.58,  333.23  L 2475.92,  324.73  L 2487.25,  324.73  L 2481.58,  333.23 " style="stroke-width: 0.28 ;&st9;" /><path d=" M 2481.58,  358.73  L 2481.58,  367.22 " style="stroke-width: 0.85 ;&st7; " /><path d=" M 2473.09,  367.22  L 2490.08,  367.22 " style="stroke-width: 0.85 ;&st7; " /><path d=" M 2477.34,  370.06  L 2485.83,  370.06 " style="stroke-width: 0.85 ;&st7; " /><path d=" M 2478.75,  372.89  L 2484.42,  372.89 " style="stroke-width: 0.85 ;&st7; " /><path d=" M 2480.17,  375.72  L 2483.00,  375.72 " style="stroke-width: 0.85 ;&st7; " /><path d=" M 2481.58,  273.74  L 2481.58,  265.24  L 2478.75,  263.82  L 2484.42,  260.99  L 2478.75,  258.16  L 2484.42,  255.33  L 2478.75,  252.49  L 2484.42,  249.66  L 2481.58,  248.24  L 2481.58,  239.75 " style="stroke-width: 0.85 ;&st7; " /><path d=" M 2481.58,  273.74  L 2481.58,  358.73 " style="stroke-width: 0.85 ;&st7; " /><path d=" M 2481.58,  282.24  L 2456.09,  282.24  L 2456.09,  307.73 " style="stroke-width: 0.85 ;&st7; " /><path d=" M 2481.58,  239.75  L 2481.58,  222.75 " style="stroke-width: 0.85 ;&st7; " /><path d=" M 2481.58,  350.23  L 2456.09,  350.23  L 2456.09,  333.23 " style="stroke-width: 0.85 ;&st7; " /><path d=" M 2480.39,  349.22  L 2480.12,  349.69  L 2480.03,  350.23  L 2480.12,  350.76  L 2480.39,  351.23  L 2480.81,  351.58  L 2481.31,  351.76  L 2481.86,  351.76  L 2482.36,  351.58  L 2482.78,  351.23  L 2483.05,  350.76  L 2483.14,  350.23  L 2483.05,  349.69  L 2482.78,  349.22  L 2482.36,  348.88  L 2481.86,  348.69  L 2481.31,  348.69  L 2480.81,  348.88  L 2480.39,  349.22  L 2480.79,  349.94  L 2480.79,  350.52  L 2481.16,  350.96  L 2481.73,  351.06  L 2482.24,  350.77  L 2482.43,  350.23  L 2482.24,  349.68  L 2481.73,  349.39  L 2481.16,  349.49  L 2481.58,  350.23 " style="stroke-width: 0.85 ;&st7; " /><path d=" M 2480.39,  281.24  L 2480.12,  281.71  L 2480.03,  282.24  L 2480.12,  282.77  L 2480.39,  283.24  L 2480.81,  283.59  L 2481.31,  283.77  L 2481.86,  283.77  L 2482.36,  283.59  L 2482.78,  283.24  L 2483.05,  282.77  L 2483.14,  282.24  L 2483.05,  281.71  L 2482.78,  281.24  L 2482.36,  280.89  L 2481.86,  280.70  L 2481.31,  280.70  L 2480.81,  280.89  L 2480.39,  281.24  L 2480.79,  281.95  L 2480.79,  282.53  L 2481.16,  282.97  L 2481.73,  283.07  L 2482.24,  282.79  L 2482.43,  282.24  L 2482.24,  281.69  L 2481.73,  281.40  L 2481.16,  281.50  L 2481.58,  282.24 " style="stroke-width: 0.85 ;&st7; " /><path d=" M 2114.95,  374.72  L 2114.68,  375.19  L 2114.59,  375.72  L 2114.68,  376.26  L 2114.95,  376.73  L 2115.37,  377.07  L 2115.87,  377.26  L 2116.42,  377.26  L 2116.92,  377.07  L 2117.34,  376.73  L 2117.61,  376.26  L 2117.70,  375.72  L 2117.61,  375.19  L 2117.34,  374.72  L 2116.92,  374.37  L 2116.42,  374.19  L 2115.87,  374.19  L 2115.37,  374.37  L 2114.95,  374.72  L 2115.35,  375.43  L 2115.35,  376.01  L 2115.72,  376.46  L 2116.29,  376.56  L 2116.80,  376.27  L 2117.00,  375.72  L 2116.80,  375.18  L 2116.29,  374.89  L 2115.72,  374.99  L 2116.15,  375.72 " style="stroke-width: 0.85 ;&st7; " /><path d=" M 2230.88,  461.27  L 2226.63,  457.03  L 2222.38,  461.27 " style="stroke-width: 1.42 ;&st7; " /><path d=" M 2230.88,  457.88  L 2226.63,  453.63  L 2222.38,  457.88 " style="stroke-width: 1.42 ;&st7; " /><path d=" M 2273.37,  461.27  L 2269.12,  457.03  L 2264.87,  461.27 " style="stroke-width: 1.42 ;&st7; " /><path d=" M 2273.37,  457.88  L 2269.12,  453.63  L 2264.87,  457.88 " style="stroke-width: 1.42 ;&st7; " /><path d=" M 2209.63,  511.70  L 2209.63,  545.69  L 2286.12,  545.69  L 2286.12,  511.70  L 2209.63,  511.70 " style="stroke-width: 1.42 ;&st7; " /><path d=" M 2545.32,  159.01  L 2541.07,  154.76  L 2513.45,  154.76  L 2511.33,  150.51  L 2509.20,  154.76  L 2481.58,  154.76  L 2477.34,  159.01 " style="stroke-width: 0.85 ;&st7; " /><path d=" M 2409.35,   35.78  L 2409.35,   78.27  L 2434.84,   78.27  L 2434.84,   35.78  L 2409.35,   35.78 " style="stroke-width: 1.42 ;&st7; " /><path d=" M 2422.09,   90.37  L 2419.26,   87.54  L 2419.26,   91.79  L 2422.09,   94.62  L 2424.93,   91.79  L 2424.93,   87.54  L 2422.09,   90.37 " style="stroke-width: 0.28 ;&st9;" /><path d=" M 2422.09,   69.77  L 2422.09,   95.27 " style="stroke-width: 0.85 ;&st7; " /><path d=" M 2031.16,  435.21  L 2048.16,  435.21  L 2048.16,  452.21  L 2031.16,  452.21  L 2031.16,  435.21 " style="stroke-width: 1.42 ;&st7; " /><path d=" M 2039.66,  435.21  L 2039.66,  452.21 " style="stroke-width: 0.85 ;&st7; " /><path d=" M 2384.13,  218.22  C 2384.13   215.71  2382.11   213.68  2379.60   213.68 " style="stroke-width: 1.42 ;&st7; " /><path d=" M 2379.60,  213.68  C 2377.10   213.68  2375.07   215.71  2375.07   218.22 " style="stroke-width: 1.42 ;&st7; " /><path d=" M 2375.07,  218.22  C 2375.07   220.72  2377.10   222.75  2379.60   222.75 " style="stroke-width: 1.42 ;&st7; " /><path d=" M 2379.60,  222.75  C 2382.11   222.75  2384.13   220.72  2384.13   218.22 " style="stroke-width: 1.42 ;&st7; " /><path d=" M 2426.63,  218.22  C 2426.63   215.71  2424.60   213.68  2422.10   213.68 " style="stroke-width: 1.42 ;&st7; " /><path d=" M 2422.10,  213.68  C 2419.59   213.68  2417.56   215.71  2417.56   218.22 " style="stroke-width: 1.42 ;&st7; " /><path d=" M 2417.56,  218.22  C 2417.56   220.72  2419.59   222.75  2422.10   222.75 " style="stroke-width: 1.42 ;&st7; " /><path d=" M 2422.10,  222.75  C 2424.60   222.75  2426.63   220.72  2426.63   218.22 " style="stroke-width: 1.42 ;&st7; " /><path d=" M 2486.12,  218.22  C 2486.12   215.71  2484.09   213.68  2481.59   213.68 " style="stroke-width: 1.42 ;&st7; " /><path d=" M 2481.59,  213.68  C 2479.08   213.68  2477.05   215.71  2477.05   218.22 " style="stroke-width: 1.42 ;&st7; " /><path d=" M 2477.05,  218.22  C 2477.05   220.72  2479.08   222.75  2481.59   222.75 " style="stroke-width: 1.42 ;&st7; " /><path d=" M 2481.59,  222.75  C 2484.09   222.75  2486.12   220.72  2486.12   218.22 " style="stroke-width: 1.42 ;&st7; " /><path d=" M 2120.68,  397.25  C 2120.68   394.75  2118.65   392.72  2116.15   392.72 " style="stroke-width: 1.42 ;&st7; " /><path d=" M 2116.15,  392.72  C 2113.64   392.72  2111.61   394.75  2111.61   397.25 " style="stroke-width: 1.42 ;&st7; " /><path d=" M 2111.61,  397.25  C 2111.61   399.76  2113.64   401.78  2116.15   401.78 " style="stroke-width: 1.42 ;&st7; " /><path d=" M 2116.15,  401.78  C 2118.65   401.78  2120.68   399.76  2120.68   397.25 " style="stroke-width: 1.42 ;&st7; " /><path d=" M 2146.17,  397.25  C 2146.17   394.75  2144.15   392.72  2141.64   392.72 " style="stroke-width: 1.42 ;&st7; " /><path d=" M 2141.64,  392.72  C 2139.14   392.72  2137.11   394.75  2137.11   397.25 " style="stroke-width: 1.42 ;&st7; " /><path d=" M 2137.11,  397.25  C 2137.11   399.76  2139.14   401.78  2141.64   401.78 " style="stroke-width: 1.42 ;&st7; " /><path d=" M 2141.64,  401.78  C 2144.15   401.78  2146.17   399.76  2146.17   397.25 " style="stroke-width: 1.42 ;&st7; " /><path d=" M 2231.16,  397.25  C 2231.16   394.75  2229.13   392.72  2226.63   392.72 " style="stroke-width: 1.42 ;&st7; " /><path d=" M 2226.63,  392.72  C 2224.12   392.72  2222.10   394.75  2222.10   397.25 " style="stroke-width: 1.42 ;&st7; " /><path d=" M 2222.10,  397.25  C 2222.10   399.76  2224.12   401.78  2226.63   401.78 " style="stroke-width: 1.42 ;&st7; " /><path d=" M 2226.63,  401.78  C 2229.13   401.78  2231.16   399.76  2231.16   397.25 " style="stroke-width: 1.42 ;&st7; " /><path d=" M 2273.65,  397.25  C 2273.65   394.75  2271.62   392.72  2269.12   392.72 " style="stroke-width: 1.42 ;&st7; " /><path d=" M 2269.12,  392.72  C 2266.62   392.72  2264.59   394.75  2264.59   397.25 " style="stroke-width: 1.42 ;&st7; " /><path d=" M 2264.59,  397.25  C 2264.59   399.76  2266.62   401.78  2269.12   401.78 " style="stroke-width: 1.42 ;&st7; " /><path d=" M 2269.12,  401.78  C 2271.62   401.78  2273.65   399.76  2273.65   397.25 " style="stroke-width: 1.42 ;&st7; " /><path d=" M 2426.63,  397.25  C 2426.63   394.75  2424.60   392.72  2422.10   392.72 " style="stroke-width: 1.42 ;&st7; " /><path d=" M 2422.10,  392.72  C 2419.59   392.72  2417.56   394.75  2417.56   397.25 " style="stroke-width: 1.42 ;&st7; " /><path d=" M 2417.56,  397.25  C 2417.56   399.76  2419.59   401.78  2422.10   401.78 " style="stroke-width: 1.42 ;&st7; " /><path d=" M 2422.10,  401.78  C 2424.60   401.78  2426.63   399.76  2426.63   397.25 " style="stroke-width: 1.42 ;&st7; " /><path d=" M 2422.10,   47.11  C 2419.36    48.72  2418.45    52.25  2420.06    54.99 " style="stroke-width: 1.42 ;&st7; " /><path d=" M 2420.06,   54.99  C 2420.58    55.87  2421.21    56.51  2422.10    57.03 " style="stroke-width: 1.42 ;&st7; " /><path d=" M 2422.10,   66.94  C 2424.83    65.33  2425.75    61.80  2424.13    59.06 " style="stroke-width: 1.42 ;&st7; " /><path d=" M 2424.13,   59.06  C 2423.61    58.18  2422.98    57.55  2422.10    57.03 " style="stroke-width: 1.42 ;&st7; " /><path d=" M 2423.51,   45.69  C 2423.51    44.91  2422.88    44.28  2422.10    44.28 " style="stroke-width: 0.85 ;&st7; " /><path d=" M 2422.10,   44.28  C 2421.31    44.28  2420.68    44.91  2420.68    45.69 " style="stroke-width: 0.85 ;&st7; " /><path d=" M 2420.68,   45.69  C 2420.68    46.48  2421.31    47.11  2422.10    47.11 " style="stroke-width: 0.85 ;&st7; " /><path d=" M 2422.10,   47.11  C 2422.88    47.11  2423.51    46.48  2423.51    45.69 " style="stroke-width: 0.85 ;&st7; " /><path d=" M 2423.51,   68.36  C 2423.51    67.57  2422.88    66.94  2422.10    66.94 " style="stroke-width: 0.85 ;&st7; " /><path d=" M 2422.10,   66.94  C 2421.31    66.94  2420.68    67.57  2420.68    68.36 " style="stroke-width: 0.85 ;&st7; " /><path d=" M 2420.68,   68.36  C 2420.68    69.14  2421.31    69.77  2422.10    69.77 " style="stroke-width: 0.85 ;&st7; " /><path d=" M 2422.10,   69.77  C 2422.88    69.77  2423.51    69.14  2423.51    68.36 " style="stroke-width: 0.85 ;&st7; " /><path d=" M 2419.97,   95.27  C 2417.62    95.27  2415.72    97.17  2415.72    99.52 " style="stroke-width: 1.42 ;&st7; " /><path d=" M 2415.72,   99.52  C 2415.72   101.87  2417.62   103.77  2419.97   103.77 " style="stroke-width: 1.42 ;&st7; " /><path d=" M 2424.22,  103.77  C 2426.57   103.77  2428.47   101.87  2428.47    99.52 " style="stroke-width: 1.42 ;&st7; " /><path d=" M 2428.47,   99.52  C 2428.47    97.17  2426.57    95.27  2424.22    95.27 " style="stroke-width: 1.42 ;&st7; " /><text style="&st18;" transform="matrix(&st16;  2484.42  230.94 )">B</text><text style="&st18;" transform="matrix(&st16;  2229.46  389.03 )">L</text><text style="&st18;" transform="matrix(&st16;  2271.95  389.03 )">ES2</text><text style="&st18;" transform="matrix(&st16;  2424.93  389.03 )">EFI</text><text style="&st18;" transform="matrix(&st17;  2265.43  481.06 )">W</text><text style="&st18;" transform="matrix(&st17;  2222.93  480.04 )">B</text><text ewd:textID="32" style="&st18;" transform="matrix(&st16;  2289.26  520.75 )">Fuel Sender <tspan dy="6" x="0">Gage Assembly</tspan></text><text style="&st18;" transform="matrix(&st16;  2289.26  513.64 )">R11</text><text style="&st18;" transform="matrix(&st16;  2222.18  519.33 )">FS</text><text style="&st18;" transform="matrix(&st16;  2264.67  519.33 )">FE</text><text style="&st18;" transform="matrix(&st16;  2219.84  508.01 )">2</text><text style="&st18;" transform="matrix(&st16;  2262.33  508.01 )">3</text><text ewd:textID="16" style="&st18;" transform="matrix(&st17;  2413.02  321.38 )">Check Engine</text><text ewd:textID="26" style="&st18;" transform="matrix(&st17;  2011.88  650.2 )">Engine Oil Pressure <tspan dy="6" x="0">Switch Assembly</tspan></text><text style="&st18;" transform="matrix(&st17;  2004.78  650.2 )">D26</text><text ewd:textID="17" style="&st18;" transform="matrix(&st16;  2181.61  219.05 )">Combination Meter Assembly</text><text style="&st18;" transform="matrix(&st16;  2181.61  211.95 )">L27(A),L106(B),L107(C)</text><text style="&st18;" transform="matrix(&st17;  2418.4  422.95 )">LG</text><text style="&st18;" transform="matrix(&st17;  2477.89  199.58 )">Y</text><text style="&st18;" transform="matrix(&st16;  2439.4  56.17 )">7.5A <tspan dy="6" x="0">MET</tspan></text><text style="&st18;" transform="matrix(&st16;  2416.02  32.08 )">(IG)</text><text style="&st18;" transform="matrix(&st16;  2417.79  101.49 )">2A</text><text style="&st18;" transform="matrix(&st16;  2405.45  101.49 )">44</text><text style="&st18;" transform="matrix(&st17;  2418.4  123.52 )">G</text><text style="&st18;" transform="matrix(&st16;  2382.44  230.94 )">LP</text><text ewd:textID="15" style="&st18;" transform="matrix(&st17;  2381.57  160.12 )">Certification ECU Assembly</text><text ewd:textID="57" style="&st18;" transform="matrix(&st17;  2370.24  312.02 )">Security</text><text style="&st18;" transform="matrix(&st17;  2424.07  463.2 )">ECM</text><text style="&st18;" transform="matrix(&st16;  2180.0  326.7 )">I/F</text><text style="&st18;" transform="matrix(&st16;  2222.28  287.04 )">+B</text><text style="&st18;" transform="matrix(&st16;  2104.24  360.69 )">CAN IC</text><text ewd:textID="67" style="&st18;" transform="matrix(&st17;  2472.23  324.88 )">Turn LH</text><text style="&st18;" transform="matrix(&st16;  2207.86  449.93 )">44</text><text style="&st18;" transform="matrix(&st16;  2250.35  449.93 )">20</text><text style="&st18;" transform="matrix(&st16;  2424.93  230.94 )">IG2</text><text style="&st18;" transform="matrix(&st17;  2222.93  420.55 )">B</text><text style="&st18;" transform="matrix(&st17;  2265.43  421.57 )">W</text><text style="&st18;" transform="matrix(&st16;  2118.98  389.03 )">CANH</text><text style="&st18;" transform="matrix(&st16;  2144.48  389.03 )">CANL</text><text style="&st18;" transform="matrix(&st17;  2375.91  199.58 )">B</text><text style="&st18;" transform="matrix(&st16;  2364.77  220.18 )">22</text><text style="&st18;" transform="matrix(&st16;  2377.27  220.18 )">A</text><text style="&st18;" transform="matrix(&st16;  2407.26  220.18 )">20</text><text style="&st18;" transform="matrix(&st16;  2419.76  220.18 )">A</text><text style="&st18;" transform="matrix(&st16;  2466.75  220.18 )">26</text><text style="&st18;" transform="matrix(&st16;  2479.25  220.18 )">A</text><text style="&st18;" transform="matrix(&st16;  2102.09  399.22 )">10</text><text style="&st18;" transform="matrix(&st16;  2113.82  399.22 )">A</text><text style="&st18;" transform="matrix(&st16;  2128.36  399.22 )">11</text><text style="&st18;" transform="matrix(&st16;  2139.31  399.22 )">A</text><text style="&st18;" transform="matrix(&st16;  2212.57  399.22 )">14</text><text style="&st18;" transform="matrix(&st16;  2224.3  399.22 )">A</text><text style="&st18;" transform="matrix(&st16;  2255.07  399.22 )">15</text><text style="&st18;" transform="matrix(&st16;  2266.79  399.22 )">A</text><text style="&st18;" transform="matrix(&st16;  2407.26  399.22 )">25</text><text style="&st18;" transform="matrix(&st16;  2419.76  399.22 )">A</text><text style="&st18;" transform="matrix(&st16;  2096.12  326.7 )">CPU</text><text style="&st18;" transform="matrix(&st16;  2032.87  460.4 )">7</text><text style="&st18;" transform="matrix(&st16;  2032.87  431.52 )">6</text><text style="&st18;" transform="matrix(&st16;  2011.69  414.52 )">R</text><text style="&st18;" transform="matrix(&st16;  2007.98  425.85 )">(*7)</text><text style="&st18;" transform="matrix(&st16;  2011.69  474.01 )">R</text><text style="&st18;" transform="matrix(&st16;  2007.98  485.34 )">(*7)</text><text ewd:textID="39" style="&st18;" transform="matrix(&st17;  2062.88  454.73 )">Junction <tspan dy="6" x="0">Connector</tspan></text><text style="&st18;" transform="matrix(&st17;  2055.77  454.73 )">L129</text><text style="&st18;" transform="matrix(&st16;  2045.83  669.48 )">V</text><text style="&st18;" transform="matrix(&st16;  2096.82  669.48 )">V</text><text style="&st18;" transform="matrix(&st17;  2112.45  420.55 )">P</text><text style="&st18;" transform="matrix(&st17;  2137.95  421.57 )">W</text></svg>