﻿<?xml version="1.0" encoding="utf-8"?>
<!DOCTYPE svg PUBLIC "-//W3C//DTD SVG 1.0//EN" "http://www.w3.org/TR/2001/REC-SVG-20010904/DTD/svg10.dtd"[
	<!ENTITY ns_flows "http://ns.adobe.com/Flows/1.0/">
	<!ENTITY ns_svg "http://www.w3.org/2000/svg">
	<!ENTITY ns_xlink "http://www.w3.org/1999/xlink">
	<!ENTITY st0 "font-size:7px;font-family:'MS-PGothic';adobe-font-script:japanese;">
	<!ENTITY st1 "font-size:6px;font-family:'ArialMT';">
	<!-- White fill  -->
	<!ENTITY st2 "fill:#FFFFFF;stroke:#000000; stroke-width:1.41;stroke-linecap:round;stroke-linejoin:round;">
	<!-- Yellow fill  -->
	<!ENTITY st3 "fill:#FFFFCC;stroke:#FFFFCC; stroke-width:0.1;stroke-linecap:round;stroke-linejoin:round;">
	<!-- Gray fill  -->
	<!ENTITY st4 "fill:#CCCCCC;stroke:#CCCCCC; stroke-width:0.1;stroke-linecap:round;stroke-linejoin:round;">
	<!-- Light-blue fill -->
	<!ENTITY st5 "fill:#CCECF4;stroke:#000000; stroke-width:1.133;stroke-linecap:round;stroke-linejoin:round;">
	<!ENTITY st6 "fill:none;stroke-linecap:butt; stroke-linejoin:round;">
	<!ENTITY st7 "fill:none;stroke:#000000;stroke-linecap:round;stroke-linejoin:round;">
	<!ENTITY st8 "enable-background:new    ;">
	<!-- Black fill -->
	<!ENTITY st9 "fill:#000000;stroke:#000000; stroke-linecap:round;stroke-linejoin:round;">
	<!-- SRS note   -->
	<!ENTITY st10 "font-size:9px;font-family:'ArialMT';">
	<!ENTITY st11 "font-size:9px;font-family:'Svg Symbol';">
	<!ENTITY st12 "font-size:6px;font-family:'Svg Symbol';">
	<!ENTITY st13 "fill:none;stroke:#ff0000;stroke-linecap:round;stroke-linejoin:round;">
	<!-- Yellow fill  -->
	<!ENTITY st14 "fill:#FFFF00;stroke:#FFFF00; stroke-width:0.1;stroke-linecap:round;stroke-linejoin:round;">
	<!ENTITY st15 "font-size:6px;font-family:'MS-PGothic';adobe-font-script:japanese;">
	<!ENTITY st16 "1.00 0.00 0.00 1.00">
	<!ENTITY st17 "0.00 -1.00 1.00 0.00">
	<!ENTITY st18 "font-size:6px;font-family:'Arial';">
	<!ENTITY st19 "font-size:9px;font-family:'Arial';">
	<!ENTITY st20 "font-size:6px;font-family:'MS-PGothic','MS PGothic';adobe-font-script:japanese;">
	<!ENTITY st21 "font-size:7px;font-family:'MS-PGothic','MS PGothic';adobe-font-script:japanese;">
	<!ATTLIST svg
		xmlns:ewd CDATA #FIXED "http://shcl.co.jp/ewd"
		xmlns:a CDATA #FIXED "http://ns.adobe.com/AdobeSVGViewerExtensions/3.0/"
		ewd:ver CDATA #IMPLIED
	>
	<!ATTLIST a
		ewd:lineID CDATA #IMPLIED
		ewd:groupID CDATA #IMPLIED
		ewd:figtype CDATA #IMPLIED
		ewd:code CDATA #IMPLIED
		ewd:figID CDATA #IMPLIED
		ewd:pinNo CDATA #IMPLIED
		ewd:comment CDATA #IMPLIED >
	<!ATTLIST g
		ewd:lineID CDATA #IMPLIED
		ewd:groupID CDATA #IMPLIED
		ewd:figtype CDATA #IMPLIED
		ewd:code CDATA #IMPLIED
		ewd:figID CDATA #IMPLIED
		ewd:pinNo CDATA #IMPLIED
		ewd:comment CDATA #IMPLIED >
	<!ATTLIST text
		ewd:textID CDATA #IMPLIED >
	<!ATTLIST title
		ewd:textID CDATA #IMPLIED >
]>
<!-- Generator: Shintec Hozumi YS   -->
<svg onload="call_execInitLoadProc_svg('system')" style="overflow:visible;  enable-background:new 0 0 2956.089 710.000" viewBox="0 0 2956.089 710.000" height="710.000" width="2956.089" xml:space="preserve" ewd:ver="L2.1.2.6" xmlns="&ns_svg;" xmlns:a="http://ns.adobe.com/AdobeSVGViewerExtensions/3.0/" xmlns:ewd="http://shcl.co.jp/ewd" xmlns:xlink="&ns_xlink;">
<path d=" M  877.48,  214.25  L  873.23,  214.25 " style="stroke-width: 1.42 ;&st7; " /><path d=" M  877.48,  205.75  L  873.23,  205.75 " style="stroke-width: 1.42 ;&st7; " /><path d=" M  968.84,  388.47  L  968.84,  384.22 " style="stroke-width: 0.85 ;&st7; " /><path d=" M  968.84,  418.22  L  968.84,  413.97 " style="stroke-width: 0.85 ;&st7; " /><path d=" M  968.84,  411.13  L  974.50,  388.47 " style="stroke-width: 1.42 ;&st7; " /><path d=" M  645.89,  146.26  L  645.89,  154.76 " style="stroke-width: 0.85 ;&st7; " /><path d=" M  730.88,  156.18  L  725.21,  133.51 " style="stroke-width: 1.42 ;&st7; " /><path d=" M  730.88,  159.01  L  730.88,  163.26 " style="stroke-width: 0.85 ;&st7; " /><path d=" M  722.38,  146.26  L  725.21,  146.26 " style="stroke-width: 0.85 ;&st7; " /><path d=" M  730.88,  129.26  L  730.88,  133.51 " style="stroke-width: 0.85 ;&st7; " /><path d=" M  756.37,  129.26  L  756.37,  137.76 " style="stroke-width: 0.85 ;&st7; " /><path d=" M  756.37,  154.76  L  756.37,  163.26 " style="stroke-width: 0.85 ;&st7; " /><path d=" M  758.50,  205.75  L  754.25,  205.75 " style="stroke-width: 1.42 ;&st7; " /><path d=" M  758.50,  214.25  L  754.25,  214.25 " style="stroke-width: 1.42 ;&st7; " /><path d=" M  571.53,  180.26  L  567.28,  180.26 " style="stroke-width: 1.42 ;&st7; " /><path d=" M  571.53,  171.76  L  567.28,  171.76 " style="stroke-width: 1.42 ;&st7; " /><path d=" M  569.40,  146.26  L  569.40,  171.76 " style="stroke-width: 0.85 ;&st7; " /><path d=" M  968.84,  418.22  L  968.84,  426.71 " style="stroke-width: 0.85 ;&st7; " /><path d=" M  968.84,  375.72  L  968.84,  384.22 " style="stroke-width: 0.85 ;&st7; " /><path d=" M  875.35,  520.20  L  875.35,  537.20 " style="stroke-width: 0.85 ;&st7; " /><path d=" M  866.85,  520.20  L  883.85,  520.20  L  883.85,  537.20  L  866.85,  537.20  L  866.85,  520.20 " style="stroke-width: 1.42 ;&st7; " /><path d=" M  873.94,  710.00  L  876.77,  710.00 " style="stroke-width: 0.85 ;&st7; " /><path d=" M  872.52,  707.17  L  878.19,  707.17 " style="stroke-width: 0.85 ;&st7; " /><path d=" M  871.10,  704.33  L  879.60,  704.33 " style="stroke-width: 0.85 ;&st7; " /><path d=" M  866.85,  701.50  L  883.85,  701.50 " style="stroke-width: 0.85 ;&st7; " /><path d=" M  875.35,  697.25  L  875.35,  701.50 " style="stroke-width: 0.85 ;&st7; " /><path d=" M 1291.78,  163.26  L 1291.78,  180.26  L  730.88,  180.26  L  730.88,  163.26 " style="stroke-width: 0.85 ;&st7; " /><path d=" M  875.35,  200.86  L  872.52,  198.02  L  872.52,  202.27  L  875.35,  205.11  L  878.19,  202.27  L  878.19,  198.02  L  875.35,  200.86 " style="stroke-width: 0.28 ;&st9;" /><path d=" M  696.88,   86.77  L  696.88,  188.75  L  645.89,  188.75  L  645.89,  154.76 " style="stroke-width: 0.85 ;&st7; " /><path d=" M  755.18,  170.75  L  754.91,  171.22  L  754.82,  171.76  L  754.91,  172.29  L  755.18,  172.76  L  755.59,  173.11  L  756.10,  173.29  L  756.65,  173.29  L  757.15,  173.11  L  757.57,  172.76  L  757.84,  172.29  L  757.93,  171.76  L  757.84,  171.22  L  757.57,  170.75  L  757.15,  170.41  L  756.65,  170.22  L  756.10,  170.22  L  755.59,  170.41  L  755.18,  170.75  L  755.57,  171.47  L  755.57,  172.05  L  755.95,  172.49  L  756.52,  172.59  L  757.02,  172.30  L  757.22,  171.76  L  757.02,  171.21  L  756.52,  170.92  L  755.95,  171.02  L  756.37,  171.76 " style="stroke-width: 0.85 ;&st7; " /><path d=" M  815.86,   86.77  L  815.86,  171.76  L  756.37,  171.76 " style="stroke-width: 0.85 ;&st7; " /><path d=" M  968.84,  520.20  L  968.84,  537.20 " style="stroke-width: 0.85 ;&st7; " /><path d=" M  960.34,  520.20  L  977.34,  520.20  L  977.34,  537.20  L  960.34,  537.20  L  960.34,  520.20 " style="stroke-width: 1.42 ;&st7; " /><path d=" M  967.42,  710.00  L  970.25,  710.00 " style="stroke-width: 0.85 ;&st7; " /><path d=" M  966.00,  707.17  L  971.67,  707.17 " style="stroke-width: 0.85 ;&st7; " /><path d=" M  964.59,  704.33  L  973.09,  704.33 " style="stroke-width: 0.85 ;&st7; " /><path d=" M  960.34,  701.50  L  977.34,  701.50 " style="stroke-width: 0.85 ;&st7; " /><path d=" M  968.84,  697.25  L  968.84,  701.50 " style="stroke-width: 0.85 ;&st7; " /><path d=" M  951.84,  426.71  L  985.83,  426.71  L  985.83,  375.72  L  951.84,  375.72  L  951.84,  426.71 " style="stroke-width: 1.42 ;&st7; " /><path d=" M  875.35,  103.77  L 1240.79,  103.77  L 1240.79,  146.26  L 1257.79,  146.26 " style="stroke-width: 0.85 ;&st7; " /><path d=" M  874.16,  102.77  L  873.89,  103.24  L  873.80,  103.77  L  873.89,  104.30  L  874.16,  104.77  L  874.57,  105.12  L  875.08,  105.30  L  875.63,  105.30  L  876.13,  105.12  L  876.55,  104.77  L  876.82,  104.30  L  876.91,  103.77  L  876.82,  103.24  L  876.55,  102.77  L  876.13,  102.42  L  875.63,  102.23  L  875.08,  102.23  L  874.57,  102.42  L  874.16,  102.77  L  874.55,  103.48  L  874.55,  104.06  L  874.93,  104.50  L  875.50,  104.60  L  876.00,  104.31  L  876.20,  103.77  L  876.00,  103.22  L  875.50,  102.93  L  874.93,  103.03  L  875.35,  103.77 " style="stroke-width: 0.85 ;&st7; " /><path d=" M  556.66,  112.27  L  556.66,  154.76  L  582.15,  154.76  L  582.15,  112.27  L  556.66,  112.27 " style="stroke-width: 1.42 ;&st7; " /><path d=" M  569.40,  166.86  L  566.57,  164.03  L  566.57,  168.28  L  569.40,  171.11  L  572.24,  168.28  L  572.24,  164.03  L  569.40,  166.86 " style="stroke-width: 0.28 ;&st9;" /><path d=" M  756.37,  163.26  L  756.37,  205.75 " style="stroke-width: 0.85 ;&st7; " /><path d=" M  756.37,  200.86  L  753.54,  198.02  L  753.54,  202.27  L  756.37,  205.11  L  759.21,  202.27  L  759.21,  198.02  L  756.37,  200.86 " style="stroke-width: 0.28 ;&st9;" /><path d=" M  730.88,  112.27  L  730.88,  129.26 " style="stroke-width: 0.85 ;&st7; " /><path d=" M  695.69,  145.26  L  695.42,  145.73  L  695.33,  146.26  L  695.42,  146.79  L  695.69,  147.26  L  696.10,  147.61  L  696.61,  147.80  L  697.16,  147.80  L  697.66,  147.61  L  698.08,  147.26  L  698.35,  146.79  L  698.44,  146.26  L  698.35,  145.73  L  698.08,  145.26  L  697.66,  144.91  L  697.16,  144.73  L  696.61,  144.73  L  696.10,  144.91  L  695.69,  145.26  L  696.08,  145.97  L  696.08,  146.55  L  696.46,  147.00  L  697.03,  147.10  L  697.53,  146.81  L  697.73,  146.26  L  697.53,  145.71  L  697.03,  145.43  L  696.46,  145.52  L  696.88,  146.26 " style="stroke-width: 0.85 ;&st7; " /><path d=" M  756.37,  129.26  L  756.37,   86.77 " style="stroke-width: 0.85 ;&st7; " /><path d=" M  722.38,  146.26  L  696.88,  146.26 " style="stroke-width: 0.85 ;&st7; " /><path d=" M  722.38,  129.26  L  764.87,  129.26  L  764.87,  163.26  L  722.38,  163.26  L  722.38,  129.26 " style="stroke-width: 1.42 ;&st7; " /><path d=" M  633.14,  112.27  L  633.14,  154.76  L  658.64,  154.76  L  658.64,  112.27  L  633.14,  112.27 " style="stroke-width: 1.42 ;&st7; " /><path d=" M  875.35,  205.75  L  875.35,   86.77 " style="stroke-width: 0.85 ;&st7; " /><path d=" M  645.89,  143.43  C  648.63   141.81   649.54   138.29   647.93   135.55 " style="stroke-width: 1.42 ;&st7; " /><path d=" M  647.93,  135.55  C  647.41   134.67   646.77   134.03   645.89   133.51 " style="stroke-width: 1.42 ;&st7; " /><path d=" M  881.73,  210.00  C  881.73   207.65   879.83   205.75   877.48   205.75 " style="stroke-width: 1.42 ;&st7; " /><path d=" M  877.48,  214.25  C  879.83   214.25   881.73   212.35   881.73   210.00 " style="stroke-width: 1.42 ;&st7; " /><path d=" M  868.98,  210.00  C  868.98   212.35   870.88   214.25   873.23   214.25 " style="stroke-width: 1.42 ;&st7; " /><path d=" M  873.23,  205.75  C  870.88   205.75   868.98   207.65   868.98   210.00 " style="stroke-width: 1.42 ;&st7; " /><path d=" M  970.25,  412.55  C  970.25   411.77   969.62   411.13   968.84   411.13 " style="stroke-width: 0.85 ;&st7; " /><path d=" M  968.84,  411.13  C  968.06   411.13   967.42   411.77   967.42   412.55 " style="stroke-width: 0.85 ;&st7; " /><path d=" M  967.42,  412.55  C  967.42   413.33   968.06   413.97   968.84   413.97 " style="stroke-width: 0.85 ;&st7; " /><path d=" M  968.84,  413.97  C  969.62   413.97   970.25   413.33   970.25   412.55 " style="stroke-width: 0.85 ;&st7; " /><path d=" M  970.25,  389.89  C  970.25   389.10   969.62   388.47   968.84   388.47 " style="stroke-width: 0.85 ;&st7; " /><path d=" M  968.84,  388.47  C  968.06   388.47   967.42   389.10   967.42   389.89 " style="stroke-width: 0.85 ;&st7; " /><path d=" M  967.42,  389.89  C  967.42   390.67   968.06   391.30   968.84   391.30 " style="stroke-width: 0.85 ;&st7; " /><path d=" M  968.84,  391.30  C  969.62   391.30   970.25   390.67   970.25   389.89 " style="stroke-width: 0.85 ;&st7; " /><path d=" M  647.31,  122.18  C  647.31   121.40   646.67   120.77   645.89   120.77 " style="stroke-width: 0.85 ;&st7; " /><path d=" M  645.89,  120.77  C  645.11   120.77   644.48   121.40   644.48   122.18 " style="stroke-width: 0.85 ;&st7; " /><path d=" M  644.48,  122.18  C  644.48   122.96   645.11   123.60   645.89   123.60 " style="stroke-width: 0.85 ;&st7; " /><path d=" M  645.89,  123.60  C  646.67   123.60   647.31   122.96   647.31   122.18 " style="stroke-width: 0.85 ;&st7; " /><path d=" M  647.31,  144.84  C  647.31   144.06   646.67   143.43   645.89   143.43 " style="stroke-width: 0.85 ;&st7; " /><path d=" M  645.89,  143.43  C  645.11   143.43   644.48   144.06   644.48   144.84 " style="stroke-width: 0.85 ;&st7; " /><path d=" M  644.48,  144.84  C  644.48   145.63   645.11   146.26   645.89   146.26 " style="stroke-width: 0.85 ;&st7; " /><path d=" M  645.89,  146.26  C  646.67   146.26   647.31   145.63   647.31   144.84 " style="stroke-width: 0.85 ;&st7; " /><path d=" M  728.05,  146.26  C  728.05   145.48   727.41   144.84   726.63   144.84 " style="stroke-width: 0.85 ;&st7; " /><path d=" M  726.63,  144.84  C  725.85   144.84   725.21   145.48   725.21   146.26 " style="stroke-width: 0.85 ;&st7; " /><path d=" M  725.21,  146.26  C  725.21   147.04   725.85   147.68   726.63   147.68 " style="stroke-width: 0.85 ;&st7; " /><path d=" M  726.63,  147.68  C  727.41   147.68   728.05   147.04   728.05   146.26 " style="stroke-width: 0.85 ;&st7; " /><path d=" M  732.29,  157.59  C  732.29   156.81   731.66   156.18   730.88   156.18 " style="stroke-width: 0.85 ;&st7; " /><path d=" M  730.88,  156.18  C  730.10   156.18   729.46   156.81   729.46   157.59 " style="stroke-width: 0.85 ;&st7; " /><path d=" M  729.46,  157.59  C  729.46   158.37   730.10   159.01   730.88   159.01 " style="stroke-width: 0.85 ;&st7; " /><path d=" M  730.88,  159.01  C  731.66   159.01   732.29   158.37   732.29   157.59 " style="stroke-width: 0.85 ;&st7; " /><path d=" M  732.29,  134.93  C  732.29   134.15   731.66   133.51   730.88   133.51 " style="stroke-width: 0.85 ;&st7; " /><path d=" M  730.88,  133.51  C  730.10   133.51   729.46   134.15   729.46   134.93 " style="stroke-width: 0.85 ;&st7; " /><path d=" M  729.46,  134.93  C  729.46   135.71   730.10   136.35   730.88   136.35 " style="stroke-width: 0.85 ;&st7; " /><path d=" M  730.88,  136.35  C  731.66   136.35   732.29   135.71   732.29   134.93 " style="stroke-width: 0.85 ;&st7; " /><path d=" M  753.84,  143.78  C  755.21   145.18   757.46   145.20   758.85   143.83 " style="stroke-width: 0.85 ;&st7; " /><path d=" M  758.85,  143.83  C  760.25   142.46   760.27   140.22   758.90   138.82 " style="stroke-width: 0.85 ;&st7; " /><path d=" M  758.90,  138.82  C  758.21   138.12   757.36   137.76   756.37   137.76 " style="stroke-width: 0.85 ;&st7; " /><path d=" M  753.84,  148.74  C  755.21   150.14   757.46   150.16   758.85   148.79 " style="stroke-width: 0.85 ;&st7; " /><path d=" M  758.85,  148.79  C  760.25   147.42   760.27   145.18   758.90   143.78 " style="stroke-width: 0.85 ;&st7; " /><path d=" M  758.90,  143.78  C  757.53   142.38   755.29   142.36   753.89   143.73 " style="stroke-width: 0.85 ;&st7; " /><path d=" M  753.89,  143.73  C  753.88   143.75   753.86   143.76   753.84   143.78 " style="stroke-width: 0.85 ;&st7; " /><path d=" M  756.37,  154.76  C  758.33   154.76   759.91   153.17   759.91   151.22 " style="stroke-width: 0.85 ;&st7; " /><path d=" M  759.91,  151.22  C  759.91   149.26   758.33   147.68   756.37   147.68 " style="stroke-width: 0.85 ;&st7; " /><path d=" M  756.37,  147.68  C  755.38   147.68   754.54   148.03   753.84   148.74 " style="stroke-width: 0.85 ;&st7; " /><path d=" M  730.88,  112.27  C  728.67   110.44   725.53   110.50   723.39   112.41 " style="stroke-width: 1.42 ;&st7; " /><path d=" M  645.89,  123.60  C  643.15   125.21   642.24   128.74   643.86   131.48 " style="stroke-width: 1.42 ;&st7; " /><path d=" M  643.86,  131.48  C  644.37   132.36   645.01   132.99   645.89   133.51 " style="stroke-width: 1.42 ;&st7; " /><path d=" M  730.88,  112.27  C  733.09   114.09   736.22   114.03   738.36   112.13 " style="stroke-width: 1.42 ;&st7; " /><path d=" M  754.25,  205.75  C  751.90   205.75   750.00   207.65   750.00   210.00 " style="stroke-width: 1.42 ;&st7; " /><path d=" M  750.00,  210.00  C  750.00   212.35   751.90   214.25   754.25   214.25 " style="stroke-width: 1.42 ;&st7; " /><path d=" M  758.50,  214.25  C  760.85   214.25   762.75   212.35   762.75   210.00 " style="stroke-width: 1.42 ;&st7; " /><path d=" M  762.75,  210.00  C  762.75   207.65   760.85   205.75   758.50   205.75 " style="stroke-width: 1.42 ;&st7; " /><path d=" M  571.53,  180.26  C  573.88   180.26   575.78   178.35   575.78   176.01 " style="stroke-width: 1.42 ;&st7; " /><path d=" M  563.03,  176.01  C  563.03   178.35   564.93   180.26   567.28   180.26 " style="stroke-width: 1.42 ;&st7; " /><path d=" M  567.28,  171.76  C  564.93   171.76   563.03   173.66   563.03   176.01 " style="stroke-width: 1.42 ;&st7; " /><path d=" M  570.82,  144.84  C  570.82   144.06   570.19   143.43   569.40   143.43 " style="stroke-width: 0.85 ;&st7; " /><path d=" M  569.40,  143.43  C  568.62   143.43   567.99   144.06   567.99   144.84 " style="stroke-width: 0.85 ;&st7; " /><path d=" M  567.99,  144.84  C  567.99   145.63   568.62   146.26   569.40   146.26 " style="stroke-width: 0.85 ;&st7; " /><path d=" M  569.40,  146.26  C  570.19   146.26   570.82   145.63   570.82   144.84 " style="stroke-width: 0.85 ;&st7; " /><path d=" M  570.82,  122.18  C  570.82   121.40   570.19   120.77   569.40   120.77 " style="stroke-width: 0.85 ;&st7; " /><path d=" M  569.40,  120.77  C  568.62   120.77   567.99   121.40   567.99   122.18 " style="stroke-width: 0.85 ;&st7; " /><path d=" M  567.99,  122.18  C  567.99   122.96   568.62   123.60   569.40   123.60 " style="stroke-width: 0.85 ;&st7; " /><path d=" M  569.40,  123.60  C  570.19   123.60   570.82   122.96   570.82   122.18 " style="stroke-width: 0.85 ;&st7; " /><path d=" M  569.40,  143.43  C  572.14   141.81   573.05   138.29   571.44   135.55 " style="stroke-width: 1.42 ;&st7; " /><path d=" M  571.44,  135.55  C  570.92   134.67   570.29   134.03   569.40   133.51 " style="stroke-width: 1.42 ;&st7; " /><path d=" M  569.40,  123.60  C  566.67   125.21   565.76   128.74   567.37   131.48 " style="stroke-width: 1.42 ;&st7; " /><path d=" M  567.37,  131.48  C  567.89   132.36   568.52   132.99   569.40   133.51 " style="stroke-width: 1.42 ;&st7; " /><path d=" M  575.78,  176.01  C  575.78   173.66   573.88   171.76   571.53   171.76 " style="stroke-width: 1.42 ;&st7; " /><text style="&st18;" transform="matrix(&st16;  663.2  129.83 )">25A <tspan dy="6" x="0">DOOR </tspan><tspan dy="6" x="0">NO.1</tspan></text><text style="&st18;" transform="matrix(&st16;  636.78  108.57 )">(BAT)</text><text style="&st18;" transform="matrix(&st16;  749.58  94.96 )">7</text><text ewd:textID="9" style="&st18;" transform="matrix(&st16;  769.43  142.58 )">D/L <tspan dy="6" x="0">SOURCE </tspan><tspan dy="6" x="0">Relay</tspan></text><text style="&st18;" transform="matrix(&st16;  686.92  94.96 )">31</text><text style="&st18;" transform="matrix(&st16;  688.12  83.07 )">ALTB</text><text style="&st18;" transform="matrix(&st16;  751.92  211.97 )">2C</text><text style="&st18;" transform="matrix(&st16;  740.5  211.97 )">18</text><text style="&st18;" transform="matrix(&st16;  586.71  132.66 )">7.5A <tspan dy="6" x="0">ECU-B</tspan></text><text style="&st18;" transform="matrix(&st16;  567.82  177.98 )">1</text><text style="&st18;" transform="matrix(&st16;  562.62  162.95 )">2</text><text style="&st18;" transform="matrix(&st16;  560.29  108.57 )">(BAT)</text><text style="&st18;" transform="matrix(&st17;  565.71  208.08 )">Y</text><text style="&st18;" transform="matrix(&st16;  866.06  83.07 )">GND1</text><text style="&st18;" transform="matrix(&st16;  866.16  94.96 )">11</text><text style="&st18;" transform="matrix(&st16;  962.83  434.91 )">1</text><text style="&st18;" transform="matrix(&st16;  962.05  372.03 )">2</text><text style="&st18;" transform="matrix(&st16;  962.05  545.39 )">7</text><text style="&st18;" transform="matrix(&st16;  962.83  516.51 )">1</text><text style="&st18;" transform="matrix(&st17;  965.14  468.41 )">W-B</text><text style="&st18;" transform="matrix(&st17;  965.14  587.39 )">W-B</text><text ewd:textID="17" style="&st18;" transform="matrix(&st17;  992.05  539.72 )">Junction <tspan dy="6" x="0">Connector</tspan></text><text style="&st18;" transform="matrix(&st17;  984.95  539.72 )">R31</text><text style="&st18;" transform="matrix(&st17;  993.45  429.24 )">R18</text><text style="&st18;" transform="matrix(&st17;  965.14  344.06 )">B</text><text ewd:textID="21" style="&st18;" transform="matrix(&st16;  541.38  32.08 )">Main Body ECU</text><text style="&st18;" transform="matrix(&st16;  541.38  24.98 )">L7(A),L8(B)</text><text style="&st18;" transform="matrix(&st17;  871.66  264.44 )">W-B</text><text style="&st18;" transform="matrix(&st16;  862.66  211.97 )">6</text><text style="&st18;" transform="matrix(&st16;  871.04  211.97 )">2B</text><text style="&st18;" transform="matrix(&st16;  806.26  83.07 )">BECU</text><text style="&st18;" transform="matrix(&st16;  805.12  94.96 )">30</text><text style="&st18;" transform="matrix(&st16;  868.56  545.39 )">7</text><text style="&st18;" transform="matrix(&st16;  868.56  516.51 )">3</text><text ewd:textID="17" style="&st18;" transform="matrix(&st17;  898.57  539.72 )">Junction <tspan dy="6" x="0">Connector</tspan></text><text style="&st18;" transform="matrix(&st17;  891.46  539.72 )">L92</text><text style="&st18;" transform="matrix(&st17;  871.66  587.39 )">W-B</text><text style="&st18;" transform="matrix(&st16;  971.67  423.02 )">E</text><text style="&st18;" transform="matrix(&st16;  971.67  383.92 )">+</text><text ewd:textID="7" style="&st18;" transform="matrix(&st17;  963.73  415.35 )">Courtesy</text></svg>