﻿<?xml version="1.0" encoding="utf-8"?>
<!DOCTYPE svg PUBLIC "-//W3C//DTD SVG 1.0//EN" "http://www.w3.org/TR/2001/REC-SVG-20010904/DTD/svg10.dtd"[
	<!ENTITY ns_flows "http://ns.adobe.com/Flows/1.0/">
	<!ENTITY ns_svg "http://www.w3.org/2000/svg">
	<!ENTITY ns_xlink "http://www.w3.org/1999/xlink">
	<!ENTITY st0 "font-size:7px;font-family:'MS-PGothic';adobe-font-script:japanese;">
	<!ENTITY st1 "font-size:6px;font-family:'ArialMT';">
	<!-- White fill  -->
	<!ENTITY st2 "fill:#FFFFFF;stroke:#000000; stroke-width:1.41;stroke-linecap:round;stroke-linejoin:round;">
	<!-- Yellow fill  -->
	<!ENTITY st3 "fill:#FFFFCC;stroke:#FFFFCC; stroke-width:0.1;stroke-linecap:round;stroke-linejoin:round;">
	<!-- Gray fill  -->
	<!ENTITY st4 "fill:#CCCCCC;stroke:#CCCCCC; stroke-width:0.1;stroke-linecap:round;stroke-linejoin:round;">
	<!-- Light-blue fill -->
	<!ENTITY st5 "fill:#CCECF4;stroke:#000000; stroke-width:1.133;stroke-linecap:round;stroke-linejoin:round;">
	<!ENTITY st6 "fill:none;stroke-linecap:butt; stroke-linejoin:round;">
	<!ENTITY st7 "fill:none;stroke:#000000;stroke-linecap:round;stroke-linejoin:round;">
	<!ENTITY st8 "enable-background:new    ;">
	<!-- Black fill -->
	<!ENTITY st9 "fill:#000000;stroke:#000000; stroke-linecap:round;stroke-linejoin:round;">
	<!-- SRS note   -->
	<!ENTITY st10 "font-size:9px;font-family:'ArialMT';">
	<!ENTITY st11 "font-size:9px;font-family:'Svg Symbol';">
	<!ENTITY st12 "font-size:6px;font-family:'Svg Symbol';">
	<!ENTITY st13 "fill:none;stroke:#ff0000;stroke-linecap:round;stroke-linejoin:round;">
	<!-- Yellow fill  -->
	<!ENTITY st14 "fill:#FFFF00;stroke:#FFFF00; stroke-width:0.1;stroke-linecap:round;stroke-linejoin:round;">
	<!ENTITY st15 "font-size:6px;font-family:'MS-PGothic';adobe-font-script:japanese;">
	<!ENTITY st16 "1.00 0.00 0.00 1.00">
	<!ENTITY st17 "0.00 -1.00 1.00 0.00">
	<!ENTITY st18 "font-size:6px;font-family:'Arial';">
	<!ENTITY st19 "font-size:9px;font-family:'Arial';">
	<!ENTITY st20 "font-size:6px;font-family:'MS-PGothic','MS PGothic';adobe-font-script:japanese;">
	<!ENTITY st21 "font-size:7px;font-family:'MS-PGothic','MS PGothic';adobe-font-script:japanese;">
	<!ATTLIST svg
		xmlns:ewd CDATA #FIXED "http://shcl.co.jp/ewd"
		xmlns:a CDATA #FIXED "http://ns.adobe.com/AdobeSVGViewerExtensions/3.0/"
		ewd:ver CDATA #IMPLIED
	>
	<!ATTLIST a
		ewd:lineID CDATA #IMPLIED
		ewd:groupID CDATA #IMPLIED
		ewd:figtype CDATA #IMPLIED
		ewd:code CDATA #IMPLIED
		ewd:figID CDATA #IMPLIED
		ewd:pinNo CDATA #IMPLIED
		ewd:comment CDATA #IMPLIED >
	<!ATTLIST g
		ewd:lineID CDATA #IMPLIED
		ewd:groupID CDATA #IMPLIED
		ewd:figtype CDATA #IMPLIED
		ewd:code CDATA #IMPLIED
		ewd:figID CDATA #IMPLIED
		ewd:pinNo CDATA #IMPLIED
		ewd:comment CDATA #IMPLIED >
	<!ATTLIST text
		ewd:textID CDATA #IMPLIED >
	<!ATTLIST title
		ewd:textID CDATA #IMPLIED >
]>
<!-- Generator: Shintec Hozumi YS   -->
<svg onload="call_execInitLoadProc_svg('system')" style="overflow:visible;  enable-background:new 0 0 16014.697 710.000" viewBox="0 0 16014.697 710.000" height="710.000" width="16014.697" xml:space="preserve" ewd:ver="L2.1.2.6" xmlns="&ns_svg;" xmlns:a="http://ns.adobe.com/AdobeSVGViewerExtensions/3.0/" xmlns:ewd="http://shcl.co.jp/ewd" xmlns:xlink="&ns_xlink;">
<path d=" M 7725.21,  104.33  L 7725.21,  180.26  L 7487.25,  180.26  L 7487.25,  146.26  L 7725.21,  146.26 " style="stroke:#000000;stroke-width: 0.85 ;&st7;stroke-dasharray:3, 1.5;" /><path d=" M 7351.27,  193.73  L 7346.30,  188.75 " style="stroke-width: 1.42 ;&st7; " /><path d=" M 7334.27,  200.78  L 7339.24,  205.75 " style="stroke-width: 1.42 ;&st7; " /><path d=" M 7346.30,  205.75  L 7351.27,  200.78 " style="stroke-width: 1.42 ;&st7; " /><path d=" M 7339.24,  188.75  L 7334.27,  193.73 " style="stroke-width: 1.42 ;&st7; " /><path d=" M 7444.76,  193.73  L 7439.78,  188.75 " style="stroke-width: 1.42 ;&st7; " /><path d=" M 7427.76,  200.78  L 7432.73,  205.75 " style="stroke-width: 1.42 ;&st7; " /><path d=" M 7439.78,  205.75  L 7444.76,  200.78 " style="stroke-width: 1.42 ;&st7; " /><path d=" M 7432.73,  188.75  L 7427.76,  193.73 " style="stroke-width: 1.42 ;&st7; " /><path d=" M 7113.31,  273.74  L 7104.81,  273.74 " style="stroke-width: 1.42 ;&st7; " /><path d=" M 7147.31,  273.74  L 7138.81,  273.74 " style="stroke-width: 1.42 ;&st7; " /><path d=" M 7028.33,  273.74  L 7019.83,  273.74 " style="stroke-width: 1.42 ;&st7; " /><path d=" M 7062.32,  273.74  L 7053.82,  273.74 " style="stroke-width: 1.42 ;&st7; " /><path d=" M 7341.35,  710.00  L 7344.19,  710.00 " style="stroke-width: 0.85 ;&st7; " /><path d=" M 7339.94,  707.17  L 7345.60,  707.17 " style="stroke-width: 0.85 ;&st7; " /><path d=" M 7338.52,  704.33  L 7347.02,  704.33 " style="stroke-width: 0.85 ;&st7; " /><path d=" M 7334.27,  701.50  L 7351.27,  701.50 " style="stroke-width: 0.85 ;&st7; " /><path d=" M 7342.77,  697.25  L 7342.77,  701.50 " style="stroke-width: 0.85 ;&st7; " /><path d=" M 7434.84,  710.00  L 7437.67,  710.00 " style="stroke-width: 0.85 ;&st7; " /><path d=" M 7433.42,  707.17  L 7439.09,  707.17 " style="stroke-width: 0.85 ;&st7; " /><path d=" M 7432.01,  704.33  L 7440.50,  704.33 " style="stroke-width: 0.85 ;&st7; " /><path d=" M 7427.76,  701.50  L 7444.75,  701.50 " style="stroke-width: 0.85 ;&st7; " /><path d=" M 7436.25,  697.25  L 7436.25,  701.50 " style="stroke-width: 0.85 ;&st7; " /><path d=" M 7495.74,  222.75  L 7495.74,  265.24  L 7708.21,  265.24  L 7708.21,  222.75  L 7495.74,  222.75 " style="stroke-width: 1.42 ;&st7; " /><path d=" M 7019.82,  401.22  L 7138.80,  401.22 " style="stroke-width: 0.85 ;&st7; " /><path d=" M 7053.82,  358.73  L 7053.82,  375.72 " style="stroke-width: 0.85 ;&st7; " /><path d=" M 7019.82,  358.73  L 7019.82,  401.22 " style="stroke-width: 0.85 ;&st7; " /><path d=" M 7109.06,  279.41  L 7104.81,  275.16  L 7100.56,  279.41 " style="stroke-width: 1.42 ;&st7; " /><path d=" M 7103.62,  374.72  L 7103.35,  375.19  L 7103.25,  375.72  L 7103.35,  376.26  L 7103.62,  376.73  L 7104.03,  377.07  L 7104.54,  377.26  L 7105.08,  377.26  L 7105.59,  377.07  L 7106.00,  376.73  L 7106.27,  376.26  L 7106.37,  375.72  L 7106.27,  375.19  L 7106.00,  374.72  L 7105.59,  374.37  L 7105.08,  374.19  L 7104.54,  374.19  L 7104.03,  374.37  L 7103.62,  374.72  L 7104.01,  375.43  L 7104.01,  376.01  L 7104.38,  376.46  L 7104.96,  376.56  L 7105.46,  376.27  L 7105.66,  375.72  L 7105.46,  375.18  L 7104.96,  374.89  L 7104.38,  374.99  L 7104.81,  375.72 " style="stroke-width: 0.85 ;&st7; " /><path d=" M 7138.80,  401.22  L 7138.80,  358.73 " style="stroke-width: 0.85 ;&st7; " /><path d=" M 7011.33,  358.73  L 7011.33,  418.22  L 7215.29,  418.22  L 7215.29,  358.73  L 7011.33,  358.73 " style="stroke-width: 1.42 ;&st7; " /><path d=" M 7137.61,  400.22  L 7137.34,  400.69  L 7137.25,  401.22  L 7137.34,  401.75  L 7137.61,  402.22  L 7138.03,  402.57  L 7138.54,  402.75  L 7139.07,  402.75  L 7139.58,  402.57  L 7140.00,  402.22  L 7140.27,  401.75  L 7140.36,  401.22  L 7140.27,  400.69  L 7140.00,  400.22  L 7139.58,  399.87  L 7139.07,  399.68  L 7138.54,  399.68  L 7138.03,  399.87  L 7137.61,  400.22  L 7138.01,  400.93  L 7138.01,  401.51  L 7138.38,  401.95  L 7138.95,  402.05  L 7139.46,  401.77  L 7139.65,  401.22  L 7139.46,  400.67  L 7138.95,  400.38  L 7138.38,  400.48  L 7138.80,  401.22 " style="stroke-width: 0.85 ;&st7; " /><path d=" M 7104.81,  358.73  L 7104.81,  375.72 " style="stroke-width: 0.85 ;&st7; " /><path d=" M 7109.06,  282.80  L 7104.81,  278.56  L 7100.56,  282.80 " style="stroke-width: 1.42 ;&st7; " /><path d=" M 7053.82,  375.72  L 7104.81,  375.72 " style="stroke-width: 0.85 ;&st7; " /><path d=" M 7138.80,  401.22  L 7206.79,  401.22  L 7206.79,  358.73 " style="stroke-width: 0.85 ;&st7; " /><path d=" M 7104.81,  375.72  L 7172.80,  375.72  L 7172.80,  358.73 " style="stroke-width: 0.85 ;&st7; " /><path d=" M 7143.05,  282.80  L 7138.80,  278.56  L 7134.55,  282.80 " style="stroke-width: 1.42 ;&st7; " /><path d=" M 7143.05,  279.41  L 7138.80,  275.16  L 7134.55,  279.41 " style="stroke-width: 1.42 ;&st7; " /><path d=" M 7024.07,  279.41  L 7019.82,  275.16  L 7015.57,  279.41 " style="stroke-width: 1.42 ;&st7; " /><path d=" M 7024.07,  282.80  L 7019.82,  278.56  L 7015.57,  282.80 " style="stroke-width: 1.42 ;&st7; " /><path d=" M 7058.07,  279.41  L 7053.82,  275.16  L 7049.57,  279.41 " style="stroke-width: 1.42 ;&st7; " /><path d=" M 7058.07,  282.80  L 7053.82,  278.56  L 7049.57,  282.80 " style="stroke-width: 1.42 ;&st7; " /><path d=" M 7440.79,   99.80  C 7440.79    97.30  7438.76    95.27  7436.26    95.27 " style="stroke-width: 1.42 ;&st7; " /><path d=" M 7436.26,   95.27  C 7433.75    95.27  7431.72    97.30  7431.72    99.80 " style="stroke-width: 1.42 ;&st7; " /><path d=" M 7431.72,   99.80  C 7431.72   102.31  7433.75   104.33  7436.26   104.33 " style="stroke-width: 1.42 ;&st7; " /><path d=" M 7436.26,  104.33  C 7438.76   104.33  7440.79   102.31  7440.79    99.80 " style="stroke-width: 1.42 ;&st7; " /><path d=" M 7398.30,   99.80  C 7398.30    97.30  7396.27    95.27  7393.76    95.27 " style="stroke-width: 1.42 ;&st7; " /><path d=" M 7393.76,   95.27  C 7391.26    95.27  7389.23    97.30  7389.23    99.80 " style="stroke-width: 1.42 ;&st7; " /><path d=" M 7389.23,   99.80  C 7389.23   102.31  7391.26   104.33  7393.76   104.33 " style="stroke-width: 1.42 ;&st7; " /><path d=" M 7393.76,  104.33  C 7396.27   104.33  7398.30   102.31  7398.30    99.80 " style="stroke-width: 1.42 ;&st7; " /><path d=" M 7347.31,   99.80  C 7347.31    97.30  7345.28    95.27  7342.77    95.27 " style="stroke-width: 1.42 ;&st7; " /><path d=" M 7342.77,   95.27  C 7340.27    95.27  7338.24    97.30  7338.24    99.80 " style="stroke-width: 1.42 ;&st7; " /><path d=" M 7338.24,   99.80  C 7338.24   102.31  7340.27   104.33  7342.77   104.33 " style="stroke-width: 1.42 ;&st7; " /><path d=" M 7342.77,  104.33  C 7345.28   104.33  7347.31   102.31  7347.31    99.80 " style="stroke-width: 1.42 ;&st7; " /><path d=" M 7304.81,   99.80  C 7304.81    97.30  7302.78    95.27  7300.28    95.27 " style="stroke-width: 1.42 ;&st7; " /><path d=" M 7300.28,   95.27  C 7297.78    95.27  7295.75    97.30  7295.75    99.80 " style="stroke-width: 1.42 ;&st7; " /><path d=" M 7295.75,   99.80  C 7295.75   102.31  7297.78   104.33  7300.28   104.33 " style="stroke-width: 1.42 ;&st7; " /><path d=" M 7300.28,  104.33  C 7302.78   104.33  7304.81   102.31  7304.81    99.80 " style="stroke-width: 1.42 ;&st7; " /><path d=" M 7211.33,   99.80  C 7211.33    97.30  7209.30    95.27  7206.80    95.27 " style="stroke-width: 1.42 ;&st7; " /><path d=" M 7206.80,   95.27  C 7204.29    95.27  7202.26    97.30  7202.26    99.80 " style="stroke-width: 1.42 ;&st7; " /><path d=" M 7202.26,   99.80  C 7202.26   102.31  7204.29   104.33  7206.80   104.33 " style="stroke-width: 1.42 ;&st7; " /><path d=" M 7206.80,  104.33  C 7209.30   104.33  7211.33   102.31  7211.33    99.80 " style="stroke-width: 1.42 ;&st7; " /><path d=" M 7177.33,   99.80  C 7177.33    97.30  7175.30    95.27  7172.80    95.27 " style="stroke-width: 1.42 ;&st7; " /><path d=" M 7172.80,   95.27  C 7170.30    95.27  7168.27    97.30  7168.27    99.80 " style="stroke-width: 1.42 ;&st7; " /><path d=" M 7168.27,   99.80  C 7168.27   102.31  7170.30   104.33  7172.80   104.33 " style="stroke-width: 1.42 ;&st7; " /><path d=" M 7172.80,  104.33  C 7175.30   104.33  7177.33   102.31  7177.33    99.80 " style="stroke-width: 1.42 ;&st7; " /><text style="&st18;" transform="matrix(&st16;  7197.68  91.57 )">CA3P</text><text style="&st18;" transform="matrix(&st16;  7192.74  101.77 )">31</text><text style="&st18;" transform="matrix(&st16;  7204.32  101.77 )">D</text><text style="&st18;" transform="matrix(&st16;  7157.97  101.77 )">30</text><text style="&st18;" transform="matrix(&st16;  7170.33  101.77 )">D</text><text style="&st18;" transform="matrix(&st16;  7163.55  91.57 )">CA3N</text><text style="&st18;" transform="matrix(&st17;  7339.08  281.44 )">W-B</text><text style="&st18;" transform="matrix(&st17;  7432.56  281.44 )">W-B</text><text style="&st18;" transform="matrix(&st16;  7430.36  91.57 )">E12</text><text style="&st18;" transform="matrix(&st17;  7432.56  134.07 )">BR</text><text style="&st18;" transform="matrix(&st16;  7425.38  101.77 )">4</text><text style="&st18;" transform="matrix(&st16;  7433.78  101.77 )">D</text><text style="&st18;" transform="matrix(&st16;  7389.84  91.57 )">E1</text><text style="&st18;" transform="matrix(&st17;  7390.07  134.07 )">BR</text><text style="&st18;" transform="matrix(&st16;  7382.89  101.77 )">6</text><text style="&st18;" transform="matrix(&st16;  7391.29  101.77 )">C</text><text style="&st18;" transform="matrix(&st16;  7336.49  91.57 )">E02</text><text style="&st18;" transform="matrix(&st17;  7339.08  136.96 )">W-B</text><text style="&st18;" transform="matrix(&st16;  7331.9  101.77 )">5</text><text style="&st18;" transform="matrix(&st16;  7340.3  101.77 )">D</text><text style="&st18;" transform="matrix(&st16;  7294.38  91.57 )">E01</text><text style="&st18;" transform="matrix(&st17;  7296.59  136.96 )">W-B</text><text style="&st18;" transform="matrix(&st16;  7289.4  101.77 )">5</text><text style="&st18;" transform="matrix(&st16;  7297.81  101.77 )">C</text><text style="&st18;" transform="matrix(&st17;  7222.91  420.74 )">L101</text><text ewd:textID="61" style="&st18;" transform="matrix(&st17;  7230.01  420.74 )">Junction Connector</text><text style="&st18;" transform="matrix(&st17;  7016.13  327.06 )">P</text><text style="&st18;" transform="matrix(&st17;  7016.13  233.58 )">P</text><text style="&st18;" transform="matrix(&st16;  7087.6  271.46 )">11</text><text style="&st18;" transform="matrix(&st17;  7050.13  327.06 )">V</text><text style="&st18;" transform="matrix(&st17;  7050.13  233.58 )">V</text><text style="&st18;" transform="matrix(&st17;  7135.11  327.06 )">B</text><text style="&st18;" transform="matrix(&st17;  7135.11  233.58 )">B</text><text style="&st18;" transform="matrix(&st16;  7098.02  355.04 )">4</text><text style="&st18;" transform="matrix(&st17;  7101.12  328.09 )">W</text><text style="&st18;" transform="matrix(&st17;  7101.12  234.6 )">W</text><text style="&st18;" transform="matrix(&st16;  7047.03  355.04 )">3</text><text style="&st18;" transform="matrix(&st16;  7009.86  355.04 )">14</text><text style="&st18;" transform="matrix(&st16;  7128.84  355.04 )">15</text><text style="&st18;" transform="matrix(&st16;  7166.79  355.04 )">1</text><text style="&st18;" transform="matrix(&st16;  7196.83  355.04 )">12</text><text style="&st18;" transform="matrix(&st16;  7230.31  609.99 )">L</text><text style="&st18;" transform="matrix(&st16;  7224.17  592.99 )">V(*1)</text><text style="&st18;" transform="matrix(&st16;  7227.56  626.98 )">LG</text><text style="&st18;" transform="matrix(&st16;  7278.55  626.98 )">LG</text><text style="&st18;" transform="matrix(&st16;  7281.31  609.99 )">L</text><text style="&st18;" transform="matrix(&st16;  7275.16  592.99 )">V(*1)</text><text style="&st18;" transform="matrix(&st16;  7227.49  575.99 )">BR</text><text style="&st18;" transform="matrix(&st16;  7229.96  558.99 )">Y</text><text style="&st18;" transform="matrix(&st16;  7280.95  558.99 )">Y</text><text style="&st18;" transform="matrix(&st16;  7278.48  575.99 )">BR</text><text style="&st18;" transform="matrix(&st16;  7221.06  542.0 )">L(LHD)</text><text style="&st18;" transform="matrix(&st16;  7272.05  542.0 )">L(LHD)</text><text style="&st18;" transform="matrix(&st16;  7229.96  643.98 )">P</text><text style="&st18;" transform="matrix(&st16;  7229.96  660.98 )">V</text><text style="&st18;" transform="matrix(&st16;  7280.95  660.98 )">V</text><text style="&st18;" transform="matrix(&st16;  7280.95  643.98 )">P</text><text style="&st18;" transform="matrix(&st17;  7203.1  125.5 )">LG</text><text style="&st18;" transform="matrix(&st17;  7169.11  122.74 )">L</text><text style="&st18;" transform="matrix(&st16;  7120.81  271.46 )">10</text><text style="&st18;" transform="matrix(&st16;  7220.56  491.01 )">L(RHD)</text><text style="&st18;" transform="matrix(&st16;  7271.56  491.01 )">L(RHD)</text><text style="&st18;" transform="matrix(&st16;  7005.01  262.96 )">9</text><text style="&st18;" transform="matrix(&st16;  7005.01  271.46 )">8</text><text style="&st18;" transform="matrix(&st16;  7063.73  271.46 )">(RHD)</text><text style="&st18;" transform="matrix(&st16;  7063.73  262.96 )">(LHD)</text><text style="&st18;" transform="matrix(&st16;  7039.01  262.96 )">8</text><text style="&st18;" transform="matrix(&st16;  7039.01  271.46 )">9</text><text style="&st18;" transform="matrix(&st16;  7289.26  33.47 )">A21(A),A22(B),L5(C),L6(D)</text><text ewd:textID="73" style="&st18;" transform="matrix(&st16;  7289.26  40.58 )">Power Management Control ECU</text><text ewd:textID="1" style="&st18;" transform="matrix(&st17;  7483.56  179.26 )">(Shielded)</text><text style="&st18;" transform="matrix(&st16;  7493.22  272.85 )">A29(A),A69(B)</text><text ewd:textID="17" style="&st18;" transform="matrix(&st16;  7493.22  279.96 )">Accelerator Pedal Sensor Assembly</text><text style="&st18;" transform="matrix(&st16;  7498.69  101.77 )">18</text><text style="&st18;" transform="matrix(&st16;  7229.54  474.01 )">G</text><text style="&st18;" transform="matrix(&st16;  7280.53  474.01 )">G</text><text style="&st18;" transform="matrix(&st17;  7443.89  135.44 )">(*9)</text></svg>