﻿<?xml version="1.0" encoding="utf-8"?>
<!DOCTYPE svg PUBLIC "-//W3C//DTD SVG 1.0//EN" "http://www.w3.org/TR/2001/REC-SVG-20010904/DTD/svg10.dtd"[
	<!ENTITY ns_flows "http://ns.adobe.com/Flows/1.0/">
	<!ENTITY ns_svg "http://www.w3.org/2000/svg">
	<!ENTITY ns_xlink "http://www.w3.org/1999/xlink">
	<!ENTITY st0 "font-size:7px;font-family:'MS-PGothic';adobe-font-script:japanese;">
	<!ENTITY st1 "font-size:6px;font-family:'ArialMT';">
	<!-- White fill  -->
	<!ENTITY st2 "fill:#FFFFFF;stroke:#000000; stroke-width:1.41;stroke-linecap:round;stroke-linejoin:round;">
	<!-- Yellow fill  -->
	<!ENTITY st3 "fill:#FFFFCC;stroke:#FFFFCC; stroke-width:0.1;stroke-linecap:round;stroke-linejoin:round;">
	<!-- Gray fill  -->
	<!ENTITY st4 "fill:#CCCCCC;stroke:#CCCCCC; stroke-width:0.1;stroke-linecap:round;stroke-linejoin:round;">
	<!-- Light-blue fill -->
	<!ENTITY st5 "fill:#CCECF4;stroke:#000000; stroke-width:1.133;stroke-linecap:round;stroke-linejoin:round;">
	<!ENTITY st6 "fill:none;stroke-linecap:butt; stroke-linejoin:round;">
	<!ENTITY st7 "fill:none;stroke:#000000;stroke-linecap:round;stroke-linejoin:round;">
	<!ENTITY st8 "enable-background:new    ;">
	<!-- Black fill -->
	<!ENTITY st9 "fill:#000000;stroke:#000000; stroke-linecap:round;stroke-linejoin:round;">
	<!-- SRS note   -->
	<!ENTITY st10 "font-size:9px;font-family:'ArialMT';">
	<!ENTITY st11 "font-size:9px;font-family:'Svg Symbol';">
	<!ENTITY st12 "font-size:6px;font-family:'Svg Symbol';">
	<!ENTITY st13 "fill:none;stroke:#ff0000;stroke-linecap:round;stroke-linejoin:round;">
	<!-- Yellow fill  -->
	<!ENTITY st14 "fill:#FFFF00;stroke:#FFFF00; stroke-width:0.1;stroke-linecap:round;stroke-linejoin:round;">
	<!ENTITY st15 "font-size:6px;font-family:'MS-PGothic';adobe-font-script:japanese;">
	<!ENTITY st16 "1.00 0.00 0.00 1.00">
	<!ENTITY st17 "0.00 -1.00 1.00 0.00">
	<!ENTITY st18 "font-size:6px;font-family:'Arial';">
	<!ENTITY st19 "font-size:9px;font-family:'Arial';">
	<!ENTITY st20 "font-size:6px;font-family:'MS-PGothic','MS PGothic';adobe-font-script:japanese;">
	<!ENTITY st21 "font-size:7px;font-family:'MS-PGothic','MS PGothic';adobe-font-script:japanese;">
	<!ATTLIST svg
		xmlns:ewd CDATA #FIXED "http://shcl.co.jp/ewd"
		xmlns:a CDATA #FIXED "http://ns.adobe.com/AdobeSVGViewerExtensions/3.0/"
		ewd:ver CDATA #IMPLIED
	>
	<!ATTLIST a
		ewd:lineID CDATA #IMPLIED
		ewd:groupID CDATA #IMPLIED
		ewd:figtype CDATA #IMPLIED
		ewd:code CDATA #IMPLIED
		ewd:figID CDATA #IMPLIED
		ewd:pinNo CDATA #IMPLIED
		ewd:comment CDATA #IMPLIED >
	<!ATTLIST g
		ewd:lineID CDATA #IMPLIED
		ewd:groupID CDATA #IMPLIED
		ewd:figtype CDATA #IMPLIED
		ewd:code CDATA #IMPLIED
		ewd:figID CDATA #IMPLIED
		ewd:pinNo CDATA #IMPLIED
		ewd:comment CDATA #IMPLIED >
	<!ATTLIST text
		ewd:textID CDATA #IMPLIED >
	<!ATTLIST title
		ewd:textID CDATA #IMPLIED >
]>
<!-- Generator: Shintec Hozumi YS   -->
<svg onload="call_execInitLoadProc_svg('system')" style="overflow:visible;  enable-background:new 0 0 10878.707 710.000" viewBox="0 0 10878.707 710.000" height="710.000" width="10878.707" xml:space="preserve" ewd:ver="L2.1.2.6" xmlns="&ns_svg;" xmlns:a="http://ns.adobe.com/AdobeSVGViewerExtensions/3.0/" xmlns:ewd="http://shcl.co.jp/ewd" xmlns:xlink="&ns_xlink;">
<path d=" M 8192.63,  379.97  L 8192.63,  367.22 " style="stroke-width: 0.85 ;&st7; " /><path d=" M 8192.63,  435.21  L 8192.63,  405.47 " style="stroke-width: 0.85 ;&st7; " /><path d=" M 8192.63,  402.63  L 8198.30,  379.97 " style="stroke-width: 1.42 ;&st7; " /><path d=" M 8243.62,  402.63  L 8249.29,  379.97 " style="stroke-width: 1.42 ;&st7; " /><path d=" M 8243.62,  418.22  L 8243.62,  405.47 " style="stroke-width: 0.85 ;&st7; " /><path d=" M 8243.62,  379.97  L 8243.62,  367.22 " style="stroke-width: 0.85 ;&st7; " /><path d=" M 8252.12,  188.75  L 8243.62,  188.75 " style="stroke-width: 1.42 ;&st7; " /><path d=" M 8201.13,  188.75  L 8192.63,  188.75 " style="stroke-width: 1.42 ;&st7; " /><path d=" M 8235.12,  273.74  L 8243.62,  273.74 " style="stroke-width: 1.42 ;&st7; " /><path d=" M 8184.13,  273.74  L 8192.63,  273.74 " style="stroke-width: 1.42 ;&st7; " /><path d=" M 8141.64,  197.25  L 8133.14,  197.25 " style="stroke-width: 1.42 ;&st7; " /><path d=" M 8107.65,  197.25  L 8099.15,  197.25 " style="stroke-width: 1.42 ;&st7; " /><path d=" M 8048.16,  197.25  L 8039.66,  197.25 " style="stroke-width: 1.42 ;&st7; " /><path d=" M 8014.16,  197.25  L 8005.66,  197.25 " style="stroke-width: 1.42 ;&st7; " /><path d=" M 8247.87,  194.42  L 8243.62,  190.17  L 8239.37,  194.42 " style="stroke-width: 1.42 ;&st7; " /><path d=" M 8247.87,  197.82  L 8243.62,  193.57  L 8239.37,  197.82 " style="stroke-width: 1.42 ;&st7; " /><path d=" M 8196.88,  194.42  L 8192.63,  190.17  L 8188.38,  194.42 " style="stroke-width: 1.42 ;&st7; " /><path d=" M 8196.88,  197.82  L 8192.63,  193.57  L 8188.38,  197.82 " style="stroke-width: 1.42 ;&st7; " /><path d=" M 8247.87,  268.07  L 8243.62,  272.32  L 8239.37,  268.07 " style="stroke-width: 1.42 ;&st7; " /><path d=" M 8239.37,  264.67  L 8243.62,  268.92  L 8247.87,  264.67 " style="stroke-width: 1.42 ;&st7; " /><path d=" M 8196.88,  268.07  L 8192.63,  272.32  L 8188.38,  268.07 " style="stroke-width: 1.42 ;&st7; " /><path d=" M 8188.38,  264.67  L 8192.63,  268.92  L 8196.88,  264.67 " style="stroke-width: 1.42 ;&st7; " /><path d=" M 8175.63,  367.22  L 8175.63,  435.21  L 8260.62,  435.21  L 8260.62,  367.22  L 8175.63,  367.22 " style="stroke-width: 1.42 ;&st7; " /><path d=" M 8192.63,  697.25  L 8192.63,  701.50 " style="stroke-width: 0.85 ;&st7; " /><path d=" M 8184.13,  701.50  L 8201.13,  701.50 " style="stroke-width: 0.85 ;&st7; " /><path d=" M 8188.38,  704.33  L 8196.88,  704.33 " style="stroke-width: 0.85 ;&st7; " /><path d=" M 8189.79,  707.17  L 8195.46,  707.17 " style="stroke-width: 0.85 ;&st7; " /><path d=" M 8191.21,  710.00  L 8194.04,  710.00 " style="stroke-width: 0.85 ;&st7; " /><path d=" M 8137.39,  202.92  L 8133.14,  198.67  L 8128.89,  202.92 " style="stroke-width: 1.42 ;&st7; " /><path d=" M 8137.39,  206.32  L 8133.14,  202.07  L 8128.89,  206.32 " style="stroke-width: 1.42 ;&st7; " /><path d=" M 8103.39,  202.92  L 8099.14,  198.67  L 8094.89,  202.92 " style="stroke-width: 1.42 ;&st7; " /><path d=" M 8103.39,  206.32  L 8099.14,  202.07  L 8094.89,  206.32 " style="stroke-width: 1.42 ;&st7; " /><path d=" M 8082.15,  307.73  L 8082.15,  341.73  L 8150.13,  341.73  L 8150.13,  307.73  L 8082.15,  307.73 " style="stroke-width: 1.42 ;&st7; " /><path d=" M 8043.90,  202.92  L 8039.65,  198.67  L 8035.40,  202.92 " style="stroke-width: 1.42 ;&st7; " /><path d=" M 8043.90,  206.32  L 8039.65,  202.07  L 8035.40,  206.32 " style="stroke-width: 1.42 ;&st7; " /><path d=" M 8009.91,  202.92  L 8005.66,  198.67  L 8001.41,  202.92 " style="stroke-width: 1.42 ;&st7; " /><path d=" M 8009.91,  206.32  L 8005.66,  202.07  L 8001.41,  206.32 " style="stroke-width: 1.42 ;&st7; " /><path d=" M 8192.63,  418.22  L 8243.62,  418.22 " style="stroke-width: 0.85 ;&st7; " /><path d=" M 8191.44,  417.21  L 8191.16,  417.68  L 8191.07,  418.22  L 8191.16,  418.75  L 8191.44,  419.22  L 8191.85,  419.56  L 8192.36,  419.75  L 8192.90,  419.75  L 8193.41,  419.56  L 8193.82,  419.22  L 8194.09,  418.75  L 8194.19,  418.22  L 8194.09,  417.68  L 8193.82,  417.21  L 8193.41,  416.87  L 8192.90,  416.68  L 8192.36,  416.68  L 8191.85,  416.87  L 8191.44,  417.21  L 8191.83,  417.92  L 8191.83,  418.51  L 8192.20,  418.95  L 8192.77,  419.05  L 8193.28,  418.76  L 8193.48,  418.22  L 8193.28,  417.67  L 8192.77,  417.38  L 8192.20,  417.48  L 8192.63,  418.22 " style="stroke-width: 0.85 ;&st7; " /><path d=" M 8456.08,   35.78  L 8456.08,   86.77  L10801.69,   86.77  L10801.69,   35.78  L 8456.08,   35.78 " style="stroke-width: 1.42 ;&st7; " /><path d=" M 8337.10,   69.77  L 8337.10,  129.26  L 8507.08,  129.26  L 8507.08,   86.77 " style="stroke-width: 0.85 ;&st7; " /><path d=" M 8324.36,   35.78  L 8324.36,   78.27  L 8349.85,   78.27  L 8349.85,   35.78  L 8324.36,   35.78 " style="stroke-width: 1.42 ;&st7; " /><path d=" M 8396.59,   69.77  L 8396.59,  112.27  L 8473.08,  112.27  L 8473.08,   86.77 " style="stroke-width: 0.85 ;&st7; " /><path d=" M 8383.85,   35.78  L 8383.85,   78.27  L 8409.34,   78.27  L 8409.34,   35.78  L 8383.85,   35.78 " style="stroke-width: 1.42 ;&st7; " /><path d=" M 8194.05,  381.39  C 8194.05   380.61  8193.41   379.97  8192.63   379.97 " style="stroke-width: 0.85 ;&st7; " /><path d=" M 8192.63,  379.97  C 8191.85   379.97  8191.21   380.61  8191.21   381.39 " style="stroke-width: 0.85 ;&st7; " /><path d=" M 8191.21,  381.39  C 8191.21   382.17  8191.85   382.80  8192.63   382.80 " style="stroke-width: 0.85 ;&st7; " /><path d=" M 8192.63,  382.80  C 8193.41   382.80  8194.05   382.17  8194.05   381.39 " style="stroke-width: 0.85 ;&st7; " /><path d=" M 8194.05,  404.05  C 8194.05   403.27  8193.41   402.63  8192.63   402.63 " style="stroke-width: 0.85 ;&st7; " /><path d=" M 8192.63,  402.63  C 8191.85   402.63  8191.21   403.27  8191.21   404.05 " style="stroke-width: 0.85 ;&st7; " /><path d=" M 8191.21,  404.05  C 8191.21   404.83  8191.85   405.47  8192.63   405.47 " style="stroke-width: 0.85 ;&st7; " /><path d=" M 8192.63,  405.47  C 8193.41   405.47  8194.05   404.83  8194.05   404.05 " style="stroke-width: 0.85 ;&st7; " /><path d=" M 8245.04,  404.05  C 8245.04   403.27  8244.40   402.63  8243.62   402.63 " style="stroke-width: 0.85 ;&st7; " /><path d=" M 8243.62,  402.63  C 8242.84   402.63  8242.21   403.27  8242.21   404.05 " style="stroke-width: 0.85 ;&st7; " /><path d=" M 8242.21,  404.05  C 8242.21   404.83  8242.84   405.47  8243.62   405.47 " style="stroke-width: 0.85 ;&st7; " /><path d=" M 8243.62,  405.47  C 8244.40   405.47  8245.04   404.83  8245.04   404.05 " style="stroke-width: 0.85 ;&st7; " /><path d=" M 8245.04,  381.39  C 8245.04   380.61  8244.40   379.97  8243.62   379.97 " style="stroke-width: 0.85 ;&st7; " /><path d=" M 8243.62,  379.97  C 8242.84   379.97  8242.21   380.61  8242.21   381.39 " style="stroke-width: 0.85 ;&st7; " /><path d=" M 8242.21,  381.39  C 8242.21   382.17  8242.84   382.80  8243.62   382.80 " style="stroke-width: 0.85 ;&st7; " /><path d=" M 8243.62,  382.80  C 8244.40   382.80  8245.04   382.17  8245.04   381.39 " style="stroke-width: 0.85 ;&st7; " /><path d=" M 8248.16,   99.80  C 8248.16    97.30  8246.13    95.27  8243.62    95.27 " style="stroke-width: 1.42 ;&st7; " /><path d=" M 8243.62,   95.27  C 8241.12    95.27  8239.09    97.30  8239.09    99.80 " style="stroke-width: 1.42 ;&st7; " /><path d=" M 8239.09,   99.80  C 8239.09   102.31  8241.12   104.33  8243.62   104.33 " style="stroke-width: 1.42 ;&st7; " /><path d=" M 8243.62,  104.33  C 8246.13   104.33  8248.16   102.31  8248.16    99.80 " style="stroke-width: 1.42 ;&st7; " /><path d=" M 8197.16,   99.80  C 8197.16    97.30  8195.13    95.27  8192.63    95.27 " style="stroke-width: 1.42 ;&st7; " /><path d=" M 8192.63,   95.27  C 8190.13    95.27  8188.10    97.30  8188.10    99.80 " style="stroke-width: 1.42 ;&st7; " /><path d=" M 8188.10,   99.80  C 8188.10   102.31  8190.13   104.33  8192.63   104.33 " style="stroke-width: 1.42 ;&st7; " /><path d=" M 8192.63,  104.33  C 8195.13   104.33  8197.16   102.31  8197.16    99.80 " style="stroke-width: 1.42 ;&st7; " /><path d=" M 8137.67,   99.80  C 8137.67    97.30  8135.64    95.27  8133.14    95.27 " style="stroke-width: 1.42 ;&st7; " /><path d=" M 8133.14,   95.27  C 8130.64    95.27  8128.61    97.30  8128.61    99.80 " style="stroke-width: 1.42 ;&st7; " /><path d=" M 8128.61,   99.80  C 8128.61   102.31  8130.64   104.33  8133.14   104.33 " style="stroke-width: 1.42 ;&st7; " /><path d=" M 8133.14,  104.33  C 8135.64   104.33  8137.67   102.31  8137.67    99.80 " style="stroke-width: 1.42 ;&st7; " /><path d=" M 8103.68,   99.80  C 8103.68    97.30  8101.65    95.27  8099.15    95.27 " style="stroke-width: 1.42 ;&st7; " /><path d=" M 8099.15,   95.27  C 8096.64    95.27  8094.61    97.30  8094.61    99.80 " style="stroke-width: 1.42 ;&st7; " /><path d=" M 8094.61,   99.80  C 8094.61   102.31  8096.64   104.33  8099.15   104.33 " style="stroke-width: 1.42 ;&st7; " /><path d=" M 8099.15,  104.33  C 8101.65   104.33  8103.68   102.31  8103.68    99.80 " style="stroke-width: 1.42 ;&st7; " /><path d=" M 8044.19,   99.80  C 8044.19    97.30  8042.16    95.27  8039.66    95.27 " style="stroke-width: 1.42 ;&st7; " /><path d=" M 8039.66,   95.27  C 8037.15    95.27  8035.12    97.30  8035.12    99.80 " style="stroke-width: 1.42 ;&st7; " /><path d=" M 8035.12,   99.80  C 8035.12   102.31  8037.15   104.33  8039.66   104.33 " style="stroke-width: 1.42 ;&st7; " /><path d=" M 8039.66,  104.33  C 8042.16   104.33  8044.19   102.31  8044.19    99.80 " style="stroke-width: 1.42 ;&st7; " /><path d=" M 8010.19,   99.80  C 8010.19    97.30  8008.17    95.27  8005.66    95.27 " style="stroke-width: 1.42 ;&st7; " /><path d=" M 8005.66,   95.27  C 8003.16    95.27  8001.13    97.30  8001.13    99.80 " style="stroke-width: 1.42 ;&st7; " /><path d=" M 8001.13,   99.80  C 8001.13   102.31  8003.16   104.33  8005.66   104.33 " style="stroke-width: 1.42 ;&st7; " /><path d=" M 8005.66,  104.33  C 8008.17   104.33  8010.19   102.31  8010.19    99.80 " style="stroke-width: 1.42 ;&st7; " /><path d=" M 8337.11,   47.11  C 8334.37    48.72  8333.46    52.25  8335.07    54.99 " style="stroke-width: 1.42 ;&st7; " /><path d=" M 8335.07,   54.99  C 8335.59    55.87  8336.23    56.51  8337.11    57.03 " style="stroke-width: 1.42 ;&st7; " /><path d=" M 8337.11,   66.94  C 8339.84    65.33  8340.76    61.80  8339.14    59.06 " style="stroke-width: 1.42 ;&st7; " /><path d=" M 8339.14,   59.06  C 8338.62    58.18  8337.99    57.55  8337.11    57.03 " style="stroke-width: 1.42 ;&st7; " /><path d=" M 8338.52,   45.69  C 8338.52    44.91  8337.89    44.28  8337.11    44.28 " style="stroke-width: 0.85 ;&st7; " /><path d=" M 8337.11,   44.28  C 8336.32    44.28  8335.69    44.91  8335.69    45.69 " style="stroke-width: 0.85 ;&st7; " /><path d=" M 8335.69,   45.69  C 8335.69    46.48  8336.32    47.11  8337.11    47.11 " style="stroke-width: 0.85 ;&st7; " /><path d=" M 8337.11,   47.11  C 8337.89    47.11  8338.52    46.48  8338.52    45.69 " style="stroke-width: 0.85 ;&st7; " /><path d=" M 8338.52,   68.36  C 8338.52    67.57  8337.89    66.94  8337.11    66.94 " style="stroke-width: 0.85 ;&st7; " /><path d=" M 8337.11,   66.94  C 8336.32    66.94  8335.69    67.57  8335.69    68.36 " style="stroke-width: 0.85 ;&st7; " /><path d=" M 8335.69,   68.36  C 8335.69    69.14  8336.32    69.77  8337.11    69.77 " style="stroke-width: 0.85 ;&st7; " /><path d=" M 8337.11,   69.77  C 8337.89    69.77  8338.52    69.14  8338.52    68.36 " style="stroke-width: 0.85 ;&st7; " /><path d=" M 8396.60,   47.11  C 8393.86    48.72  8392.95    52.25  8394.56    54.99 " style="stroke-width: 1.42 ;&st7; " /><path d=" M 8394.56,   54.99  C 8395.08    55.87  8395.72    56.51  8396.60    57.03 " style="stroke-width: 1.42 ;&st7; " /><path d=" M 8396.60,   66.94  C 8399.33    65.33  8400.25    61.80  8398.63    59.06 " style="stroke-width: 1.42 ;&st7; " /><path d=" M 8398.63,   59.06  C 8398.11    58.18  8397.48    57.55  8396.60    57.03 " style="stroke-width: 1.42 ;&st7; " /><path d=" M 8398.01,   45.69  C 8398.01    44.91  8397.38    44.28  8396.60    44.28 " style="stroke-width: 0.85 ;&st7; " /><path d=" M 8396.60,   44.28  C 8395.81    44.28  8395.18    44.91  8395.18    45.69 " style="stroke-width: 0.85 ;&st7; " /><path d=" M 8395.18,   45.69  C 8395.18    46.48  8395.81    47.11  8396.60    47.11 " style="stroke-width: 0.85 ;&st7; " /><path d=" M 8396.60,   47.11  C 8397.38    47.11  8398.01    46.48  8398.01    45.69 " style="stroke-width: 0.85 ;&st7; " /><path d=" M 8398.01,   68.36  C 8398.01    67.57  8397.38    66.94  8396.60    66.94 " style="stroke-width: 0.85 ;&st7; " /><path d=" M 8396.60,   66.94  C 8395.81    66.94  8395.18    67.57  8395.18    68.36 " style="stroke-width: 0.85 ;&st7; " /><path d=" M 8395.18,   68.36  C 8395.18    69.14  8395.81    69.77  8396.60    69.77 " style="stroke-width: 0.85 ;&st7; " /><path d=" M 8396.60,   69.77  C 8397.38    69.77  8398.01    69.14  8398.01    68.36 " style="stroke-width: 0.85 ;&st7; " /><text style="&st18;" transform="matrix(&st17;  8239.93  134.0 )">LG</text><text style="&st18;" transform="matrix(&st17;  8188.94  321.46 )">GR</text><text style="&st18;" transform="matrix(&st17;  8188.94  227.98 )">GR</text><text style="&st18;" transform="matrix(&st16;  8185.84  363.53 )">3</text><text style="&st18;" transform="matrix(&st17;  8188.94  134.49 )">GR</text><text style="&st18;" transform="matrix(&st16;  8229.59  186.47 )">1</text><text style="&st18;" transform="matrix(&st16;  8173.86  186.47 )">46</text><text style="&st18;" transform="matrix(&st16;  8225.63  279.96 )">14</text><text style="&st18;" transform="matrix(&st16;  8174.64  279.96 )">18</text><text style="&st18;" transform="matrix(&st17;  8129.45  131.74 )">R</text><text style="&st18;" transform="matrix(&st17;  8129.45  250.72 )">R</text><text style="&st18;" transform="matrix(&st17;  8095.45  251.0 )">G</text><text style="&st18;" transform="matrix(&st17;  8095.45  132.02 )">G</text><text style="&st18;" transform="matrix(&st16;  8088.12  349.34 )">R19</text><text ewd:textID="44" style="&st18;" transform="matrix(&st16;  8088.12  356.45 )">Outside Luggage <tspan dy="6" x="0">Electrical Key </tspan><tspan dy="6" x="0">Antenna</tspan></text><text style="&st18;" transform="matrix(&st16;  8126.35  304.04 )">2</text><text style="&st18;" transform="matrix(&st16;  8123.6  315.37 )">CLGB</text><text style="&st18;" transform="matrix(&st16;  8093.13  304.04 )">1</text><text style="&st18;" transform="matrix(&st16;  8089.96  315.37 )">CLG5</text><text style="&st18;" transform="matrix(&st16;  8123.6  91.57 )">CG8B</text><text style="&st18;" transform="matrix(&st16;  8130.81  101.77 )">B</text><text style="&st18;" transform="matrix(&st16;  8118.31  101.77 )">20</text><text style="&st18;" transform="matrix(&st16;  8089.96  91.57 )">CLG8</text><text style="&st18;" transform="matrix(&st16;  8096.82  101.77 )">B</text><text style="&st18;" transform="matrix(&st16;  8085.09  101.77 )">19</text><text style="&st18;" transform="matrix(&st16;  8114.37  194.97 )">23</text><text style="&st18;" transform="matrix(&st16;  8080.38  194.97 )">24</text><text style="&st18;" transform="matrix(&st17;  8106.78  135.44 )">(*2)</text><text style="&st18;" transform="matrix(&st17;  8106.78  254.42 )">(*2)</text><text style="&st18;" transform="matrix(&st17;  8140.78  254.42 )">(*2)</text><text style="&st18;" transform="matrix(&st17;  8140.78  135.44 )">(*2)</text><text style="&st18;" transform="matrix(&st17;  8035.96  131.74 )">R</text><text style="&st18;" transform="matrix(&st17;  8035.96  250.72 )">R</text><text style="&st18;" transform="matrix(&st17;  8001.97  251.0 )">G</text><text style="&st18;" transform="matrix(&st17;  8001.97  132.02 )">G</text><text style="&st18;" transform="matrix(&st16;  8032.87  304.04 )">3</text><text style="&st18;" transform="matrix(&st16;  8030.12  315.37 )">CLGB</text><text style="&st18;" transform="matrix(&st16;  8030.12  91.57 )">CG7B</text><text style="&st18;" transform="matrix(&st16;  8037.33  101.77 )">A</text><text style="&st18;" transform="matrix(&st16;  8024.82  101.77 )">27</text><text style="&st18;" transform="matrix(&st16;  8003.33  101.77 )">A</text><text style="&st18;" transform="matrix(&st16;  8021.66  194.97 )">21</text><text style="&st18;" transform="matrix(&st17;  8251.26  322.41 )">(*2)</text><text style="&st18;" transform="matrix(&st17;  8200.27  135.44 )">(*2)</text><text style="&st18;" transform="matrix(&st17;  8251.26  228.93 )">(*2)</text><text style="&st18;" transform="matrix(&st17;  8251.26  135.44 )">(*2)</text><text style="&st18;" transform="matrix(&st16;  8233.84  91.57 )">TSW6</text><text style="&st18;" transform="matrix(&st16;  8241.29  101.77 )">A</text><text style="&st18;" transform="matrix(&st16;  8228.79  101.77 )">23</text><text style="&st18;" transform="matrix(&st16;  8182.85  91.57 )">TSW5</text><text style="&st18;" transform="matrix(&st16;  8190.3  101.77 )">A</text><text style="&st18;" transform="matrix(&st16;  8177.8  101.77 )">22</text><text style="&st18;" transform="matrix(&st17;  8188.94  476.91 )">W-B</text><text style="&st18;" transform="matrix(&st17;  8268.23  437.74 )">V4</text><text ewd:textID="14" style="&st18;" transform="matrix(&st17;  8275.34  437.74 )">Back Door Opener <tspan dy="6" x="0">Switch Assembly</tspan></text><text style="&st18;" transform="matrix(&st16;  8185.84  443.41 )">2</text><text style="&st18;" transform="matrix(&st17;  8239.93  320.97 )">LG</text><text style="&st18;" transform="matrix(&st17;  8239.93  227.48 )">LG</text><text style="&st18;" transform="matrix(&st16;  8237.61  363.53 )">1</text><text ewd:textID="43" style="&st18;" transform="matrix(&st17;  8187.52  401.41 )">Open</text><text ewd:textID="40" style="&st18;" transform="matrix(&st17;  8238.51  400.24 )">Lock</text><text style="&st18;" transform="matrix(&st16;  8195.46  431.52 )">E</text><text style="&st18;" transform="matrix(&st16;  8195.46  375.42 )">UL</text><text style="&st18;" transform="matrix(&st16;  8246.46  375.42 )">L</text><text style="&st18;" transform="matrix(&st16;  8354.41  53.34 )">10A <tspan dy="6" x="0">ECU-IG </tspan><tspan dy="6" x="0">NO.1</tspan></text><text style="&st18;" transform="matrix(&st16;  8331.03  32.08 )">(IG)</text><text style="&st18;" transform="matrix(&st16;  8413.9  53.34 )">10A <tspan dy="6" x="0">ECU- </tspan><tspan dy="6" x="0">ACC</tspan></text><text style="&st18;" transform="matrix(&st16;  8386.99  32.08 )">(ACC)</text><text ewd:textID="41" style="&st18;" transform="matrix(&st16;  8453.56  32.08 )">Main Body ECU</text><text style="&st18;" transform="matrix(&st16;  8453.56  24.98 )">L7(A),L8(B)</text><text style="&st18;" transform="matrix(&st16;  8465.81  83.07 )">ACC</text><text style="&st18;" transform="matrix(&st16;  8462.34  94.96 )">29</text><text style="&st18;" transform="matrix(&st16;  8496.33  94.96 )">32</text><text style="&st18;" transform="matrix(&st16;  8264.31  525.0 )">BR</text><text style="&st18;" transform="matrix(&st16;  8265.76  508.0 )">W</text><text style="&st18;" transform="matrix(&st16;  8316.75  508.0 )">W</text><text style="&st18;" transform="matrix(&st16;  8315.31  525.0 )">BR</text><text style="&st18;" transform="matrix(&st16;  8054.13  41.97 )">L62(A),L63(B)</text><text ewd:textID="16" style="&st18;" transform="matrix(&st16;  8054.13  49.08 )">Certification ECU Assembly</text><text style="&st18;" transform="matrix(&st16;  8263.89  151.06 )">GR</text><text style="&st18;" transform="matrix(&st16;  8263.33  162.39 )">(*1)</text><text style="&st18;" transform="matrix(&st16;  8314.88  151.06 )">GR</text><text style="&st18;" transform="matrix(&st16;  8314.32  162.39 )">(*1)</text><text ewd:textID="2" style="&st18;" transform="matrix(&st16;  8360.08  316.79 )">* 1 :Driver's Door Only Entry System</text></svg>