﻿<?xml version="1.0" encoding="utf-8"?>
<!DOCTYPE svg PUBLIC "-//W3C//DTD SVG 1.0//EN" "http://www.w3.org/TR/2001/REC-SVG-20010904/DTD/svg10.dtd"[
	<!ENTITY ns_flows "http://ns.adobe.com/Flows/1.0/">
	<!ENTITY ns_svg "http://www.w3.org/2000/svg">
	<!ENTITY ns_xlink "http://www.w3.org/1999/xlink">
	<!ENTITY st0 "font-size:7px;font-family:'MS-PGothic';adobe-font-script:japanese;">
	<!ENTITY st1 "font-size:6px;font-family:'ArialMT';">
	<!-- White fill  -->
	<!ENTITY st2 "fill:#FFFFFF;stroke:#000000; stroke-width:1.41;stroke-linecap:round;stroke-linejoin:round;">
	<!-- Yellow fill  -->
	<!ENTITY st3 "fill:#FFFFCC;stroke:#FFFFCC; stroke-width:0.1;stroke-linecap:round;stroke-linejoin:round;">
	<!-- Gray fill  -->
	<!ENTITY st4 "fill:#CCCCCC;stroke:#CCCCCC; stroke-width:0.1;stroke-linecap:round;stroke-linejoin:round;">
	<!-- Light-blue fill -->
	<!ENTITY st5 "fill:#CCECF4;stroke:#000000; stroke-width:1.133;stroke-linecap:round;stroke-linejoin:round;">
	<!ENTITY st6 "fill:none;stroke-linecap:butt; stroke-linejoin:round;">
	<!ENTITY st7 "fill:none;stroke:#000000;stroke-linecap:round;stroke-linejoin:round;">
	<!ENTITY st8 "enable-background:new    ;">
	<!-- Black fill -->
	<!ENTITY st9 "fill:#000000;stroke:#000000; stroke-linecap:round;stroke-linejoin:round;">
	<!-- SRS note   -->
	<!ENTITY st10 "font-size:9px;font-family:'ArialMT';">
	<!ENTITY st11 "font-size:9px;font-family:'Svg Symbol';">
	<!ENTITY st12 "font-size:6px;font-family:'Svg Symbol';">
	<!ENTITY st13 "fill:none;stroke:#ff0000;stroke-linecap:round;stroke-linejoin:round;">
	<!-- Yellow fill  -->
	<!ENTITY st14 "fill:#FFFF00;stroke:#FFFF00; stroke-width:0.1;stroke-linecap:round;stroke-linejoin:round;">
	<!ENTITY st15 "font-size:6px;font-family:'MS-PGothic';adobe-font-script:japanese;">
	<!ENTITY st16 "1.00 0.00 0.00 1.00">
	<!ENTITY st17 "0.00 -1.00 1.00 0.00">
	<!ENTITY st18 "font-size:6px;font-family:'Arial';">
	<!ENTITY st19 "font-size:9px;font-family:'Arial';">
	<!ENTITY st20 "font-size:6px;font-family:'MS-PGothic','MS PGothic';adobe-font-script:japanese;">
	<!ENTITY st21 "font-size:7px;font-family:'MS-PGothic','MS PGothic';adobe-font-script:japanese;">
	<!ATTLIST svg
		xmlns:ewd CDATA #FIXED "http://shcl.co.jp/ewd"
		xmlns:a CDATA #FIXED "http://ns.adobe.com/AdobeSVGViewerExtensions/3.0/"
		ewd:ver CDATA #IMPLIED
	>
	<!ATTLIST a
		ewd:lineID CDATA #IMPLIED
		ewd:groupID CDATA #IMPLIED
		ewd:figtype CDATA #IMPLIED
		ewd:code CDATA #IMPLIED
		ewd:figID CDATA #IMPLIED
		ewd:pinNo CDATA #IMPLIED
		ewd:comment CDATA #IMPLIED >
	<!ATTLIST g
		ewd:lineID CDATA #IMPLIED
		ewd:groupID CDATA #IMPLIED
		ewd:figtype CDATA #IMPLIED
		ewd:code CDATA #IMPLIED
		ewd:figID CDATA #IMPLIED
		ewd:pinNo CDATA #IMPLIED
		ewd:comment CDATA #IMPLIED >
	<!ATTLIST text
		ewd:textID CDATA #IMPLIED >
	<!ATTLIST title
		ewd:textID CDATA #IMPLIED >
]>
<!-- Generator: Shintec Hozumi YS   -->
<svg onload="call_execInitLoadProc_svg('system')" style="overflow:visible;  enable-background:new 0 0 408.457 710.000" viewBox="0 0 408.457 710.000" height="710.000" width="408.457" xml:space="preserve" ewd:ver="L2.1.2.6" xmlns="&ns_svg;" xmlns:a="http://ns.adobe.com/AdobeSVGViewerExtensions/3.0/" xmlns:ewd="http://shcl.co.jp/ewd" xmlns:xlink="&ns_xlink;">
<path d=" M  135.98,   69.77  L  135.98,   95.27 " style="stroke-width: 0.85 ;&st7; " /><path d=" M  138.10,   95.27  L  133.85,   95.27 " style="stroke-width: 1.42 ;&st7; " /><path d=" M  138.10,  103.77  L  133.85,  103.77 " style="stroke-width: 1.42 ;&st7; " /><path d=" M  138.10,  154.76  L  133.85,  154.76 " style="stroke-width: 1.42 ;&st7; " /><path d=" M  138.10,  163.26  L  133.85,  163.26 " style="stroke-width: 1.42 ;&st7; " /><path d=" M   67.99,   69.77  L   67.99,   95.27 " style="stroke-width: 0.85 ;&st7; " /><path d=" M   70.11,   95.27  L   65.86,   95.27 " style="stroke-width: 1.42 ;&st7; " /><path d=" M   70.11,  103.77  L   65.86,  103.77 " style="stroke-width: 1.42 ;&st7; " /><path d=" M   70.11,  154.76  L   65.86,  154.76 " style="stroke-width: 1.42 ;&st7; " /><path d=" M   70.11,  163.26  L   65.86,  163.26 " style="stroke-width: 1.42 ;&st7; " /><path d=" M   70.11,  265.24  L   65.86,  265.24 " style="stroke-width: 1.42 ;&st7; " /><path d=" M   70.11,  273.74  L   65.86,  273.74 " style="stroke-width: 1.42 ;&st7; " /><path d=" M  129.60,  265.24  L  125.35,  265.24 " style="stroke-width: 1.42 ;&st7; " /><path d=" M  129.60,  273.74  L  125.35,  273.74 " style="stroke-width: 1.42 ;&st7; " /><path d=" M  299.57,  265.24  L  295.33,  265.24 " style="stroke-width: 1.42 ;&st7; " /><path d=" M  299.57,  273.74  L  295.33,  273.74 " style="stroke-width: 1.42 ;&st7; " /><path d=" M  376.06,  265.24  L  371.81,  265.24 " style="stroke-width: 1.42 ;&st7; " /><path d=" M  376.06,  273.74  L  371.81,  273.74 " style="stroke-width: 1.42 ;&st7; " /><path d=" M  229.46,  562.69  L  229.46,  558.44 " style="stroke-width: 0.85 ;&st7; " /><path d=" M  229.46,  555.61  L  235.13,  532.95 " style="stroke-width: 1.42 ;&st7; " /><path d=" M  231.59,  358.73  L  227.34,  358.73 " style="stroke-width: 1.42 ;&st7; " /><path d=" M  231.59,  350.23  L  227.34,  350.23 " style="stroke-width: 1.42 ;&st7; " /><path d=" M  231.59,  316.23  L  227.34,  316.23 " style="stroke-width: 1.42 ;&st7; " /><path d=" M  231.59,  307.73  L  227.34,  307.73 " style="stroke-width: 1.42 ;&st7; " /><path d=" M  231.59,  273.74  L  227.34,  273.74 " style="stroke-width: 1.42 ;&st7; " /><path d=" M  231.59,  265.24  L  227.34,  265.24 " style="stroke-width: 1.42 ;&st7; " /><path d=" M  135.98,  414.69  L  131.01,  409.72 " style="stroke-width: 1.42 ;&st7; " /><path d=" M  118.98,  421.75  L  123.95,  426.71 " style="stroke-width: 1.42 ;&st7; " /><path d=" M  131.01,  426.71  L  135.98,  421.75 " style="stroke-width: 1.42 ;&st7; " /><path d=" M  123.95,  409.72  L  118.98,  414.69 " style="stroke-width: 1.42 ;&st7; " /><path d=" M  231.59,  418.22  L  227.34,  418.22 " style="stroke-width: 1.42 ;&st7; " /><path d=" M  227.34,  401.22  L  231.59,  401.22 " style="stroke-width: 1.42 ;&st7; " /><path d=" M  231.59,  409.72  L  227.34,  409.72 " style="stroke-width: 1.42 ;&st7; " /><path d=" M  231.59,  452.21  L  227.34,  452.21 " style="stroke-width: 1.42 ;&st7; " /><path d=" M  231.59,  469.21  L  227.34,  469.21 " style="stroke-width: 1.42 ;&st7; " /><path d=" M  231.59,  460.71  L  227.34,  460.71 " style="stroke-width: 1.42 ;&st7; " /><path d=" M  229.46,  260.35  L  226.63,  257.51  L  226.63,  261.76  L  229.46,  264.60  L  232.29,  261.76  L  232.29,  257.51  L  229.46,  260.35 " style="stroke-width: 0.28 ;&st9;" /><path d=" M  229.46,  321.13  L  232.29,  323.96  L  232.29,  319.71  L  229.46,  316.88  L  226.63,  319.71  L  226.63,  323.96  L  229.46,  321.13 " style="stroke-width: 0.28 ;&st9;" /><path d=" M  229.46,  345.33  L  226.63,  342.50  L  226.63,  346.75  L  229.46,  349.58  L  232.29,  346.75  L  232.29,  342.50  L  229.46,  345.33 " style="stroke-width: 0.28 ;&st9;" /><path d=" M  229.46,  350.23  L  229.46,  316.23 " style="stroke-width: 0.85 ;&st7; " /><path d=" M  229.46,  562.69  L  229.46,  571.19 " style="stroke-width: 0.85 ;&st7; " /><path d=" M  220.96,  571.19  L  237.96,  571.19 " style="stroke-width: 0.85 ;&st7; " /><path d=" M  297.45,  239.75  L  297.45,  265.24 " style="stroke-width: 0.85 ;&st7; " /><path d=" M  373.94,  260.35  L  371.10,  257.51  L  371.10,  261.76  L  373.94,  264.60  L  376.77,  261.76  L  376.77,  257.51  L  373.94,  260.35 " style="stroke-width: 0.28 ;&st9;" /><path d=" M  297.45,  260.35  L  294.62,  257.51  L  294.62,  261.76  L  297.45,  264.60  L  300.28,  261.76  L  300.28,  257.51  L  297.45,  260.35 " style="stroke-width: 0.28 ;&st9;" /><path d=" M  373.94,  239.75  L  373.94,  265.24 " style="stroke-width: 0.85 ;&st7; " /><path d=" M  367.65,  387.05  L  356.94,  387.05  L  356.94,  401.22  L  365.98,  395.55 " style="stroke-width: 1.42 ;&st7; " /><path d=" M  372.52,  418.22  L  375.35,  418.22 " style="stroke-width: 0.85 ;&st7; " /><path d=" M  371.10,  415.38  L  376.77,  415.38 " style="stroke-width: 0.85 ;&st7; " /><path d=" M  369.69,  412.55  L  378.19,  412.55 " style="stroke-width: 0.85 ;&st7; " /><path d=" M  365.44,  409.72  L  382.44,  409.72 " style="stroke-width: 0.85 ;&st7; " /><path d=" M  373.94,  401.22  L  373.94,  409.72 " style="stroke-width: 0.85 ;&st7; " /><path d=" M  297.45,  401.22  L  297.45,  409.72 " style="stroke-width: 0.85 ;&st7; " /><path d=" M  288.95,  409.72  L  305.95,  409.72 " style="stroke-width: 0.85 ;&st7; " /><path d=" M  293.20,  412.55  L  301.70,  412.55 " style="stroke-width: 0.85 ;&st7; " /><path d=" M  294.62,  415.38  L  300.28,  415.38 " style="stroke-width: 0.85 ;&st7; " /><path d=" M  296.03,  418.22  L  298.87,  418.22 " style="stroke-width: 0.85 ;&st7; " /><path d=" M  291.16,  387.05  L  280.45,  387.05  L  280.45,  401.22  L  289.49,  395.55 " style="stroke-width: 1.42 ;&st7; " /><path d=" M  225.21,  574.02  L  233.71,  574.02 " style="stroke-width: 0.85 ;&st7; " /><path d=" M  226.63,  576.86  L  232.29,  576.86 " style="stroke-width: 0.85 ;&st7; " /><path d=" M  228.05,  579.69  L  230.88,  579.69 " style="stroke-width: 0.85 ;&st7; " /><path d=" M  229.46,  239.75  L  229.46,  265.24 " style="stroke-width: 0.85 ;&st7; " /><path d=" M  229.46,  532.95  L  229.46,  528.70 " style="stroke-width: 0.85 ;&st7; " /><path d=" M  212.46,  528.70  L  212.46,  562.69  L  246.46,  562.69  L  246.46,  528.70  L  212.46,  528.70 " style="stroke-width: 1.42 ;&st7; " /><path d=" M  212.46,  503.20  L  212.46,  519.63  L  246.46,  519.63  L  246.46,  503.20  L  212.46,  503.20 " style="stroke-width: 1.42 ;&st7; " /><path d=" M  229.46,  519.63  L  229.46,  503.20 " style="stroke-width: 0.85 ;&st7; " /><path d=" M  126.06,  710.00  L  128.90,  710.00 " style="stroke-width: 0.85 ;&st7; " /><path d=" M  124.65,  707.17  L  130.31,  707.17 " style="stroke-width: 0.85 ;&st7; " /><path d=" M  123.23,  704.33  L  131.73,  704.33 " style="stroke-width: 0.85 ;&st7; " /><path d=" M  118.98,  701.50  L  135.98,  701.50 " style="stroke-width: 0.85 ;&st7; " /><path d=" M  127.48,  697.25  L  127.48,  701.50 " style="stroke-width: 0.85 ;&st7; " /><path d=" M   67.99,  163.26  L   67.99,  188.75 " style="stroke-width: 0.85 ;&st7; " /><path d=" M   67.99,  239.75  L   67.99,  265.24 " style="stroke-width: 0.85 ;&st7; " /><path d=" M  127.48,  260.35  L  124.65,  257.51  L  124.65,  261.76  L  127.48,  264.60  L  130.31,  261.76  L  130.31,  257.51  L  127.48,  260.35 " style="stroke-width: 0.28 ;&st9;" /><path d=" M   67.99,  260.35  L   65.16,  257.51  L   65.16,  261.76  L   67.99,  264.60  L   70.82,  261.76  L   70.82,  257.51  L   67.99,  260.35 " style="stroke-width: 0.28 ;&st9;" /><path d=" M  127.48,  239.75  L  127.48,  265.24 " style="stroke-width: 0.85 ;&st7; " /><path d=" M   67.99,  168.15  L   70.82,  170.99  L   70.82,  166.74  L   67.99,  163.90  L   65.16,  166.74  L   65.16,  170.99  L   67.99,  168.15 " style="stroke-width: 0.28 ;&st9;" /><path d=" M   55.24,   35.78  L   55.24,   78.27  L   80.74,   78.27  L   80.74,   35.78  L   55.24,   35.78 " style="stroke-width: 1.42 ;&st7; " /><path d=" M   67.99,   90.37  L   65.16,   87.54  L   65.16,   91.79  L   67.99,   94.62  L   70.82,   91.79  L   70.82,   87.54  L   67.99,   90.37 " style="stroke-width: 0.28 ;&st9;" /><path d=" M  135.98,  163.26  L  135.98,  188.75 " style="stroke-width: 0.85 ;&st7; " /><path d=" M  135.98,  168.15  L  138.81,  170.99  L  138.81,  166.74  L  135.98,  163.90  L  133.14,  166.74  L  133.14,  170.99  L  135.98,  168.15 " style="stroke-width: 0.28 ;&st9;" /><path d=" M   50.99,  188.75  L   50.99,  239.75  L  390.93,  239.75  L  390.93,  188.75  L   50.99,  188.75 " style="stroke-width: 1.42 ;&st7; " /><path d=" M  123.23,   35.78  L  123.23,   78.27  L  148.73,   78.27  L  148.73,   35.78  L  123.23,   35.78 " style="stroke-width: 1.42 ;&st7; " /><path d=" M  135.98,   90.37  L  133.14,   87.54  L  133.14,   91.79  L  135.98,   94.62  L  138.81,   91.79  L  138.81,   87.54  L  135.98,   90.37 " style="stroke-width: 0.28 ;&st9;" /><path d=" M  229.46,  423.11  L  232.29,  425.94  L  232.29,  421.69  L  229.46,  418.86  L  226.63,  421.69  L  226.63,  425.94  L  229.46,  423.11 " style="stroke-width: 0.28 ;&st9;" /><path d=" M  229.46,  447.31  L  226.63,  444.48  L  226.63,  448.73  L  229.46,  451.56  L  232.29,  448.73  L  232.29,  444.48  L  229.46,  447.31 " style="stroke-width: 0.28 ;&st9;" /><path d=" M  229.46,  418.22  L  229.46,  452.21 " style="stroke-width: 0.85 ;&st7; " /><path d=" M  227.34,  401.22  C  224.99   401.22   223.09   403.12   223.09   405.47 " style="stroke-width: 1.42 ;&st7; " /><path d=" M  223.09,  405.47  C  223.09   407.81   224.99   409.72   227.34   409.72 " style="stroke-width: 1.42 ;&st7; " /><path d=" M  231.59,  409.72  C  233.93   409.72   235.84   407.81   235.84   405.47 " style="stroke-width: 1.42 ;&st7; " /><path d=" M  235.84,  405.47  C  235.84   403.12   233.93   401.22   231.59   401.22 " style="stroke-width: 1.42 ;&st7; " /><path d=" M  227.34,  452.21  C  224.99   452.21   223.09   454.11   223.09   456.46 " style="stroke-width: 1.42 ;&st7; " /><path d=" M  223.09,  456.46  C  223.09   458.81   224.99   460.71   227.34   460.71 " style="stroke-width: 1.42 ;&st7; " /><path d=" M  231.59,  460.71  C  233.93   460.71   235.84   458.81   235.84   456.46 " style="stroke-width: 1.42 ;&st7; " /><path d=" M  235.84,  456.46  C  235.84   454.11   233.93   452.21   231.59   452.21 " style="stroke-width: 1.42 ;&st7; " /><path d=" M  223.09,  464.96  C  223.09   467.30   224.99   469.21   227.34   469.21 " style="stroke-width: 1.42 ;&st7; " /><path d=" M  227.34,  460.71  C  224.99   460.71   223.09   462.61   223.09   464.96 " style="stroke-width: 1.42 ;&st7; " /><path d=" M  235.84,  464.96  C  235.84   462.61   233.93   460.71   231.59   460.71 " style="stroke-width: 1.42 ;&st7; " /><path d=" M  231.59,  469.21  C  233.93   469.21   235.84   467.30   235.84   464.96 " style="stroke-width: 1.42 ;&st7; " /><path d=" M  133.85,   95.27  C  131.51    95.27   129.60    97.17   129.60    99.52 " style="stroke-width: 1.42 ;&st7; " /><path d=" M  129.60,   99.52  C  129.60   101.87   131.51   103.77   133.85   103.77 " style="stroke-width: 1.42 ;&st7; " /><path d=" M  138.10,  103.77  C  140.45   103.77   142.35   101.87   142.35    99.52 " style="stroke-width: 1.42 ;&st7; " /><path d=" M  142.35,   99.52  C  142.35    97.17   140.45    95.27   138.10    95.27 " style="stroke-width: 1.42 ;&st7; " /><path d=" M  133.85,  154.76  C  131.51   154.76   129.60   156.66   129.60   159.01 " style="stroke-width: 1.42 ;&st7; " /><path d=" M  129.60,  159.01  C  129.60   161.36   131.51   163.26   133.85   163.26 " style="stroke-width: 1.42 ;&st7; " /><path d=" M  138.10,  163.26  C  140.45   163.26   142.35   161.36   142.35   159.01 " style="stroke-width: 1.42 ;&st7; " /><path d=" M  142.35,  159.01  C  142.35   156.66   140.45   154.76   138.10   154.76 " style="stroke-width: 1.42 ;&st7; " /><path d=" M   67.99,   47.11  C   65.25    48.72    64.34    52.25    65.95    54.99 " style="stroke-width: 1.42 ;&st7; " /><path d=" M   65.95,   54.99  C   66.47    55.87    67.11    56.51    67.99    57.03 " style="stroke-width: 1.42 ;&st7; " /><path d=" M   67.99,   66.94  C   70.73    65.33    71.64    61.80    70.03    59.06 " style="stroke-width: 1.42 ;&st7; " /><path d=" M   70.03,   59.06  C   69.51    58.18    68.87    57.55    67.99    57.03 " style="stroke-width: 1.42 ;&st7; " /><path d=" M   69.41,   45.69  C   69.41    44.91    68.77    44.28    67.99    44.28 " style="stroke-width: 0.85 ;&st7; " /><path d=" M   67.99,   44.28  C   67.21    44.28    66.57    44.91    66.57    45.69 " style="stroke-width: 0.85 ;&st7; " /><path d=" M   66.57,   45.69  C   66.57    46.48    67.21    47.11    67.99    47.11 " style="stroke-width: 0.85 ;&st7; " /><path d=" M   67.99,   47.11  C   68.77    47.11    69.41    46.48    69.41    45.69 " style="stroke-width: 0.85 ;&st7; " /><path d=" M   69.41,   68.36  C   69.41    67.57    68.77    66.94    67.99    66.94 " style="stroke-width: 0.85 ;&st7; " /><path d=" M   67.99,   66.94  C   67.21    66.94    66.57    67.57    66.57    68.36 " style="stroke-width: 0.85 ;&st7; " /><path d=" M   66.57,   68.36  C   66.57    69.14    67.21    69.77    67.99    69.77 " style="stroke-width: 0.85 ;&st7; " /><path d=" M   67.99,   69.77  C   68.77    69.77    69.41    69.14    69.41    68.36 " style="stroke-width: 0.85 ;&st7; " /><path d=" M   65.86,   95.27  C   63.52    95.27    61.61    97.17    61.61    99.52 " style="stroke-width: 1.42 ;&st7; " /><path d=" M   61.61,   99.52  C   61.61   101.87    63.52   103.77    65.86   103.77 " style="stroke-width: 1.42 ;&st7; " /><path d=" M   70.11,  103.77  C   72.46   103.77    74.36   101.87    74.36    99.52 " style="stroke-width: 1.42 ;&st7; " /><path d=" M   74.36,   99.52  C   74.36    97.17    72.46    95.27    70.11    95.27 " style="stroke-width: 1.42 ;&st7; " /><path d=" M   65.86,  154.76  C   63.52   154.76    61.61   156.66    61.61   159.01 " style="stroke-width: 1.42 ;&st7; " /><path d=" M   61.61,  159.01  C   61.61   161.36    63.52   163.26    65.86   163.26 " style="stroke-width: 1.42 ;&st7; " /><path d=" M   70.11,  163.26  C   72.46   163.26    74.36   161.36    74.36   159.01 " style="stroke-width: 1.42 ;&st7; " /><path d=" M   74.36,  159.01  C   74.36   156.66    72.46   154.76    70.11   154.76 " style="stroke-width: 1.42 ;&st7; " /><path d=" M   65.86,  265.24  C   63.52   265.24    61.61   267.14    61.61   269.49 " style="stroke-width: 1.42 ;&st7; " /><path d=" M   61.61,  269.49  C   61.61   271.84    63.52   273.74    65.86   273.74 " style="stroke-width: 1.42 ;&st7; " /><path d=" M   70.11,  273.74  C   72.46   273.74    74.36   271.84    74.36   269.49 " style="stroke-width: 1.42 ;&st7; " /><path d=" M   74.36,  269.49  C   74.36   267.14    72.46   265.24    70.11   265.24 " style="stroke-width: 1.42 ;&st7; " /><path d=" M  125.35,  265.24  C  123.01   265.24   121.10   267.14   121.10   269.49 " style="stroke-width: 1.42 ;&st7; " /><path d=" M  121.10,  269.49  C  121.10   271.84   123.01   273.74   125.35   273.74 " style="stroke-width: 1.42 ;&st7; " /><path d=" M  129.60,  273.74  C  131.95   273.74   133.85   271.84   133.85   269.49 " style="stroke-width: 1.42 ;&st7; " /><path d=" M  133.85,  269.49  C  133.85   267.14   131.95   265.24   129.60   265.24 " style="stroke-width: 1.42 ;&st7; " /><path d=" M  137.39,   68.36  C  137.39    67.57   136.76    66.94   135.98    66.94 " style="stroke-width: 0.85 ;&st7; " /><path d=" M  135.98,   66.94  C  135.20    66.94   134.56    67.57   134.56    68.36 " style="stroke-width: 0.85 ;&st7; " /><path d=" M  134.56,   68.36  C  134.56    69.14   135.20    69.77   135.98    69.77 " style="stroke-width: 0.85 ;&st7; " /><path d=" M  135.98,   69.77  C  136.76    69.77   137.39    69.14   137.39    68.36 " style="stroke-width: 0.85 ;&st7; " /><path d=" M  291.12,  387.05  C  288.98   389.44   288.37   392.56   289.45   395.58 " style="stroke-width: 1.42 ;&st7; " /><path d=" M  289.45,  395.58  C  291.03   400.00   295.89   402.30   300.31   400.72 " style="stroke-width: 1.42 ;&st7; " /><path d=" M  300.31,  400.72  C  304.73   399.14   307.03   394.28   305.45   389.86 " style="stroke-width: 1.42 ;&st7; " /><path d=" M  305.45,  389.86  C  303.87   385.44   299.01   383.14   294.59   384.72 " style="stroke-width: 1.42 ;&st7; " /><path d=" M  294.59,  384.72  C  293.19   385.22   292.11   385.95   291.12   387.05 " style="stroke-width: 1.42 ;&st7; " /><path d=" M  365.93,  395.58  C  367.51   400.00   372.38   402.30   376.80   400.72 " style="stroke-width: 1.42 ;&st7; " /><path d=" M  376.80,  400.72  C  381.22   399.14   383.52   394.28   381.94   389.86 " style="stroke-width: 1.42 ;&st7; " /><path d=" M  381.94,  389.86  C  380.36   385.44   375.50   383.14   371.08   384.72 " style="stroke-width: 1.42 ;&st7; " /><path d=" M  371.08,  384.72  C  369.68   385.22   368.60   385.95   367.60   387.05 " style="stroke-width: 1.42 ;&st7; " /><path d=" M  367.60,  387.05  C  365.47   389.44   364.86   392.56   365.93   395.58 " style="stroke-width: 1.42 ;&st7; " /><path d=" M  295.33,  265.24  C  292.98   265.24   291.08   267.14   291.08   269.49 " style="stroke-width: 1.42 ;&st7; " /><path d=" M  291.08,  269.49  C  291.08   271.84   292.98   273.74   295.33   273.74 " style="stroke-width: 1.42 ;&st7; " /><path d=" M  299.57,  273.74  C  301.92   273.74   303.82   271.84   303.82   269.49 " style="stroke-width: 1.42 ;&st7; " /><path d=" M  303.82,  269.49  C  303.82   267.14   301.92   265.24   299.57   265.24 " style="stroke-width: 1.42 ;&st7; " /><path d=" M  371.81,  265.24  C  369.47   265.24   367.56   267.14   367.56   269.49 " style="stroke-width: 1.42 ;&st7; " /><path d=" M  367.56,  269.49  C  367.56   271.84   369.47   273.74   371.81   273.74 " style="stroke-width: 1.42 ;&st7; " /><path d=" M  376.06,  273.74  C  378.41   273.74   380.31   271.84   380.31   269.49 " style="stroke-width: 1.42 ;&st7; " /><path d=" M  380.31,  269.49  C  380.31   267.14   378.41   265.24   376.06   265.24 " style="stroke-width: 1.42 ;&st7; " /><path d=" M  233.99,  524.16  C  233.99   521.66   231.96   519.63   229.46   519.63 " style="stroke-width: 1.42 ;&st7; " /><path d=" M  229.46,  519.63  C  226.96   519.63   224.93   521.66   224.93   524.16 " style="stroke-width: 1.42 ;&st7; " /><path d=" M  224.93,  524.16  C  224.93   526.67   226.96   528.70   229.46   528.70 " style="stroke-width: 1.42 ;&st7; " /><path d=" M  229.46,  528.70  C  231.96   528.70   233.99   526.67   233.99   524.16 " style="stroke-width: 1.42 ;&st7; " /><path d=" M  233.99,  498.67  C  233.99   496.17   231.96   494.14   229.46   494.14 " style="stroke-width: 1.42 ;&st7; " /><path d=" M  229.46,  494.14  C  226.96   494.14   224.93   496.17   224.93   498.67 " style="stroke-width: 1.42 ;&st7; " /><path d=" M  224.93,  498.67  C  224.93   501.17   226.96   503.20   229.46   503.20 " style="stroke-width: 1.42 ;&st7; " /><path d=" M  229.46,  503.20  C  231.96   503.20   233.99   501.17   233.99   498.67 " style="stroke-width: 1.42 ;&st7; " /><path d=" M  230.88,  534.36  C  230.88   533.58   230.24   532.95   229.46   532.95 " style="stroke-width: 0.85 ;&st7; " /><path d=" M  229.46,  532.95  C  228.68   532.95   228.05   533.58   228.05   534.36 " style="stroke-width: 0.85 ;&st7; " /><path d=" M  228.05,  534.36  C  228.05   535.14   228.68   535.78   229.46   535.78 " style="stroke-width: 0.85 ;&st7; " /><path d=" M  229.46,  535.78  C  230.24   535.78   230.88   535.14   230.88   534.36 " style="stroke-width: 0.85 ;&st7; " /><path d=" M  230.88,  557.03  C  230.88   556.24   230.24   555.61   229.46   555.61 " style="stroke-width: 0.85 ;&st7; " /><path d=" M  229.46,  555.61  C  228.68   555.61   228.05   556.24   228.05   557.03 " style="stroke-width: 0.85 ;&st7; " /><path d=" M  228.05,  557.03  C  228.05   557.81   228.68   558.44   229.46   558.44 " style="stroke-width: 0.85 ;&st7; " /><path d=" M  229.46,  558.44  C  230.24   558.44   230.88   557.81   230.88   557.03 " style="stroke-width: 0.85 ;&st7; " /><path d=" M  235.84,  354.48  C  235.84   352.13   233.93   350.23   231.59   350.23 " style="stroke-width: 1.42 ;&st7; " /><path d=" M  231.59,  358.73  C  233.93   358.73   235.84   356.82   235.84   354.48 " style="stroke-width: 1.42 ;&st7; " /><path d=" M  223.09,  354.48  C  223.09   356.82   224.99   358.73   227.34   358.73 " style="stroke-width: 1.42 ;&st7; " /><path d=" M  227.34,  350.23  C  224.99   350.23   223.09   352.13   223.09   354.48 " style="stroke-width: 1.42 ;&st7; " /><path d=" M  235.84,  311.98  C  235.84   309.64   233.93   307.73   231.59   307.73 " style="stroke-width: 1.42 ;&st7; " /><path d=" M  231.59,  316.23  C  233.93   316.23   235.84   314.33   235.84   311.98 " style="stroke-width: 1.42 ;&st7; " /><path d=" M  223.09,  311.98  C  223.09   314.33   224.99   316.23   227.34   316.23 " style="stroke-width: 1.42 ;&st7; " /><path d=" M  227.34,  307.73  C  224.99   307.73   223.09   309.64   223.09   311.98 " style="stroke-width: 1.42 ;&st7; " /><path d=" M  235.84,  269.49  C  235.84   267.14   233.93   265.24   231.59   265.24 " style="stroke-width: 1.42 ;&st7; " /><path d=" M  231.59,  273.74  C  233.93   273.74   235.84   271.84   235.84   269.49 " style="stroke-width: 1.42 ;&st7; " /><path d=" M  223.09,  269.49  C  223.09   271.84   224.99   273.74   227.34   273.74 " style="stroke-width: 1.42 ;&st7; " /><path d=" M  227.34,  265.24  C  224.99   265.24   223.09   267.14   223.09   269.49 " style="stroke-width: 1.42 ;&st7; " /><path d=" M  137.39,   45.69  C  137.39    44.91   136.76    44.28   135.98    44.28 " style="stroke-width: 0.85 ;&st7; " /><path d=" M  135.98,   44.28  C  135.20    44.28   134.56    44.91   134.56    45.69 " style="stroke-width: 0.85 ;&st7; " /><path d=" M  134.56,   45.69  C  134.56    46.48   135.20    47.11   135.98    47.11 " style="stroke-width: 0.85 ;&st7; " /><path d=" M  135.98,   47.11  C  136.76    47.11   137.39    46.48   137.39    45.69 " style="stroke-width: 0.85 ;&st7; " /><path d=" M  135.98,   66.94  C  136.83    64.02   136.17    61.13   134.13    58.87 " style="stroke-width: 1.42 ;&st7; " /><path d=" M  135.98,   66.94  C  138.15    63.92   138.15    60.05   135.98    57.03 " style="stroke-width: 1.42 ;&st7; " /><path d=" M  135.98,   66.94  C  139.69    64.17   140.51    58.96   137.82    55.19 " style="stroke-width: 1.42 ;&st7; " /><path d=" M  135.98,   47.11  C  132.26    49.88   131.44    55.10   134.14    58.87 " style="stroke-width: 1.42 ;&st7; " /><path d=" M  135.98,   47.11  C  133.81    50.13   133.81    54.00   135.98    57.03 " style="stroke-width: 1.42 ;&st7; " /><path d=" M  135.98,   47.11  C  135.12    50.03   135.78    52.92   137.82    55.18 " style="stroke-width: 1.42 ;&st7; " /><path d=" M  223.09,  413.97  C  223.09   416.31   224.99   418.22   227.34   418.22 " style="stroke-width: 1.42 ;&st7; " /><path d=" M  227.34,  409.72  C  224.99   409.72   223.09   411.62   223.09   413.97 " style="stroke-width: 1.42 ;&st7; " /><path d=" M  235.84,  413.97  C  235.84   411.62   233.93   409.72   231.59   409.72 " style="stroke-width: 1.42 ;&st7; " /><path d=" M  231.59,  418.22  C  233.93   418.22   235.84   416.31   235.84   413.97 " style="stroke-width: 1.42 ;&st7; " /><text style="&st18;" transform="matrix(&st16;  364.05  236.05 )">HRNH</text><text style="&st18;" transform="matrix(&st17;  293.75  301.57 )">B</text><text style="&st18;" transform="matrix(&st17;  370.24  301.21 )">L</text><text style="&st18;" transform="matrix(&st16;  225.15  415.94 )">3B</text><text style="&st18;" transform="matrix(&st16;  225.15  407.44 )">3B</text><text style="&st18;" transform="matrix(&st16;  212.82  415.94 )">70</text><text style="&st18;" transform="matrix(&st16;  212.82  407.44 )">77</text><text style="&st18;" transform="matrix(&st16;  237.25  407.44 )">(LHD)</text><text style="&st18;" transform="matrix(&st16;  237.25  415.94 )">(RHD)</text><text style="&st18;" transform="matrix(&st16;  225.15  466.93 )">3B</text><text style="&st18;" transform="matrix(&st16;  225.15  458.43 )">3B</text><text style="&st18;" transform="matrix(&st16;  212.82  466.93 )">32</text><text style="&st18;" transform="matrix(&st16;  212.82  458.43 )">65</text><text style="&st18;" transform="matrix(&st16;  237.25  458.43 )">(LHD)</text><text style="&st18;" transform="matrix(&st16;  237.25  466.93 )">(RHD)</text><text ewd:textID="3" style="&st18;" transform="matrix(&st17;  47.3  241.09 )">Integration Relay</text><text style="&st18;" transform="matrix(&st16;  153.28  56.17 )">40A <tspan dy="6" x="0">P/I 2</tspan></text><text style="&st18;" transform="matrix(&st16;  134.39  101.49 )">1</text><text style="&st18;" transform="matrix(&st16;  129.19  86.47 )">2</text><text style="&st18;" transform="matrix(&st16;  126.86  32.08 )">(BAT)</text><text style="&st18;" transform="matrix(&st16;  131.92  160.98 )">1H</text><text style="&st18;" transform="matrix(&st16;  123.29  160.98 )">7</text><text style="&st18;" transform="matrix(&st17;  132.28  131.74 )">R</text><text style="&st18;" transform="matrix(&st16;  127.08  196.39 )">BATT</text><text style="&st18;" transform="matrix(&st16;  216.17  511.39 )">HO</text><text ewd:textID="5" style="&st18;" transform="matrix(&st16;  249.6  512.25 )">Spiral Cable <tspan dy="6" x="0">Sub-Assembly</tspan></text><text style="&st18;" transform="matrix(&st16;  85.29  56.17 )">10A <tspan dy="6" x="0">GAUGE</tspan></text><text style="&st18;" transform="matrix(&st16;  63.54  101.49 )">2C</text><text style="&st18;" transform="matrix(&st16;  52.12  101.49 )">31</text><text style="&st18;" transform="matrix(&st16;  61.91  32.08 )">(IG)</text><text style="&st18;" transform="matrix(&st16;  63.64  160.98 )">1G</text><text style="&st18;" transform="matrix(&st16;  52.12  160.98 )">14</text><text style="&st18;" transform="matrix(&st16;  63.64  271.46 )">1G</text><text style="&st18;" transform="matrix(&st16;  51.34  271.46 )">22</text><text style="&st18;" transform="matrix(&st16;  123.42  271.46 )">1H</text><text style="&st18;" transform="matrix(&st16;  114.79  271.46 )">3</text><text style="&st18;" transform="matrix(&st17;  123.78  323.93 )">W-B</text><text style="&st18;" transform="matrix(&st17;  64.29  323.93 )">W-B</text><text style="&st18;" transform="matrix(&st17;  123.78  493.9 )">W-B</text><text style="&st18;" transform="matrix(&st16;  58.7  236.05 )">GND1</text><text style="&st18;" transform="matrix(&st16;  117.8  236.05 )">GND2</text><text style="&st18;" transform="matrix(&st16;  62.65  196.39 )">IG1</text><text style="&st18;" transform="matrix(&st17;  64.29  131.59 )">B</text><text style="&st18;" transform="matrix(&st16;  249.6  505.15 )">L52(A),z9(B)</text><text style="&st18;" transform="matrix(&st16;  227.13  526.13 )">B</text><text style="&st18;" transform="matrix(&st16;  219.36  526.13 )">1</text><text style="&st18;" transform="matrix(&st16;  227.13  500.64 )">A</text><text style="&st18;" transform="matrix(&st16;  218.59  500.64 )">8</text><text style="&st18;" transform="matrix(&st16;  218.83  236.05 )">HNSW</text><text style="&st18;" transform="matrix(&st16;  249.6  539.14 )">z9(B)</text><text ewd:textID="7" style="&st18;" transform="matrix(&st16;  249.6  546.25 )">Steering Pad <tspan dy="6" x="0">Switch Assembly</tspan></text><text style="&st18;" transform="matrix(&st17;  225.77  378.05 )">Y</text><text style="&st18;" transform="matrix(&st17;  225.77  295.4 )">SB</text><text ewd:textID="2" style="&st18;" transform="matrix(&st17;  219.83  556.08 )">Horn <tspan dy="6" x="0">Switch</tspan></text><text style="&st18;" transform="matrix(&st17;  225.77  480.04 )">Y</text><text style="&st18;" transform="matrix(&st16;  212.82  356.45 )">33</text><text style="&st18;" transform="matrix(&st16;  225.15  356.45 )">2A</text><text style="&st18;" transform="matrix(&st16;  212.82  313.95 )">24</text><text style="&st18;" transform="matrix(&st16;  225.01  313.95 )">2C</text><text style="&st18;" transform="matrix(&st16;  213.59  271.46 )">18</text><text style="&st18;" transform="matrix(&st16;  225.12  271.46 )">1G</text><text style="&st18;" transform="matrix(&st16;  291.44  380.53 )">1</text><text style="&st18;" transform="matrix(&st16;  367.93  380.53 )">1</text><text ewd:textID="4" style="&st18;" transform="matrix(&st17;  320.67  412.24 )">Low Pitched <tspan dy="6" x="0">Horn Assembly</tspan></text><text style="&st18;" transform="matrix(&st17;  313.56  412.24 )">A3</text><text ewd:textID="1" style="&st18;" transform="matrix(&st17;  397.15  412.24 )">High Pitched <tspan dy="6" x="0">Horn Assembly</tspan></text><text style="&st18;" transform="matrix(&st17;  390.05  412.24 )">A1</text><text style="&st18;" transform="matrix(&st16;  293.11  271.46 )">1G</text><text style="&st18;" transform="matrix(&st16;  284.76  271.46 )">6</text><text style="&st18;" transform="matrix(&st16;  369.59  271.46 )">1G</text><text style="&st18;" transform="matrix(&st16;  361.25  271.46 )">5</text><text style="&st18;" transform="matrix(&st16;  288.05  236.05 )">HRNL</text></svg>