﻿<?xml version="1.0" encoding="utf-8"?>
<!DOCTYPE svg PUBLIC "-//W3C//DTD SVG 1.0//EN" "http://www.w3.org/TR/2001/REC-SVG-20010904/DTD/svg10.dtd"[
	<!ENTITY ns_flows "http://ns.adobe.com/Flows/1.0/">
	<!ENTITY ns_svg "http://www.w3.org/2000/svg">
	<!ENTITY ns_xlink "http://www.w3.org/1999/xlink">
	<!ENTITY st0 "font-size:7px;font-family:'MS-PGothic';adobe-font-script:japanese;">
	<!ENTITY st1 "font-size:6px;font-family:'ArialMT';">
	<!-- White fill  -->
	<!ENTITY st2 "fill:#FFFFFF;stroke:#000000; stroke-width:1.41;stroke-linecap:round;stroke-linejoin:round;">
	<!-- Yellow fill  -->
	<!ENTITY st3 "fill:#FFFFCC;stroke:#FFFFCC; stroke-width:0.1;stroke-linecap:round;stroke-linejoin:round;">
	<!-- Gray fill  -->
	<!ENTITY st4 "fill:#CCCCCC;stroke:#CCCCCC; stroke-width:0.1;stroke-linecap:round;stroke-linejoin:round;">
	<!-- Light-blue fill -->
	<!ENTITY st5 "fill:#CCECF4;stroke:#000000; stroke-width:1.133;stroke-linecap:round;stroke-linejoin:round;">
	<!ENTITY st6 "fill:none;stroke-linecap:butt; stroke-linejoin:round;">
	<!ENTITY st7 "fill:none;stroke:#000000;stroke-linecap:round;stroke-linejoin:round;">
	<!ENTITY st8 "enable-background:new    ;">
	<!-- Black fill -->
	<!ENTITY st9 "fill:#000000;stroke:#000000; stroke-linecap:round;stroke-linejoin:round;">
	<!-- SRS note   -->
	<!ENTITY st10 "font-size:9px;font-family:'ArialMT';">
	<!ENTITY st11 "font-size:9px;font-family:'Svg Symbol';">
	<!ENTITY st12 "font-size:6px;font-family:'Svg Symbol';">
	<!ENTITY st13 "fill:none;stroke:#ff0000;stroke-linecap:round;stroke-linejoin:round;">
	<!-- Yellow fill  -->
	<!ENTITY st14 "fill:#FFFF00;stroke:#FFFF00; stroke-width:0.1;stroke-linecap:round;stroke-linejoin:round;">
	<!ENTITY st15 "font-size:6px;font-family:'MS-PGothic';adobe-font-script:japanese;">
	<!ENTITY st16 "1.00 0.00 0.00 1.00">
	<!ENTITY st17 "0.00 -1.00 1.00 0.00">
	<!ENTITY st18 "font-size:6px;font-family:'Arial';">
	<!ENTITY st19 "font-size:9px;font-family:'Arial';">
	<!ENTITY st20 "font-size:6px;font-family:'MS-PGothic','MS PGothic';adobe-font-script:japanese;">
	<!ENTITY st21 "font-size:7px;font-family:'MS-PGothic','MS PGothic';adobe-font-script:japanese;">
	<!ATTLIST svg
		xmlns:ewd CDATA #FIXED "http://shcl.co.jp/ewd"
		xmlns:a CDATA #FIXED "http://ns.adobe.com/AdobeSVGViewerExtensions/3.0/"
		ewd:ver CDATA #IMPLIED
	>
	<!ATTLIST a
		ewd:lineID CDATA #IMPLIED
		ewd:groupID CDATA #IMPLIED
		ewd:figtype CDATA #IMPLIED
		ewd:code CDATA #IMPLIED
		ewd:figID CDATA #IMPLIED
		ewd:pinNo CDATA #IMPLIED
		ewd:comment CDATA #IMPLIED >
	<!ATTLIST g
		ewd:lineID CDATA #IMPLIED
		ewd:groupID CDATA #IMPLIED
		ewd:figtype CDATA #IMPLIED
		ewd:code CDATA #IMPLIED
		ewd:figID CDATA #IMPLIED
		ewd:pinNo CDATA #IMPLIED
		ewd:comment CDATA #IMPLIED >
	<!ATTLIST text
		ewd:textID CDATA #IMPLIED >
	<!ATTLIST title
		ewd:textID CDATA #IMPLIED >
]>
<!-- Generator: Shintec Hozumi YS   -->
<svg onload="call_execInitLoadProc_svg('system')" style="overflow:visible;  enable-background:new 0 0 3089.312 710.000" viewBox="0 0 3089.312 710.000" height="710.000" width="3089.312" xml:space="preserve" ewd:ver="L2.1.2.6" xmlns="&ns_svg;" xmlns:a="http://ns.adobe.com/AdobeSVGViewerExtensions/3.0/" xmlns:ewd="http://shcl.co.jp/ewd" xmlns:xlink="&ns_xlink;">
<path d=" M 1888.81,  511.70  L 1884.56,  511.70 " style="stroke-width: 1.42 ;&st7; " /><path d=" M 1888.81,  520.20  L 1884.56,  520.20 " style="stroke-width: 1.42 ;&st7; " /><path d=" M 1801.70,  452.21  L 1793.20,  452.21 " style="stroke-width: 1.42 ;&st7; " /><path d=" M 1725.21,  452.21  L 1716.71,  452.21 " style="stroke-width: 1.42 ;&st7; " /><path d=" M 1890.93,  307.73  L 1895.18,  307.73 " style="stroke-width: 0.85 ;&st7; " /><path d=" M 1878.19,  307.73  L 1882.44,  307.73 " style="stroke-width: 0.85 ;&st7; " /><path d=" M 1890.93,  358.73  L 1895.18,  358.73 " style="stroke-width: 0.85 ;&st7; " /><path d=" M 1878.19,  358.73  L 1882.44,  358.73 " style="stroke-width: 0.85 ;&st7; " /><path d=" M 1878.19,  307.73  L 1852.69,  307.73 " style="stroke-width: 0.85 ;&st7; " /><path d=" M 1834.85,  299.75  L 1849.86,  307.73 " style="stroke-width: 1.42 ;&st7; " /><path d=" M 1878.19,  358.73  L 1852.69,  358.73 " style="stroke-width: 0.85 ;&st7; " /><path d=" M 1834.85,  350.75  L 1849.86,  358.73 " style="stroke-width: 1.42 ;&st7; " /><path d=" M 1642.35,  120.77  L 1638.10,  120.77 " style="stroke-width: 1.42 ;&st7; " /><path d=" M 1642.35,  129.26  L 1638.10,  129.26 " style="stroke-width: 1.42 ;&st7; " /><path d=" M 1642.35,  316.23  L 1638.10,  316.23 " style="stroke-width: 1.42 ;&st7; " /><path d=" M 1642.35,  324.73  L 1638.10,  324.73 " style="stroke-width: 1.42 ;&st7; " /><path d=" M 1642.35,  358.73  L 1638.10,  358.73 " style="stroke-width: 1.42 ;&st7; " /><path d=" M 1642.35,  367.22  L 1638.10,  367.22 " style="stroke-width: 1.42 ;&st7; " /><path d=" M 1691.22,  452.21  L 1682.72,  452.21 " style="stroke-width: 1.42 ;&st7; " /><path d=" M 1916.43,  490.45  L 1912.18,  490.45 " style="stroke-width: 1.42 ;&st7; " /><path d=" M 1916.43,  498.95  L 1912.18,  498.95 " style="stroke-width: 1.42 ;&st7; " /><path d=" M 1856.94,  490.45  L 1861.19,  490.45 " style="stroke-width: 1.42 ;&st7; " /><path d=" M 1861.19,  498.95  L 1856.94,  498.95 " style="stroke-width: 1.42 ;&st7; " /><path d=" M 1764.87,  299.24  L 1750.90,  292.06 " style="stroke-width: 1.42 ;&st7; " /><path d=" M 1988.67,  304.90  L 1988.67,  294.99 " style="stroke-width: 0.85 ;&st7; " /><path d=" M 2048.16,  256.74  L 2048.16,  350.23  L 1980.17,  350.23  L 1980.17,  324.73 " style="stroke-width: 0.85 ;&st7; " /><path d=" M 1997.17,  324.73  L 1997.17,  333.23  L 2022.66,  333.23  L 2022.66,  256.74 " style="stroke-width: 0.85 ;&st7; " /><path d=" M 1989.17,  307.64  L 1995.57,  324.73 " style="stroke-width: 1.42 ;&st7; " /><path d=" M 1988.67,  256.74  L 1988.67,  282.24  L 1988.68,  282.24  L 1988.68,  286.49 " style="stroke-width: 0.85 ;&st7; " /><path d=" M 1835.69,  299.24  L 1767.70,  299.24 " style="stroke-width: 0.85 ;&st7; " /><path d=" M 1886.68,  494.70  L 1886.68,  511.70 " style="stroke-width: 0.85 ;&st7; " /><path d=" M 1865.44,  494.70  L 1907.93,  494.70 " style="stroke-width: 0.85 ;&st7; " /><path d=" M 1870.33,  494.70  L 1873.17,  491.87  L 1868.92,  491.87  L 1866.08,  494.70  L 1868.92,  497.54  L 1873.17,  497.54  L 1870.33,  494.70 " style="stroke-width: 0.28 ;&st9;" /><path d=" M 1903.04,  494.70  L 1900.20,  491.87  L 1904.45,  491.87  L 1907.28,  494.70  L 1904.45,  497.54  L 1900.20,  497.54  L 1903.04,  494.70 " style="stroke-width: 0.28 ;&st9;" /><path d=" M 1691.22,  397.25  L 1699.72,  397.25 " style="stroke-width: 0.85 ;&st7;stroke-dasharray:3, 1.5;" /><path d=" M 1827.19,  234.65  L 1903.68,  234.65 " style="stroke-width: 0.85 ;&st7;stroke-dasharray:3, 1.5;" /><path d=" M 1827.19,  243.71  L 1903.68,  243.71 " style="stroke-width: 0.85 ;&st7;stroke-dasharray:3, 1.5;" /><path d=" M 1725.21,  397.25  L 1780.45,  397.25 " style="stroke-width: 0.85 ;&st7;stroke-dasharray:3, 1.5;" /><path d=" M 1919.49,  264.24  L 1919.21,  264.71  L 1919.12,  265.24  L 1919.21,  265.77  L 1919.49,  266.24  L 1919.90,  266.59  L 1920.41,  266.78  L 1920.95,  266.78  L 1921.46,  266.59  L 1921.87,  266.24  L 1922.14,  265.77  L 1922.24,  265.24  L 1922.14,  264.71  L 1921.87,  264.24  L 1921.46,  263.89  L 1920.95,  263.71  L 1920.41,  263.71  L 1919.90,  263.89  L 1919.49,  264.24  L 1919.88,  264.95  L 1919.88,  265.53  L 1920.25,  265.98  L 1920.83,  266.08  L 1921.33,  265.79  L 1921.53,  265.24  L 1921.33,  264.69  L 1920.83,  264.41  L 1920.25,  264.50  L 1920.68,  265.24 " style="stroke-width: 0.85 ;&st7; " /><path d=" M 1725.21,  406.32  L 1780.45,  406.32 " style="stroke-width: 0.85 ;&st7;stroke-dasharray:3, 1.5;" /><path d=" M 1885.49,  493.70  L 1885.22,  494.17  L 1885.13,  494.70  L 1885.22,  495.24  L 1885.49,  495.71  L 1885.90,  496.05  L 1886.41,  496.24  L 1886.96,  496.24  L 1887.46,  496.05  L 1887.88,  495.71  L 1888.15,  495.24  L 1888.24,  494.70  L 1888.15,  494.17  L 1887.88,  493.70  L 1887.46,  493.35  L 1886.96,  493.17  L 1886.41,  493.17  L 1885.90,  493.35  L 1885.49,  493.70  L 1885.89,  494.41  L 1885.89,  494.99  L 1886.26,  495.44  L 1886.83,  495.54  L 1887.34,  495.25  L 1887.53,  494.70  L 1887.34,  494.16  L 1886.83,  493.87  L 1886.26,  493.97  L 1886.68,  494.70 " style="stroke-width: 0.85 ;&st7; " /><path d=" M 1686.97,  457.88  L 1682.72,  453.63  L 1678.47,  457.88 " style="stroke-width: 1.42 ;&st7; " /><path d=" M 1686.97,  461.27  L 1682.72,  457.03  L 1678.47,  461.27 " style="stroke-width: 1.42 ;&st7; " /><path d=" M 1640.23,  358.73  L 1640.23,  324.73 " style="stroke-width: 0.85 ;&st7; " /><path d=" M 1640.23,  353.83  L 1637.39,  351.00  L 1637.39,  355.25  L 1640.23,  358.08  L 1643.06,  355.25  L 1643.06,  351.00  L 1640.23,  353.83 " style="stroke-width: 0.28 ;&st9;" /><path d=" M 1640.23,  329.63  L 1643.06,  332.46  L 1643.06,  328.21  L 1640.23,  325.38  L 1637.39,  328.21  L 1637.39,  332.46  L 1640.23,  329.63 " style="stroke-width: 0.28 ;&st9;" /><path d=" M 1640.23,  120.77  L 1640.23,   86.77 " style="stroke-width: 0.85 ;&st7; " /><path d=" M 1640.23,  115.87  L 1637.39,  113.04  L 1637.39,  117.29  L 1640.23,  120.12  L 1643.06,  117.29  L 1643.06,  113.04  L 1640.23,  115.87 " style="stroke-width: 0.28 ;&st9;" /><path d=" M 1835.69,  316.23  L 1793.20,  316.23 " style="stroke-width: 0.85 ;&st7; " /><path d=" M 1818.70,  248.24  L 1818.70,  350.23  L 1835.69,  350.23 " style="stroke-width: 0.85 ;&st7; " /><path d=" M 1895.18,  307.73  L 1920.68,  307.73 " style="stroke-width: 0.85 ;&st7; " /><path d=" M 1792.01,  315.23  L 1791.74,  315.70  L 1791.64,  316.23  L 1791.74,  316.77  L 1792.01,  317.24  L 1792.42,  317.58  L 1792.93,  317.77  L 1793.47,  317.77  L 1793.98,  317.58  L 1794.39,  317.24  L 1794.66,  316.77  L 1794.76,  316.23  L 1794.66,  315.70  L 1794.39,  315.23  L 1793.98,  314.88  L 1793.47,  314.70  L 1792.93,  314.70  L 1792.42,  314.88  L 1792.01,  315.23  L 1792.40,  315.94  L 1792.40,  316.52  L 1792.77,  316.97  L 1793.35,  317.07  L 1793.85,  316.78  L 1794.05,  316.23  L 1793.85,  315.69  L 1793.35,  315.40  L 1792.77,  315.50  L 1793.20,  316.23 " style="stroke-width: 0.85 ;&st7; " /><path d=" M 1817.50,  298.23  L 1817.23,  298.70  L 1817.14,  299.24  L 1817.23,  299.77  L 1817.50,  300.24  L 1817.92,  300.58  L 1818.42,  300.77  L 1818.97,  300.77  L 1819.47,  300.58  L 1819.89,  300.24  L 1820.16,  299.77  L 1820.25,  299.24  L 1820.16,  298.70  L 1819.89,  298.23  L 1819.47,  297.89  L 1818.97,  297.70  L 1818.42,  297.70  L 1817.92,  297.89  L 1817.50,  298.23  L 1817.90,  298.94  L 1817.90,  299.53  L 1818.27,  299.97  L 1818.84,  300.07  L 1819.35,  299.78  L 1819.55,  299.24  L 1819.35,  298.69  L 1818.84,  298.40  L 1818.27,  298.50  L 1818.70,  299.24 " style="stroke-width: 0.85 ;&st7; " /><path d=" M 1895.18,  358.73  L 1920.68,  358.73  L 1920.68,  248.24 " style="stroke-width: 0.85 ;&st7; " /><path d=" M 1919.49,  306.73  L 1919.21,  307.20  L 1919.12,  307.73  L 1919.21,  308.27  L 1919.49,  308.74  L 1919.90,  309.08  L 1920.41,  309.27  L 1920.95,  309.27  L 1921.46,  309.08  L 1921.87,  308.74  L 1922.14,  308.27  L 1922.24,  307.73  L 1922.14,  307.20  L 1921.87,  306.73  L 1921.46,  306.39  L 1920.95,  306.20  L 1920.41,  306.20  L 1919.90,  306.39  L 1919.49,  306.73  L 1919.88,  307.44  L 1919.88,  308.03  L 1920.25,  308.47  L 1920.83,  308.57  L 1921.33,  308.28  L 1921.53,  307.73  L 1921.33,  307.19  L 1920.83,  306.90  L 1920.25,  307.00  L 1920.68,  307.73 " style="stroke-width: 0.85 ;&st7; " /><path d=" M 1920.68,  265.24  L 1716.71,  265.24  L 1716.71,  392.72 " style="stroke-width: 0.85 ;&st7; " /><path d=" M 1792.01,  366.22  L 1791.74,  366.69  L 1791.64,  367.22  L 1791.74,  367.76  L 1792.01,  368.23  L 1792.42,  368.57  L 1792.93,  368.76  L 1793.47,  368.76  L 1793.98,  368.57  L 1794.39,  368.23  L 1794.66,  367.76  L 1794.76,  367.22  L 1794.66,  366.69  L 1794.39,  366.22  L 1793.98,  365.88  L 1793.47,  365.69  L 1792.93,  365.69  L 1792.42,  365.88  L 1792.01,  366.22  L 1792.40,  366.93  L 1792.40,  367.52  L 1792.77,  367.96  L 1793.35,  368.06  L 1793.85,  367.77  L 1794.05,  367.22  L 1793.85,  366.68  L 1793.35,  366.39  L 1792.77,  366.49  L 1793.20,  367.22 " style="stroke-width: 0.85 ;&st7; " /><path d=" M 1793.20,  392.72  L 1793.20,  248.24 " style="stroke-width: 0.85 ;&st7; " /><path d=" M 1720.96,  457.88  L 1716.71,  453.63  L 1712.46,  457.88 " style="stroke-width: 1.42 ;&st7; " /><path d=" M 1720.96,  461.27  L 1716.71,  457.03  L 1712.46,  461.27 " style="stroke-width: 1.42 ;&st7; " /><path d=" M 1797.45,  461.27  L 1793.20,  457.03  L 1788.95,  461.27 " style="stroke-width: 1.42 ;&st7; " /><path d=" M 1797.45,  457.88  L 1793.20,  453.63  L 1788.95,  457.88 " style="stroke-width: 1.42 ;&st7; " /><path d=" M 1886.68,  506.80  L 1883.85,  503.97  L 1883.85,  508.22  L 1886.68,  511.05  L 1889.52,  508.22  L 1889.52,  503.97  L 1886.68,  506.80 " style="stroke-width: 0.28 ;&st9;" /><path d=" M 1886.68,  571.19  L 1886.68,  588.19 " style="stroke-width: 0.85 ;&st7; " /><path d=" M 1878.19,  571.19  L 1895.18,  571.19  L 1895.18,  588.19  L 1878.19,  588.19  L 1878.19,  571.19 " style="stroke-width: 1.42 ;&st7; " /><path d=" M 1963.17,  256.74  L 1963.17,  358.73  L 2065.15,  358.73  L 2065.15,  256.74  L 1963.17,  256.74 " style="stroke-width: 1.42 ;&st7; " /><path d=" M 1665.72,  248.24  L 1665.72,  392.72  L 1946.17,  392.72  L 1946.17,  248.24  L 1665.72,  248.24 " style="stroke-width: 1.42 ;&st7; " /><path d=" M 1886.68,  697.25  L 1886.68,  701.50 " style="stroke-width: 0.85 ;&st7; " /><path d=" M 1878.19,  701.50  L 1895.18,  701.50 " style="stroke-width: 0.85 ;&st7; " /><path d=" M 1882.43,  704.33  L 1890.93,  704.33 " style="stroke-width: 0.85 ;&st7; " /><path d=" M 1883.85,  707.17  L 1889.52,  707.17 " style="stroke-width: 0.85 ;&st7; " /><path d=" M 1885.27,  710.00  L 1888.10,  710.00 " style="stroke-width: 0.85 ;&st7; " /><path d=" M 1682.72,  392.72  L 1682.72,  290.74  L 1750.71,  290.74 " style="stroke-width: 0.85 ;&st7; " /><path d=" M 1835.69,  367.22  L 1733.71,  367.22  L 1733.71,  307.73  L 1750.71,  307.73 " style="stroke-width: 0.85 ;&st7; " /><path d=" M 1691.22,  406.32  L 1699.72,  406.32 " style="stroke-width: 0.85 ;&st7;stroke-dasharray:3, 1.5;" /><path d=" M 1884.56,  511.70  C 1882.21   511.70  1880.31   513.60  1880.31   515.95 " style="stroke-width: 1.42 ;&st7; " /><path d=" M 1880.31,  515.95  C 1880.31   518.30  1882.21   520.20  1884.56   520.20 " style="stroke-width: 1.42 ;&st7; " /><path d=" M 1888.81,  520.20  C 1891.16   520.20  1893.06   518.30  1893.06   515.95 " style="stroke-width: 1.42 ;&st7; " /><path d=" M 1893.06,  515.95  C 1893.06   513.60  1891.16   511.70  1888.81   511.70 " style="stroke-width: 1.42 ;&st7; " /><path d=" M 1895.18,  307.73  C 1895.18   303.04  1891.38   299.24  1886.68   299.24 " style="stroke-width: 1.42 ;&st7; " /><path d=" M 1886.68,  299.24  C 1881.99   299.24  1878.19   303.04  1878.19   307.73 " style="stroke-width: 1.42 ;&st7; " /><path d=" M 1878.19,  307.73  C 1878.19   312.43  1881.99   316.23  1886.68   316.23 " style="stroke-width: 1.42 ;&st7; " /><path d=" M 1886.68,  316.23  C 1891.38   316.23  1895.18   312.43  1895.18   307.73 " style="stroke-width: 1.42 ;&st7; " /><path d=" M 1886.68,  310.14  C 1888.02   309.35  1888.47   307.62  1887.68   306.28 " style="stroke-width: 0.85 ;&st7; " /><path d=" M 1887.68,  306.28  C 1886.88   304.94  1885.16   304.50  1883.82   305.29 " style="stroke-width: 0.85 ;&st7; " /><path d=" M 1883.82,  305.29  C 1882.93   305.82  1882.43   306.70  1882.43   307.73 " style="stroke-width: 0.85 ;&st7; " /><path d=" M 1890.93,  307.73  C 1890.94   306.18  1889.69   304.91  1888.14   304.90 " style="stroke-width: 0.85 ;&st7; " /><path d=" M 1888.14,  304.90  C 1886.58   304.89  1885.31   306.14  1885.30   307.70 " style="stroke-width: 0.85 ;&st7; " /><path d=" M 1885.30,  307.70  C 1885.30   308.73  1885.80   309.62  1886.69   310.14 " style="stroke-width: 0.85 ;&st7; " /><path d=" M 1895.18,  358.73  C 1895.18   354.03  1891.38   350.23  1886.68   350.23 " style="stroke-width: 1.42 ;&st7; " /><path d=" M 1886.68,  350.23  C 1881.99   350.23  1878.19   354.03  1878.19   358.73 " style="stroke-width: 1.42 ;&st7; " /><path d=" M 1878.19,  358.73  C 1878.19   363.42  1881.99   367.22  1886.68   367.22 " style="stroke-width: 1.42 ;&st7; " /><path d=" M 1886.68,  367.22  C 1891.38   367.22  1895.18   363.42  1895.18   358.73 " style="stroke-width: 1.42 ;&st7; " /><path d=" M 1886.68,  361.13  C 1888.02   360.34  1888.47   358.61  1887.68   357.27 " style="stroke-width: 0.85 ;&st7; " /><path d=" M 1887.68,  357.27  C 1886.88   355.94  1885.16   355.49  1883.82   356.28 " style="stroke-width: 0.85 ;&st7; " /><path d=" M 1883.82,  356.28  C 1882.93   356.81  1882.43   357.69  1882.43   358.73 " style="stroke-width: 0.85 ;&st7; " /><path d=" M 1890.93,  358.73  C 1890.94   357.17  1889.69   355.90  1888.14   355.89 " style="stroke-width: 0.85 ;&st7; " /><path d=" M 1888.14,  355.89  C 1886.58   355.88  1885.31   357.14  1885.30   358.69 " style="stroke-width: 0.85 ;&st7; " /><path d=" M 1885.30,  358.69  C 1885.30   359.72  1885.80   360.61  1886.69   361.13 " style="stroke-width: 0.85 ;&st7; " /><path d=" M 1838.53,  299.24  C 1838.53   298.45  1837.89   297.82  1837.11   297.82 " style="stroke-width: 0.85 ;&st7; " /><path d=" M 1837.11,  297.82  C 1836.33   297.82  1835.69   298.45  1835.69   299.24 " style="stroke-width: 0.85 ;&st7; " /><path d=" M 1835.69,  299.24  C 1835.69   300.02  1836.33   300.65  1837.11   300.65 " style="stroke-width: 0.85 ;&st7; " /><path d=" M 1837.11,  300.65  C 1837.89   300.65  1838.53   300.02  1838.53   299.24 " style="stroke-width: 0.85 ;&st7; " /><path d=" M 1838.53,  316.23  C 1838.53   315.45  1837.89   314.82  1837.11   314.82 " style="stroke-width: 0.85 ;&st7; " /><path d=" M 1837.11,  314.82  C 1836.33   314.82  1835.69   315.45  1835.69   316.23 " style="stroke-width: 0.85 ;&st7; " /><path d=" M 1835.69,  316.23  C 1835.69   317.01  1836.33   317.65  1837.11   317.65 " style="stroke-width: 0.85 ;&st7; " /><path d=" M 1837.11,  317.65  C 1837.89   317.65  1838.53   317.01  1838.53   316.23 " style="stroke-width: 0.85 ;&st7; " /><path d=" M 1852.69,  307.73  C 1852.69   306.95  1852.06   306.32  1851.27   306.32 " style="stroke-width: 0.85 ;&st7; " /><path d=" M 1851.27,  306.32  C 1850.49   306.32  1849.86   306.95  1849.86   307.73 " style="stroke-width: 0.85 ;&st7; " /><path d=" M 1849.86,  307.73  C 1849.86   308.52  1850.49   309.15  1851.27   309.15 " style="stroke-width: 0.85 ;&st7; " /><path d=" M 1851.27,  309.15  C 1852.06   309.15  1852.69   308.52  1852.69   307.73 " style="stroke-width: 0.85 ;&st7; " /><path d=" M 1838.53,  350.23  C 1838.53   349.44  1837.89   348.81  1837.11   348.81 " style="stroke-width: 0.85 ;&st7; " /><path d=" M 1837.11,  348.81  C 1836.33   348.81  1835.69   349.44  1835.69   350.23 " style="stroke-width: 0.85 ;&st7; " /><path d=" M 1835.69,  350.23  C 1835.69   351.01  1836.33   351.64  1837.11   351.64 " style="stroke-width: 0.85 ;&st7; " /><path d=" M 1837.11,  351.64  C 1837.89   351.64  1838.53   351.01  1838.53   350.23 " style="stroke-width: 0.85 ;&st7; " /><path d=" M 1838.53,  367.22  C 1838.53   366.44  1837.89   365.81  1837.11   365.81 " style="stroke-width: 0.85 ;&st7; " /><path d=" M 1837.11,  365.81  C 1836.33   365.81  1835.69   366.44  1835.69   367.22 " style="stroke-width: 0.85 ;&st7; " /><path d=" M 1835.69,  367.22  C 1835.69   368.01  1836.33   368.64  1837.11   368.64 " style="stroke-width: 0.85 ;&st7; " /><path d=" M 1837.11,  368.64  C 1837.89   368.64  1838.53   368.01  1838.53   367.22 " style="stroke-width: 0.85 ;&st7; " /><path d=" M 1852.69,  358.73  C 1852.69   357.94  1852.06   357.31  1851.27   357.31 " style="stroke-width: 0.85 ;&st7; " /><path d=" M 1851.27,  357.31  C 1850.49   357.31  1849.86   357.94  1849.86   358.73 " style="stroke-width: 0.85 ;&st7; " /><path d=" M 1849.86,  358.73  C 1849.86   359.51  1850.49   360.14  1851.27   360.14 " style="stroke-width: 0.85 ;&st7; " /><path d=" M 1851.27,  360.14  C 1852.06   360.14  1852.69   359.51  1852.69   358.73 " style="stroke-width: 0.85 ;&st7; " /><path d=" M 1753.54,  307.73  C 1753.54   306.95  1752.91   306.32  1752.12   306.32 " style="stroke-width: 0.85 ;&st7; " /><path d=" M 1752.12,  306.32  C 1751.34   306.32  1750.71   306.95  1750.71   307.73 " style="stroke-width: 0.85 ;&st7; " /><path d=" M 1750.71,  307.73  C 1750.71   308.52  1751.34   309.15  1752.12   309.15 " style="stroke-width: 0.85 ;&st7; " /><path d=" M 1752.12,  309.15  C 1752.91   309.15  1753.54   308.52  1753.54   307.73 " style="stroke-width: 0.85 ;&st7; " /><path d=" M 1753.54,  290.74  C 1753.54   289.95  1752.91   289.32  1752.12   289.32 " style="stroke-width: 0.85 ;&st7; " /><path d=" M 1752.12,  289.32  C 1751.34   289.32  1750.71   289.95  1750.71   290.74 " style="stroke-width: 0.85 ;&st7; " /><path d=" M 1750.71,  290.74  C 1750.71   291.52  1751.34   292.15  1752.12   292.15 " style="stroke-width: 0.85 ;&st7; " /><path d=" M 1752.12,  292.15  C 1752.91   292.15  1753.54   291.52  1753.54   290.74 " style="stroke-width: 0.85 ;&st7; " /><path d=" M 1638.10,  120.77  C 1635.75   120.77  1633.85   122.67  1633.85   125.01 " style="stroke-width: 1.42 ;&st7; " /><path d=" M 1633.85,  125.01  C 1633.85   127.36  1635.75   129.26  1638.10   129.26 " style="stroke-width: 1.42 ;&st7; " /><path d=" M 1642.35,  129.26  C 1644.70   129.26  1646.60   127.36  1646.60   125.01 " style="stroke-width: 1.42 ;&st7; " /><path d=" M 1646.60,  125.01  C 1646.60   122.67  1644.70   120.77  1642.35   120.77 " style="stroke-width: 1.42 ;&st7; " /><path d=" M 1638.10,  316.23  C 1635.75   316.23  1633.85   318.13  1633.85   320.48 " style="stroke-width: 1.42 ;&st7; " /><path d=" M 1633.85,  320.48  C 1633.85   322.83  1635.75   324.73  1638.10   324.73 " style="stroke-width: 1.42 ;&st7; " /><path d=" M 1642.35,  324.73  C 1644.70   324.73  1646.60   322.83  1646.60   320.48 " style="stroke-width: 1.42 ;&st7; " /><path d=" M 1646.60,  320.48  C 1646.60   318.13  1644.70   316.23  1642.35   316.23 " style="stroke-width: 1.42 ;&st7; " /><path d=" M 1638.10,  358.73  C 1635.75   358.73  1633.85   360.63  1633.85   362.97 " style="stroke-width: 1.42 ;&st7; " /><path d=" M 1633.85,  362.97  C 1633.85   365.32  1635.75   367.22  1638.10   367.22 " style="stroke-width: 1.42 ;&st7; " /><path d=" M 1642.35,  367.22  C 1644.70   367.22  1646.60   365.32  1646.60   362.97 " style="stroke-width: 1.42 ;&st7; " /><path d=" M 1646.60,  362.97  C 1646.60   360.63  1644.70   358.73  1642.35   358.73 " style="stroke-width: 1.42 ;&st7; " /><path d=" M 1797.73,  243.71  C 1797.73   241.21  1795.70   239.18  1793.20   239.18 " style="stroke-width: 1.42 ;&st7; " /><path d=" M 1793.20,  239.18  C 1790.70   239.18  1788.67   241.21  1788.67   243.71 " style="stroke-width: 1.42 ;&st7; " /><path d=" M 1788.67,  243.71  C 1788.67   246.21  1790.70   248.24  1793.20   248.24 " style="stroke-width: 1.42 ;&st7; " /><path d=" M 1793.20,  248.24  C 1795.70   248.24  1797.73   246.21  1797.73   243.71 " style="stroke-width: 1.42 ;&st7; " /><path d=" M 1797.73,  397.25  C 1797.73   394.75  1795.70   392.72  1793.20   392.72 " style="stroke-width: 1.42 ;&st7; " /><path d=" M 1793.20,  392.72  C 1790.70   392.72  1788.67   394.75  1788.67   397.25 " style="stroke-width: 1.42 ;&st7; " /><path d=" M 1788.67,  397.25  C 1788.67   399.76  1790.70   401.78  1793.20   401.78 " style="stroke-width: 1.42 ;&st7; " /><path d=" M 1793.20,  401.78  C 1795.70   401.78  1797.73   399.76  1797.73   397.25 " style="stroke-width: 1.42 ;&st7; " /><path d=" M 1823.23,  243.71  C 1823.23   241.21  1821.20   239.18  1818.70   239.18 " style="stroke-width: 1.42 ;&st7; " /><path d=" M 1818.70,  239.18  C 1816.19   239.18  1814.16   241.21  1814.16   243.71 " style="stroke-width: 1.42 ;&st7; " /><path d=" M 1814.16,  243.71  C 1814.16   246.21  1816.19   248.24  1818.70   248.24 " style="stroke-width: 1.42 ;&st7; " /><path d=" M 1818.70,  248.24  C 1821.20   248.24  1823.23   246.21  1823.23   243.71 " style="stroke-width: 1.42 ;&st7; " /><path d=" M 1925.21,  243.71  C 1925.21   241.21  1923.18   239.18  1920.68   239.18 " style="stroke-width: 1.42 ;&st7; " /><path d=" M 1920.68,  239.18  C 1918.18   239.18  1916.15   241.21  1916.15   243.71 " style="stroke-width: 1.42 ;&st7; " /><path d=" M 1916.15,  243.71  C 1916.15   246.21  1918.18   248.24  1920.68   248.24 " style="stroke-width: 1.42 ;&st7; " /><path d=" M 1920.68,  248.24  C 1923.18   248.24  1925.21   246.21  1925.21   243.71 " style="stroke-width: 1.42 ;&st7; " /><path d=" M 1797.73,  234.65  C 1797.73   232.14  1795.70   230.11  1793.20   230.11 " style="stroke-width: 1.42 ;&st7; " /><path d=" M 1793.20,  230.11  C 1790.70   230.11  1788.67   232.14  1788.67   234.65 " style="stroke-width: 1.42 ;&st7; " /><path d=" M 1788.67,  234.65  C 1788.67   237.15  1790.70   239.18  1793.20   239.18 " style="stroke-width: 1.42 ;&st7; " /><path d=" M 1793.20,  239.18  C 1795.70   239.18  1797.73   237.15  1797.73   234.65 " style="stroke-width: 1.42 ;&st7; " /><path d=" M 1823.23,  234.65  C 1823.23   232.14  1821.20   230.11  1818.70   230.11 " style="stroke-width: 1.42 ;&st7; " /><path d=" M 1818.70,  230.11  C 1816.19   230.11  1814.16   232.14  1814.16   234.65 " style="stroke-width: 1.42 ;&st7; " /><path d=" M 1814.16,  234.65  C 1814.16   237.15  1816.19   239.18  1818.70   239.18 " style="stroke-width: 1.42 ;&st7; " /><path d=" M 1818.70,  239.18  C 1821.20   239.18  1823.23   237.15  1823.23   234.65 " style="stroke-width: 1.42 ;&st7; " /><path d=" M 1925.21,  234.65  C 1925.21   232.14  1923.18   230.11  1920.68   230.11 " style="stroke-width: 1.42 ;&st7; " /><path d=" M 1920.68,  230.11  C 1918.18   230.11  1916.15   232.14  1916.15   234.65 " style="stroke-width: 1.42 ;&st7; " /><path d=" M 1916.15,  234.65  C 1916.15   237.15  1918.18   239.18  1920.68   239.18 " style="stroke-width: 1.42 ;&st7; " /><path d=" M 1920.68,  239.18  C 1923.18   239.18  1925.21   237.15  1925.21   234.65 " style="stroke-width: 1.42 ;&st7; " /><path d=" M 1797.73,  406.32  C 1797.73   403.81  1795.70   401.78  1793.20   401.78 " style="stroke-width: 1.42 ;&st7; " /><path d=" M 1793.20,  401.78  C 1790.70   401.78  1788.67   403.81  1788.67   406.32 " style="stroke-width: 1.42 ;&st7; " /><path d=" M 1788.67,  406.32  C 1788.67   408.82  1790.70   410.85  1793.20   410.85 " style="stroke-width: 1.42 ;&st7; " /><path d=" M 1793.20,  410.85  C 1795.70   410.85  1797.73   408.82  1797.73   406.32 " style="stroke-width: 1.42 ;&st7; " /><path d=" M 1721.25,  406.32  C 1721.25   403.81  1719.22   401.78  1716.71   401.78 " style="stroke-width: 1.42 ;&st7; " /><path d=" M 1716.71,  401.78  C 1714.21   401.78  1712.18   403.81  1712.18   406.32 " style="stroke-width: 1.42 ;&st7; " /><path d=" M 1712.18,  406.32  C 1712.18   408.82  1714.21   410.85  1716.71   410.85 " style="stroke-width: 1.42 ;&st7; " /><path d=" M 1716.71,  410.85  C 1719.22   410.85  1721.25   408.82  1721.25   406.32 " style="stroke-width: 1.42 ;&st7; " /><path d=" M 1721.25,  397.25  C 1721.25   394.75  1719.22   392.72  1716.71   392.72 " style="stroke-width: 1.42 ;&st7; " /><path d=" M 1716.71,  392.72  C 1714.21   392.72  1712.18   394.75  1712.18   397.25 " style="stroke-width: 1.42 ;&st7; " /><path d=" M 1712.18,  397.25  C 1712.18   399.76  1714.21   401.78  1716.71   401.78 " style="stroke-width: 1.42 ;&st7; " /><path d=" M 1716.71,  401.78  C 1719.22   401.78  1721.25   399.76  1721.25   397.25 " style="stroke-width: 1.42 ;&st7; " /><path d=" M 1912.18,  490.45  C 1909.83   490.45  1907.93   492.36  1907.93   494.70 " style="stroke-width: 1.42 ;&st7; " /><path d=" M 1907.93,  494.70  C 1907.93   497.05  1909.83   498.95  1912.18   498.95 " style="stroke-width: 1.42 ;&st7; " /><path d=" M 1916.43,  498.95  C 1918.78   498.95  1920.68   497.05  1920.68   494.70 " style="stroke-width: 1.42 ;&st7; " /><path d=" M 1920.68,  494.70  C 1920.68   492.36  1918.78   490.45  1916.43   490.45 " style="stroke-width: 1.42 ;&st7; " /><path d=" M 1856.94,  490.45  C 1854.59   490.45  1852.69   492.36  1852.69   494.70 " style="stroke-width: 1.42 ;&st7; " /><path d=" M 1852.69,  494.70  C 1852.69   497.05  1854.59   498.95  1856.94   498.95 " style="stroke-width: 1.42 ;&st7; " /><path d=" M 1861.19,  498.95  C 1863.54   498.95  1865.44   497.05  1865.44   494.70 " style="stroke-width: 1.42 ;&st7; " /><path d=" M 1865.44,  494.70  C 1865.44   492.36  1863.54   490.45  1861.19   490.45 " style="stroke-width: 1.42 ;&st7; " /><path d=" M 1687.25,  406.32  C 1687.25   403.81  1685.22   401.78  1682.72   401.78 " style="stroke-width: 1.42 ;&st7; " /><path d=" M 1682.72,  401.78  C 1680.22   401.78  1678.19   403.81  1678.19   406.32 " style="stroke-width: 1.42 ;&st7; " /><path d=" M 1678.19,  406.32  C 1678.19   408.82  1680.22   410.85  1682.72   410.85 " style="stroke-width: 1.42 ;&st7; " /><path d=" M 1682.72,  410.85  C 1685.22   410.85  1687.25   408.82  1687.25   406.32 " style="stroke-width: 1.42 ;&st7; " /><path d=" M 1687.25,  397.25  C 1687.25   394.75  1685.22   392.72  1682.72   392.72 " style="stroke-width: 1.42 ;&st7; " /><path d=" M 1682.72,  392.72  C 1680.22   392.72  1678.19   394.75  1678.19   397.25 " style="stroke-width: 1.42 ;&st7; " /><path d=" M 1678.19,  397.25  C 1678.19   399.76  1680.22   401.78  1682.72   401.78 " style="stroke-width: 1.42 ;&st7; " /><path d=" M 1682.72,  401.78  C 1685.22   401.78  1687.25   399.76  1687.25   397.25 " style="stroke-width: 1.42 ;&st7; " /><path d=" M 1753.54,  299.24  C 1753.54   298.45  1752.91   297.82  1752.12   297.82 " style="stroke-width: 0.85 ;&st7; " /><path d=" M 1752.12,  297.82  C 1751.34   297.82  1750.71   298.45  1750.71   299.24 " style="stroke-width: 0.85 ;&st7; " /><path d=" M 1750.71,  299.24  C 1750.71   300.02  1751.34   300.65  1752.12   300.65 " style="stroke-width: 0.85 ;&st7; " /><path d=" M 1752.12,  300.65  C 1752.91   300.65  1753.54   300.02  1753.54   299.24 " style="stroke-width: 0.85 ;&st7; " /><path d=" M 1767.70,  299.24  C 1767.70   298.45  1767.07   297.82  1766.29   297.82 " style="stroke-width: 0.85 ;&st7; " /><path d=" M 1766.29,  297.82  C 1765.51   297.82  1764.87   298.45  1764.87   299.24 " style="stroke-width: 0.85 ;&st7; " /><path d=" M 1764.87,  299.24  C 1764.87   300.02  1765.51   300.65  1766.29   300.65 " style="stroke-width: 0.85 ;&st7; " /><path d=" M 1766.29,  300.65  C 1767.07   300.65  1767.70   300.02  1767.70   299.24 " style="stroke-width: 0.85 ;&st7; " /><path d=" M 1990.08,  306.32  C 1990.08   305.54  1989.45   304.90  1988.67   304.90 " style="stroke-width: 0.85 ;&st7; " /><path d=" M 1988.67,  304.90  C 1987.89   304.90  1987.25   305.54  1987.25   306.32 " style="stroke-width: 0.85 ;&st7; " /><path d=" M 1987.25,  306.32  C 1987.25   307.10  1987.89   307.73  1988.67   307.73 " style="stroke-width: 0.85 ;&st7; " /><path d=" M 1988.67,  307.73  C 1989.45   307.73  1990.08   307.10  1990.08   306.32 " style="stroke-width: 0.85 ;&st7; " /><path d=" M 1986.26,  290.74  C 1987.05   292.08  1988.78   292.52  1990.12   291.73 " style="stroke-width: 0.85 ;&st7; " /><path d=" M 1990.12,  291.73  C 1991.46   290.94  1991.90   289.21  1991.11   287.87 " style="stroke-width: 0.85 ;&st7; " /><path d=" M 1991.11,  287.87  C 1990.58   286.98  1989.70   286.48  1988.67   286.49 " style="stroke-width: 0.85 ;&st7; " /><path d=" M 1998.58,  323.31  C 1998.58   322.53  1997.95   321.90  1997.17   321.90 " style="stroke-width: 0.85 ;&st7; " /><path d=" M 1997.17,  321.90  C 1996.38   321.90  1995.75   322.53  1995.75   323.31 " style="stroke-width: 0.85 ;&st7; " /><path d=" M 1995.75,  323.31  C 1995.75   324.10  1996.38   324.73  1997.17   324.73 " style="stroke-width: 0.85 ;&st7; " /><path d=" M 1997.17,  324.73  C 1997.95   324.73  1998.58   324.10  1998.58   323.31 " style="stroke-width: 0.85 ;&st7; " /><path d=" M 1997.17,  290.74  C 1997.17   286.04  1993.36   282.24  1988.67   282.24 " style="stroke-width: 1.42 ;&st7; " /><path d=" M 1988.67,  282.24  C 1983.97   282.24  1980.17   286.04  1980.17   290.74 " style="stroke-width: 1.42 ;&st7; " /><path d=" M 1980.17,  290.74  C 1980.17   295.43  1983.97   299.24  1988.67   299.24 " style="stroke-width: 1.42 ;&st7; " /><path d=" M 1988.67,  299.24  C 1993.36   299.24  1997.17   295.43  1997.17   290.74 " style="stroke-width: 1.42 ;&st7; " /><path d=" M 1988.67,  294.99  C 1990.22   295.00  1991.49   293.74  1991.50   292.19 " style="stroke-width: 0.85 ;&st7; " /><path d=" M 1991.50,  292.19  C 1991.51   290.63  1990.26   289.36  1988.70   289.35 " style="stroke-width: 0.85 ;&st7; " /><path d=" M 1988.70,  289.35  C 1987.67   289.35  1986.79   289.85  1986.26   290.74 " style="stroke-width: 0.85 ;&st7; " /><path d=" M 1981.59,  323.31  C 1981.59   322.53  1980.95   321.90  1980.17   321.90 " style="stroke-width: 0.85 ;&st7; " /><path d=" M 1980.17,  321.90  C 1979.39   321.90  1978.75   322.53  1978.75   323.31 " style="stroke-width: 0.85 ;&st7; " /><path d=" M 1978.75,  323.31  C 1978.75   324.10  1979.39   324.73  1980.17   324.73 " style="stroke-width: 0.85 ;&st7; " /><path d=" M 1980.17,  324.73  C 1980.95   324.73  1981.59   324.10  1981.59   323.31 " style="stroke-width: 0.85 ;&st7; " /><text style="&st18;" transform="matrix(&st16;  1982.66  253.05 )">1</text><text style="&st18;" transform="matrix(&st16;  1977.64  366.34 )">U10</text><text style="&st18;" transform="matrix(&st16;  1879.9  596.38 )">3</text><text style="&st18;" transform="matrix(&st16;  1879.9  567.5 )">5</text><text style="&st18;" transform="matrix(&st16;  1882.38  517.92 )">3A</text><text style="&st18;" transform="matrix(&st16;  1870.04  517.92 )">65</text><text style="&st18;" transform="matrix(&st16;  1778.39  449.93 )">7</text><text style="&st18;" transform="matrix(&st16;  1701.9  449.93 )">9</text><text ewd:textID="31" style="&st18;" transform="matrix(&st16;  1755.26  306.87 )">Off</text><text ewd:textID="14" style="&st18;" transform="matrix(&st16;  1748.18  287.04 )">Door</text><text style="&st18;" transform="matrix(&st16;  1635.92  126.98 )">2A</text><text style="&st18;" transform="matrix(&st16;  1623.58  126.98 )">52</text><text style="&st18;" transform="matrix(&st16;  1635.92  322.45 )">3B</text><text style="&st18;" transform="matrix(&st16;  1624.36  322.45 )">61</text><text style="&st18;" transform="matrix(&st16;  1635.92  364.94 )">3B</text><text style="&st18;" transform="matrix(&st16;  1628.31  364.94 )">1</text><text style="&st18;" transform="matrix(&st16;  1667.9  449.93 )">8</text><text style="&st18;" transform="matrix(&st16;  1634.93  83.07 )">ILE</text><text style="&st18;" transform="matrix(&st17;  1916.98  217.6 )">W</text><text style="&st18;" transform="matrix(&st16;  1634.21  94.96 )">1</text><text style="&st18;" transform="matrix(&st17;  1984.97  226.1 )">W</text><text style="&st18;" transform="matrix(&st16;  1841.67  400.33 )">U3(A),U13(B)</text><text ewd:textID="26" style="&st18;" transform="matrix(&st16;  1841.67  407.44 )">Map Light Assembly</text><text style="&st18;" transform="matrix(&st17;  1679.02  479.68 )">L</text><text style="&st18;" transform="matrix(&st17;  1679.02  428.69 )">L</text><text ewd:textID="24" style="&st18;" transform="matrix(&st17;  1909.9  590.71 )">Junction <tspan dy="6" x="0">Connector</tspan></text><text style="&st18;" transform="matrix(&st17;  1902.79  590.71 )">L93</text><text style="&st18;" transform="matrix(&st16;  1779.14  245.68 )">21</text><text style="&st18;" transform="matrix(&st16;  1790.87  245.68 )">B</text><text style="&st18;" transform="matrix(&st16;  1816.36  245.68 )">B</text><text style="&st18;" transform="matrix(&st16;  1804.64  245.68 )">14</text><text ewd:textID="23" style="&st18;" transform="matrix(&st16;  1841.67  374.86 )">Front Map Light <tspan dy="6" x="0">Switch RH</tspan></text><text style="&st18;" transform="matrix(&st17;  1789.51  434.41 )">W-B</text><text style="&st18;" transform="matrix(&st16;  1905.85  245.68 )">23</text><text style="&st18;" transform="matrix(&st16;  1918.35  245.68 )">B</text><text ewd:textID="22" style="&st18;" transform="matrix(&st16;  1841.67  323.87 )">Front Map Light <tspan dy="6" x="0">Switch LH</tspan></text><text style="&st18;" transform="matrix(&st16;  1923.51  256.44 )">B</text><text style="&st18;" transform="matrix(&st16;  1821.53  256.44 )">DCTY</text><text style="&st18;" transform="matrix(&st16;  1799.17  399.22 )">(*3)</text><text style="&st18;" transform="matrix(&st16;  1779.14  236.62 )">17</text><text style="&st18;" transform="matrix(&st16;  1790.87  236.62 )">A</text><text style="&st18;" transform="matrix(&st16;  1796.03  256.44 )">E</text><text style="&st18;" transform="matrix(&st16;  1804.64  236.62 )">12</text><text style="&st18;" transform="matrix(&st16;  1816.36  236.62 )">A</text><text style="&st18;" transform="matrix(&st16;  1906.62  236.62 )">19</text><text style="&st18;" transform="matrix(&st16;  1918.35  236.62 )">A</text><text style="&st18;" transform="matrix(&st16;  1783.1  399.22 )">1</text><text style="&st18;" transform="matrix(&st16;  1790.87  399.22 )">A</text><text style="&st18;" transform="matrix(&st17;  1815.0  217.6 )">W</text><text style="&st18;" transform="matrix(&st16;  1719.55  389.03 )">+B1</text><text style="&st18;" transform="matrix(&st17;  1882.99  544.9 )">W-B</text><text style="&st18;" transform="matrix(&st17;  1882.99  621.38 )">W-B</text><text style="&st18;" transform="matrix(&st17;  1789.5  217.6 )">W</text><text style="&st18;" transform="matrix(&st16;  1799.17  408.29 )">(*2)</text><text style="&st18;" transform="matrix(&st16;  1782.32  408.29 )">9</text><text style="&st18;" transform="matrix(&st16;  1790.87  408.29 )">B</text><text style="&st18;" transform="matrix(&st17;  1713.02  480.18 )">R</text><text style="&st18;" transform="matrix(&st17;  1636.53  250.22 )">L</text><text style="&st18;" transform="matrix(&st17;  1636.53  428.69 )">L</text><text ewd:textID="32" style="&st18;" transform="matrix(&st16;  1748.18  315.37 )">On</text><text style="&st18;" transform="matrix(&st17;  1789.51  485.41 )">W-B</text><text style="&st18;" transform="matrix(&st16;  1926.65  245.68 )">(*2)</text><text ewd:textID="29" style="&st18;" transform="matrix(&st16;  1977.64  373.44 )">No. 1 Room Light Assembly</text><text style="&st18;" transform="matrix(&st16;  1701.88  408.29 )">24</text><text style="&st18;" transform="matrix(&st16;  1714.38  408.29 )">B</text><text style="&st18;" transform="matrix(&st16;  1701.88  399.22 )">20</text><text style="&st18;" transform="matrix(&st16;  1714.38  399.22 )">A</text><text style="&st18;" transform="matrix(&st17;  1713.02  429.19 )">R</text><text style="&st18;" transform="matrix(&st16;  1518.77  516.5 )">R</text><text style="&st18;" transform="matrix(&st16;  1518.77  533.5 )">R</text><text style="&st18;" transform="matrix(&st16;  1586.76  516.5 )">R</text><text style="&st18;" transform="matrix(&st16;  1586.76  533.5 )">R</text><text style="&st18;" transform="matrix(&st16;  1796.03  389.03 )">GND1</text><text style="&st18;" transform="matrix(&st16;  1926.65  236.62 )">(*3)</text><text style="&st18;" transform="matrix(&st16;  1910.0  496.67 )">3B</text><text style="&st18;" transform="matrix(&st16;  1912.33  487.47 )">6</text><text style="&st18;" transform="matrix(&st16;  1854.76  496.67 )">3B</text><text style="&st18;" transform="matrix(&st16;  1857.09  487.47 )">5</text><text style="&st18;" transform="matrix(&st16;  1668.66  408.29 )">13</text><text style="&st18;" transform="matrix(&st16;  1680.39  408.29 )">B</text><text style="&st18;" transform="matrix(&st16;  1669.44  399.22 )">11</text><text style="&st18;" transform="matrix(&st16;  1680.39  399.22 )">A</text><text style="&st18;" transform="matrix(&st16;  1685.55  389.03 )">CTY</text><text ewd:textID="2" style="&st18;" transform="matrix(&st16;  1824.67  105.74 )">* 2 :w/ Sliding Roof</text><text ewd:textID="3" style="&st18;" transform="matrix(&st16;  1824.67  114.24 )">* 3 :w/o Sliding Roof</text><text style="&st18;" transform="matrix(&st16;  1612.21  24.98 )">L7(A),L8(B)</text><text ewd:textID="25" style="&st18;" transform="matrix(&st16;  1612.21  32.08 )">Main Body ECU</text><text ewd:textID="32" style="&st18;" transform="matrix(&st17;  1980.72  320.17 )">On</text><text style="&st18;" transform="matrix(&st16;  1981.17  264.94 )">B</text></svg>