﻿<?xml version="1.0" encoding="utf-8"?>
<!DOCTYPE svg PUBLIC "-//W3C//DTD SVG 1.0//EN" "http://www.w3.org/TR/2001/REC-SVG-20010904/DTD/svg10.dtd"[
	<!ENTITY ns_flows "http://ns.adobe.com/Flows/1.0/">
	<!ENTITY ns_svg "http://www.w3.org/2000/svg">
	<!ENTITY ns_xlink "http://www.w3.org/1999/xlink">
	<!ENTITY st0 "font-size:7px;font-family:'MS-PGothic';adobe-font-script:japanese;">
	<!ENTITY st1 "font-size:6px;font-family:'ArialMT';">
	<!-- White fill  -->
	<!ENTITY st2 "fill:#FFFFFF;stroke:#000000; stroke-width:1.41;stroke-linecap:round;stroke-linejoin:round;">
	<!-- Yellow fill  -->
	<!ENTITY st3 "fill:#FFFFCC;stroke:#FFFFCC; stroke-width:0.1;stroke-linecap:round;stroke-linejoin:round;">
	<!-- Gray fill  -->
	<!ENTITY st4 "fill:#CCCCCC;stroke:#CCCCCC; stroke-width:0.1;stroke-linecap:round;stroke-linejoin:round;">
	<!-- Light-blue fill -->
	<!ENTITY st5 "fill:#CCECF4;stroke:#000000; stroke-width:1.133;stroke-linecap:round;stroke-linejoin:round;">
	<!ENTITY st6 "fill:none;stroke-linecap:butt; stroke-linejoin:round;">
	<!ENTITY st7 "fill:none;stroke:#000000;stroke-linecap:round;stroke-linejoin:round;">
	<!ENTITY st8 "enable-background:new    ;">
	<!-- Black fill -->
	<!ENTITY st9 "fill:#000000;stroke:#000000; stroke-linecap:round;stroke-linejoin:round;">
	<!-- SRS note   -->
	<!ENTITY st10 "font-size:9px;font-family:'ArialMT';">
	<!ENTITY st11 "font-size:9px;font-family:'Svg Symbol';">
	<!ENTITY st12 "font-size:6px;font-family:'Svg Symbol';">
	<!ENTITY st13 "fill:none;stroke:#ff0000;stroke-linecap:round;stroke-linejoin:round;">
	<!-- Yellow fill  -->
	<!ENTITY st14 "fill:#FFFF00;stroke:#FFFF00; stroke-width:0.1;stroke-linecap:round;stroke-linejoin:round;">
	<!ENTITY st15 "font-size:6px;font-family:'MS-PGothic';adobe-font-script:japanese;">
	<!ENTITY st16 "1.00 0.00 0.00 1.00">
	<!ENTITY st17 "0.00 -1.00 1.00 0.00">
	<!ENTITY st18 "font-size:6px;font-family:'Arial';">
	<!ENTITY st19 "font-size:9px;font-family:'Arial';">
	<!ENTITY st20 "font-size:6px;font-family:'MS-PGothic','MS PGothic';adobe-font-script:japanese;">
	<!ENTITY st21 "font-size:7px;font-family:'MS-PGothic','MS PGothic';adobe-font-script:japanese;">
	<!ATTLIST svg
		xmlns:ewd CDATA #FIXED "http://shcl.co.jp/ewd"
		xmlns:a CDATA #FIXED "http://ns.adobe.com/AdobeSVGViewerExtensions/3.0/"
		ewd:ver CDATA #IMPLIED
	>
	<!ATTLIST a
		ewd:lineID CDATA #IMPLIED
		ewd:groupID CDATA #IMPLIED
		ewd:figtype CDATA #IMPLIED
		ewd:code CDATA #IMPLIED
		ewd:figID CDATA #IMPLIED
		ewd:pinNo CDATA #IMPLIED
		ewd:comment CDATA #IMPLIED >
	<!ATTLIST g
		ewd:lineID CDATA #IMPLIED
		ewd:groupID CDATA #IMPLIED
		ewd:figtype CDATA #IMPLIED
		ewd:code CDATA #IMPLIED
		ewd:figID CDATA #IMPLIED
		ewd:pinNo CDATA #IMPLIED
		ewd:comment CDATA #IMPLIED >
	<!ATTLIST text
		ewd:textID CDATA #IMPLIED >
	<!ATTLIST title
		ewd:textID CDATA #IMPLIED >
]>
<!-- Generator: Shintec Hozumi YS   -->
<svg onload="call_execInitLoadProc_svg('system')" style="overflow:visible;  enable-background:new 0 0 4137.392 710.000" viewBox="0 0 4137.392 710.000" height="710.000" width="4137.392" xml:space="preserve" ewd:ver="L2.1.2.6" xmlns="&ns_svg;" xmlns:a="http://ns.adobe.com/AdobeSVGViewerExtensions/3.0/" xmlns:ewd="http://shcl.co.jp/ewd" xmlns:xlink="&ns_xlink;">
<path d=" M 2124.65,  647.68  L 2124.65,  634.93 " style="stroke-width: 0.85 ;&st7; " /><path d=" M 2127.48,  630.68  L 2121.81,  633.51 " style="stroke-width: 0.85 ;&st7; " /><path d=" M 2121.81,  627.85  L 2127.48,  630.68 " style="stroke-width: 0.85 ;&st7; " /><path d=" M 2127.48,  625.01  L 2121.81,  627.85 " style="stroke-width: 0.85 ;&st7; " /><path d=" M 2121.81,  622.18  L 2127.48,  625.01 " style="stroke-width: 0.85 ;&st7; " /><path d=" M 2127.48,  619.35  L 2121.81,  622.18 " style="stroke-width: 0.85 ;&st7; " /><path d=" M 2124.65,  617.93  L 2127.48,  619.35 " style="stroke-width: 0.85 ;&st7; " /><path d=" M 2121.81,  633.51  L 2124.65,  634.93 " style="stroke-width: 0.85 ;&st7; " /><path d=" M 2124.65,  617.93  L 2124.65,  605.18 " style="stroke-width: 0.85 ;&st7; " /><path d=" M 2116.15,  617.93  L 2116.15,  634.93 " style="stroke-width: 0.85 ;&st7; " /><path d=" M 2133.14,  617.93  L 2133.14,  634.93 " style="stroke-width: 0.85 ;&st7; " /><path d=" M 2320.11,  494.70  L 2311.61,  494.70 " style="stroke-width: 1.42 ;&st7; " /><path d=" M 2354.11,  494.70  L 2345.61,  494.70 " style="stroke-width: 1.42 ;&st7; " /><path d=" M 2303.12,  290.74  L 2311.61,  290.74 " style="stroke-width: 1.42 ;&st7; " /><path d=" M 2337.11,  290.74  L 2345.61,  290.74 " style="stroke-width: 1.42 ;&st7; " /><path d=" M 2252.12,  418.22  L 2257.18,  429.58 " style="stroke-width: 1.42 ;&st7; " /><path d=" M 2252.12,  418.22  L 2247.06,  429.58 " style="stroke-width: 1.42 ;&st7; " /><path d=" M 2286.12,  418.22  L 2291.18,  429.58 " style="stroke-width: 1.42 ;&st7; " /><path d=" M 2286.12,  418.22  L 2281.06,  429.58 " style="stroke-width: 1.42 ;&st7; " /><path d=" M 2158.64,  418.22  L 2163.70,  429.58 " style="stroke-width: 1.42 ;&st7; " /><path d=" M 2158.64,  418.22  L 2153.58,  429.58 " style="stroke-width: 1.42 ;&st7; " /><path d=" M 2192.63,  418.22  L 2197.69,  429.58 " style="stroke-width: 1.42 ;&st7; " /><path d=" M 2192.63,  418.22  L 2187.57,  429.58 " style="stroke-width: 1.42 ;&st7; " /><path d=" M 2141.64,  435.21  L 2136.58,  423.85 " style="stroke-width: 1.42 ;&st7; " /><path d=" M 2141.64,  435.21  L 2146.70,  423.85 " style="stroke-width: 1.42 ;&st7; " /><path d=" M 2175.64,  435.21  L 2170.58,  423.85 " style="stroke-width: 1.42 ;&st7; " /><path d=" M 2175.64,  435.21  L 2180.70,  423.85 " style="stroke-width: 1.42 ;&st7; " /><path d=" M 2235.13,  435.21  L 2230.07,  423.85 " style="stroke-width: 1.42 ;&st7; " /><path d=" M 2235.13,  435.21  L 2240.19,  423.85 " style="stroke-width: 1.42 ;&st7; " /><path d=" M 2269.12,  435.21  L 2264.06,  423.85 " style="stroke-width: 1.42 ;&st7; " /><path d=" M 2269.12,  435.21  L 2274.18,  423.85 " style="stroke-width: 1.42 ;&st7; " /><path d=" M 2116.15,  554.19  L 2124.65,  554.19 " style="stroke-width: 1.42 ;&st7; " /><path d=" M 2167.14,  554.19  L 2175.64,  554.19 " style="stroke-width: 1.42 ;&st7; " /><path d=" M 2179.88,  548.53  L 2175.64,  552.78  L 2171.39,  548.53 " style="stroke-width: 1.42 ;&st7; " /><path d=" M 2171.39,  545.13  L 2175.64,  549.38  L 2179.88,  545.13 " style="stroke-width: 1.42 ;&st7; " /><path d=" M 2315.86,  285.07  L 2311.61,  289.32  L 2307.36,  285.07 " style="stroke-width: 1.42 ;&st7; " /><path d=" M 2167.14,  613.68  L 2184.13,  613.68 " style="stroke-width: 1.13 ;&st7;stroke-dasharray:3, 1.5;" /><path d=" M 2175.64,  605.18  L 2175.64,  630.68 " style="stroke-width: 0.85 ;&st7; " /><path d=" M 2167.14,  622.18  L 2184.13,  622.18 " style="stroke-width: 1.13 ;&st7;stroke-dasharray:3, 1.5;" /><path d=" M 2307.36,  281.67  L 2311.61,  285.92  L 2315.86,  281.67 " style="stroke-width: 1.42 ;&st7; " /><path d=" M 2413.60,  180.26  L 2413.60,  214.25 " style="stroke-width: 0.85 ;&st7; " /><path d=" M 2311.61,  579.69  L 2311.61,  596.69 " style="stroke-width: 0.85 ;&st7; " /><path d=" M 2345.61,  579.69  L 2345.61,  622.18 " style="stroke-width: 0.85 ;&st7; " /><path d=" M 2447.59,  180.26  L 2447.59,  214.25 " style="stroke-width: 0.85 ;&st7; " /><path d=" M 2396.60,  273.74  L 3246.46,  273.74  L 3246.46,  307.73  L 2396.60,  307.73  L 2396.60,  273.74 " style="stroke-width: 1.42 ;&st7; " /><path d=" M 2396.60,  180.26  L 2396.60,  214.25  L 2464.59,  214.25  L 2464.59,  180.26  L 2396.60,  180.26 " style="stroke-width: 1.42 ;&st7; " /><path d=" M 2315.86,  503.77  L 2311.61,  499.52  L 2307.36,  503.77 " style="stroke-width: 1.42 ;&st7; " /><path d=" M 2315.86,  500.37  L 2311.61,  496.12  L 2307.36,  500.37 " style="stroke-width: 1.42 ;&st7; " /><path d=" M 2349.86,  503.77  L 2345.61,  499.52  L 2341.36,  503.77 " style="stroke-width: 1.42 ;&st7; " /><path d=" M 2349.86,  500.37  L 2345.61,  496.12  L 2341.36,  500.37 " style="stroke-width: 1.42 ;&st7; " /><path d=" M 2310.42,  196.25  L 2310.15,  196.72  L 2310.05,  197.25  L 2310.15,  197.79  L 2310.42,  198.26  L 2310.83,  198.60  L 2311.34,  198.79  L 2311.88,  198.79  L 2312.39,  198.60  L 2312.81,  198.26  L 2313.08,  197.79  L 2313.17,  197.25  L 2313.08,  196.72  L 2312.81,  196.25  L 2312.39,  195.90  L 2311.88,  195.72  L 2311.34,  195.72  L 2310.83,  195.90  L 2310.42,  196.25  L 2310.81,  196.96  L 2310.81,  197.54  L 2311.19,  197.99  L 2311.76,  198.09  L 2312.26,  197.80  L 2312.46,  197.25  L 2312.26,  196.71  L 2311.76,  196.42  L 2311.19,  196.52  L 2311.61,  197.25 " style="stroke-width: 0.85 ;&st7; " /><path d=" M 2344.41,  221.75  L 2344.14,  222.22  L 2344.05,  222.75  L 2344.14,  223.28  L 2344.41,  223.75  L 2344.83,  224.10  L 2345.34,  224.28  L 2345.88,  224.28  L 2346.39,  224.10  L 2346.80,  223.75  L 2347.07,  223.28  L 2347.17,  222.75  L 2347.07,  222.22  L 2346.80,  221.75  L 2346.39,  221.40  L 2345.88,  221.21  L 2345.34,  221.21  L 2344.83,  221.40  L 2344.41,  221.75  L 2344.81,  222.46  L 2344.81,  223.04  L 2345.18,  223.48  L 2345.75,  223.58  L 2346.26,  223.30  L 2346.46,  222.75  L 2346.26,  222.20  L 2345.75,  221.91  L 2345.18,  222.01  L 2345.61,  222.75 " style="stroke-width: 0.85 ;&st7; " /><path d=" M 2167.14,  605.18  L 2167.14,  630.68  L 2184.13,  630.68  L 2184.13,  605.18  L 2167.14,  605.18 " style="stroke-width: 1.42 ;&st7; " /><path d=" M 2269.12,  579.69  L 2269.12,  622.18  L 2447.59,  622.18  L 2447.59,  579.69 " style="stroke-width: 0.85 ;&st7; " /><path d=" M 2218.13,  579.69  L 2218.13,  639.18  L 2464.59,  639.18  L 2464.59,  579.69  L 2218.13,  579.69 " style="stroke-width: 1.42 ;&st7; " /><path d=" M 2310.42,  595.68  L 2310.15,  596.15  L 2310.05,  596.69  L 2310.15,  597.22  L 2310.42,  597.69  L 2310.83,  598.03  L 2311.34,  598.22  L 2311.88,  598.22  L 2312.39,  598.03  L 2312.81,  597.69  L 2313.08,  597.22  L 2313.17,  596.69  L 2313.08,  596.15  L 2312.81,  595.68  L 2312.39,  595.34  L 2311.88,  595.15  L 2311.34,  595.15  L 2310.83,  595.34  L 2310.42,  595.68  L 2310.81,  596.39  L 2310.81,  596.98  L 2311.19,  597.42  L 2311.76,  597.52  L 2312.26,  597.23  L 2312.46,  596.69  L 2312.26,  596.14  L 2311.76,  595.85  L 2311.19,  595.95  L 2311.61,  596.69 " style="stroke-width: 0.85 ;&st7; " /><path d=" M 2344.41,  621.18  L 2344.14,  621.65  L 2344.05,  622.18  L 2344.14,  622.71  L 2344.41,  623.18  L 2344.83,  623.53  L 2345.34,  623.72  L 2345.88,  623.72  L 2346.39,  623.53  L 2346.80,  623.18  L 2347.07,  622.71  L 2347.17,  622.18  L 2347.07,  621.65  L 2346.80,  621.18  L 2346.39,  620.83  L 2345.88,  620.65  L 2345.34,  620.65  L 2344.83,  620.83  L 2344.41,  621.18  L 2344.81,  621.89  L 2344.81,  622.47  L 2345.18,  622.92  L 2345.75,  623.02  L 2346.26,  622.73  L 2346.46,  622.18  L 2346.26,  621.63  L 2345.75,  621.35  L 2345.18,  621.44  L 2345.61,  622.18 " style="stroke-width: 0.85 ;&st7; " /><path d=" M 2235.13,  579.69  L 2235.13,  596.69  L 2413.60,  596.69  L 2413.60,  579.69 " style="stroke-width: 0.85 ;&st7; " /><path d=" M 2124.64,  350.23  L 2362.60,  350.23  L 2362.60,  384.22  L 2124.64,  384.22  L 2124.64,  350.23 " style="stroke-width: 1.42 ;&st7; " /><path d=" M 2107.65,  469.21  L 2286.12,  469.21  L 2286.12,  503.20  L 2107.65,  503.20  L 2107.65,  469.21 " style="stroke-width: 1.42 ;&st7; " /><path d=" M 2345.61,  180.26  L 2345.61,  239.75 " style="stroke-width: 0.85 ;&st7; " /><path d=" M 2311.61,  180.26  L 2311.61,  239.75 " style="stroke-width: 0.85 ;&st7; " /><path d=" M 2341.36,  281.67  L 2345.61,  285.92  L 2349.86,  281.67 " style="stroke-width: 1.42 ;&st7; " /><path d=" M 2349.86,  285.07  L 2345.61,  289.32  L 2341.36,  285.07 " style="stroke-width: 1.42 ;&st7; " /><path d=" M 2128.89,  548.53  L 2124.64,  552.78  L 2120.39,  548.53 " style="stroke-width: 1.42 ;&st7; " /><path d=" M 2120.39,  545.13  L 2124.64,  549.38  L 2128.89,  545.13 " style="stroke-width: 1.42 ;&st7; " /><path d=" M 2290.37,  439.46  L 2286.12,  443.71  L 2262.75,  443.71  L 2260.62,  447.96  L 2258.50,  443.71  L 2235.13,  443.71  L 2230.88,  439.46 " style="stroke-width: 0.85 ;&st7; " /><path d=" M 2196.88,  439.46  L 2192.63,  443.71  L 2169.26,  443.71  L 2167.14,  447.96  L 2165.01,  443.71  L 2141.64,  443.71  L 2137.39,  439.46 " style="stroke-width: 0.85 ;&st7; " /><path d=" M 2111.90,  647.68  L 2111.90,  605.18  L 2137.39,  605.18  L 2137.39,  647.68  L 2111.90,  647.68 " style="stroke-width: 1.42 ;&st7; " /><path d=" M 2498.58,  180.26  L 2498.58,  205.75  L 2549.57,  205.75  L 2549.57,  180.26  L 2498.58,  180.26 " style="stroke-width: 1.42 ;&st7; " /><path d=" M 2498.58,  188.75  L 2549.57,  188.75 " style="stroke-width: 1.13 ;&st7;stroke-dasharray:3, 1.5;" /><path d=" M 2498.58,  197.25  L 2549.57,  197.25 " style="stroke-width: 1.13 ;&st7;stroke-dasharray:3, 1.5;" /><path d=" M 2129.18,  507.73  C 2129.18   505.23  2127.15   503.20  2124.65   503.20 " style="stroke-width: 1.42 ;&st7; " /><path d=" M 2124.65,  503.20  C 2122.14   503.20  2120.11   505.23  2120.11   507.73 " style="stroke-width: 1.42 ;&st7; " /><path d=" M 2120.11,  507.73  C 2120.11   510.24  2122.14   512.27  2124.65   512.27 " style="stroke-width: 1.42 ;&st7; " /><path d=" M 2124.65,  512.27  C 2127.15   512.27  2129.18   510.24  2129.18   507.73 " style="stroke-width: 1.42 ;&st7; " /><path d=" M 2180.17,  507.73  C 2180.17   505.23  2178.14   503.20  2175.64   503.20 " style="stroke-width: 1.42 ;&st7; " /><path d=" M 2175.64,  503.20  C 2173.13   503.20  2171.10   505.23  2171.10   507.73 " style="stroke-width: 1.42 ;&st7; " /><path d=" M 2171.10,  507.73  C 2171.10   510.24  2173.13   512.27  2175.64   512.27 " style="stroke-width: 1.42 ;&st7; " /><path d=" M 2175.64,  512.27  C 2178.14   512.27  2180.17   510.24  2180.17   507.73 " style="stroke-width: 1.42 ;&st7; " /><path d=" M 2239.66,  507.73  C 2239.66   505.23  2237.63   503.20  2235.13   503.20 " style="stroke-width: 1.42 ;&st7; " /><path d=" M 2235.13,  503.20  C 2232.62   503.20  2230.59   505.23  2230.59   507.73 " style="stroke-width: 1.42 ;&st7; " /><path d=" M 2230.59,  507.73  C 2230.59   510.24  2232.62   512.27  2235.13   512.27 " style="stroke-width: 1.42 ;&st7; " /><path d=" M 2235.13,  512.27  C 2237.63   512.27  2239.66   510.24  2239.66   507.73 " style="stroke-width: 1.42 ;&st7; " /><path d=" M 2273.65,  507.73  C 2273.65   505.23  2271.62   503.20  2269.12   503.20 " style="stroke-width: 1.42 ;&st7; " /><path d=" M 2269.12,  503.20  C 2266.62   503.20  2264.59   505.23  2264.59   507.73 " style="stroke-width: 1.42 ;&st7; " /><path d=" M 2264.59,  507.73  C 2264.59   510.24  2266.62   512.27  2269.12   512.27 " style="stroke-width: 1.42 ;&st7; " /><path d=" M 2269.12,  512.27  C 2271.62   512.27  2273.65   510.24  2273.65   507.73 " style="stroke-width: 1.42 ;&st7; " /><path d=" M 2133.14,  617.93  C 2133.14   613.24  2129.34   609.43  2124.65   609.43 " style="stroke-width: 0.85 ;&st7; " /><path d=" M 2124.65,  609.43  C 2119.95   609.43  2116.15   613.24  2116.15   617.93 " style="stroke-width: 0.85 ;&st7; " /><path d=" M 2116.15,  634.93  C 2116.15   639.62  2119.95   643.43  2124.65   643.43 " style="stroke-width: 0.85 ;&st7; " /><path d=" M 2124.65,  643.43  C 2129.34   643.43  2133.14   639.62  2133.14   634.93 " style="stroke-width: 0.85 ;&st7; " /><path d=" M 2418.13,  269.21  C 2418.13   266.70  2416.10   264.67  2413.60   264.67 " style="stroke-width: 1.42 ;&st7; " /><path d=" M 2413.60,  264.67  C 2411.09   264.67  2409.06   266.70  2409.06   269.21 " style="stroke-width: 1.42 ;&st7; " /><path d=" M 2409.06,  269.21  C 2409.06   271.71  2411.09   273.74  2413.60   273.74 " style="stroke-width: 1.42 ;&st7; " /><path d=" M 2413.60,  273.74  C 2416.10   273.74  2418.13   271.71  2418.13   269.21 " style="stroke-width: 1.42 ;&st7; " /><path d=" M 2452.12,  269.21  C 2452.12   266.70  2450.09   264.67  2447.59   264.67 " style="stroke-width: 1.42 ;&st7; " /><path d=" M 2447.59,  264.67  C 2445.09   264.67  2443.06   266.70  2443.06   269.21 " style="stroke-width: 1.42 ;&st7; " /><path d=" M 2443.06,  269.21  C 2443.06   271.71  2445.09   273.74  2447.59   273.74 " style="stroke-width: 1.42 ;&st7; " /><path d=" M 2447.59,  273.74  C 2450.09   273.74  2452.12   271.71  2452.12   269.21 " style="stroke-width: 1.42 ;&st7; " /><path d=" M 2452.12,  312.27  C 2452.12   309.76  2450.09   307.73  2447.59   307.73 " style="stroke-width: 1.42 ;&st7; " /><path d=" M 2447.59,  307.73  C 2445.09   307.73  2443.06   309.76  2443.06   312.27 " style="stroke-width: 1.42 ;&st7; " /><path d=" M 2443.06,  312.27  C 2443.06   314.77  2445.09   316.80  2447.59   316.80 " style="stroke-width: 1.42 ;&st7; " /><path d=" M 2447.59,  316.80  C 2450.09   316.80  2452.12   314.77  2452.12   312.27 " style="stroke-width: 1.42 ;&st7; " /><path d=" M 2418.13,  312.27  C 2418.13   309.76  2416.10   307.73  2413.60   307.73 " style="stroke-width: 1.42 ;&st7; " /><path d=" M 2413.60,  307.73  C 2411.09   307.73  2409.06   309.76  2409.06   312.27 " style="stroke-width: 1.42 ;&st7; " /><path d=" M 2409.06,  312.27  C 2409.06   314.77  2411.09   316.80  2413.60   316.80 " style="stroke-width: 1.42 ;&st7; " /><path d=" M 2413.60,  316.80  C 2416.10   316.80  2418.13   314.77  2418.13   312.27 " style="stroke-width: 1.42 ;&st7; " /><path d=" M 2180.17,  600.65  C 2180.17   598.15  2178.14   596.12  2175.64   596.12 " style="stroke-width: 1.42 ;&st7; " /><path d=" M 2175.64,  596.12  C 2173.13   596.12  2171.10   598.15  2171.10   600.65 " style="stroke-width: 1.42 ;&st7; " /><path d=" M 2171.10,  600.65  C 2171.10   603.15  2173.13   605.18  2175.64   605.18 " style="stroke-width: 1.42 ;&st7; " /><path d=" M 2175.64,  605.18  C 2178.14   605.18  2180.17   603.15  2180.17   600.65 " style="stroke-width: 1.42 ;&st7; " /><path d=" M 2180.17,  635.21  C 2180.17   632.71  2178.14   630.68  2175.64   630.68 " style="stroke-width: 1.42 ;&st7; " /><path d=" M 2175.64,  630.68  C 2173.13   630.68  2171.10   632.71  2171.10   635.21 " style="stroke-width: 1.42 ;&st7; " /><path d=" M 2171.10,  635.21  C 2171.10   637.72  2173.13   639.75  2175.64   639.75 " style="stroke-width: 1.42 ;&st7; " /><path d=" M 2175.64,  639.75  C 2178.14   639.75  2180.17   637.72  2180.17   635.21 " style="stroke-width: 1.42 ;&st7; " /><text style="&st18;" transform="matrix(&st16;  2300.87  392.41 )">34</text><text style="&st18;" transform="matrix(&st16;  2334.86  392.41 )">35</text><text style="&st18;" transform="matrix(&st16;  2259.37  499.5 )">CANH</text><text style="&st18;" transform="matrix(&st16;  2225.87  499.5 )">CANL</text><text style="&st18;" transform="matrix(&st16;  2330.79  492.42 )">9</text><text style="&st18;" transform="matrix(&st17;  2443.9  148.59 )">V</text><text style="&st18;" transform="matrix(&st17;  2409.9  149.62 )">W</text><text style="&st18;" transform="matrix(&st16;  2403.63  176.57 )">14</text><text style="&st18;" transform="matrix(&st16;  2330.79  296.96 )">2</text><text ewd:textID="14" style="&st18;" transform="matrix(&st17;  2479.31  216.77 )">Junction <tspan dy="6" x="0">Connector</tspan></text><text style="&st18;" transform="matrix(&st17;  2472.2  216.77 )">L95</text><text style="&st18;" transform="matrix(&st16;  2279.51  380.52 )">FR-</text><text style="&st18;" transform="matrix(&st16;  2279.33  392.41 )">5</text><text style="&st18;" transform="matrix(&st16;  2262.52  380.52 )">FR+</text><text style="&st18;" transform="matrix(&st16;  2259.15  392.41 )">18</text><text style="&st18;" transform="matrix(&st16;  2246.01  380.52 )">FL-</text><text style="&st18;" transform="matrix(&st16;  2241.38  392.41 )">32</text><text style="&st18;" transform="matrix(&st16;  2229.02  380.52 )">FL+</text><text style="&st18;" transform="matrix(&st16;  2225.16  392.41 )">31</text><text style="&st18;" transform="matrix(&st17;  2231.43  403.69 )">R</text><text style="&st18;" transform="matrix(&st17;  2248.43  403.97 )">G</text><text style="&st18;" transform="matrix(&st17;  2265.42  403.55 )">P</text><text style="&st18;" transform="matrix(&st17;  2282.42  403.2 )">L</text><text style="&st18;" transform="matrix(&st16;  2186.17  380.52 )">RL-</text><text style="&st18;" transform="matrix(&st16;  2185.84  392.41 )">7</text><text style="&st18;" transform="matrix(&st16;  2169.17  380.52 )">RL+</text><text style="&st18;" transform="matrix(&st16;  2164.89  392.41 )">20</text><text style="&st18;" transform="matrix(&st16;  2151.68  380.52 )">RR-</text><text style="&st18;" transform="matrix(&st16;  2151.85  392.41 )">9</text><text style="&st18;" transform="matrix(&st16;  2134.68  380.52 )">RR+</text><text style="&st18;" transform="matrix(&st16;  2130.9  392.41 )">22</text><text style="&st18;" transform="matrix(&st17;  2137.95  404.57 )">W</text><text style="&st18;" transform="matrix(&st17;  2154.94  403.55 )">B</text><text style="&st18;" transform="matrix(&st17;  2171.94  404.57 )">W</text><text style="&st18;" transform="matrix(&st17;  2188.94  403.55 )">B</text><text ewd:textID="12" style="&st18;" transform="matrix(&st16;  2226.78  455.6 )">Front Speed Sensors</text><text ewd:textID="31" style="&st18;" transform="matrix(&st16;  2133.94  455.6 )">Rear Speed Sensors</text><text style="&st18;" transform="matrix(&st16;  2166.56  499.5 )">SG-2</text><text style="&st18;" transform="matrix(&st16;  2117.3  499.5 )">TAM</text><text style="&st18;" transform="matrix(&st16;  2106.65  560.41 )">17</text><text style="&st18;" transform="matrix(&st16;  2173.31  602.62 )">A</text><text style="&st18;" transform="matrix(&st16;  2164.76  602.62 )">2</text><text style="&st18;" transform="matrix(&st16;  2173.31  637.18 )">B</text><text style="&st18;" transform="matrix(&st16;  2164.76  637.18 )">6</text><text style="&st18;" transform="matrix(&st17;  2120.95  533.36 )">BE</text><text style="&st18;" transform="matrix(&st17;  2171.94  531.45 )">G</text><text style="&st18;" transform="matrix(&st17;  2120.95  584.35 )">BE</text><text ewd:textID="6" style="&st18;" transform="matrix(&st17;  2098.0  505.73 )">A/C Amplifier <tspan dy="6" x="-0.01">Assembly</tspan></text><text style="&st18;" transform="matrix(&st17;  2090.9  505.73 )">L17(A)</text><text ewd:textID="14" style="&st18;" transform="matrix(&st17;  2198.85  633.2 )">Junction <tspan dy="6" x="0">Connector</tspan></text><text style="&st18;" transform="matrix(&st17;  2191.75  633.2 )">A50(A),A51(B)</text><text style="&st18;" transform="matrix(&st16;  2147.39  669.48 )">G</text><text style="&st18;" transform="matrix(&st16;  2160.82  560.41 )">2</text><text style="&st18;" transform="matrix(&st17;  2171.94  582.44 )">G</text><text style="&st18;" transform="matrix(&st16;  2296.8  296.96 )">3</text><text style="&st18;" transform="matrix(&st16;  2440.8  176.57 )">3</text><text style="&st18;" transform="matrix(&st17;  2472.2  641.7 )">L101</text><text ewd:textID="14" style="&st18;" transform="matrix(&st17;  2479.31  641.7 )">Junction <tspan dy="6" x="0">Connector</tspan></text><text style="&st18;" transform="matrix(&st17;  2370.22  242.27 )">L94</text><text ewd:textID="14" style="&st18;" transform="matrix(&st17;  2377.32  242.27 )">Junction <tspan dy="6" x="0">Connector</tspan></text><text style="&st18;" transform="matrix(&st16;  2335.64  176.57 )">18</text><text style="&st18;" transform="matrix(&st16;  2304.82  176.57 )">7</text><text style="&st18;" transform="matrix(&st17;  2341.91  149.62 )">W</text><text style="&st18;" transform="matrix(&st17;  2307.92  148.59 )">V</text><text style="&st18;" transform="matrix(&st16;  2407.58  576.0 )">1</text><text style="&st18;" transform="matrix(&st16;  2437.62  576.0 )">12</text><text style="&st18;" transform="matrix(&st17;  2443.9  346.46 )">LG</text><text style="&st18;" transform="matrix(&st17;  2409.9  343.71 )">L</text><text style="&st18;" transform="matrix(&st16;  2405.23  281.37 )">CA1L</text><text style="&st18;" transform="matrix(&st16;  2438.73  281.37 )">CA1H</text><text style="&st18;" transform="matrix(&st16;  2411.12  271.18 )">D</text><text style="&st18;" transform="matrix(&st16;  2398.76  271.18 )">24</text><text style="&st18;" transform="matrix(&st16;  2445.12  271.18 )">D</text><text style="&st18;" transform="matrix(&st16;  2432.76  271.18 )">25</text><text style="&st18;" transform="matrix(&st16;  2433.54  314.24 )">31</text><text style="&st18;" transform="matrix(&st16;  2411.12  314.24 )">D</text><text style="&st18;" transform="matrix(&st16;  2398.76  314.24 )">30</text><text style="&st18;" transform="matrix(&st17;  2409.9  243.1 )">W</text><text style="&st18;" transform="matrix(&st17;  2443.9  242.08 )">B</text><text style="&st18;" transform="matrix(&st16;  2440.8  222.44 )">8</text><text style="&st18;" transform="matrix(&st16;  2403.63  222.44 )">19</text><text style="&st18;" transform="matrix(&st16;  2445.12  314.24 )">D</text><text style="&st18;" transform="matrix(&st16;  2404.34  304.04 )">CA3N</text><text style="&st18;" transform="matrix(&st16;  2438.48  304.04 )">CA3P</text><text style="&st18;" transform="matrix(&st16;  2337.24  357.86 )">CA1L</text><text style="&st18;" transform="matrix(&st16;  2302.75  357.86 )">CA1H</text><text style="&st18;" transform="matrix(&st16;  2300.87  346.54 )">37</text><text style="&st18;" transform="matrix(&st16;  2334.86  346.54 )">38</text><text style="&st18;" transform="matrix(&st16;  2228.34  576.0 )">2</text><text style="&st18;" transform="matrix(&st17;  2341.91  548.02 )">P</text><text style="&st18;" transform="matrix(&st17;  2341.91  429.04 )">P</text><text style="&st18;" transform="matrix(&st17;  2307.92  548.02 )">V</text><text style="&st18;" transform="matrix(&st17;  2307.92  429.04 )">V</text><text style="&st18;" transform="matrix(&st17;  2265.42  531.03 )">Y</text><text style="&st18;" transform="matrix(&st17;  2231.43  533.5 )">BR</text><text style="&st18;" transform="matrix(&st16;  2296.8  492.42 )">8</text><text style="&st18;" transform="matrix(&st16;  2259.15  576.0 )">13</text><text style="&st18;" transform="matrix(&st17;  2341.91  318.21 )">L</text><text style="&st18;" transform="matrix(&st17;  2307.92  320.97 )">LG</text><text style="&st18;" transform="matrix(&st17;  2307.92  269.97 )">LG</text><text style="&st18;" transform="matrix(&st17;  2341.91  267.22 )">L</text><text style="&st18;" transform="matrix(&st16;  2335.64  247.94 )">21</text><text style="&st18;" transform="matrix(&st16;  2301.65  247.94 )">10</text><text style="&st18;" transform="matrix(&st16;  2304.82  576.0 )">3</text><text style="&st18;" transform="matrix(&st16;  2335.64  576.0 )">14</text><text style="&st18;" transform="matrix(&st16;  2336.35  380.52 )">CA2H</text><text style="&st18;" transform="matrix(&st16;  2302.85  380.52 )">CA2L</text><text style="&st18;" transform="matrix(&st16;  2043.35  32.08 )">BR</text><text style="&st18;" transform="matrix(&st16;  2045.83  57.58 )">Y</text><text style="&st18;" transform="matrix(&st16;  2094.35  32.08 )">BR</text><text style="&st18;" transform="matrix(&st16;  2096.82  57.58 )">Y</text><text style="&st18;" transform="matrix(&st16;  2113.77  509.7 )">5</text><text style="&st18;" transform="matrix(&st16;  2122.31  509.7 )">A</text><text style="&st18;" transform="matrix(&st16;  2161.58  509.7 )">13</text><text style="&st18;" transform="matrix(&st16;  2173.31  509.7 )">A</text><text style="&st18;" transform="matrix(&st16;  2221.07  509.7 )">12</text><text style="&st18;" transform="matrix(&st16;  2232.8  509.7 )">A</text><text style="&st18;" transform="matrix(&st16;  2255.84  509.7 )">11</text><text style="&st18;" transform="matrix(&st16;  2266.79  509.7 )">A</text><text style="&st18;" transform="matrix(&st16;  2117.86  655.87 )">2</text><text style="&st18;" transform="matrix(&st16;  2118.63  601.49 )">1</text><text ewd:textID="8" style="&st18;" transform="matrix(&st17;  2152.11  650.2 )">Ambient Temperature <tspan dy="6" x="0">Sensor</tspan></text><text style="&st18;" transform="matrix(&st17;  2145.0  650.2 )">A4</text><text style="&st18;" transform="matrix(&st16;  2496.98  212.25 )">1</text><text style="&st18;" transform="matrix(&st16;  2496.98  177.69 )">1</text><text style="&st18;" transform="matrix(&st16;  2492.25  271.18 )">34</text><text ewd:textID="35" style="&st18;" transform="matrix(&st17;  2115.28  386.75 )">Skid Control ECU <tspan dy="6" x="-0.01">with Actuator Assembly</tspan></text><text style="&st18;" transform="matrix(&st17;  2108.18  386.75 )">A58</text><text ewd:textID="22" style="&st18;" transform="matrix(&st17;  2387.24  310.26 )">Power Management <tspan dy="6" x="0">Control ECU</tspan></text><text style="&st18;" transform="matrix(&st17;  2374.47  310.26 )">A22(B), <tspan dy="6" x="0">L5(C),L6(D)</tspan></text><text style="&st18;" transform="matrix(&st16;  2497.83  281.37 )">CA2H</text></svg>