﻿<?xml version="1.0" encoding="utf-8"?>
<!DOCTYPE svg PUBLIC "-//W3C//DTD SVG 1.0//EN" "http://www.w3.org/TR/2001/REC-SVG-20010904/DTD/svg10.dtd"[
	<!ENTITY ns_flows "http://ns.adobe.com/Flows/1.0/">
	<!ENTITY ns_svg "http://www.w3.org/2000/svg">
	<!ENTITY ns_xlink "http://www.w3.org/1999/xlink">
	<!ENTITY st0 "font-size:7px;font-family:'MS-PGothic';adobe-font-script:japanese;">
	<!ENTITY st1 "font-size:6px;font-family:'ArialMT';">
	<!-- White fill  -->
	<!ENTITY st2 "fill:#FFFFFF;stroke:#000000; stroke-width:1.41;stroke-linecap:round;stroke-linejoin:round;">
	<!-- Yellow fill  -->
	<!ENTITY st3 "fill:#FFFFCC;stroke:#FFFFCC; stroke-width:0.1;stroke-linecap:round;stroke-linejoin:round;">
	<!-- Gray fill  -->
	<!ENTITY st4 "fill:#CCCCCC;stroke:#CCCCCC; stroke-width:0.1;stroke-linecap:round;stroke-linejoin:round;">
	<!-- Light-blue fill -->
	<!ENTITY st5 "fill:#CCECF4;stroke:#000000; stroke-width:1.133;stroke-linecap:round;stroke-linejoin:round;">
	<!ENTITY st6 "fill:none;stroke-linecap:butt; stroke-linejoin:round;">
	<!ENTITY st7 "fill:none;stroke:#000000;stroke-linecap:round;stroke-linejoin:round;">
	<!ENTITY st8 "enable-background:new    ;">
	<!-- Black fill -->
	<!ENTITY st9 "fill:#000000;stroke:#000000; stroke-linecap:round;stroke-linejoin:round;">
	<!-- SRS note   -->
	<!ENTITY st10 "font-size:9px;font-family:'ArialMT';">
	<!ENTITY st11 "font-size:9px;font-family:'Svg Symbol';">
	<!ENTITY st12 "font-size:6px;font-family:'Svg Symbol';">
	<!ENTITY st13 "fill:none;stroke:#ff0000;stroke-linecap:round;stroke-linejoin:round;">
	<!-- Yellow fill  -->
	<!ENTITY st14 "fill:#FFFF00;stroke:#FFFF00; stroke-width:0.1;stroke-linecap:round;stroke-linejoin:round;">
	<!ENTITY st15 "font-size:6px;font-family:'MS-PGothic';adobe-font-script:japanese;">
	<!ENTITY st16 "1.00 0.00 0.00 1.00">
	<!ENTITY st17 "0.00 -1.00 1.00 0.00">
	<!ENTITY st18 "font-size:6px;font-family:'Arial';">
	<!ENTITY st19 "font-size:9px;font-family:'Arial';">
	<!ENTITY st20 "font-size:6px;font-family:'MS-PGothic','MS PGothic';adobe-font-script:japanese;">
	<!ENTITY st21 "font-size:7px;font-family:'MS-PGothic','MS PGothic';adobe-font-script:japanese;">
	<!ATTLIST svg
		xmlns:ewd CDATA #FIXED "http://shcl.co.jp/ewd"
		xmlns:a CDATA #FIXED "http://ns.adobe.com/AdobeSVGViewerExtensions/3.0/"
		ewd:ver CDATA #IMPLIED
	>
	<!ATTLIST a
		ewd:lineID CDATA #IMPLIED
		ewd:groupID CDATA #IMPLIED
		ewd:figtype CDATA #IMPLIED
		ewd:code CDATA #IMPLIED
		ewd:figID CDATA #IMPLIED
		ewd:pinNo CDATA #IMPLIED
		ewd:comment CDATA #IMPLIED >
	<!ATTLIST g
		ewd:lineID CDATA #IMPLIED
		ewd:groupID CDATA #IMPLIED
		ewd:figtype CDATA #IMPLIED
		ewd:code CDATA #IMPLIED
		ewd:figID CDATA #IMPLIED
		ewd:pinNo CDATA #IMPLIED
		ewd:comment CDATA #IMPLIED >
	<!ATTLIST text
		ewd:textID CDATA #IMPLIED >
	<!ATTLIST title
		ewd:textID CDATA #IMPLIED >
]>
<!-- Generator: Shintec Hozumi YS   -->
<svg onload="call_execInitLoadProc_svg('system')" style="overflow:visible;  enable-background:new 0 0 4137.392 710.000" viewBox="0 0 4137.392 710.000" height="710.000" width="4137.392" xml:space="preserve" ewd:ver="L2.1.2.6" xmlns="&ns_svg;" xmlns:a="http://ns.adobe.com/AdobeSVGViewerExtensions/3.0/" xmlns:ewd="http://shcl.co.jp/ewd" xmlns:xlink="&ns_xlink;">
<path d=" M 4041.07,  443.71  L 4049.57,  443.71 " style="stroke-width: 0.85 ;&st7; " /><path d=" M 4015.58,  443.71  L 4024.08,  443.71 " style="stroke-width: 0.85 ;&st7; " /><path d=" M 4121.81,  697.25  L 4121.81,  701.50 " style="stroke-width: 0.85 ;&st7; " /><path d=" M 4113.31,  701.50  L 4130.31,  701.50 " style="stroke-width: 0.85 ;&st7; " /><path d=" M 4117.56,  704.33  L 4126.06,  704.33 " style="stroke-width: 0.85 ;&st7; " /><path d=" M 4118.98,  707.17  L 4124.64,  707.17 " style="stroke-width: 0.85 ;&st7; " /><path d=" M 4120.39,  710.00  L 4123.23,  710.00 " style="stroke-width: 0.85 ;&st7; " /><path d=" M 4019.83,  503.20  L 4019.83,  409.72  L 4016.99,  408.30  L 4022.66,  405.47  L 4016.99,  402.63  L 4022.66,  399.80  L 4016.99,  396.97  L 4022.66,  394.14  L 4019.83,  392.72  L 4019.83,  384.22 " style="stroke-width: 0.85 ;&st7; " /><path d=" M 4019.83,  443.71  L 4025.49,  452.21  L 4014.16,  452.21  L 4019.83,  443.71 " style="stroke-width: 0.28 ;&st9;" /><path d=" M 4045.32,  443.71  L 4050.99,  452.21  L 4039.66,  452.21  L 4045.32,  443.71 " style="stroke-width: 0.28 ;&st9;" /><path d=" M 4002.83,  503.20  L 4019.83,  503.20 " style="stroke-width: 0.85 ;&st7; " /><path d=" M 4018.63,  468.20  L 4018.36,  468.67  L 4018.27,  469.21  L 4018.36,  469.74  L 4018.63,  470.21  L 4019.05,  470.56  L 4019.56,  470.74  L 4020.10,  470.74  L 4020.61,  470.56  L 4021.02,  470.21  L 4021.29,  469.74  L 4021.38,  469.21  L 4021.29,  468.67  L 4021.02,  468.20  L 4020.61,  467.86  L 4020.10,  467.67  L 4019.56,  467.67  L 4019.05,  467.86  L 4018.63,  468.20  L 4019.03,  468.92  L 4019.03,  469.50  L 4019.40,  469.94  L 4019.97,  470.04  L 4020.48,  469.75  L 4020.68,  469.21  L 4020.48,  468.66  L 4019.97,  468.37  L 4019.40,  468.47  L 4019.83,  469.21 " style="stroke-width: 0.85 ;&st7; " /><path d=" M 4018.63,  425.71  L 4018.36,  426.18  L 4018.27,  426.71  L 4018.36,  427.25  L 4018.63,  427.72  L 4019.05,  428.06  L 4019.56,  428.25  L 4020.10,  428.25  L 4020.61,  428.06  L 4021.02,  427.72  L 4021.29,  427.25  L 4021.38,  426.71  L 4021.29,  426.18  L 4021.02,  425.71  L 4020.61,  425.37  L 4020.10,  425.18  L 4019.56,  425.18  L 4019.05,  425.37  L 4018.63,  425.71  L 4019.03,  426.42  L 4019.03,  427.01  L 4019.40,  427.45  L 4019.97,  427.55  L 4020.48,  427.26  L 4020.68,  426.71  L 4020.48,  426.17  L 4019.97,  425.88  L 4019.40,  425.98  L 4019.83,  426.71 " style="stroke-width: 0.85 ;&st7; " /><path d=" M 4019.83,  375.72  L 4019.83,  384.22 " style="stroke-width: 0.85 ;&st7; " /><text style="&st18;" transform="matrix(&st17;  4092.62  471.68 )">R</text><text style="&st18;" transform="matrix(&st17;  4103.95  475.39 )">(*2)</text><text style="&st18;" transform="matrix(&st17;  4118.12  476.91 )">W-B</text><text style="&st18;" transform="matrix(&st17;  4129.45  475.39 )">(*2)</text><text style="&st18;" transform="matrix(&st16;  4013.04  372.03 )">3</text><text style="&st18;" transform="matrix(&st16;  4022.66  383.92 )">GND</text></svg>