﻿<?xml version="1.0" encoding="utf-8"?>
<!DOCTYPE svg PUBLIC "-//W3C//DTD SVG 1.0//EN" "http://www.w3.org/TR/2001/REC-SVG-20010904/DTD/svg10.dtd"[
	<!ENTITY ns_flows "http://ns.adobe.com/Flows/1.0/">
	<!ENTITY ns_svg "http://www.w3.org/2000/svg">
	<!ENTITY ns_xlink "http://www.w3.org/1999/xlink">
	<!ENTITY st0 "font-size:7px;font-family:'MS-PGothic';adobe-font-script:japanese;">
	<!ENTITY st1 "font-size:6px;font-family:'ArialMT';">
	<!-- White fill  -->
	<!ENTITY st2 "fill:#FFFFFF;stroke:#000000; stroke-width:1.41;stroke-linecap:round;stroke-linejoin:round;">
	<!-- Yellow fill  -->
	<!ENTITY st3 "fill:#FFFFCC;stroke:#FFFFCC; stroke-width:0.1;stroke-linecap:round;stroke-linejoin:round;">
	<!-- Gray fill  -->
	<!ENTITY st4 "fill:#CCCCCC;stroke:#CCCCCC; stroke-width:0.1;stroke-linecap:round;stroke-linejoin:round;">
	<!-- Light-blue fill -->
	<!ENTITY st5 "fill:#CCECF4;stroke:#000000; stroke-width:1.133;stroke-linecap:round;stroke-linejoin:round;">
	<!ENTITY st6 "fill:none;stroke-linecap:butt; stroke-linejoin:round;">
	<!ENTITY st7 "fill:none;stroke:#000000;stroke-linecap:round;stroke-linejoin:round;">
	<!ENTITY st8 "enable-background:new    ;">
	<!-- Black fill -->
	<!ENTITY st9 "fill:#000000;stroke:#000000; stroke-linecap:round;stroke-linejoin:round;">
	<!-- SRS note   -->
	<!ENTITY st10 "font-size:9px;font-family:'ArialMT';">
	<!ENTITY st11 "font-size:9px;font-family:'Svg Symbol';">
	<!ENTITY st12 "font-size:6px;font-family:'Svg Symbol';">
	<!ENTITY st13 "fill:none;stroke:#ff0000;stroke-linecap:round;stroke-linejoin:round;">
	<!-- Yellow fill  -->
	<!ENTITY st14 "fill:#FFFF00;stroke:#FFFF00; stroke-width:0.1;stroke-linecap:round;stroke-linejoin:round;">
	<!ENTITY st15 "font-size:6px;font-family:'MS-PGothic';adobe-font-script:japanese;">
	<!ENTITY st16 "1.00 0.00 0.00 1.00">
	<!ENTITY st17 "0.00 -1.00 1.00 0.00">
	<!ENTITY st18 "font-size:6px;font-family:'Arial';">
	<!ENTITY st19 "font-size:9px;font-family:'Arial';">
	<!ENTITY st20 "font-size:6px;font-family:'MS-PGothic','MS PGothic';adobe-font-script:japanese;">
	<!ENTITY st21 "font-size:7px;font-family:'MS-PGothic','MS PGothic';adobe-font-script:japanese;">
	<!ATTLIST svg
		xmlns:ewd CDATA #FIXED "http://shcl.co.jp/ewd"
		xmlns:a CDATA #FIXED "http://ns.adobe.com/AdobeSVGViewerExtensions/3.0/"
		ewd:ver CDATA #IMPLIED
	>
	<!ATTLIST a
		ewd:lineID CDATA #IMPLIED
		ewd:groupID CDATA #IMPLIED
		ewd:figtype CDATA #IMPLIED
		ewd:code CDATA #IMPLIED
		ewd:figID CDATA #IMPLIED
		ewd:pinNo CDATA #IMPLIED
		ewd:comment CDATA #IMPLIED >
	<!ATTLIST g
		ewd:lineID CDATA #IMPLIED
		ewd:groupID CDATA #IMPLIED
		ewd:figtype CDATA #IMPLIED
		ewd:code CDATA #IMPLIED
		ewd:figID CDATA #IMPLIED
		ewd:pinNo CDATA #IMPLIED
		ewd:comment CDATA #IMPLIED >
	<!ATTLIST text
		ewd:textID CDATA #IMPLIED >
	<!ATTLIST title
		ewd:textID CDATA #IMPLIED >
]>
<!-- Generator: Shintec Hozumi YS   -->
<svg onload="call_execInitLoadProc_svg('system')" style="overflow:visible;  enable-background:new 0 0 2065.682 710.000" viewBox="0 0 2065.682 710.000" height="710.000" width="2065.682" xml:space="preserve" ewd:ver="L2.1.2.6" xmlns="&ns_svg;" xmlns:a="http://ns.adobe.com/AdobeSVGViewerExtensions/3.0/" xmlns:ewd="http://shcl.co.jp/ewd" xmlns:xlink="&ns_xlink;">
<path d=" M 1257.79,  469.21  L 1266.29,  469.21 " style="stroke-width: 1.42 ;&st7; " /><path d=" M 1223.80,  469.21  L 1232.29,  469.21 " style="stroke-width: 1.42 ;&st7; " /><path d=" M 1232.29,  613.68  L 1227.23,  602.32 " style="stroke-width: 1.42 ;&st7; " /><path d=" M 1232.29,  613.68  L 1237.35,  602.32 " style="stroke-width: 1.42 ;&st7; " /><path d=" M 1300.28,  613.68  L 1295.22,  602.32 " style="stroke-width: 1.42 ;&st7; " /><path d=" M 1300.28,  613.68  L 1305.34,  602.32 " style="stroke-width: 1.42 ;&st7; " /><path d=" M 1368.27,  613.68  L 1363.21,  602.32 " style="stroke-width: 1.42 ;&st7; " /><path d=" M 1368.27,  613.68  L 1373.33,  602.32 " style="stroke-width: 1.42 ;&st7; " /><path d=" M 1436.26,  613.68  L 1431.20,  602.32 " style="stroke-width: 1.42 ;&st7; " /><path d=" M 1436.26,  613.68  L 1441.32,  602.32 " style="stroke-width: 1.42 ;&st7; " /><path d=" M 1266.29,  596.69  L 1271.35,  608.05 " style="stroke-width: 1.42 ;&st7; " /><path d=" M 1266.29,  596.69  L 1261.23,  608.05 " style="stroke-width: 1.42 ;&st7; " /><path d=" M 1334.28,  596.69  L 1339.34,  608.05 " style="stroke-width: 1.42 ;&st7; " /><path d=" M 1334.28,  596.69  L 1329.22,  608.05 " style="stroke-width: 1.42 ;&st7; " /><path d=" M 1402.27,  596.69  L 1407.33,  608.05 " style="stroke-width: 1.42 ;&st7; " /><path d=" M 1402.27,  596.69  L 1397.21,  608.05 " style="stroke-width: 1.42 ;&st7; " /><path d=" M 1470.25,  596.69  L 1475.31,  608.05 " style="stroke-width: 1.42 ;&st7; " /><path d=" M 1470.25,  596.69  L 1465.19,  608.05 " style="stroke-width: 1.42 ;&st7; " /><path d=" M 1197.11,  340.73  L 1196.83,  341.20  L 1196.74,  341.73  L 1196.83,  342.26  L 1197.11,  342.73  L 1197.52,  343.08  L 1198.03,  343.26  L 1198.57,  343.26  L 1199.08,  343.08  L 1199.49,  342.73  L 1199.76,  342.26  L 1199.86,  341.73  L 1199.76,  341.20  L 1199.49,  340.73  L 1199.08,  340.38  L 1198.57,  340.19  L 1198.03,  340.19  L 1197.52,  340.38  L 1197.11,  340.73  L 1197.50,  341.44  L 1197.50,  342.02  L 1197.87,  342.46  L 1198.45,  342.56  L 1198.95,  342.28  L 1199.15,  341.73  L 1198.95,  341.18  L 1198.45,  340.89  L 1197.87,  340.99  L 1198.30,  341.73 " style="stroke-width: 0.85 ;&st7; " /><path d=" M 1163.11,  323.73  L 1162.84,  324.20  L 1162.75,  324.73  L 1162.84,  325.26  L 1163.11,  325.73  L 1163.53,  326.08  L 1164.03,  326.27  L 1164.58,  326.27  L 1165.08,  326.08  L 1165.50,  325.73  L 1165.77,  325.26  L 1165.86,  324.73  L 1165.77,  324.20  L 1165.50,  323.73  L 1165.08,  323.38  L 1164.58,  323.20  L 1164.03,  323.20  L 1163.53,  323.38  L 1163.11,  323.73  L 1163.51,  324.44  L 1163.51,  325.02  L 1163.88,  325.47  L 1164.45,  325.57  L 1164.96,  325.28  L 1165.15,  324.73  L 1164.96,  324.18  L 1164.45,  323.90  L 1163.88,  323.99  L 1164.30,  324.73 " style="stroke-width: 0.85 ;&st7; " /><path d=" M 1198.30,  316.23  L 1198.30,  341.73 " style="stroke-width: 0.85 ;&st7; " /><path d=" M 1164.30,  316.23  L 1164.30,  324.73 " style="stroke-width: 0.85 ;&st7; " /><path d=" M 1087.82,  316.23  L 1087.82,  350.23  L 1274.79,  350.23  L 1274.79,  316.23  L 1087.82,  316.23 " style="stroke-width: 1.42 ;&st7; " /><path d=" M 1096.32,  316.23  L 1096.32,  324.73  L 1232.29,  324.73 " style="stroke-width: 0.85 ;&st7; " /><path d=" M 1138.81,  341.73  L 1266.29,  341.73  L 1266.29,  350.23 " style="stroke-width: 0.85 ;&st7; " /><path d=" M 1232.29,  316.23  L 1232.29,  350.23 " style="stroke-width: 0.85 ;&st7; " /><path d=" M 1266.29,  316.23  L 1266.29,  341.73 " style="stroke-width: 0.85 ;&st7; " /><path d=" M 1265.10,  340.73  L 1264.82,  341.20  L 1264.73,  341.73  L 1264.82,  342.26  L 1265.10,  342.73  L 1265.51,  343.08  L 1266.02,  343.26  L 1266.56,  343.26  L 1267.07,  343.08  L 1267.48,  342.73  L 1267.75,  342.26  L 1267.85,  341.73  L 1267.75,  341.20  L 1267.48,  340.73  L 1267.07,  340.38  L 1266.56,  340.19  L 1266.02,  340.19  L 1265.51,  340.38  L 1265.10,  340.73  L 1265.49,  341.44  L 1265.49,  342.02  L 1265.86,  342.46  L 1266.44,  342.56  L 1266.94,  342.28  L 1267.14,  341.73  L 1266.94,  341.18  L 1266.44,  340.89  L 1265.86,  340.99  L 1266.29,  341.73 " style="stroke-width: 0.85 ;&st7; " /><path d=" M 1231.10,  323.73  L 1230.83,  324.20  L 1230.74,  324.73  L 1230.83,  325.26  L 1231.10,  325.73  L 1231.51,  326.08  L 1232.02,  326.27  L 1232.57,  326.27  L 1233.07,  326.08  L 1233.49,  325.73  L 1233.76,  325.26  L 1233.85,  324.73  L 1233.76,  324.20  L 1233.49,  323.73  L 1233.07,  323.38  L 1232.57,  323.20  L 1232.02,  323.20  L 1231.51,  323.38  L 1231.10,  323.73  L 1231.49,  324.44  L 1231.49,  325.02  L 1231.87,  325.47  L 1232.44,  325.57  L 1232.95,  325.28  L 1233.14,  324.73  L 1232.95,  324.18  L 1232.44,  323.90  L 1231.87,  323.99  L 1232.29,  324.73 " style="stroke-width: 0.85 ;&st7; " /><path d=" M 1138.81,  316.23  L 1138.81,  341.73 " style="stroke-width: 0.85 ;&st7; " /><path d=" M 1385.27,  435.21  L 1385.27,  469.21  L 1487.25,  469.21  L 1487.25,  435.21  L 1385.27,  435.21 " style="stroke-width: 1.42 ;&st7; " /><path d=" M 1164.30,  324.73  L 1164.30,  350.23 " style="stroke-width: 0.85 ;&st7; " /><path d=" M 1198.30,  341.73  L 1198.30,  350.23 " style="stroke-width: 0.85 ;&st7; " /><path d=" M 1393.77,  435.21  L 1393.77,  443.71  L 1453.26,  443.71  L 1453.26,  435.21 " style="stroke-width: 0.85 ;&st7; " /><path d=" M 1427.76,  435.21  L 1427.76,  460.71  L 1478.75,  460.71  L 1478.75,  435.21 " style="stroke-width: 0.85 ;&st7; " /><path d=" M 1270.54,  463.54  L 1266.29,  467.79  L 1262.04,  463.54 " style="stroke-width: 1.42 ;&st7; " /><path d=" M 1262.04,  460.14  L 1266.29,  464.39  L 1270.54,  460.14 " style="stroke-width: 1.42 ;&st7; " /><path d=" M 1236.54,  463.54  L 1232.29,  467.79  L 1228.04,  463.54 " style="stroke-width: 1.42 ;&st7; " /><path d=" M 1228.04,  460.14  L 1232.29,  464.39  L 1236.54,  460.14 " style="stroke-width: 1.42 ;&st7; " /><path d=" M 1215.30,  528.70  L 1487.25,  528.70  L 1487.25,  562.69  L 1215.30,  562.69  L 1215.30,  528.70 " style="stroke-width: 1.42 ;&st7; " /><path d=" M 1338.53,  617.93  L 1334.28,  622.18  L 1285.41,  622.18  L 1283.29,  626.43  L 1281.16,  622.18  L 1232.29,  622.18  L 1228.04,  617.93 " style="stroke-width: 0.85 ;&st7; " /><path d=" M 1474.50,  617.93  L 1470.25,  622.18  L 1421.39,  622.18  L 1419.26,  626.43  L 1417.14,  622.18  L 1368.27,  622.18  L 1364.02,  617.93 " style="stroke-width: 0.85 ;&st7; " /><path d=" M 1100.85,   91.30  C 1100.85    88.80  1098.82    86.77  1096.32    86.77 " style="stroke-width: 1.42 ;&st7; " /><path d=" M 1096.32,   86.77  C 1093.81    86.77  1091.78    88.80  1091.78    91.30 " style="stroke-width: 1.42 ;&st7; " /><path d=" M 1091.78,   91.30  C 1091.78    93.81  1093.81    95.84  1096.32    95.84 " style="stroke-width: 1.42 ;&st7; " /><path d=" M 1096.32,   95.84  C 1098.82    95.84  1100.85    93.81  1100.85    91.30 " style="stroke-width: 1.42 ;&st7; " /><path d=" M 1143.34,   91.30  C 1143.34    88.80  1141.31    86.77  1138.81    86.77 " style="stroke-width: 1.42 ;&st7; " /><path d=" M 1138.81,   86.77  C 1136.31    86.77  1134.28    88.80  1134.28    91.30 " style="stroke-width: 1.42 ;&st7; " /><path d=" M 1134.28,   91.30  C 1134.28    93.81  1136.31    95.84  1138.81    95.84 " style="stroke-width: 1.42 ;&st7; " /><path d=" M 1138.81,   95.84  C 1141.31    95.84  1143.34    93.81  1143.34    91.30 " style="stroke-width: 1.42 ;&st7; " /><text ewd:textID="14" style="&st18;" transform="matrix(&st17;  1000.27  480.51 )">Passenger Seat Belt <tspan dy="6" x="0">Warning Light Assembly</tspan></text><text ewd:textID="13" style="&st18;" transform="matrix(&st16;  1119.29  32.08 )">Main Body ECU</text><text style="&st18;" transform="matrix(&st16;  1119.29  24.98 )">L7(A),L8(B)</text><text style="&st18;" transform="matrix(&st16;  1257.92  536.33 )">CA1L</text><text style="&st18;" transform="matrix(&st16;  1223.43  536.33 )">CA1H</text><text style="&st18;" transform="matrix(&st16;  1255.54  525.01 )">38</text><text style="&st18;" transform="matrix(&st16;  1221.55  525.01 )">37</text><text style="&st18;" transform="matrix(&st16;  1420.97  431.52 )">3</text><text style="&st18;" transform="matrix(&st16;  1383.8  431.52 )">14</text><text style="&st18;" transform="matrix(&st17;  1262.59  505.18 )">L</text><text style="&st18;" transform="matrix(&st17;  1228.6  507.93 )">LG</text><text style="&st18;" transform="matrix(&st17;  1262.59  403.2 )">L</text><text style="&st18;" transform="matrix(&st17;  1228.6  405.95 )">LG</text><text style="&st18;" transform="matrix(&st16;  1089.53  312.54 )">2</text><text style="&st18;" transform="matrix(&st16;  1128.84  312.54 )">13</text><text style="&st18;" transform="matrix(&st16;  1256.32  312.54 )">18</text><text style="&st18;" transform="matrix(&st16;  1225.51  312.54 )">7</text><text style="&st18;" transform="matrix(&st16;  1256.32  358.42 )">21</text><text style="&st18;" transform="matrix(&st16;  1222.33  358.42 )">10</text><text style="&st18;" transform="matrix(&st16;  1188.33  358.42 )">12</text><text style="&st18;" transform="matrix(&st16;  1158.29  358.42 )">1</text><text style="&st18;" transform="matrix(&st16;  1188.33  312.54 )">14</text><text style="&st18;" transform="matrix(&st16;  1157.52  312.54 )">3</text><text style="&st18;" transform="matrix(&st17;  1160.61  287.8 )">BR(LHD)</text><text style="&st18;" transform="matrix(&st17;  1194.61  286.35 )">W(LHD)</text><text style="&st18;" transform="matrix(&st17;  1135.12  286.84 )">W(RHD)</text><text style="&st18;" transform="matrix(&st17;  1092.62  288.29 )">BR(RHD)</text><text style="&st18;" transform="matrix(&st16;  1471.96  431.52 )">6</text><text ewd:textID="12" style="&st18;" transform="matrix(&st16;  1450.73  483.92 )">Junction <tspan dy="6" x="0">Connector</tspan></text><text style="&st18;" transform="matrix(&st16;  1450.73  476.82 )">L95</text><text style="&st18;" transform="matrix(&st16;  1443.29  431.52 )">17</text><text style="&st18;" transform="matrix(&st16;  1276.2  483.92 )">(RHD)</text><text style="&st18;" transform="matrix(&st16;  1276.2  475.43 )">(LHD)</text><text style="&st18;" transform="matrix(&st16;  1249.07  483.92 )">11</text><text style="&st18;" transform="matrix(&st16;  1251.47  475.43 )">2</text><text style="&st18;" transform="matrix(&st17;  1449.56  286.84 )">W(RHD)</text><text style="&st18;" transform="matrix(&st16;  1214.3  483.92 )">10</text><text style="&st18;" transform="matrix(&st16;  1217.48  475.43 )">3</text><text style="&st18;" transform="matrix(&st17;  1177.61  285.82 )">V(RHD)</text><text style="&st18;" transform="matrix(&st17;  1211.6  286.84 )">W(RHD)</text><text style="&st18;" transform="matrix(&st17;  1239.93  410.47 )">(LHD)</text><text style="&st18;" transform="matrix(&st17;  1273.93  410.47 )">(LHD)</text><text ewd:textID="12" style="&st18;" transform="matrix(&st16;  1093.79  364.94 )">Junction <tspan dy="6" x="0">Connector</tspan></text><text style="&st18;" transform="matrix(&st16;  1093.79  357.84 )">L94</text><text style="&st18;" transform="matrix(&st16;  1086.57  83.07 )">CANH</text><text style="&st18;" transform="matrix(&st16;  1129.56  83.07 )">CANL</text><text style="&st18;" transform="matrix(&st16;  1331.75  511.94 )">A58</text><text ewd:textID="18" style="&st18;" transform="matrix(&st16;  1331.75  519.05 )">Skid Control ECU <tspan dy="6" x="0">with Actuator Assembly</tspan></text><text style="&st18;" transform="matrix(&st16;  1463.65  558.99 )">FR-</text><text style="&st18;" transform="matrix(&st16;  1429.65  558.99 )">FR+</text><text style="&st18;" transform="matrix(&st16;  1396.15  558.99 )">FL-</text><text style="&st18;" transform="matrix(&st16;  1362.16  558.99 )">FL+</text><text style="&st18;" transform="matrix(&st16;  1463.47  570.88 )">5</text><text style="&st18;" transform="matrix(&st16;  1426.29  570.88 )">18</text><text style="&st18;" transform="matrix(&st16;  1391.52  570.88 )">32</text><text style="&st18;" transform="matrix(&st16;  1358.3  570.88 )">31</text><text style="&st18;" transform="matrix(&st17;  1466.56  590.16 )">L</text><text style="&st18;" transform="matrix(&st17;  1432.56  590.52 )">P</text><text style="&st18;" transform="matrix(&st17;  1398.57  590.94 )">G</text><text style="&st18;" transform="matrix(&st17;  1364.58  590.66 )">R</text><text style="&st18;" transform="matrix(&st16;  1327.81  558.99 )">RL-</text><text style="&st18;" transform="matrix(&st16;  1293.82  558.99 )">RL+</text><text style="&st18;" transform="matrix(&st16;  1259.33  558.99 )">RR-</text><text style="&st18;" transform="matrix(&st16;  1225.34  558.99 )">RR+</text><text style="&st18;" transform="matrix(&st16;  1327.49  570.88 )">7</text><text style="&st18;" transform="matrix(&st16;  1289.54  570.88 )">20</text><text style="&st18;" transform="matrix(&st16;  1259.5  570.88 )">9</text><text style="&st18;" transform="matrix(&st16;  1221.55  570.88 )">22</text><text style="&st18;" transform="matrix(&st17;  1330.58  590.52 )">B</text><text style="&st18;" transform="matrix(&st17;  1296.59  591.54 )">W</text><text style="&st18;" transform="matrix(&st17;  1262.59  590.52 )">B</text><text style="&st18;" transform="matrix(&st17;  1228.6  591.54 )">W</text><text ewd:textID="17" style="&st18;" transform="matrix(&st16;  1264.25  634.07 )">Rear Speed <tspan dy="6" x="0">Sensors</tspan></text><text ewd:textID="11" style="&st18;" transform="matrix(&st16;  1399.59  634.07 )">Front Speed <tspan dy="6" x="0">Sensors</tspan></text><text style="&st18;" transform="matrix(&st17;  1228.6  285.32 )">V(LHD)</text><text style="&st18;" transform="matrix(&st17;  1262.59  286.35 )">W(LHD)</text><text style="&st18;" transform="matrix(&st16;  1339.69  236.05 )">V(LHD)</text><text style="&st18;" transform="matrix(&st16;  1338.66  253.05 )">W(LHD)</text><text style="&st18;" transform="matrix(&st16;  1339.19  193.56 )">V(RHD)</text><text style="&st18;" transform="matrix(&st16;  1338.17  210.55 )">W(RHD)</text><text style="&st18;" transform="matrix(&st17;  1475.06  285.82 )">V(RHD)</text><text style="&st18;" transform="matrix(&st17;  1160.61  403.55 )">P</text><text style="&st18;" transform="matrix(&st17;  1194.6  404.57 )">W</text><text style="&st18;" transform="matrix(&st16;  1009.0  635.48 )">P</text><text style="&st18;" transform="matrix(&st16;  1007.98  652.48 )">W</text><text style="&st18;" transform="matrix(&st16;  1059.99  635.48 )">P</text><text style="&st18;" transform="matrix(&st16;  1058.97  652.48 )">W</text><text style="&st18;" transform="matrix(&st16;  1082.26  93.27 )">14</text><text style="&st18;" transform="matrix(&st16;  1093.99  93.27 )">A</text><text style="&st18;" transform="matrix(&st16;  1124.75  93.27 )">13</text><text style="&st18;" transform="matrix(&st16;  1136.48  93.27 )">A</text><text style="&st18;" transform="matrix(&st16;  1331.05  406.02 )">L(RHD)</text><text style="&st18;" transform="matrix(&st16;  1328.29  380.52 )">LG(RHD)</text><text style="&st18;" transform="matrix(&st17;  1001.97  220.43 )">(*5)</text><text style="&st18;" transform="matrix(&st17;  1001.97  271.42 )">(*5)</text><text ewd:textID="12" style="&st18;" transform="matrix(&st17;  1017.55  250.77 )">Junction Connector</text><text style="&st18;" transform="matrix(&st17;  1010.44  250.77 )">L87</text></svg>