﻿<?xml version="1.0" encoding="utf-8"?>
<!DOCTYPE svg PUBLIC "-//W3C//DTD SVG 1.0//EN" "http://www.w3.org/TR/2001/REC-SVG-20010904/DTD/svg10.dtd"[
	<!ENTITY ns_flows "http://ns.adobe.com/Flows/1.0/">
	<!ENTITY ns_svg "http://www.w3.org/2000/svg">
	<!ENTITY ns_xlink "http://www.w3.org/1999/xlink">
	<!ENTITY st0 "font-size:7px;font-family:'MS-PGothic';adobe-font-script:japanese;">
	<!ENTITY st1 "font-size:6px;font-family:'ArialMT';">
	<!-- White fill  -->
	<!ENTITY st2 "fill:#FFFFFF;stroke:#000000; stroke-width:1.41;stroke-linecap:round;stroke-linejoin:round;">
	<!-- Yellow fill  -->
	<!ENTITY st3 "fill:#FFFFCC;stroke:#FFFFCC; stroke-width:0.1;stroke-linecap:round;stroke-linejoin:round;">
	<!-- Gray fill  -->
	<!ENTITY st4 "fill:#CCCCCC;stroke:#CCCCCC; stroke-width:0.1;stroke-linecap:round;stroke-linejoin:round;">
	<!-- Light-blue fill -->
	<!ENTITY st5 "fill:#CCECF4;stroke:#000000; stroke-width:1.133;stroke-linecap:round;stroke-linejoin:round;">
	<!ENTITY st6 "fill:none;stroke-linecap:butt; stroke-linejoin:round;">
	<!ENTITY st7 "fill:none;stroke:#000000;stroke-linecap:round;stroke-linejoin:round;">
	<!ENTITY st8 "enable-background:new    ;">
	<!-- Black fill -->
	<!ENTITY st9 "fill:#000000;stroke:#000000; stroke-linecap:round;stroke-linejoin:round;">
	<!-- SRS note   -->
	<!ENTITY st10 "font-size:9px;font-family:'ArialMT';">
	<!ENTITY st11 "font-size:9px;font-family:'Svg Symbol';">
	<!ENTITY st12 "font-size:6px;font-family:'Svg Symbol';">
	<!ENTITY st13 "fill:none;stroke:#ff0000;stroke-linecap:round;stroke-linejoin:round;">
	<!-- Yellow fill  -->
	<!ENTITY st14 "fill:#FFFF00;stroke:#FFFF00; stroke-width:0.1;stroke-linecap:round;stroke-linejoin:round;">
	<!ENTITY st15 "font-size:6px;font-family:'MS-PGothic';adobe-font-script:japanese;">
	<!ENTITY st16 "1.00 0.00 0.00 1.00">
	<!ENTITY st17 "0.00 -1.00 1.00 0.00">
	<!ENTITY st18 "font-size:6px;font-family:'Arial';">
	<!ENTITY st19 "font-size:9px;font-family:'Arial';">
	<!ENTITY st20 "font-size:6px;font-family:'MS-PGothic','MS PGothic';adobe-font-script:japanese;">
	<!ENTITY st21 "font-size:7px;font-family:'MS-PGothic','MS PGothic';adobe-font-script:japanese;">
	<!ATTLIST svg
		xmlns:ewd CDATA #FIXED "http://shcl.co.jp/ewd"
		xmlns:a CDATA #FIXED "http://ns.adobe.com/AdobeSVGViewerExtensions/3.0/"
		ewd:ver CDATA #IMPLIED
	>
	<!ATTLIST a
		ewd:lineID CDATA #IMPLIED
		ewd:groupID CDATA #IMPLIED
		ewd:figtype CDATA #IMPLIED
		ewd:code CDATA #IMPLIED
		ewd:figID CDATA #IMPLIED
		ewd:pinNo CDATA #IMPLIED
		ewd:comment CDATA #IMPLIED >
	<!ATTLIST g
		ewd:lineID CDATA #IMPLIED
		ewd:groupID CDATA #IMPLIED
		ewd:figtype CDATA #IMPLIED
		ewd:code CDATA #IMPLIED
		ewd:figID CDATA #IMPLIED
		ewd:pinNo CDATA #IMPLIED
		ewd:comment CDATA #IMPLIED >
	<!ATTLIST text
		ewd:textID CDATA #IMPLIED >
	<!ATTLIST title
		ewd:textID CDATA #IMPLIED >
]>
<!-- Generator: Shintec Hozumi YS   -->
<svg onload="call_execInitLoadProc_svg('system')" style="overflow:visible;  enable-background:new 0 0 1514.983 710.000" viewBox="0 0 1514.983 710.000" height="710.000" width="1514.983" xml:space="preserve" ewd:ver="L2.1.2.6" xmlns="&ns_svg;" xmlns:a="http://ns.adobe.com/AdobeSVGViewerExtensions/3.0/" xmlns:ewd="http://shcl.co.jp/ewd" xmlns:xlink="&ns_xlink;">
<path d=" M  402.27,  227.00  L  402.27,  218.50 " style="stroke-width: 1.42 ;&st7; " /><path d=" M  398.30,  227.00  L  402.27,  227.00 " style="stroke-width: 1.42 ;&st7; " /><path d=" M  402.27,  218.50  L  398.30,  218.50 " style="stroke-width: 1.42 ;&st7; " /><path d=" M  379.60,  227.00  L  379.60,  218.50 " style="stroke-width: 1.42 ;&st7; " /><path d=" M  383.57,  227.00  L  379.60,  227.00 " style="stroke-width: 1.42 ;&st7; " /><path d=" M  379.60,  218.50  L  383.57,  218.50 " style="stroke-width: 1.42 ;&st7; " /><path d=" M   58.07,  197.25  L   80.74,  191.59 " style="stroke-width: 1.42 ;&st7; " /><path d=" M   58.07,  171.76  L   80.74,  166.09 " style="stroke-width: 1.42 ;&st7; " /><path d=" M  475.92,  197.25  L  467.42,  197.25 " style="stroke-width: 1.42 ;&st7; " /><path d=" M   50.99,  290.74  L   42.49,  290.74 " style="stroke-width: 1.42 ;&st7; " /><path d=" M  101.98,  290.74  L   93.48,  290.74 " style="stroke-width: 1.42 ;&st7; " /><path d=" M  135.98,  290.74  L  127.48,  290.74 " style="stroke-width: 1.42 ;&st7; " /><path d=" M  458.92,  392.72  L  467.42,  392.72 " style="stroke-width: 1.42 ;&st7; " /><path d=" M  407.93,  392.72  L  416.43,  392.72 " style="stroke-width: 1.42 ;&st7; " /><path d=" M  356.94,  392.72  L  365.44,  392.72 " style="stroke-width: 1.42 ;&st7; " /><path d=" M  305.95,  392.72  L  314.45,  392.72 " style="stroke-width: 1.42 ;&st7; " /><path d=" M  322.95,  197.25  L  314.45,  197.25 " style="stroke-width: 1.42 ;&st7; " /><path d=" M  231.59,  401.22  L  227.34,  401.22 " style="stroke-width: 1.42 ;&st7; " /><path d=" M  231.59,  392.72  L  227.34,  392.72 " style="stroke-width: 1.42 ;&st7; " /><path d=" M  231.59,  358.73  L  227.34,  358.73 " style="stroke-width: 1.42 ;&st7; " /><path d=" M  231.59,  350.23  L  227.34,  350.23 " style="stroke-width: 1.42 ;&st7; " /><path d=" M  316.57,  103.77  L  312.32,  103.77 " style="stroke-width: 1.42 ;&st7; " /><path d=" M  316.57,   95.27  L  312.32,   95.27 " style="stroke-width: 1.42 ;&st7; " /><path d=" M  314.45,   69.77  L  314.45,   95.27 " style="stroke-width: 0.85 ;&st7; " /><path d=" M  231.59,  103.77  L  227.34,  103.77 " style="stroke-width: 1.42 ;&st7; " /><path d=" M  231.59,   95.27  L  227.34,   95.27 " style="stroke-width: 1.42 ;&st7; " /><path d=" M  229.46,   69.77  L  229.46,   95.27 " style="stroke-width: 0.85 ;&st7; " /><path d=" M   44.62,  358.73  L   40.37,  358.73 " style="stroke-width: 1.42 ;&st7; " /><path d=" M   40.37,  341.73  L   44.62,  341.73 " style="stroke-width: 1.42 ;&st7; " /><path d=" M   44.62,  350.23  L   40.37,  350.23 " style="stroke-width: 1.42 ;&st7; " /><path d=" M   44.62,  392.72  L   40.37,  392.72 " style="stroke-width: 1.42 ;&st7; " /><path d=" M   44.62,  409.72  L   40.37,  409.72 " style="stroke-width: 1.42 ;&st7; " /><path d=" M   44.62,  401.22  L   40.37,  401.22 " style="stroke-width: 1.42 ;&st7; " /><path d=" M  231.59,  171.76  L  227.34,  171.76 " style="stroke-width: 1.42 ;&st7; " /><path d=" M  227.34,  163.26  L  231.59,  163.26 " style="stroke-width: 1.42 ;&st7; " /><path d=" M  231.59,  180.26  L  227.34,  180.26 " style="stroke-width: 1.42 ;&st7; " /><path d=" M  231.59,  214.25  L  227.34,  214.25 " style="stroke-width: 1.42 ;&st7; " /><path d=" M  231.59,  231.25  L  227.34,  231.25 " style="stroke-width: 1.42 ;&st7; " /><path d=" M  231.59,  222.75  L  227.34,  222.75 " style="stroke-width: 1.42 ;&st7; " /><path d=" M  229.46,  185.15  L  232.29,  187.98  L  232.29,  183.73  L  229.46,  180.90  L  226.63,  183.73  L  226.63,  187.98  L  229.46,  185.15 " style="stroke-width: 0.28 ;&st9;" /><path d=" M  471.67,  202.92  L  467.42,  198.67  L  463.17,  202.92 " style="stroke-width: 1.42 ;&st7; " /><path d=" M  471.67,  206.32  L  467.42,  202.07  L  463.17,  206.32 " style="stroke-width: 1.42 ;&st7; " /><path d=" M  466.01,  710.00  L  468.84,  710.00 " style="stroke-width: 0.85 ;&st7; " /><path d=" M  464.59,  707.17  L  470.25,  707.17 " style="stroke-width: 0.85 ;&st7; " /><path d=" M  463.17,  704.33  L  471.67,  704.33 " style="stroke-width: 0.85 ;&st7; " /><path d=" M  458.92,  701.50  L  475.92,  701.50 " style="stroke-width: 0.85 ;&st7; " /><path d=" M  467.42,  697.25  L  467.42,  701.50 " style="stroke-width: 0.85 ;&st7; " /><path d=" M   41.08,  710.00  L   43.91,  710.00 " style="stroke-width: 0.85 ;&st7; " /><path d=" M   39.66,  707.17  L   45.33,  707.17 " style="stroke-width: 0.85 ;&st7; " /><path d=" M   38.24,  704.33  L   46.74,  704.33 " style="stroke-width: 0.85 ;&st7; " /><path d=" M   33.99,  701.50  L   50.99,  701.50 " style="stroke-width: 0.85 ;&st7; " /><path d=" M   42.49,  697.25  L   42.49,  701.50 " style="stroke-width: 0.85 ;&st7; " /><path d=" M  467.42,  469.21  L  467.42,  486.20 " style="stroke-width: 0.85 ;&st7; " /><path d=" M  458.92,  469.21  L  475.92,  469.21  L  475.92,  486.20  L  458.92,  486.20  L  458.92,  469.21 " style="stroke-width: 1.42 ;&st7; " /><path d=" M   42.49,  469.21  L   42.49,  486.20 " style="stroke-width: 0.85 ;&st7; " /><path d=" M   33.99,  469.21  L   50.99,  469.21  L   50.99,  486.20  L   33.99,  486.20  L   33.99,  469.21 " style="stroke-width: 1.42 ;&st7; " /><path d=" M   46.74,  299.80  L   42.49,  295.55  L   38.24,  299.80 " style="stroke-width: 1.42 ;&st7; " /><path d=" M   46.74,  296.40  L   42.49,  292.15  L   38.24,  296.40 " style="stroke-width: 1.42 ;&st7; " /><path d=" M   97.73,  296.40  L   93.48,  292.15  L   89.24,  296.40 " style="stroke-width: 1.42 ;&st7; " /><path d=" M   97.73,  299.80  L   93.48,  295.55  L   89.24,  299.80 " style="stroke-width: 1.42 ;&st7; " /><path d=" M  131.73,  299.80  L  127.48,  295.55  L  123.23,  299.80 " style="stroke-width: 1.42 ;&st7; " /><path d=" M  131.73,  296.40  L  127.48,  292.15  L  123.23,  296.40 " style="stroke-width: 1.42 ;&st7; " /><path d=" M  471.67,  387.05  L  467.42,  391.30  L  463.17,  387.05 " style="stroke-width: 1.42 ;&st7; " /><path d=" M  463.17,  383.65  L  467.42,  387.90  L  471.67,  383.65 " style="stroke-width: 1.42 ;&st7; " /><path d=" M  420.68,  387.05  L  416.43,  391.30  L  412.18,  387.05 " style="stroke-width: 1.42 ;&st7; " /><path d=" M  412.18,  383.65  L  416.43,  387.90  L  420.68,  383.65 " style="stroke-width: 1.42 ;&st7; " /><path d=" M  369.69,  387.05  L  365.44,  391.30  L  361.19,  387.05 " style="stroke-width: 1.42 ;&st7; " /><path d=" M  361.19,  383.65  L  365.44,  387.90  L  369.69,  383.65 " style="stroke-width: 1.42 ;&st7; " /><path d=" M  318.70,  387.05  L  314.45,  391.30  L  310.20,  387.05 " style="stroke-width: 1.42 ;&st7; " /><path d=" M  310.20,  383.65  L  314.45,  387.90  L  318.70,  383.65 " style="stroke-width: 1.42 ;&st7; " /><path d=" M  318.70,  202.92  L  314.45,  198.67  L  310.20,  202.92 " style="stroke-width: 1.42 ;&st7; " /><path d=" M  318.70,  206.32  L  314.45,  202.07  L  310.20,  206.32 " style="stroke-width: 1.42 ;&st7; " /><path d=" M  433.43,  265.24  L  484.42,  265.24  L  484.42,  316.23  L  297.45,  316.23  L  297.45,  265.24  L  348.44,  265.24  L  348.44,  205.75  L  433.43,  205.75  L  433.43,  265.24 " style="stroke-width: 1.42 ;&st7; " /><path d=" M  229.46,  392.72  L  229.46,  358.73 " style="stroke-width: 0.85 ;&st7; " /><path d=" M  229.46,  387.82  L  226.63,  384.99  L  226.63,  389.24  L  229.46,  392.07  L  232.29,  389.24  L  232.29,  384.99  L  229.46,  387.82 " style="stroke-width: 0.28 ;&st9;" /><path d=" M  229.46,  363.62  L  232.29,  366.45  L  232.29,  362.20  L  229.46,  359.37  L  226.63,  362.20  L  226.63,  366.45  L  229.46,  363.62 " style="stroke-width: 0.28 ;&st9;" /><path d=" M  301.70,   35.78  L  301.70,   78.27  L  327.20,   78.27  L  327.20,   35.78  L  301.70,   35.78 " style="stroke-width: 1.42 ;&st7; " /><path d=" M  314.45,   90.37  L  311.61,   87.54  L  311.61,   91.79  L  314.45,   94.62  L  317.28,   91.79  L  317.28,   87.54  L  314.45,   90.37 " style="stroke-width: 0.28 ;&st9;" /><path d=" M  216.71,   35.78  L  216.71,   78.27  L  242.21,   78.27  L  242.21,   35.78  L  216.71,   35.78 " style="stroke-width: 1.42 ;&st7; " /><path d=" M  229.46,   90.37  L  226.63,   87.54  L  226.63,   91.79  L  229.46,   94.62  L  232.29,   91.79  L  232.29,   87.54  L  229.46,   90.37 " style="stroke-width: 0.28 ;&st9;" /><path d=" M   25.50,  222.75  L   25.50,  154.76  L  152.97,  154.76  L  152.97,  222.75  L   25.50,  222.75 " style="stroke-width: 1.42 ;&st7; " /><path d=" M   80.74,  197.25  L   93.48,  197.25  L   93.48,  222.75 " style="stroke-width: 0.85 ;&st7; " /><path d=" M   80.74,  171.76  L  127.48,  171.76  L  127.48,  222.75 " style="stroke-width: 0.85 ;&st7; " /><path d=" M   41.30,  196.25  L   41.03,  196.72  L   40.93,  197.25  L   41.03,  197.79  L   41.30,  198.26  L   41.71,  198.60  L   42.22,  198.79  L   42.76,  198.79  L   43.27,  198.60  L   43.69,  198.26  L   43.96,  197.79  L   44.05,  197.25  L   43.96,  196.72  L   43.69,  196.25  L   43.27,  195.90  L   42.76,  195.72  L   42.22,  195.72  L   41.71,  195.90  L   41.30,  196.25  L   41.69,  196.96  L   41.69,  197.54  L   42.07,  197.99  L   42.64,  198.09  L   43.14,  197.80  L   43.34,  197.25  L   43.14,  196.71  L   42.64,  196.42  L   42.07,  196.52  L   42.49,  197.25 " style="stroke-width: 0.85 ;&st7; " /><path d=" M   55.24,  171.76  L   42.49,  171.76  L   42.49,  222.75 " style="stroke-width: 0.85 ;&st7; " /><path d=" M   55.24,  197.25  L   42.49,  197.25 " style="stroke-width: 0.85 ;&st7; " /><path d=" M   42.49,  363.62  L   45.33,  366.45  L   45.33,  362.20  L   42.49,  359.37  L   39.66,  362.20  L   39.66,  366.45  L   42.49,  363.62 " style="stroke-width: 0.28 ;&st9;" /><path d=" M   42.49,  387.82  L   39.66,  384.99  L   39.66,  389.24  L   42.49,  392.07  L   45.33,  389.24  L   45.33,  384.99  L   42.49,  387.82 " style="stroke-width: 0.28 ;&st9;" /><path d=" M   42.49,  358.73  L   42.49,  392.72 " style="stroke-width: 0.85 ;&st7; " /><path d=" M  229.46,  209.35  L  226.63,  206.52  L  226.63,  210.77  L  229.46,  213.60  L  232.29,  210.77  L  232.29,  206.52  L  229.46,  209.35 " style="stroke-width: 0.28 ;&st9;" /><path d=" M  229.46,  180.26  L  229.46,  214.25 " style="stroke-width: 0.85 ;&st7; " /><path d=" M  402.27,  222.75  L  416.43,  222.75  L  416.43,  265.24 " style="stroke-width: 0.85 ;&st7; " /><path d=" M  379.60,  222.75  L  365.44,  222.75  L  365.44,  265.24 " style="stroke-width: 0.85 ;&st7; " /><path d=" M  433.43,  265.24  L  348.44,  265.24 " style="stroke-width: 1.42 ;&st7; " /><path d=" M   47.03,  227.28  C   47.03   224.78    45.00   222.75    42.49   222.75 " style="stroke-width: 1.42 ;&st7; " /><path d=" M   42.49,  222.75  C   39.99   222.75    37.96   224.78    37.96   227.28 " style="stroke-width: 1.42 ;&st7; " /><path d=" M   37.96,  227.28  C   37.96   229.78    39.99   231.81    42.49   231.81 " style="stroke-width: 1.42 ;&st7; " /><path d=" M   42.49,  231.81  C   45.00   231.81    47.03   229.78    47.03   227.28 " style="stroke-width: 1.42 ;&st7; " /><path d=" M   98.02,  227.28  C   98.02   224.78    95.99   222.75    93.48   222.75 " style="stroke-width: 1.42 ;&st7; " /><path d=" M   93.48,  222.75  C   90.98   222.75    88.95   224.78    88.95   227.28 " style="stroke-width: 1.42 ;&st7; " /><path d=" M   88.95,  227.28  C   88.95   229.78    90.98   231.81    93.48   231.81 " style="stroke-width: 1.42 ;&st7; " /><path d=" M   93.48,  231.81  C   95.99   231.81    98.02   229.78    98.02   227.28 " style="stroke-width: 1.42 ;&st7; " /><path d=" M  132.01,  227.28  C  132.01   224.78   129.98   222.75   127.48   222.75 " style="stroke-width: 1.42 ;&st7; " /><path d=" M  127.48,  222.75  C  124.98   222.75   122.95   224.78   122.95   227.28 " style="stroke-width: 1.42 ;&st7; " /><path d=" M  122.95,  227.28  C  122.95   229.78   124.98   231.81   127.48   231.81 " style="stroke-width: 1.42 ;&st7; " /><path d=" M  127.48,  231.81  C  129.98   231.81   132.01   229.78   132.01   227.28 " style="stroke-width: 1.42 ;&st7; " /><path d=" M   36.12,  354.48  C   36.12   356.82    38.02   358.73    40.37   358.73 " style="stroke-width: 1.42 ;&st7; " /><path d=" M   40.37,  350.23  C   38.02   350.23    36.12   352.13    36.12   354.48 " style="stroke-width: 1.42 ;&st7; " /><path d=" M   48.87,  354.48  C   48.87   352.13    46.96   350.23    44.62   350.23 " style="stroke-width: 1.42 ;&st7; " /><path d=" M   44.62,  358.73  C   46.96   358.73    48.87   356.82    48.87   354.48 " style="stroke-width: 1.42 ;&st7; " /><path d=" M   40.37,  341.73  C   38.02   341.73    36.12   343.63    36.12   345.98 " style="stroke-width: 1.42 ;&st7; " /><path d=" M   36.12,  345.98  C   36.12   348.32    38.02   350.23    40.37   350.23 " style="stroke-width: 1.42 ;&st7; " /><path d=" M   44.62,  350.23  C   46.96   350.23    48.87   348.32    48.87   345.98 " style="stroke-width: 1.42 ;&st7; " /><path d=" M   48.87,  345.98  C   48.87   343.63    46.96   341.73    44.62   341.73 " style="stroke-width: 1.42 ;&st7; " /><path d=" M   40.37,  392.72  C   38.02   392.72    36.12   394.62    36.12   396.97 " style="stroke-width: 1.42 ;&st7; " /><path d=" M   36.12,  396.97  C   36.12   399.32    38.02   401.22    40.37   401.22 " style="stroke-width: 1.42 ;&st7; " /><path d=" M   44.62,  401.22  C   46.96   401.22    48.87   399.32    48.87   396.97 " style="stroke-width: 1.42 ;&st7; " /><path d=" M   48.87,  396.97  C   48.87   394.62    46.96   392.72    44.62   392.72 " style="stroke-width: 1.42 ;&st7; " /><path d=" M   36.12,  405.47  C   36.12   407.81    38.02   409.72    40.37   409.72 " style="stroke-width: 1.42 ;&st7; " /><path d=" M   40.37,  401.22  C   38.02   401.22    36.12   403.12    36.12   405.47 " style="stroke-width: 1.42 ;&st7; " /><path d=" M   48.87,  405.47  C   48.87   403.12    46.96   401.22    44.62   401.22 " style="stroke-width: 1.42 ;&st7; " /><path d=" M   44.62,  409.72  C   46.96   409.72    48.87   407.81    48.87   405.47 " style="stroke-width: 1.42 ;&st7; " /><path d=" M  223.09,  176.01  C  223.09   178.35   224.99   180.26   227.34   180.26 " style="stroke-width: 1.42 ;&st7; " /><path d=" M  227.34,  171.76  C  224.99   171.76   223.09   173.66   223.09   176.01 " style="stroke-width: 1.42 ;&st7; " /><path d=" M  235.84,  176.01  C  235.84   173.66   233.93   171.76   231.59   171.76 " style="stroke-width: 1.42 ;&st7; " /><path d=" M  231.59,  180.26  C  233.93   180.26   235.84   178.35   235.84   176.01 " style="stroke-width: 1.42 ;&st7; " /><path d=" M  227.34,  163.26  C  224.99   163.26   223.09   165.16   223.09   167.51 " style="stroke-width: 1.42 ;&st7; " /><path d=" M  223.09,  167.51  C  223.09   169.85   224.99   171.76   227.34   171.76 " style="stroke-width: 1.42 ;&st7; " /><path d=" M  231.59,  171.76  C  233.93   171.76   235.84   169.85   235.84   167.51 " style="stroke-width: 1.42 ;&st7; " /><path d=" M  235.84,  167.51  C  235.84   165.16   233.93   163.26   231.59   163.26 " style="stroke-width: 1.42 ;&st7; " /><path d=" M  227.34,  214.25  C  224.99   214.25   223.09   216.15   223.09   218.50 " style="stroke-width: 1.42 ;&st7; " /><path d=" M  223.09,  218.50  C  223.09   220.85   224.99   222.75   227.34   222.75 " style="stroke-width: 1.42 ;&st7; " /><path d=" M  231.59,  222.75  C  233.93   222.75   235.84   220.85   235.84   218.50 " style="stroke-width: 1.42 ;&st7; " /><path d=" M  235.84,  218.50  C  235.84   216.15   233.93   214.25   231.59   214.25 " style="stroke-width: 1.42 ;&st7; " /><path d=" M  223.09,  227.00  C  223.09   229.34   224.99   231.25   227.34   231.25 " style="stroke-width: 1.42 ;&st7; " /><path d=" M  227.34,  222.75  C  224.99   222.75   223.09   224.65   223.09   227.00 " style="stroke-width: 1.42 ;&st7; " /><path d=" M  235.84,  227.00  C  235.84   224.65   233.93   222.75   231.59   222.75 " style="stroke-width: 1.42 ;&st7; " /><path d=" M  231.59,  231.25  C  233.93   231.25   235.84   229.34   235.84   227.00 " style="stroke-width: 1.42 ;&st7; " /><path d=" M  390.93,  231.25  C  395.63   231.25   399.43   227.44   399.43   222.75 " style="stroke-width: 1.42 ;&st7; " /><path d=" M  399.43,  222.75  C  399.43   218.05   395.63   214.25   390.93   214.25 " style="stroke-width: 1.42 ;&st7; " /><path d=" M  390.93,  214.25  C  386.24   214.25   382.44   218.05   382.44   222.75 " style="stroke-width: 1.42 ;&st7; " /><path d=" M  382.44,  222.75  C  382.44   227.44   386.24   231.25   390.93   231.25 " style="stroke-width: 1.42 ;&st7; " /><path d=" M  235.84,  396.97  C  235.84   394.62   233.93   392.72   231.59   392.72 " style="stroke-width: 1.42 ;&st7; " /><path d=" M  231.59,  401.22  C  233.93   401.22   235.84   399.32   235.84   396.97 " style="stroke-width: 1.42 ;&st7; " /><path d=" M  223.09,  396.97  C  223.09   399.32   224.99   401.22   227.34   401.22 " style="stroke-width: 1.42 ;&st7; " /><path d=" M  227.34,  392.72  C  224.99   392.72   223.09   394.62   223.09   396.97 " style="stroke-width: 1.42 ;&st7; " /><path d=" M  235.84,  354.48  C  235.84   352.13   233.93   350.23   231.59   350.23 " style="stroke-width: 1.42 ;&st7; " /><path d=" M  231.59,  358.73  C  233.93   358.73   235.84   356.82   235.84   354.48 " style="stroke-width: 1.42 ;&st7; " /><path d=" M  223.09,  354.48  C  223.09   356.82   224.99   358.73   227.34   358.73 " style="stroke-width: 1.42 ;&st7; " /><path d=" M  227.34,  350.23  C  224.99   350.23   223.09   352.13   223.09   354.48 " style="stroke-width: 1.42 ;&st7; " /><path d=" M  320.82,   99.52  C  320.82    97.17   318.92    95.27   316.57    95.27 " style="stroke-width: 1.42 ;&st7; " /><path d=" M  316.57,  103.77  C  318.92   103.77   320.82   101.87   320.82    99.52 " style="stroke-width: 1.42 ;&st7; " /><path d=" M  308.07,   99.52  C  308.07   101.87   309.98   103.77   312.32   103.77 " style="stroke-width: 1.42 ;&st7; " /><path d=" M  312.32,   95.27  C  309.98    95.27   308.07    97.17   308.07    99.52 " style="stroke-width: 1.42 ;&st7; " /><path d=" M  235.84,   99.52  C  235.84    97.17   233.93    95.27   231.59    95.27 " style="stroke-width: 1.42 ;&st7; " /><path d=" M  231.59,  103.77  C  233.93   103.77   235.84   101.87   235.84    99.52 " style="stroke-width: 1.42 ;&st7; " /><path d=" M  223.09,   99.52  C  223.09   101.87   224.99   103.77   227.34   103.77 " style="stroke-width: 1.42 ;&st7; " /><path d=" M  227.34,   95.27  C  224.99    95.27   223.09    97.17   223.09    99.52 " style="stroke-width: 1.42 ;&st7; " /><path d=" M  230.88,   68.36  C  230.88    67.57   230.24    66.94   229.46    66.94 " style="stroke-width: 0.85 ;&st7; " /><path d=" M  229.46,   66.94  C  228.68    66.94   228.05    67.57   228.05    68.36 " style="stroke-width: 0.85 ;&st7; " /><path d=" M  228.05,   68.36  C  228.05    69.14   228.68    69.77   229.46    69.77 " style="stroke-width: 0.85 ;&st7; " /><path d=" M  229.46,   69.77  C  230.24    69.77   230.88    69.14   230.88    68.36 " style="stroke-width: 0.85 ;&st7; " /><path d=" M  230.88,   45.69  C  230.88    44.91   230.24    44.28   229.46    44.28 " style="stroke-width: 0.85 ;&st7; " /><path d=" M  229.46,   44.28  C  228.68    44.28   228.05    44.91   228.05    45.69 " style="stroke-width: 0.85 ;&st7; " /><path d=" M  228.05,   45.69  C  228.05    46.48   228.68    47.11   229.46    47.11 " style="stroke-width: 0.85 ;&st7; " /><path d=" M  229.46,   47.11  C  230.24    47.11   230.88    46.48   230.88    45.69 " style="stroke-width: 0.85 ;&st7; " /><path d=" M  229.46,   66.94  C  232.20    65.33   233.11    61.80   231.50    59.06 " style="stroke-width: 1.42 ;&st7; " /><path d=" M  231.50,   59.06  C  230.98    58.18   230.34    57.55   229.46    57.03 " style="stroke-width: 1.42 ;&st7; " /><path d=" M  229.46,   47.11  C  226.72    48.72   225.81    52.25   227.42    54.99 " style="stroke-width: 1.42 ;&st7; " /><path d=" M  227.42,   54.99  C  227.94    55.87   228.58    56.51   229.46    57.03 " style="stroke-width: 1.42 ;&st7; " /><path d=" M   58.07,  171.76  C   58.07   170.97    57.44   170.34    56.66   170.34 " style="stroke-width: 0.85 ;&st7; " /><path d=" M   56.66,  170.34  C   55.87   170.34    55.24   170.97    55.24   171.76 " style="stroke-width: 0.85 ;&st7; " /><path d=" M   55.24,  171.76  C   55.24   172.54    55.87   173.17    56.66   173.17 " style="stroke-width: 0.85 ;&st7; " /><path d=" M   56.66,  173.17  C   57.44   173.17    58.07   172.54    58.07   171.76 " style="stroke-width: 0.85 ;&st7; " /><path d=" M   80.74,  197.25  C   80.74   196.47    80.10   195.84    79.32   195.84 " style="stroke-width: 0.85 ;&st7; " /><path d=" M   79.32,  195.84  C   78.54   195.84    77.90   196.47    77.90   197.25 " style="stroke-width: 0.85 ;&st7; " /><path d=" M   77.90,  197.25  C   77.90   198.03    78.54   198.67    79.32   198.67 " style="stroke-width: 0.85 ;&st7; " /><path d=" M   79.32,  198.67  C   80.10   198.67    80.74   198.03    80.74   197.25 " style="stroke-width: 0.85 ;&st7; " /><path d=" M   58.07,  197.25  C   58.07   196.47    57.44   195.84    56.66   195.84 " style="stroke-width: 0.85 ;&st7; " /><path d=" M   56.66,  195.84  C   55.87   195.84    55.24   196.47    55.24   197.25 " style="stroke-width: 0.85 ;&st7; " /><path d=" M   55.24,  197.25  C   55.24   198.03    55.87   198.67    56.66   198.67 " style="stroke-width: 0.85 ;&st7; " /><path d=" M   56.66,  198.67  C   57.44   198.67    58.07   198.03    58.07   197.25 " style="stroke-width: 0.85 ;&st7; " /><path d=" M   80.74,  171.76  C   80.74   170.97    80.10   170.34    79.32   170.34 " style="stroke-width: 0.85 ;&st7; " /><path d=" M   79.32,  170.34  C   78.54   170.34    77.90   170.97    77.90   171.76 " style="stroke-width: 0.85 ;&st7; " /><path d=" M   77.90,  171.76  C   77.90   172.54    78.54   173.17    79.32   173.17 " style="stroke-width: 0.85 ;&st7; " /><path d=" M   79.32,  173.17  C   80.10   173.17    80.74   172.54    80.74   171.76 " style="stroke-width: 0.85 ;&st7; " /><path d=" M  315.86,   68.36  C  315.86    67.57   315.23    66.94   314.45    66.94 " style="stroke-width: 0.85 ;&st7; " /><path d=" M  314.45,   66.94  C  313.67    66.94   313.03    67.57   313.03    68.36 " style="stroke-width: 0.85 ;&st7; " /><path d=" M  313.03,   68.36  C  313.03    69.14   313.67    69.77   314.45    69.77 " style="stroke-width: 0.85 ;&st7; " /><path d=" M  314.45,   69.77  C  315.23    69.77   315.86    69.14   315.86    68.36 " style="stroke-width: 0.85 ;&st7; " /><path d=" M  315.86,   45.69  C  315.86    44.91   315.23    44.28   314.45    44.28 " style="stroke-width: 0.85 ;&st7; " /><path d=" M  314.45,   44.28  C  313.67    44.28   313.03    44.91   313.03    45.69 " style="stroke-width: 0.85 ;&st7; " /><path d=" M  313.03,   45.69  C  313.03    46.48   313.67    47.11   314.45    47.11 " style="stroke-width: 0.85 ;&st7; " /><path d=" M  314.45,   47.11  C  315.23    47.11   315.86    46.48   315.86    45.69 " style="stroke-width: 0.85 ;&st7; " /><path d=" M  314.45,   66.94  C  315.30    64.02   314.64    61.13   312.61    58.87 " style="stroke-width: 1.42 ;&st7; " /><path d=" M  314.45,   66.94  C  316.62    63.92   316.62    60.05   314.45    57.03 " style="stroke-width: 1.42 ;&st7; " /><path d=" M  314.45,   66.94  C  318.16    64.17   318.98    58.96   316.29    55.19 " style="stroke-width: 1.42 ;&st7; " /><path d=" M  314.45,   47.11  C  310.73    49.88   309.91    55.10   312.61    58.87 " style="stroke-width: 1.42 ;&st7; " /><path d=" M  314.45,   47.11  C  312.28    50.13   312.28    54.00   314.45    57.03 " style="stroke-width: 1.42 ;&st7; " /><path d=" M  314.45,   47.11  C  313.59    50.03   314.25    52.92   316.29    55.18 " style="stroke-width: 1.42 ;&st7; " /><text style="&st18;" transform="matrix(&st16;  460.63  324.43 )">2</text><text style="&st18;" transform="matrix(&st16;  409.64  324.43 )">7</text><text style="&st18;" transform="matrix(&st16;  358.65  324.43 )">9</text><text style="&st18;" transform="matrix(&st16;  307.66  324.43 )">5</text><text style="&st18;" transform="matrix(&st17;  58.6  488.73 )">L93</text><text ewd:textID="9" style="&st18;" transform="matrix(&st17;  65.71  488.73 )">Junction <tspan dy="6" x="0">Connector</tspan></text><text style="&st18;" transform="matrix(&st16;  457.45  465.52 )">10</text><text style="&st18;" transform="matrix(&st16;  460.63  494.4 )">7</text><text style="&st18;" transform="matrix(&st16;  35.7  465.52 )">5</text><text style="&st18;" transform="matrix(&st16;  35.7  494.4 )">3</text><text style="&st18;" transform="matrix(&st16;  27.68  288.46 )">7</text><text style="&st18;" transform="matrix(&st16;  78.67  288.46 )">2</text><text style="&st18;" transform="matrix(&st16;  112.66  288.46 )">3</text><text style="&st18;" transform="matrix(&st16;  452.61  398.94 )">7</text><text style="&st18;" transform="matrix(&st16;  465.09  312.54 )">E</text><text style="&st18;" transform="matrix(&st16;  408.87  312.54 )">OPN</text><text style="&st18;" transform="matrix(&st16;  358.66  312.54 )">CLS</text><text style="&st18;" transform="matrix(&st16;  312.12  272.88 )">B</text><text style="&st18;" transform="matrix(&st16;  458.27  272.88 )">MPX1</text><text style="&st18;" transform="matrix(&st16;  310.7  312.54 )">IG</text><text style="&st18;" transform="matrix(&st16;  398.44  398.94 )">51</text><text style="&st18;" transform="matrix(&st16;  346.67  398.94 )">52</text><text style="&st18;" transform="matrix(&st16;  296.45  398.94 )">12</text><text style="&st18;" transform="matrix(&st16;  299.63  194.97 )">8</text><text style="&st18;" transform="matrix(&st16;  212.82  398.94 )">72</text><text style="&st18;" transform="matrix(&st16;  225.15  398.94 )">4B</text><text style="&st18;" transform="matrix(&st16;  212.82  356.45 )">24</text><text style="&st18;" transform="matrix(&st16;  225.15  356.45 )">4A</text><text style="&st18;" transform="matrix(&st16;  305.33  32.08 )">(BAT)</text><text style="&st18;" transform="matrix(&st16;  298.58  101.49 )">10</text><text style="&st18;" transform="matrix(&st16;  310.14  101.49 )">2A</text><text style="&st18;" transform="matrix(&st16;  331.75  56.17 )">30A <tspan dy="6" x="0">S/ROOF</tspan></text><text style="&st18;" transform="matrix(&st16;  223.39  32.08 )">(IG)</text><text style="&st18;" transform="matrix(&st16;  213.59  101.49 )">16</text><text style="&st18;" transform="matrix(&st16;  225.15  101.49 )">2B</text><text style="&st18;" transform="matrix(&st16;  246.77  53.34 )">10A <tspan dy="6" x="0">ECU-IG </tspan><tspan dy="6" x="0">NO.2</tspan></text><text style="&st18;" transform="matrix(&st16;  39.97  143.96 )">U13(B)</text><text ewd:textID="11" style="&st18;" transform="matrix(&st16;  39.97  151.06 )">Map Light Assembly</text><text style="&st18;" transform="matrix(&st16;  130.31  219.06 )">CLS</text><text style="&st18;" transform="matrix(&st16;  96.32  219.06 )">OPN</text><text ewd:textID="12" style="&st18;" transform="matrix(&st16;  59.3  204.89 )">Open</text><text ewd:textID="4" style="&st18;" transform="matrix(&st16;  59.09  179.39 )">Close</text><text style="&st18;" transform="matrix(&st16;  45.33  219.06 )">GND1</text><text style="&st18;" transform="matrix(&st16;  307.66  86.47 )">2</text><text style="&st18;" transform="matrix(&st16;  237.25  169.48 )">(LHD)</text><text style="&st18;" transform="matrix(&st16;  237.25  177.98 )">(RHD)</text><text style="&st18;" transform="matrix(&st16;  225.15  228.97 )">3B</text><text style="&st18;" transform="matrix(&st16;  225.15  220.47 )">3B</text><text style="&st18;" transform="matrix(&st16;  212.82  228.97 )">88</text><text style="&st18;" transform="matrix(&st16;  212.82  220.47 )">80</text><text style="&st18;" transform="matrix(&st16;  237.25  220.47 )">(LHD)</text><text style="&st18;" transform="matrix(&st16;  237.25  228.97 )">(RHD)</text><text style="&st18;" transform="matrix(&st16;  490.59  15.09 )">P</text><text style="&st18;" transform="matrix(&st16;  31.62  229.25 )">9</text><text style="&st18;" transform="matrix(&st16;  40.16  229.25 )">B</text><text style="&st18;" transform="matrix(&st16;  79.43  229.25 )">16</text><text style="&st18;" transform="matrix(&st16;  91.15  229.25 )">B</text><text style="&st18;" transform="matrix(&st16;  116.6  229.25 )">2</text><text style="&st18;" transform="matrix(&st16;  125.15  229.25 )">B</text><text style="&st18;" transform="matrix(&st16;  38.18  356.45 )">3B</text><text style="&st18;" transform="matrix(&st16;  38.18  347.95 )">3B</text><text style="&st18;" transform="matrix(&st16;  29.8  356.45 )">5</text><text style="&st18;" transform="matrix(&st16;  26.62  347.95 )">17</text><text style="&st18;" transform="matrix(&st16;  50.28  347.95 )">(LHD)</text><text style="&st18;" transform="matrix(&st16;  50.28  356.45 )">(RHD)</text><text style="&st18;" transform="matrix(&st16;  38.18  407.44 )">3A</text><text style="&st18;" transform="matrix(&st16;  38.18  398.94 )">3A</text><text style="&st18;" transform="matrix(&st16;  25.85  407.44 )">65</text><text style="&st18;" transform="matrix(&st16;  25.85  398.94 )">67</text><text style="&st18;" transform="matrix(&st16;  50.28  398.94 )">(LHD)</text><text style="&st18;" transform="matrix(&st16;  50.28  407.44 )">(RHD)</text><text style="&st18;" transform="matrix(&st16;  225.15  177.98 )">3B</text><text style="&st18;" transform="matrix(&st16;  225.15  169.48 )">3B</text><text style="&st18;" transform="matrix(&st16;  212.82  177.98 )">68</text><text style="&st18;" transform="matrix(&st16;  212.82  169.48 )">76</text><text style="&st18;" transform="matrix(&st17;  463.73  165.59 )">P</text><text style="&st18;" transform="matrix(&st16;  449.43  194.97 )">13</text><text style="&st18;" transform="matrix(&st17;  463.73  233.58 )">P</text><text style="&st18;" transform="matrix(&st17;  310.75  233.72 )">R</text><text style="&st18;" transform="matrix(&st17;  310.75  140.23 )">R</text><text style="&st18;" transform="matrix(&st17;  225.77  142.42 )">BE</text><text style="&st18;" transform="matrix(&st17;  225.77  259.07 )">B</text><text style="&st18;" transform="matrix(&st17;  225.77  420.55 )">B</text><text style="&st18;" transform="matrix(&st17;  463.73  366.43 )">W-B</text><text style="&st18;" transform="matrix(&st17;  412.73  363.39 )">SB</text><text style="&st18;" transform="matrix(&st17;  361.74  363.53 )">BR</text><text style="&st18;" transform="matrix(&st17;  310.75  361.06 )">B</text><text style="&st18;" transform="matrix(&st17;  463.73  425.92 )">W-B</text><text style="&st18;" transform="matrix(&st17;  412.73  422.88 )">SB</text><text style="&st18;" transform="matrix(&st17;  361.74  423.02 )">BR</text><text style="&st18;" transform="matrix(&st17;  310.75  420.55 )">B</text><text style="&st18;" transform="matrix(&st17;  463.73  544.9 )">W-B</text><text style="&st18;" transform="matrix(&st17;  38.8  544.9 )">W-B</text><text style="&st18;" transform="matrix(&st17;  38.8  442.91 )">W-B</text><text style="&st18;" transform="matrix(&st17;  123.78  329.53 )">BR</text><text style="&st18;" transform="matrix(&st17;  89.79  329.39 )">SB</text><text style="&st18;" transform="matrix(&st17;  38.8  332.43 )">W-B</text><text style="&st18;" transform="matrix(&st17;  123.78  261.55 )">BR</text><text style="&st18;" transform="matrix(&st17;  89.79  261.4 )">SB</text><text style="&st18;" transform="matrix(&st17;  38.8  264.44 )">W-B</text><text style="&st18;" transform="matrix(&st17;  483.53  488.73 )">L92</text><text ewd:textID="9" style="&st18;" transform="matrix(&st17;  490.64  488.73 )">Junction <tspan dy="6" x="0">Connector</tspan></text><text style="&st18;" transform="matrix(&st16;  460.63  261.55 )">4</text><text style="&st18;" transform="matrix(&st16;  308.44  261.55 )">1</text><text ewd:textID="13" style="&st18;" transform="matrix(&st17;  499.14  318.76 )">Sliding Roof Control ECU</text><text style="&st18;" transform="matrix(&st17;  492.03  318.76 )">R23</text><text style="&st18;" transform="matrix(&st16;  388.04  224.72 )">M</text></svg>