﻿<?xml version="1.0" encoding="utf-8"?>
<!DOCTYPE svg PUBLIC "-//W3C//DTD SVG 1.0//EN" "http://www.w3.org/TR/2001/REC-SVG-20010904/DTD/svg10.dtd"[
	<!ENTITY ns_flows "http://ns.adobe.com/Flows/1.0/">
	<!ENTITY ns_svg "http://www.w3.org/2000/svg">
	<!ENTITY ns_xlink "http://www.w3.org/1999/xlink">
	<!ENTITY st0 "font-size:7px;font-family:'MS-PGothic';adobe-font-script:japanese;">
	<!ENTITY st1 "font-size:6px;font-family:'ArialMT';">
	<!-- White fill  -->
	<!ENTITY st2 "fill:#FFFFFF;stroke:#000000; stroke-width:1.41;stroke-linecap:round;stroke-linejoin:round;">
	<!-- Yellow fill  -->
	<!ENTITY st3 "fill:#FFFFCC;stroke:#FFFFCC; stroke-width:0.1;stroke-linecap:round;stroke-linejoin:round;">
	<!-- Gray fill  -->
	<!ENTITY st4 "fill:#CCCCCC;stroke:#CCCCCC; stroke-width:0.1;stroke-linecap:round;stroke-linejoin:round;">
	<!-- Light-blue fill -->
	<!ENTITY st5 "fill:#CCECF4;stroke:#000000; stroke-width:1.133;stroke-linecap:round;stroke-linejoin:round;">
	<!ENTITY st6 "fill:none;stroke-linecap:butt; stroke-linejoin:round;">
	<!ENTITY st7 "fill:none;stroke:#000000;stroke-linecap:round;stroke-linejoin:round;">
	<!ENTITY st8 "enable-background:new    ;">
	<!-- Black fill -->
	<!ENTITY st9 "fill:#000000;stroke:#000000; stroke-linecap:round;stroke-linejoin:round;">
	<!-- SRS note   -->
	<!ENTITY st10 "font-size:9px;font-family:'ArialMT';">
	<!ENTITY st11 "font-size:9px;font-family:'Svg Symbol';">
	<!ENTITY st12 "font-size:6px;font-family:'Svg Symbol';">
	<!ENTITY st13 "fill:none;stroke:#ff0000;stroke-linecap:round;stroke-linejoin:round;">
	<!-- Yellow fill  -->
	<!ENTITY st14 "fill:#FFFF00;stroke:#FFFF00; stroke-width:0.1;stroke-linecap:round;stroke-linejoin:round;">
	<!ENTITY st15 "font-size:6px;font-family:'MS-PGothic';adobe-font-script:japanese;">
	<!ENTITY st16 "1.00 0.00 0.00 1.00">
	<!ENTITY st17 "0.00 -1.00 1.00 0.00">
	<!ENTITY st18 "font-size:6px;font-family:'Arial';">
	<!ENTITY st19 "font-size:9px;font-family:'Arial';">
	<!ENTITY st20 "font-size:6px;font-family:'MS-PGothic','MS PGothic';adobe-font-script:japanese;">
	<!ENTITY st21 "font-size:7px;font-family:'MS-PGothic','MS PGothic';adobe-font-script:japanese;">
	<!ATTLIST svg
		xmlns:ewd CDATA #FIXED "http://shcl.co.jp/ewd"
		xmlns:a CDATA #FIXED "http://ns.adobe.com/AdobeSVGViewerExtensions/3.0/"
		ewd:ver CDATA #IMPLIED
	>
	<!ATTLIST a
		ewd:lineID CDATA #IMPLIED
		ewd:groupID CDATA #IMPLIED
		ewd:figtype CDATA #IMPLIED
		ewd:code CDATA #IMPLIED
		ewd:figID CDATA #IMPLIED
		ewd:pinNo CDATA #IMPLIED
		ewd:comment CDATA #IMPLIED >
	<!ATTLIST g
		ewd:lineID CDATA #IMPLIED
		ewd:groupID CDATA #IMPLIED
		ewd:figtype CDATA #IMPLIED
		ewd:code CDATA #IMPLIED
		ewd:figID CDATA #IMPLIED
		ewd:pinNo CDATA #IMPLIED
		ewd:comment CDATA #IMPLIED >
	<!ATTLIST text
		ewd:textID CDATA #IMPLIED >
	<!ATTLIST title
		ewd:textID CDATA #IMPLIED >
]>
<!-- Generator: Shintec Hozumi YS   -->
<svg onload="call_execInitLoadProc_svg('system')" style="overflow:visible;  enable-background:new 0 0 3088.357 710.000" viewBox="0 0 3088.357 710.000" height="710.000" width="3088.357" xml:space="preserve" ewd:ver="L2.1.2.6" xmlns="&ns_svg;" xmlns:a="http://ns.adobe.com/AdobeSVGViewerExtensions/3.0/" xmlns:ewd="http://shcl.co.jp/ewd" xmlns:xlink="&ns_xlink;">
<path d=" M 1266.29,  494.70  L 1266.29,  511.70  L 1291.78,  511.70  L 1300.28,  520.20  L 1308.78,  511.70  L 1334.28,  511.70  L 1334.28,  494.70 " style="stroke-width: 0.85 ;&st7; " /><path d=" M 1249.29,  537.20  L 1359.77,  537.20  L 1359.77,  494.70  L 1249.29,  494.70  L 1249.29,  537.20 " style="stroke-width: 1.42 ;&st7; " /><path d=" M 1266.29,  171.76  L 1266.29,  154.76  L 1291.78,  154.76  L 1300.28,  146.26  L 1308.78,  154.76  L 1334.28,  154.76  L 1334.28,  171.76 " style="stroke-width: 0.85 ;&st7; " /><path d=" M 1249.29,  129.26  L 1359.77,  129.26  L 1359.77,  171.76  L 1249.29,  171.76  L 1249.29,  129.26 " style="stroke-width: 1.42 ;&st7; " /><path d=" M 1385.27,  129.26  L 1495.75,  129.26  L 1495.75,  171.76  L 1385.27,  171.76  L 1385.27,  129.26 " style="stroke-width: 1.42 ;&st7; " /><path d=" M 1402.27,  171.76  L 1402.27,  154.76  L 1427.76,  154.76  L 1436.26,  146.26  L 1444.76,  154.76  L 1470.25,  154.76  L 1470.25,  171.76 " style="stroke-width: 0.85 ;&st7; " /><path d=" M 1113.31,  129.26  L 1223.80,  129.26  L 1223.80,  171.76  L 1113.31,  171.76  L 1113.31,  129.26 " style="stroke-width: 1.42 ;&st7; " /><path d=" M 1130.31,  171.76  L 1130.31,  154.76  L 1155.81,  154.76  L 1164.30,  146.26  L 1172.80,  154.76  L 1198.30,  154.76  L 1198.30,  171.76 " style="stroke-width: 0.85 ;&st7; " /><path d=" M 1113.31,  537.20  L 1223.80,  537.20  L 1223.80,  494.70  L 1113.31,  494.70  L 1113.31,  537.20 " style="stroke-width: 1.42 ;&st7; " /><path d=" M 1130.31,  494.70  L 1130.31,  511.70  L 1155.81,  511.70  L 1164.30,  520.20  L 1172.80,  511.70  L 1198.30,  511.70  L 1198.30,  494.70 " style="stroke-width: 0.85 ;&st7; " /><path d=" M 1202.83,  354.76  C 1202.83   352.26  1200.80   350.23  1198.30   350.23 " style="stroke-width: 1.42 ;&st7; " /><path d=" M 1198.30,  350.23  C 1195.80   350.23  1193.77   352.26  1193.77   354.76 " style="stroke-width: 1.42 ;&st7; " /><path d=" M 1193.77,  354.76  C 1193.77   357.26  1195.80   359.29  1198.30   359.29 " style="stroke-width: 1.42 ;&st7; " /><path d=" M 1198.30,  359.29  C 1200.80   359.29  1202.83   357.26  1202.83   354.76 " style="stroke-width: 1.42 ;&st7; " /><path d=" M 1134.84,  354.76  C 1134.84   352.26  1132.81   350.23  1130.31   350.23 " style="stroke-width: 1.42 ;&st7; " /><path d=" M 1130.31,  350.23  C 1127.81   350.23  1125.78   352.26  1125.78   354.76 " style="stroke-width: 1.42 ;&st7; " /><path d=" M 1125.78,  354.76  C 1125.78   357.26  1127.81   359.29  1130.31   359.29 " style="stroke-width: 1.42 ;&st7; " /><path d=" M 1130.31,  359.29  C 1132.81   359.29  1134.84   357.26  1134.84   354.76 " style="stroke-width: 1.42 ;&st7; " /><path d=" M 1270.82,  354.76  C 1270.82   352.26  1268.79   350.23  1266.29   350.23 " style="stroke-width: 1.42 ;&st7; " /><path d=" M 1266.29,  350.23  C 1263.79   350.23  1261.76   352.26  1261.76   354.76 " style="stroke-width: 1.42 ;&st7; " /><path d=" M 1261.76,  354.76  C 1261.76   357.26  1263.79   359.29  1266.29   359.29 " style="stroke-width: 1.42 ;&st7; " /><path d=" M 1266.29,  359.29  C 1268.79   359.29  1270.82   357.26  1270.82   354.76 " style="stroke-width: 1.42 ;&st7; " /><path d=" M 1338.81,  354.76  C 1338.81   352.26  1336.78   350.23  1334.28   350.23 " style="stroke-width: 1.42 ;&st7; " /><path d=" M 1334.28,  350.23  C 1331.77   350.23  1329.74   352.26  1329.74   354.76 " style="stroke-width: 1.42 ;&st7; " /><path d=" M 1329.74,  354.76  C 1329.74   357.26  1331.77   359.29  1334.28   359.29 " style="stroke-width: 1.42 ;&st7; " /><path d=" M 1334.28,  359.29  C 1336.78   359.29  1338.81   357.26  1338.81   354.76 " style="stroke-width: 1.42 ;&st7; " /><path d=" M 1134.84,  303.20  C 1134.84   300.70  1132.81   298.67  1130.31   298.67 " style="stroke-width: 1.42 ;&st7; " /><path d=" M 1130.31,  298.67  C 1127.81   298.67  1125.78   300.70  1125.78   303.20 " style="stroke-width: 1.42 ;&st7; " /><path d=" M 1125.78,  303.20  C 1125.78   305.70  1127.81   307.73  1130.31   307.73 " style="stroke-width: 1.42 ;&st7; " /><path d=" M 1130.31,  307.73  C 1132.81   307.73  1134.84   305.70  1134.84   303.20 " style="stroke-width: 1.42 ;&st7; " /><path d=" M 1202.83,  303.20  C 1202.83   300.70  1200.80   298.67  1198.30   298.67 " style="stroke-width: 1.42 ;&st7; " /><path d=" M 1198.30,  298.67  C 1195.80   298.67  1193.77   300.70  1193.77   303.20 " style="stroke-width: 1.42 ;&st7; " /><path d=" M 1193.77,  303.20  C 1193.77   305.70  1195.80   307.73  1198.30   307.73 " style="stroke-width: 1.42 ;&st7; " /><path d=" M 1198.30,  307.73  C 1200.80   307.73  1202.83   305.70  1202.83   303.20 " style="stroke-width: 1.42 ;&st7; " /><path d=" M 1406.80,  303.20  C 1406.80   300.70  1404.77   298.67  1402.27   298.67 " style="stroke-width: 1.42 ;&st7; " /><path d=" M 1402.27,  298.67  C 1399.76   298.67  1397.73   300.70  1397.73   303.20 " style="stroke-width: 1.42 ;&st7; " /><path d=" M 1397.73,  303.20  C 1397.73   305.70  1399.76   307.73  1402.27   307.73 " style="stroke-width: 1.42 ;&st7; " /><path d=" M 1402.27,  307.73  C 1404.77   307.73  1406.80   305.70  1406.80   303.20 " style="stroke-width: 1.42 ;&st7; " /><path d=" M 1474.79,  303.20  C 1474.79   300.70  1472.76   298.67  1470.25   298.67 " style="stroke-width: 1.42 ;&st7; " /><path d=" M 1470.25,  298.67  C 1467.75   298.67  1465.72   300.70  1465.72   303.20 " style="stroke-width: 1.42 ;&st7; " /><path d=" M 1465.72,  303.20  C 1465.72   305.70  1467.75   307.73  1470.25   307.73 " style="stroke-width: 1.42 ;&st7; " /><path d=" M 1470.25,  307.73  C 1472.76   307.73  1474.79   305.70  1474.79   303.20 " style="stroke-width: 1.42 ;&st7; " /><path d=" M 1338.81,  303.20  C 1338.81   300.70  1336.78   298.67  1334.28   298.67 " style="stroke-width: 1.42 ;&st7; " /><path d=" M 1334.28,  298.67  C 1331.77   298.67  1329.74   300.70  1329.74   303.20 " style="stroke-width: 1.42 ;&st7; " /><path d=" M 1329.74,  303.20  C 1329.74   305.70  1331.77   307.73  1334.28   307.73 " style="stroke-width: 1.42 ;&st7; " /><path d=" M 1334.28,  307.73  C 1336.78   307.73  1338.81   305.70  1338.81   303.20 " style="stroke-width: 1.42 ;&st7; " /><path d=" M 1270.82,  303.20  C 1270.82   300.70  1268.79   298.67  1266.29   298.67 " style="stroke-width: 1.42 ;&st7; " /><path d=" M 1266.29,  298.67  C 1263.79   298.67  1261.76   300.70  1261.76   303.20 " style="stroke-width: 1.42 ;&st7; " /><path d=" M 1261.76,  303.20  C 1261.76   305.70  1263.79   307.73  1266.29   307.73 " style="stroke-width: 1.42 ;&st7; " /><path d=" M 1266.29,  307.73  C 1268.79   307.73  1270.82   305.70  1270.82   303.20 " style="stroke-width: 1.42 ;&st7; " /><text style="&st18;" transform="matrix(&st17;  1126.62  242.08 )">Y</text><text style="&st18;" transform="matrix(&st16;  1396.25  179.95 )">1</text><text style="&st18;" transform="matrix(&st17;  1262.59  242.08 )">Y</text><text style="&st18;" transform="matrix(&st16;  1255.41  305.17 )">7</text><text style="&st18;" transform="matrix(&st16;  1263.96  305.17 )">B</text><text style="&st18;" transform="matrix(&st16;  1327.49  179.95 )">2</text><text style="&st18;" transform="matrix(&st17;  1330.58  246.42 )">Y-B</text><text style="&st18;" transform="matrix(&st16;  1258.84  315.37 )">ICL+</text><text style="&st18;" transform="matrix(&st16;  1456.2  305.17 )">10</text><text style="&st18;" transform="matrix(&st16;  1331.95  305.17 )">B</text><text style="&st18;" transform="matrix(&st16;  1382.74  112.51 )">L29</text><text ewd:textID="45" style="&st18;" transform="matrix(&st16;  1382.74  119.62 )">Lower No. 1 Instrument <tspan dy="6" x="0">Panel Airbag Assembly</tspan></text><text style="&st18;" transform="matrix(&st16;  1463.44  315.37 )">DK-</text><text style="&st18;" transform="matrix(&st16;  1326.82  315.37 )">ICL-</text><text ewd:textID="34" style="&st18;" transform="matrix(&st16;  1110.79  119.62 )">Curtain Shield Airbag <tspan dy="6" x="0">Assembly Circuit RH</tspan></text><text style="&st18;" transform="matrix(&st16;  1246.77  112.51 )">R14</text><text style="&st18;" transform="matrix(&st16;  1467.92  305.17 )">A</text><text style="&st18;" transform="matrix(&st16;  1323.4  305.17 )">6</text><text style="&st18;" transform="matrix(&st16;  1260.28  179.95 )">1</text><text style="&st18;" transform="matrix(&st16;  1395.45  315.37 )">DK+</text><text style="&st18;" transform="matrix(&st17;  1466.56  242.08 )">Y</text><text style="&st18;" transform="matrix(&st16;  1463.47  179.95 )">2</text><text style="&st18;" transform="matrix(&st16;  1399.93  305.17 )">A</text><text style="&st18;" transform="matrix(&st16;  1391.39  305.17 )">9</text><text style="&st18;" transform="matrix(&st17;  1398.57  246.42 )">Y-B</text><text style="&st18;" transform="matrix(&st16;  1133.14  168.07 )">ICR+</text><text style="&st18;" transform="matrix(&st16;  1201.13  168.07 )">ICR-</text><text style="&st18;" transform="matrix(&st16;  1269.12  168.07 )">ICL+</text><text style="&st18;" transform="matrix(&st16;  1337.11  168.07 )">ICL-</text><text style="&st18;" transform="matrix(&st16;  1405.1  168.07 )">DK+</text><text style="&st18;" transform="matrix(&st16;  1473.09  168.07 )">DK-</text><text style="&st18;" transform="matrix(&st16;  1255.26  328.09 )">L16(A),R1(B),S1(C)</text><text ewd:textID="31" style="&st18;" transform="matrix(&st16;  1255.26  335.2 )">Center Airbag Sensor Assembly</text><text style="&st18;" transform="matrix(&st16;  1124.3  179.95 )">1</text><text style="&st18;" transform="matrix(&st16;  1184.24  305.17 )">10</text><text style="&st18;" transform="matrix(&st16;  1110.79  112.51 )">S11</text><text ewd:textID="33" style="&st18;" transform="matrix(&st16;  1246.77  119.62 )">Curtain Shield Airbag <tspan dy="6" x="0">Assembly Circuit LH</tspan></text><text style="&st18;" transform="matrix(&st16;  1190.35  315.37 )">ICR-</text><text style="&st18;" transform="matrix(&st16;  1195.83  305.17 )">C</text><text style="&st18;" transform="matrix(&st16;  1122.36  315.37 )">ICR+</text><text style="&st18;" transform="matrix(&st17;  1194.6  246.42 )">Y-B</text><text style="&st18;" transform="matrix(&st16;  1191.51  179.95 )">2</text><text style="&st18;" transform="matrix(&st16;  1127.84  305.17 )">C</text><text style="&st18;" transform="matrix(&st16;  1119.43  305.17 )">9</text><text style="&st18;" transform="matrix(&st16;  1191.51  491.01 )">2</text><text style="&st18;" transform="matrix(&st16;  1124.3  491.01 )">1</text><text style="&st18;" transform="matrix(&st16;  1195.97  356.73 )">B</text><text style="&st18;" transform="matrix(&st16;  1189.86  346.53 )">SFL-</text><text style="&st18;" transform="matrix(&st17;  1126.62  433.39 )">Y-B</text><text style="&st18;" transform="matrix(&st17;  1194.6  429.04 )">Y</text><text style="&st18;" transform="matrix(&st16;  1184.24  356.73 )">10</text><text style="&st18;" transform="matrix(&st16;  1121.87  346.53 )">SFL+</text><text style="&st18;" transform="matrix(&st16;  1127.98  356.73 )">B</text><text ewd:textID="52" style="&st18;" transform="matrix(&st16;  1110.79  551.91 )">Side Airbag Squib Circuit LH</text><text style="&st18;" transform="matrix(&st16;  1110.79  544.81 )">R3</text><text style="&st18;" transform="matrix(&st16;  1133.14  502.9 )">SFL+</text><text style="&st18;" transform="matrix(&st16;  1201.13  502.9 )">SFL-</text><text style="&st18;" transform="matrix(&st16;  1119.43  356.73 )">9</text><text style="&st18;" transform="matrix(&st16;  1255.41  356.73 )">7</text><text style="&st18;" transform="matrix(&st16;  1337.11  502.9 )">SFR-</text><text style="&st18;" transform="matrix(&st16;  1269.12  502.9 )">SFR+</text><text style="&st18;" transform="matrix(&st16;  1246.77  544.81 )">S4</text><text ewd:textID="53" style="&st18;" transform="matrix(&st16;  1246.77  551.91 )">Side Airbag Squib Circuit RH</text><text style="&st18;" transform="matrix(&st16;  1263.82  356.73 )">C</text><text style="&st18;" transform="matrix(&st16;  1257.35  346.53 )">SFR+</text><text style="&st18;" transform="matrix(&st16;  1323.4  356.73 )">6</text><text style="&st18;" transform="matrix(&st17;  1330.58  429.04 )">Y</text><text style="&st18;" transform="matrix(&st17;  1262.59  433.39 )">Y-B</text><text style="&st18;" transform="matrix(&st16;  1325.34  346.53 )">SFR-</text><text style="&st18;" transform="matrix(&st16;  1331.8  356.73 )">C</text><text style="&st18;" transform="matrix(&st16;  1260.28  491.01 )">1</text><text style="&st18;" transform="matrix(&st16;  1327.49  491.01 )">2</text><text ewd:textID="3" style="&st18;" transform="matrix(&st16;  1365.75  632.65 )">* 3 :Before Nov. 2010 Production</text><text ewd:textID="4" style="&st18;" transform="matrix(&st16;  1365.75  641.15 )">* 4 :From Nov. 2010 Production</text></svg>