﻿<?xml version="1.0" encoding="utf-8"?>
<!DOCTYPE svg PUBLIC "-//W3C//DTD SVG 1.0//EN" "http://www.w3.org/TR/2001/REC-SVG-20010904/DTD/svg10.dtd"[
	<!ENTITY ns_flows "http://ns.adobe.com/Flows/1.0/">
	<!ENTITY ns_svg "http://www.w3.org/2000/svg">
	<!ENTITY ns_xlink "http://www.w3.org/1999/xlink">
	<!ENTITY st0 "font-size:7px;font-family:'MS-PGothic';adobe-font-script:japanese;">
	<!ENTITY st1 "font-size:6px;font-family:'ArialMT';">
	<!-- White fill  -->
	<!ENTITY st2 "fill:#FFFFFF;stroke:#000000; stroke-width:1.41;stroke-linecap:round;stroke-linejoin:round;">
	<!-- Yellow fill  -->
	<!ENTITY st3 "fill:#FFFFCC;stroke:#FFFFCC; stroke-width:0.1;stroke-linecap:round;stroke-linejoin:round;">
	<!-- Gray fill  -->
	<!ENTITY st4 "fill:#CCCCCC;stroke:#CCCCCC; stroke-width:0.1;stroke-linecap:round;stroke-linejoin:round;">
	<!-- Light-blue fill -->
	<!ENTITY st5 "fill:#CCECF4;stroke:#000000; stroke-width:1.133;stroke-linecap:round;stroke-linejoin:round;">
	<!ENTITY st6 "fill:none;stroke-linecap:butt; stroke-linejoin:round;">
	<!ENTITY st7 "fill:none;stroke:#000000;stroke-linecap:round;stroke-linejoin:round;">
	<!ENTITY st8 "enable-background:new    ;">
	<!-- Black fill -->
	<!ENTITY st9 "fill:#000000;stroke:#000000; stroke-linecap:round;stroke-linejoin:round;">
	<!-- SRS note   -->
	<!ENTITY st10 "font-size:9px;font-family:'ArialMT';">
	<!ENTITY st11 "font-size:9px;font-family:'Svg Symbol';">
	<!ENTITY st12 "font-size:6px;font-family:'Svg Symbol';">
	<!ENTITY st13 "fill:none;stroke:#ff0000;stroke-linecap:round;stroke-linejoin:round;">
	<!-- Yellow fill  -->
	<!ENTITY st14 "fill:#FFFF00;stroke:#FFFF00; stroke-width:0.1;stroke-linecap:round;stroke-linejoin:round;">
	<!ENTITY st15 "font-size:6px;font-family:'MS-PGothic';adobe-font-script:japanese;">
	<!ENTITY st16 "1.00 0.00 0.00 1.00">
	<!ENTITY st17 "0.00 -1.00 1.00 0.00">
	<!ENTITY st18 "font-size:6px;font-family:'Arial';">
	<!ENTITY st19 "font-size:9px;font-family:'Arial';">
	<!ENTITY st20 "font-size:6px;font-family:'MS-PGothic','MS PGothic';adobe-font-script:japanese;">
	<!ENTITY st21 "font-size:7px;font-family:'MS-PGothic','MS PGothic';adobe-font-script:japanese;">
	<!ATTLIST svg
		xmlns:ewd CDATA #FIXED "http://shcl.co.jp/ewd"
		xmlns:a CDATA #FIXED "http://ns.adobe.com/AdobeSVGViewerExtensions/3.0/"
		ewd:ver CDATA #IMPLIED
	>
	<!ATTLIST a
		ewd:lineID CDATA #IMPLIED
		ewd:groupID CDATA #IMPLIED
		ewd:figtype CDATA #IMPLIED
		ewd:code CDATA #IMPLIED
		ewd:figID CDATA #IMPLIED
		ewd:pinNo CDATA #IMPLIED
		ewd:comment CDATA #IMPLIED >
	<!ATTLIST g
		ewd:lineID CDATA #IMPLIED
		ewd:groupID CDATA #IMPLIED
		ewd:figtype CDATA #IMPLIED
		ewd:code CDATA #IMPLIED
		ewd:figID CDATA #IMPLIED
		ewd:pinNo CDATA #IMPLIED
		ewd:comment CDATA #IMPLIED >
	<!ATTLIST text
		ewd:textID CDATA #IMPLIED >
	<!ATTLIST title
		ewd:textID CDATA #IMPLIED >
]>
<!-- Generator: Shintec Hozumi YS   -->
<svg onload="call_execInitLoadProc_svg('system')" style="overflow:visible;  enable-background:new 0 0 3087.817 710.000" viewBox="0 0 3087.817 710.000" height="710.000" width="3087.817" xml:space="preserve" ewd:ver="L2.1.2.6" xmlns="&ns_svg;" xmlns:a="http://ns.adobe.com/AdobeSVGViewerExtensions/3.0/" xmlns:ewd="http://shcl.co.jp/ewd" xmlns:xlink="&ns_xlink;"><script type="text/javascript" xlink:href="../../../../../system/js/ewd/fig/svgfig.js" xmlns:xlink="http://www.w3.org/1999/xlink" /><defs><font horiz-adv-x="1229"><font-face font-family="Svg Symbol" units-per-em="2048" panose-1="5 5 1 2 1 7 6 2 5 7" ascent="2059" descent="450" alphabetic="0" /><missing-glyph d="M 103,0 l 0,1280 1024,0 0,-1280 -1024,0 z m 32,32 l 960,0 0,1216 -960,0 0,-1216 z" /><glyph unicode="" horiz-adv-x="1573" d="M 1517,0 l -567,0 24,279 q 141,59 207.5,168 66.5,109 66.5,306    0,272 -132.5,417.5 -132.5,145.5 -333.5,145.5 -194,0 -328,-147.5 -134,-147.5 -134,-401.5 0,-200 68.5,-319 68.5,-119     206.5,-169 l 25,-279 -564,0 0,279 35,0 q 3,-61 32,-83 45,-35 137,-35 l 270,0 0,70 q -210,61 -324.5,209 -114.5,148     -114.5,349 0,252 186.5,425 186.5,173 504.5,173 195,0 358.5,-73.5 163.5,-73.5 252,-214.5 88.5,-141 88.5,-310 0,-207     -121.5,-360.5 -121.5,-153.5 -317.5,-197.5 l -8,-70 275,0 q 92,0 128,28 36,28 42,90 l 38,0 0,-279 z" /></font></defs>
<g id="ewd_top"><a ewd:code="L93" ewd:figID="1" ewd:figtype="conn" style="cursor:pointer;"><path d=" M 1453.26,  562.69  L 1453.26,  579.69  L 1470.25,  579.69  L 1470.25,  562.69  L 1453.26,  562.69 " style="&st5;" /><title ewd:textID="23">Junction Connector</title></a><a ewd:code="S21,S23" ewd:figID="2" ewd:figtype="conn" style="cursor:pointer;"><path d=" M  858.36,  367.22  L  858.36,  401.22  L  943.34,  401.22  L  943.34,  367.22  L  858.36,  367.22 " style="&st5;" /><title ewd:textID="34">Theft Warning Siren Assembly</title></a><a ewd:code="A3" ewd:figID="3" ewd:figtype="conn" style="cursor:pointer;"><path d=" M 2475.25,  565.52  L 2475.25,  565.52  C 2476.24   564.42  2477.32   563.69  2478.73   563.19  L 2478.73,  563.19  C 2483.15   561.61  2488.01   563.91  2489.59   568.33  L 2489.59,  568.33  C 2491.17   572.75  2488.87   577.62  2484.45   579.20  L 2484.45,  579.20  C 2480.03   580.78  2475.16   578.47  2473.58   574.05  L 2473.58,  574.05  L 2464.59,  579.69  L 2464.59,  565.52 " style="&st5;" /><title ewd:textID="24">Low Pitched Horn Assembly</title></a><a ewd:code="U13,U3" ewd:figID="4" ewd:figtype="conn" style="cursor:pointer;"><path d=" M 2192.63,  248.24  L 2192.63,  307.73  L 2260.62,  307.73  L 2260.62,  248.24  L 2192.63,  248.24 " style="&st5;" /><title ewd:textID="26">Map Light Assembly</title></a><a ewd:code="Q1" ewd:figID="5" ewd:figtype="conn" style="cursor:pointer;"><path d=" M 1206.80,  392.72  L 1257.79,  392.72  L 1257.79,  341.73  L 1206.80,  341.73  L 1206.80,  392.72 " style="&st5;" /><title ewd:textID="29">Rear Door with Motor Lock Assembly LH</title></a><a ewd:code="P1" ewd:figID="6" ewd:figtype="conn" style="cursor:pointer;"><path d=" M 1104.82,  392.72  L 1155.81,  392.72  L 1155.81,  341.73  L 1104.82,  341.73  L 1104.82,  392.72 " style="&st5;" /><title ewd:textID="30">Rear Door with Motor Lock Assembly RH</title></a><a ewd:code="FUSE5" ewd:figID="7" ewd:figtype="rb" style="cursor:pointer;"><path d=" M  148.73,   35.78  L  148.73,   78.27  L  174.22,   78.27  L  174.22,   35.78  L  148.73,   35.78 " style="&st5;" /></a><a ewd:code="R18" ewd:figID="8" ewd:figtype="conn" style="cursor:pointer;"><path d=" M 1631.73,  511.70  L 1682.72,  511.70  L 1682.72,  460.71  L 1631.73,  460.71  L 1631.73,  511.70 " style="&st5;" /><title ewd:textID="7">Back Door Lock Assembly</title></a><a ewd:code="L93" ewd:figID="9" ewd:figtype="conn" style="cursor:pointer;"><path d=" M 1597.73,  562.69  L 1597.73,  579.69  L 1614.73,  579.69  L 1614.73,  562.69  L 1597.73,  562.69 " style="&st5;" /><title ewd:textID="23">Junction Connector</title></a><a ewd:code="V11,V12" ewd:figID="10" ewd:figtype="conn" style="cursor:pointer;"><path d=" M  756.37,  367.22  L  756.37,  401.22  L  790.37,  401.22  L  790.37,  367.22  L  756.37,  367.22 " style="&st5;" /><title ewd:textID="17">Glass Breakage Sensor (Back Door Glass)</title></a><a ewd:code="A47" ewd:figID="11" ewd:figtype="conn" style="cursor:pointer;"><path d=" M  688.38,  324.73  L  688.38,  358.73  L  671.39,  358.73  L  671.39,  324.73  L  688.38,  324.73 " style="&st5;" /><title ewd:textID="12">Engine Hood Courtesy Switch Assembly</title></a><a ewd:code="V13" ewd:figID="12" ewd:figtype="conn" style="cursor:pointer;"><path d=" M  756.37,  503.20  L  756.37,  537.20  L  790.37,  537.20  L  790.37,  503.20  L  756.37,  503.20 " style="&st5;" /><title ewd:textID="18">Glass Breakage Sensor (Back Window Fix Glass)</title></a><a ewd:code="L62,L63" ewd:figID="13" ewd:figtype="conn" style="cursor:pointer;"><path d=" M 2609.06,   35.78  L 2609.06,   86.77  L 2830.03,   86.77  L 2830.03,   35.78  L 2609.06,   35.78 " style="&st5;" /><title ewd:textID="8">Certification ECU Assembly</title></a><a ewd:code="L94" ewd:figID="14" ewd:figtype="conn" style="cursor:pointer;"><path d=" M 2617.56,  307.73  L 2617.56,  333.23  L 2668.55,  333.23  L 2668.55,  307.73  L 2617.56,  307.73 " style="&st5;" /><title ewd:textID="23">Junction Connector</title></a><a ewd:code="L55" ewd:figID="15" ewd:figtype="conn" style="cursor:pointer;"><path d=" M 1997.17,  282.24  L 1997.17,  316.23  L 2031.16,  316.23  L 2031.16,  282.24  L 1997.17,  282.24 " style="&st5;" /><title ewd:textID="35">Turn Signal Flasher Assembly</title></a><a ewd:code="R13" ewd:figID="16" ewd:figtype="conn" style="cursor:pointer;"><path d=" M 1954.67,  350.23  L 1954.67,  316.23  L 1937.68,  316.23  L 1937.68,  350.23  L 1954.67,  350.23 " style="&st5;" /><title ewd:textID="27">Rear Door Courtesy Light Switch Assembly LH</title></a><a ewd:code="R28,R29" ewd:figID="17" ewd:figtype="conn" style="cursor:pointer;"><path d=" M 1648.72,  197.25  L 1648.72,  222.75  L 1665.72,  222.75  L 1665.72,  197.25  L 1648.72,  197.25 " style="&st5;" /><title ewd:textID="23">Junction Connector</title></a><a ewd:code="R31" ewd:figID="18" ewd:figtype="conn" style="cursor:pointer;"><path d=" M 1648.72,  562.69  L 1665.72,  562.69  L 1665.72,  579.69  L 1648.72,  579.69  L 1648.72,  562.69 " style="&st5;" /><title ewd:textID="23">Junction Connector</title></a><a ewd:code="L92" ewd:figID="19" ewd:figtype="conn" style="cursor:pointer;"><path d=" M 1708.21,  562.69  L 1725.21,  562.69  L 1725.21,  579.69  L 1708.21,  579.69  L 1708.21,  562.69 " style="&st5;" /><title ewd:textID="23">Junction Connector</title></a><a ewd:code="N8" ewd:figID="20" ewd:figtype="conn" style="cursor:pointer;"><path d=" M 1436.26,  392.72  L 1487.25,  392.72  L 1487.25,  341.73  L 1436.26,  341.73  L 1436.26,  392.72 " style="&st5;" /><title ewd:textID="16">Front Door Lock Assembly RH</title></a><a ewd:code="A52,A53" ewd:figID="21" ewd:figtype="conn" style="cursor:pointer;"><path d=" M   93.48,  435.21  L   93.48,  460.71  L  110.48,  460.71  L  110.48,  435.21  L   93.48,  435.21 " style="&st5;" /><title ewd:textID="23">Junction Connector</title></a><a ewd:code="A65" ewd:figID="22" ewd:figtype="conn" style="cursor:pointer;"><path d=" M   95.65,  514.53  L   95.65,  514.53  C   96.64   513.42    97.72   512.70    99.12   512.20  L   99.12,  512.20  C  103.54   510.61   108.41   512.92   109.99   517.34  L  109.99,  517.34  C  111.57   521.76   109.27   526.62   104.85   528.20  L  104.85,  528.20  C  100.43   529.79    95.56   527.48    93.98   523.06  L   93.98,  523.06  L   84.99,  528.70  L   84.99,  514.53 " style="&st5;" /><title ewd:textID="33">Security Horn Assembly</title></a><a ewd:code="S20" ewd:figID="23" ewd:figtype="conn" style="cursor:pointer;"><path d=" M 1121.81,  562.69  L 1121.81,  579.69  L 1138.81,  579.69  L 1138.81,  562.69  L 1121.81,  562.69 " style="&st5;" /><title ewd:textID="23">Junction Connector</title></a><a ewd:code="FUSE20" ewd:figID="24" ewd:figtype="rb" style="cursor:pointer;"><path d=" M   89.24,   35.78  L   89.24,   78.27  L  114.73,   78.27  L  114.73,   35.78  L   89.24,   35.78 " style="&st5;" /></a><a ewd:code="L7,L8" ewd:figID="25" ewd:figtype="conn" style="cursor:pointer;"><path d=" M  390.93,   35.78  L  390.93,   86.77  L 2328.61,   86.77  L 2328.61,   35.78  L  390.93,   35.78 " style="&st5;" /><title ewd:textID="25">Main Body ECU</title></a><a ewd:code="FUSE5" ewd:figID="26" ewd:figtype="rb" style="cursor:pointer;"><path d=" M 2961.76,   35.78  L 2961.76,   78.27  L 2987.25,   78.27  L 2987.25,   35.78  L 2961.76,   35.78 " style="&st5;" /></a><a ewd:code="S12" ewd:figID="27" ewd:figtype="conn" style="cursor:pointer;"><path d=" M 2728.04,  392.72  L 2728.04,  435.21  L 2830.03,  435.21  L 2830.03,  392.72  L 2728.04,  392.72 " style="&st5;" /><title ewd:textID="11">Door Control Receiver</title></a><a ewd:code="L95" ewd:figID="28" ewd:figtype="conn" style="cursor:pointer;"><path d=" M 2617.56,  214.25  L 2617.56,  239.75  L 2668.55,  239.75  L 2668.55,  214.25  L 2617.56,  214.25 " style="&st5;" /><title ewd:textID="23">Junction Connector</title></a><a ewd:code="O8" ewd:figID="29" ewd:figtype="conn" style="cursor:pointer;"><path d=" M 1359.77,  392.72  L 1410.76,  392.72  L 1410.76,  341.73  L 1359.77,  341.73  L 1359.77,  392.72 " style="&st5;" /><title ewd:textID="15">Front Door Lock Assembly LH</title></a><a ewd:code="R31" ewd:figID="30" ewd:figtype="conn" style="cursor:pointer;"><path d=" M 1223.80,  562.69  L 1223.80,  579.69  L 1240.79,  579.69  L 1240.79,  562.69  L 1223.80,  562.69 " style="&st5;" /><title ewd:textID="23">Junction Connector</title></a><a ewd:code="FUSE5" ewd:figID="31" ewd:figtype="rb" style="cursor:pointer;"><path d=" M   21.25,   35.78  L   21.25,   78.27  L   46.74,   78.27  L   46.74,   35.78  L   21.25,   35.78 " style="&st5;" /></a><a ewd:code="S20" ewd:figID="32" ewd:figtype="conn" style="cursor:pointer;"><path d=" M 2804.53,  494.70  L 2821.53,  494.70  L 2821.53,  511.70  L 2804.53,  511.70  L 2804.53,  494.70 " style="&st5;" /><title ewd:textID="23">Junction Connector</title></a><a ewd:code="R6" ewd:figID="33" ewd:figtype="conn" style="cursor:pointer;"><path d=" M 1835.69,  350.23  L 1835.69,  316.23  L 1818.70,  316.23  L 1818.70,  350.23  L 1835.69,  350.23 " style="&st5;" /><title ewd:textID="13">Front Door Courtesy Light Switch Assembly LH</title></a><a ewd:code="S5" ewd:figID="34" ewd:figtype="conn" style="cursor:pointer;"><path d=" M 1767.70,  350.23  L 1767.70,  316.23  L 1750.71,  316.23  L 1750.71,  350.23  L 1767.70,  350.23 " style="&st5;" /><title ewd:textID="14">Front Door Courtesy Light Switch Assembly RH</title></a><a ewd:code="L89" ewd:figID="35" ewd:figtype="conn" style="cursor:pointer;"><path d=" M 1376.77,  163.26  L 1470.25,  163.26  L 1470.25,  180.26  L 1376.77,  180.26  L 1376.77,  163.26 " style="&st5;" /><title ewd:textID="23">Junction Connector</title></a><a ewd:code="L92" ewd:figID="36" ewd:figtype="conn" style="cursor:pointer;"><path d=" M 1376.77,  562.69  L 1376.77,  579.69  L 1393.77,  579.69  L 1393.77,  562.69  L 1376.77,  562.69 " style="&st5;" /><title ewd:textID="23">Junction Connector</title></a><a ewd:code="1" ewd:figID="37" ewd:figtype="rb" style="cursor:pointer;"><path d=" M  135.98,  248.24  L   93.48,  248.24  L   93.48,  282.24  L  135.98,  282.24  L  135.98,  248.24 " style="&st5;" /></a><a ewd:code="FUSE5" ewd:figID="38" ewd:figtype="rb" style="cursor:pointer;"><path d=" M 2145.89,  112.27  L 2145.89,  154.76  L 2171.39,  154.76  L 2171.39,  112.27  L 2145.89,  112.27 " style="&st5;" /></a><a ewd:code="1" ewd:figID="39" ewd:figtype="rb" style="cursor:pointer;"><path d=" M 2328.61,  188.75  L 2328.61,  239.75  L 2566.57,  239.75  L 2566.57,  188.75  L 2328.61,  188.75 " style="&st5;" /></a><a ewd:code="FUSE38" ewd:figID="40" ewd:figtype="rb" style="cursor:pointer;"><path d=" M 2434.84,   35.78  L 2434.84,   78.27  L 2460.34,   78.27  L 2460.34,   35.78  L 2434.84,   35.78 " style="&st5;" /></a><a ewd:code="L129" ewd:figID="41" ewd:figtype="conn" style="cursor:pointer;"><path d=" M 2898.02,  146.26  L 2940.51,  146.26  L 2940.51,  163.26  L 2898.02,  163.26  L 2898.02,  146.26 " style="&st5;" /><title ewd:textID="23">Junction Connector</title></a><a ewd:code="L27" ewd:figID="42" ewd:figtype="conn" style="cursor:pointer;"><path d=" M 2847.02,  426.71  L 3067.99,  426.71  L 3067.99,  256.74  L 2847.02,  256.74  L 2847.02,  426.71 " style="&st5;" /><title ewd:textID="9">Combination Meter Assembly</title></a><a ewd:code="S10" ewd:figID="43" ewd:figtype="conn" style="cursor:pointer;"><path d=" M 1895.18,  350.23  L 1895.18,  316.23  L 1878.19,  316.23  L 1878.19,  350.23  L 1895.18,  350.23 " style="&st5;" /><title ewd:textID="28">Rear Door Courtesy Light Switch Assembly RH</title></a><a ewd:code="S20" ewd:figID="44" ewd:figtype="conn" style="cursor:pointer;"><path d=" M  917.85,  503.20  L  934.84,  503.20  L  934.84,  520.20  L  917.85,  520.20  L  917.85,  503.20 " style="&st5;" /><title ewd:textID="23">Junction Connector</title></a><a ewd:code="A1" ewd:figID="45" ewd:figtype="conn" style="cursor:pointer;"><path d=" M 2526.24,  565.52  L 2526.24,  565.52  C 2527.23   564.42  2528.32   563.69  2529.72   563.19  L 2529.72,  563.19  C 2534.14   561.61  2539.00   563.91  2540.58   568.33  L 2540.58,  568.33  C 2542.16   572.75  2539.86   577.62  2535.44   579.20  L 2535.44,  579.20  C 2531.02   580.78  2526.15   578.47  2524.57   574.05  L 2524.57,  574.05  L 2515.58,  579.69  L 2515.58,  565.52 " style="&st5;" /><title ewd:textID="19">High Pitched Horn Assembly</title></a><a ewd:code="2" ewd:figID="46" ewd:figtype="jb" style="cursor:pointer;"><path d=" M 2141.64,  205.75  L 2141.64,  256.74  L 2167.14,  256.74  L 2167.14,  205.75  L 2141.64,  205.75 " style="&st4;" /></a><a ewd:code="3" ewd:figID="47" ewd:figtype="jb" style="cursor:pointer;"><path d=" M 2141.64,  307.73  L 2141.64,  358.73  L 2167.14,  358.73  L 2167.14,  307.73  L 2141.64,  307.73 " style="&st4;" /></a><a ewd:code="1" ewd:figID="48" ewd:figtype="jb" style="cursor:pointer;"><path d=" M 2362.61,  154.76  L 2362.61,  163.26  L 2456.09,  163.26  L 2456.09,  154.76  L 2362.61,  154.76 " style="&st4;" /></a><a ewd:code="3" ewd:figID="49" ewd:figtype="jb" style="cursor:pointer;"><path d=" M   17.00,  375.72  L   17.00,  426.71  L   42.49,  426.71  L   42.49,  375.72  L   17.00,  375.72 " style="&st4;" /></a><a ewd:code="2" ewd:figID="50" ewd:figtype="jb" style="cursor:pointer;"><path d=" M 2957.51,  137.76  L 2983.00,  137.76  L 2983.00,  188.75  L 2957.51,  188.75  L 2957.51,  137.76 " style="&st4;" /></a><a ewd:code="3" ewd:figID="51" ewd:figtype="jb" style="cursor:pointer;"><path d=" M 1742.21,  163.26  L 1742.21,  214.25  L 1767.70,  214.25  L 1767.70,  163.26  L 1742.21,  163.26 " style="&st4;" /></a><a ewd:code="2" ewd:figID="52" ewd:figtype="jb" style="cursor:pointer;"><path d=" M 1113.31,   86.77  L 1113.31,  129.26  L 1240.79,  129.26  L 1240.79,   86.77  L 1113.31,   86.77 " style="&st4;" /></a><a ewd:code="3" ewd:figID="53" ewd:figtype="jb" style="cursor:pointer;"><path d=" M 1997.17,  154.76  L 1997.17,  205.75  L 2022.66,  205.75  L 2022.66,  154.76  L 1997.17,  154.76 " style="&st4;" /></a><a ewd:code="2" ewd:figID="54" ewd:figtype="jb" style="cursor:pointer;"><path d=" M 1699.72,   86.77  L 1699.72,  129.26  L 1835.69,  129.26  L 1835.69,   86.77  L 1699.72,   86.77 " style="&st4;" /></a><a ewd:code="2" ewd:figID="55" ewd:figtype="jb" style="cursor:pointer;"><path d=" M  543.91,   86.77  L  543.91,  129.26  L  781.87,  129.26  L  781.87,   86.77  L  543.91,   86.77 " style="&st4;" /></a><a ewd:code="3" ewd:figID="56" ewd:figtype="jb" style="cursor:pointer;"><path d=" M 2694.05,  214.25  L 2694.05,  265.24  L 2719.55,  265.24  L 2719.55,  214.25  L 2694.05,  214.25 " style="&st4;" /></a><a ewd:code="2" ewd:figID="57" ewd:figtype="jb" style="cursor:pointer;"><path d=" M   17.00,  154.76  L   17.00,  205.75  L   42.49,  205.75  L   42.49,  154.76  L   17.00,  154.76 " style="&st4;" /></a><a ewd:code="3" ewd:figID="58" ewd:figtype="jb" style="cursor:pointer;"><path d=" M 1589.23,  384.22  L 1589.23,  435.21  L 1614.73,  435.21  L 1614.73,  384.22  L 1589.23,  384.22 " style="&st4;" /></a><a ewd:code="2" ewd:figID="59" ewd:figtype="jb" style="cursor:pointer;"><path d=" M 2362.61,   35.78  L 2422.10,   35.78  L 2422.10,  103.77  L 2362.61,  103.77  L 2362.61,   35.78 " style="&st4;" /></a><a ewd:code="2" ewd:figID="60" ewd:figtype="jb" style="cursor:pointer;"><path d=" M  203.97,   35.78  L  203.97,  256.74  L  484.42,  256.74  L  484.42,   86.77  L  382.44,   86.77  L  382.44,   35.78  L  203.97,   35.78 " style="&st4;" /></a><a ewd:code="1" ewd:figID="61" ewd:figtype="jb" style="cursor:pointer;"><path d=" M 2328.61,  265.24  L 2328.61,  273.74  L 2541.08,  273.74  L 2541.08,  265.24  L 2328.61,  265.24 " style="&st4;" /></a><a ewd:code="2" ewd:figID="62" ewd:figtype="jb" style="cursor:pointer;"><path d=" M 2864.02,   35.78  L 2923.51,   35.78  L 2923.51,  103.77  L 2864.02,  103.77  L 2864.02,   35.78 " style="&st4;" /></a><a ewd:code="2" ewd:figID="63" ewd:figtype="jb" style="cursor:pointer;"><path d=" M 2099.15,   86.77  L 2099.15,  129.26  L 2124.65,  129.26  L 2124.65,   86.77  L 2099.15,   86.77 " style="&st4;" /></a><a ewd:code="3" ewd:figID="64" ewd:figtype="jb" style="cursor:pointer;"><path d=" M 1869.69,  163.26  L 1954.67,  163.26  L 1954.67,  214.25  L 1869.69,  214.25  L 1869.69,  163.26 " style="&st4;" /></a><a ewd:code="FUSE5" ewd:figID="65" ewd:figtype="fuse" style="cursor:pointer;"><path d=" M 2961.76,   35.78  L 2961.76,   78.27  L 2987.25,   78.27  L 2987.25,   35.78  L 2961.76,   35.78 " style="&st7;" /></a><a ewd:code="FUSE5" ewd:figID="66" ewd:figtype="fuse" style="cursor:pointer;"><path d=" M 2145.89,  112.27  L 2145.89,  154.76  L 2171.39,  154.76  L 2171.39,  112.27  L 2145.89,  112.27 " style="&st7;" /></a><a ewd:code="FUSE47" ewd:figID="67" ewd:figtype="fuse" style="cursor:pointer;"><path d=" M  327.20,   35.78  L  327.20,   78.27  L  352.69,   78.27  L  352.69,   35.78  L  327.20,   35.78 " style="&st7;" /></a><a ewd:code="FUSE50" ewd:figID="68" ewd:figtype="fuse" style="cursor:pointer;"><path d=" M 2868.27,   35.78  L 2868.27,   78.27  L 2893.77,   78.27  L 2893.77,   35.78  L 2868.27,   35.78 " style="&st7;" /></a><a ewd:code="FUSE64" ewd:figID="69" ewd:figtype="fuse" style="cursor:pointer;"><path d=" M  208.22,   35.78  L  208.22,   78.27  L  233.71,   78.27  L  233.71,   35.78  L  208.22,   35.78 " style="&st7;" /></a><a ewd:code="FUSE48" ewd:figID="70" ewd:figtype="fuse" style="cursor:pointer;"><path d=" M  259.21,   35.78  L  259.21,   78.27  L  284.70,   78.27  L  284.70,   35.78  L  259.21,   35.78 " style="&st7;" /></a><a ewd:code="FUSE50" ewd:figID="71" ewd:figtype="fuse" style="cursor:pointer;"><path d=" M 2366.85,   35.78  L 2366.85,   78.27  L 2392.35,   78.27  L 2392.35,   35.78  L 2366.85,   35.78 " style="&st7;" /></a><a ewd:code="FUSE5" ewd:figID="72" ewd:figtype="fuse" style="cursor:pointer;"><path d=" M   21.25,   35.78  L   21.25,   78.27  L   46.74,   78.27  L   46.74,   35.78  L   21.25,   35.78 " style="&st7;" /></a><a ewd:code="FUSE20" ewd:figID="73" ewd:figtype="fuse" style="cursor:pointer;"><path d=" M   89.24,   35.78  L   89.24,   78.27  L  114.73,   78.27  L  114.73,   35.78  L   89.24,   35.78 " style="&st7;" /></a><a ewd:code="FUSE38" ewd:figID="74" ewd:figtype="fuse" style="cursor:pointer;"><path d=" M 2434.84,   35.78  L 2434.84,   78.27  L 2460.34,   78.27  L 2460.34,   35.78  L 2434.84,   35.78 " style="&st7;" /></a><a ewd:code="FUSE5" ewd:figID="75" ewd:figtype="fuse" style="cursor:pointer;"><path d=" M  148.73,   35.78  L  148.73,   78.27  L  174.22,   78.27  L  174.22,   35.78  L  148.73,   35.78 " style="&st7;" /></a><a ewd:lineID="1" style="cursor:pointer;"><path d=" M   33.99,  426.71  L   33.99,  656.18  L  875.35,  656.18  L  875.35,  477.71 " style="stroke:#FFE600;stroke-width: 5.10 ;&st6;" /></a><a ewd:lineID="2" style="cursor:pointer;"><path d=" M   33.99,  375.72  L   33.99,  205.75 " style="stroke:#FFE600;stroke-width: 5.10 ;&st6;" /></a><a ewd:lineID="3" style="cursor:pointer;"><path d=" M   33.99,  154.76  L   33.99,  103.77 " style="stroke:#FFE600;stroke-width: 5.10 ;&st6;" /></a><a ewd:lineID="4" style="cursor:pointer;"><path d=" M  101.98,  469.77  L  101.98,  511.70 " style="stroke:#000000;stroke-width: 5.10 ;&st6;" /></a><a ewd:lineID="5" style="cursor:pointer;"><path d=" M  101.98,  324.73  L  101.98,  426.15 " style="stroke:#000000;stroke-width: 5.10 ;&st6;" /></a><a ewd:lineID="6" style="cursor:pointer;"><path d=" M  101.98,  103.77  L  101.98,  205.75 " style="stroke:#000000;stroke-width: 5.10 ;&st6;" /></a><a ewd:lineID="7" style="cursor:pointer;"><path d=" M  101.98,  205.75  L  101.98,  197.25  L  110.48,  188.75  L  127.48,  188.75  L  127.48,  205.75 " style="stroke:#000000;stroke-width: 5.10 ;&st6;" /></a><a ewd:lineID="8" style="cursor:pointer;"><path d=" M  127.48,  324.73  L  127.48,  367.22  L  611.90,  367.22  L  611.90,  129.26 " style="stroke:#FFE600;stroke-width: 5.10 ;&st6;" /></a><a ewd:lineID="9" style="cursor:pointer;"><path d=" M  161.47,  103.77  L  161.47,  273.74  L  560.91,  273.74  L  560.91,  129.26 " style="stroke:#FFE600;stroke-width: 5.10 ;&st6;" /></a><a ewd:lineID="10" style="cursor:pointer;"><path d=" M  679.89,  477.71  L  679.89,  681.67 " style="stroke:#992903;stroke-width: 5.10 ;&st6;" /></a><a ewd:lineID="11" style="cursor:pointer;"><path d=" M  679.89,  460.71  L  679.89,  358.73 " style="stroke:#000000;stroke-width: 5.10 ;&st6;" /><path d=" M  679.89,  460.71  L  679.89,  358.73 " style="stroke:#FFFFFF;stroke-width: 4.53 ;&st6;" /><path d=" M  679.89,  460.71  L  679.89,  358.73 " style="stroke:#000000;stroke-width: 1.13 ;&st6;" /></a><a ewd:lineID="12" style="cursor:pointer;"><path d=" M  679.89,  324.73  L  679.89,  129.26 " style="stroke:#FF0000;stroke-width: 5.10 ;&st6;" /></a><a ewd:lineID="13" style="cursor:pointer;"><path d=" M  773.37,  410.28  L  773.37,  503.20 " style="stroke:#000000;stroke-width: 5.10 ;&st6;" /><path d=" M  773.37,  410.28  L  773.37,  503.20 " style="stroke:#FFFFFF;stroke-width: 4.53 ;&st6;" /></a><a ewd:lineID="14" style="cursor:pointer;"><path d=" M  773.37,  299.24  L  773.37,  358.16 " style="stroke:#56077D;stroke-width: 5.10 ;&st6;" /></a><a ewd:lineID="15" style="cursor:pointer;"><path d=" M  773.37,  220.48  L  773.37,  284.50 " style="stroke:#56077D;stroke-width: 5.10 ;&st6;" /></a><a ewd:lineID="16" style="cursor:pointer;"><path d=" M  773.37,  129.26  L  773.37,  205.75 " style="stroke:#56077D;stroke-width: 5.10 ;&st6;" /></a><a ewd:lineID="17" style="cursor:pointer;"><path d=" M  875.35,  462.97  L  875.35,  419.35 " style="stroke:#FFE600;stroke-width: 5.10 ;&st6;" /></a><a ewd:lineID="18" style="cursor:pointer;"><path d=" M  926.35,  520.20  L  926.35,  681.67 " style="stroke:#000000;stroke-width: 5.10 ;&st6;" /><path d=" M  926.35,  520.20  L  926.35,  681.67 " style="stroke:#FFFFFF;stroke-width: 4.53 ;&st6;" /><path d=" M  926.35,  520.20  L  926.35,  681.67 " style="stroke:#000000;stroke-width: 1.13 ;&st6;" /></a><a ewd:lineID="19" style="cursor:pointer;"><path d=" M  926.35,  503.20  L  926.35,  419.35 " style="stroke:#000000;stroke-width: 5.10 ;&st6;" /></a><a ewd:lineID="20" style="cursor:pointer;"><path d=" M  926.35,  220.48  L  926.35,  349.09 " style="stroke:#00A0C6;stroke-width: 5.10 ;&st6;" /></a><a ewd:lineID="21" style="cursor:pointer;"><path d=" M  926.35,   95.84  L  926.35,  205.75 " style="stroke:#00A0C6;stroke-width: 5.10 ;&st6;" /></a><a ewd:lineID="22" style="cursor:pointer;"><path d=" M 1130.31,  579.69  L 1130.31,  681.67 " style="stroke:#000000;stroke-width: 5.10 ;&st6;" /><path d=" M 1130.31,  579.69  L 1130.31,  681.67 " style="stroke:#FFFFFF;stroke-width: 4.53 ;&st6;" /><path d=" M 1130.31,  579.69  L 1130.31,  681.67 " style="stroke:#000000;stroke-width: 1.13 ;&st6;" /></a><a ewd:lineID="23" style="cursor:pointer;"><path d=" M 1130.31,  492.44  L 1130.31,  562.69 " style="stroke:#000000;stroke-width: 5.10 ;&st6;" /><path d=" M 1130.31,  492.44  L 1130.31,  562.69 " style="stroke:#FFFFFF;stroke-width: 4.53 ;&st6;" /><path d=" M 1130.31,  492.44  L 1130.31,  562.69 " style="stroke:#000000;stroke-width: 1.13 ;&st6;" /></a><a ewd:lineID="24" style="cursor:pointer;"><path d=" M 1130.31,  392.72  L 1130.31,  469.21 " style="stroke:#000000;stroke-width: 5.10 ;&st6;" /><path d=" M 1130.31,  392.72  L 1130.31,  469.21 " style="stroke:#FFFFFF;stroke-width: 4.53 ;&st6;" /><path d=" M 1130.31,  392.72  L 1130.31,  469.21 " style="stroke:#000000;stroke-width: 1.13 ;&st6;" /></a><a ewd:lineID="25" style="cursor:pointer;"><path d=" M 1130.31,  256.74  L 1130.31,  341.73 " style="stroke:#999999;stroke-width: 5.10 ;&st6;" /></a><a ewd:lineID="26" style="cursor:pointer;"><path d=" M 1130.31,  186.49  L 1130.31,  242.01 " style="stroke:#999999;stroke-width: 5.10 ;&st6;" /></a><a ewd:lineID="27" style="cursor:pointer;"><path d=" M 1130.31,  129.26  L 1130.31,  171.76 " style="stroke:#999999;stroke-width: 5.10 ;&st6;" /></a><a ewd:lineID="28" style="cursor:pointer;"><path d=" M 1232.29,  579.69  L 1232.29,  681.67 " style="stroke:#000000;stroke-width: 5.10 ;&st6;" /><path d=" M 1232.29,  579.69  L 1232.29,  681.67 " style="stroke:#FFFFFF;stroke-width: 4.53 ;&st6;" /><path d=" M 1232.29,  579.69  L 1232.29,  681.67 " style="stroke:#000000;stroke-width: 1.13 ;&st6;" /></a><a ewd:lineID="29" style="cursor:pointer;"><path d=" M 1232.29,  492.44  L 1232.29,  562.69 " style="stroke:#000000;stroke-width: 5.10 ;&st6;" /><path d=" M 1232.29,  492.44  L 1232.29,  562.69 " style="stroke:#FFFFFF;stroke-width: 4.53 ;&st6;" /><path d=" M 1232.29,  492.44  L 1232.29,  562.69 " style="stroke:#000000;stroke-width: 1.13 ;&st6;" /></a><a ewd:lineID="30" style="cursor:pointer;"><path d=" M 1232.29,  392.72  L 1232.29,  477.71 " style="stroke:#000000;stroke-width: 5.10 ;&st6;" /><path d=" M 1232.29,  392.72  L 1232.29,  477.71 " style="stroke:#FFFFFF;stroke-width: 4.53 ;&st6;" /><path d=" M 1232.29,  392.72  L 1232.29,  477.71 " style="stroke:#000000;stroke-width: 1.13 ;&st6;" /></a><a ewd:lineID="31" style="cursor:pointer;"><path d=" M 1232.29,  256.74  L 1232.29,  341.73 " style="stroke:#999999;stroke-width: 5.10 ;&st6;" /></a><a ewd:lineID="32" style="cursor:pointer;"><path d=" M 1232.29,  186.49  L 1232.29,  242.01 " style="stroke:#999999;stroke-width: 5.10 ;&st6;" /></a><a ewd:lineID="33" style="cursor:pointer;"><path d=" M 1232.29,  129.26  L 1232.29,  171.76 " style="stroke:#999999;stroke-width: 5.10 ;&st6;" /></a><a ewd:lineID="34" style="cursor:pointer;"><path d=" M 1385.27,  579.69  L 1385.27,  681.67 " style="stroke:#000000;stroke-width: 5.10 ;&st6;" /><path d=" M 1385.27,  579.69  L 1385.27,  681.67 " style="stroke:#FFFFFF;stroke-width: 4.53 ;&st6;" /><path d=" M 1385.27,  579.69  L 1385.27,  681.67 " style="stroke:#000000;stroke-width: 1.13 ;&st6;" /></a><a ewd:lineID="35" style="cursor:pointer;"><path d=" M 1385.27,  492.44  L 1385.27,  562.69 " style="stroke:#000000;stroke-width: 5.10 ;&st6;" /><path d=" M 1385.27,  492.44  L 1385.27,  562.69 " style="stroke:#FFFFFF;stroke-width: 4.53 ;&st6;" /><path d=" M 1385.27,  492.44  L 1385.27,  562.69 " style="stroke:#000000;stroke-width: 1.13 ;&st6;" /></a><a ewd:lineID="36" style="cursor:pointer;"><path d=" M 1385.27,  392.72  L 1385.27,  477.71 " style="stroke:#000000;stroke-width: 5.10 ;&st6;" /><path d=" M 1385.27,  392.72  L 1385.27,  477.71 " style="stroke:#FFFFFF;stroke-width: 4.53 ;&st6;" /><path d=" M 1385.27,  392.72  L 1385.27,  477.71 " style="stroke:#000000;stroke-width: 1.13 ;&st6;" /></a><a ewd:lineID="37" style="cursor:pointer;"><path d=" M 1385.27,  256.74  L 1385.27,  341.73 " style="stroke:#7FC97F;stroke-width: 5.10 ;&st6;" /></a><a ewd:lineID="38" style="cursor:pointer;"><path d=" M 1385.27,  242.01  L 1385.27,  180.26 " style="stroke:#999999;stroke-width: 5.10 ;&st6;" /></a><a ewd:lineID="39" style="cursor:pointer;"><path d=" M 1385.27,  163.26  L 1385.27,   95.84 " style="stroke:#999999;stroke-width: 5.10 ;&st6;" /></a><a ewd:lineID="40" style="cursor:pointer;"><path d=" M 1461.76,  579.69  L 1461.76,  681.67 " style="stroke:#000000;stroke-width: 5.10 ;&st6;" /><path d=" M 1461.76,  579.69  L 1461.76,  681.67 " style="stroke:#FFFFFF;stroke-width: 4.53 ;&st6;" /><path d=" M 1461.76,  579.69  L 1461.76,  681.67 " style="stroke:#000000;stroke-width: 1.13 ;&st6;" /></a><a ewd:lineID="41" style="cursor:pointer;"><path d=" M 1461.76,  492.44  L 1461.76,  562.69 " style="stroke:#000000;stroke-width: 5.10 ;&st6;" /><path d=" M 1461.76,  492.44  L 1461.76,  562.69 " style="stroke:#FFFFFF;stroke-width: 4.53 ;&st6;" /><path d=" M 1461.76,  492.44  L 1461.76,  562.69 " style="stroke:#000000;stroke-width: 1.13 ;&st6;" /></a><a ewd:lineID="42" style="cursor:pointer;"><path d=" M 1461.76,  392.72  L 1461.76,  477.71 " style="stroke:#000000;stroke-width: 5.10 ;&st6;" /><path d=" M 1461.76,  392.72  L 1461.76,  477.71 " style="stroke:#FFFFFF;stroke-width: 4.53 ;&st6;" /><path d=" M 1461.76,  392.72  L 1461.76,  477.71 " style="stroke:#000000;stroke-width: 1.13 ;&st6;" /></a><a ewd:lineID="43" style="cursor:pointer;"><path d=" M 1461.76,  256.74  L 1461.76,  341.73 " style="stroke:#7FC97F;stroke-width: 5.10 ;&st6;" /></a><a ewd:lineID="44" style="cursor:pointer;"><path d=" M 1461.76,  242.01  L 1461.76,  180.26 " style="stroke:#7FC97F;stroke-width: 5.10 ;&st6;" /></a><a ewd:lineID="45" style="cursor:pointer;"><path d=" M 1461.76,  163.26  L 1461.76,   95.84 " style="stroke:#7FC97F;stroke-width: 5.10 ;&st6;" /></a><a ewd:lineID="46" style="cursor:pointer;"><path d=" M 1606.23,  579.69  L 1606.23,  681.67 " style="stroke:#000000;stroke-width: 5.10 ;&st6;" /><path d=" M 1606.23,  579.69  L 1606.23,  681.67 " style="stroke:#FFFFFF;stroke-width: 4.53 ;&st6;" /><path d=" M 1606.23,  579.69  L 1606.23,  681.67 " style="stroke:#000000;stroke-width: 1.13 ;&st6;" /></a><a ewd:lineID="47" style="cursor:pointer;"><path d=" M 1606.23,  562.69  L 1606.23,  435.21 " style="stroke:#000000;stroke-width: 5.10 ;&st6;" /><path d=" M 1606.23,  562.69  L 1606.23,  435.21 " style="stroke:#FFFFFF;stroke-width: 4.53 ;&st6;" /><path d=" M 1606.23,  562.69  L 1606.23,  435.21 " style="stroke:#000000;stroke-width: 1.13 ;&st6;" /></a><a ewd:lineID="48" style="cursor:pointer;"><path d=" M 1606.23,  384.22  L 1606.23,   95.84 " style="stroke:#000000;stroke-width: 5.10 ;&st6;" /><path d=" M 1606.23,  384.22  L 1606.23,   95.84 " style="stroke:#FFFFFF;stroke-width: 4.53 ;&st6;" /><path d=" M 1606.23,  384.22  L 1606.23,   95.84 " style="stroke:#000000;stroke-width: 1.13 ;&st6;" /></a><a ewd:lineID="49" style="cursor:pointer;"><path d=" M 1657.22,  579.69  L 1657.22,  681.67 " style="stroke:#000000;stroke-width: 5.10 ;&st6;" /><path d=" M 1657.22,  579.69  L 1657.22,  681.67 " style="stroke:#FFFFFF;stroke-width: 4.53 ;&st6;" /><path d=" M 1657.22,  579.69  L 1657.22,  681.67 " style="stroke:#000000;stroke-width: 1.13 ;&st6;" /></a><a ewd:lineID="50" style="cursor:pointer;"><path d=" M 1657.22,  511.70  L 1657.22,  562.69 " style="stroke:#000000;stroke-width: 5.10 ;&st6;" /><path d=" M 1657.22,  511.70  L 1657.22,  562.69 " style="stroke:#FFFFFF;stroke-width: 4.53 ;&st6;" /><path d=" M 1657.22,  511.70  L 1657.22,  562.69 " style="stroke:#000000;stroke-width: 1.13 ;&st6;" /></a><a ewd:lineID="51" style="cursor:pointer;"><path d=" M 1657.22,  231.81  L 1657.22,  460.71 " style="stroke:#000000;stroke-width: 5.10 ;&st6;" /></a><a ewd:lineID="52" style="cursor:pointer;"><path d=" M 1657.22,  143.99  L 1657.22,  188.19 " style="stroke:#99D9E8;stroke-width: 5.10 ;&st6;" /></a><a ewd:lineID="53" style="cursor:pointer;"><path d=" M 1657.22,   95.84  L 1657.22,  129.26 " style="stroke:#00A0C6;stroke-width: 5.10 ;&st6;" /></a><a ewd:lineID="54" style="cursor:pointer;"><path d=" M 1716.71,  579.69  L 1716.71,  681.67 " style="stroke:#000000;stroke-width: 5.10 ;&st6;" /><path d=" M 1716.71,  579.69  L 1716.71,  681.67 " style="stroke:#FFFFFF;stroke-width: 4.53 ;&st6;" /><path d=" M 1716.71,  579.69  L 1716.71,  681.67 " style="stroke:#000000;stroke-width: 1.13 ;&st6;" /></a><a ewd:lineID="55" style="cursor:pointer;"><path d=" M 1716.71,  129.26  L 1716.71,  562.69 " style="stroke:#000000;stroke-width: 5.10 ;&st6;" /><path d=" M 1716.71,  129.26  L 1716.71,  562.69 " style="stroke:#FFFFFF;stroke-width: 4.53 ;&st6;" /><path d=" M 1716.71,  129.26  L 1716.71,  562.69 " style="stroke:#000000;stroke-width: 1.13 ;&st6;" /></a><a ewd:lineID="56" style="cursor:pointer;"><path d=" M 1759.21,  271.47  L 1759.21,  316.23 " style="stroke:#992903;stroke-width: 5.10 ;&st6;" /></a><a ewd:lineID="57" style="cursor:pointer;"><path d=" M 1759.21,  214.25  L 1759.21,  256.74 " style="stroke:#992903;stroke-width: 5.10 ;&st6;" /></a><a ewd:lineID="58" style="cursor:pointer;"><path d=" M 1759.21,  129.26  L 1759.21,  163.26 " style="stroke:#56077D;stroke-width: 5.10 ;&st6;" /></a><a ewd:lineID="59" style="cursor:pointer;"><path d=" M 1827.19,  271.47  L 1827.19,  316.23 " style="stroke:#992903;stroke-width: 5.10 ;&st6;" /></a><a ewd:lineID="60" style="cursor:pointer;"><path d=" M 1827.19,  129.26  L 1827.19,  256.74 " style="stroke:#992903;stroke-width: 5.10 ;&st6;" /></a><a ewd:lineID="61" style="cursor:pointer;"><path d=" M 1886.68,  271.47  L 1886.68,  316.23 " style="stroke:#008837;stroke-width: 5.10 ;&st6;" /></a><a ewd:lineID="62" style="cursor:pointer;"><path d=" M 1886.68,  214.25  L 1886.68,  256.74 " style="stroke:#008837;stroke-width: 5.10 ;&st6;" /></a><a ewd:lineID="63" style="cursor:pointer;"><path d=" M 1886.68,   95.84  L 1886.68,  163.26 " style="stroke:#008837;stroke-width: 5.10 ;&st6;" /></a><a ewd:lineID="64" style="cursor:pointer;"><path d=" M 1946.17,  271.47  L 1946.17,  316.23 " style="stroke:#FF0000;stroke-width: 5.10 ;&st6;" /></a><a ewd:lineID="65" style="cursor:pointer;"><path d=" M 1946.17,  214.25  L 1946.17,  256.74 " style="stroke:#FF0000;stroke-width: 5.10 ;&st6;" /></a><a ewd:lineID="66" style="cursor:pointer;"><path d=" M 2014.16,  205.75  L 2014.16,  282.24 " style="stroke:#FFE600;stroke-width: 5.10 ;&st6;" /></a><a ewd:lineID="67" style="cursor:pointer;"><path d=" M 2014.16,   95.84  L 2014.16,  154.76 " style="stroke:#FFE600;stroke-width: 5.10 ;&st6;" /></a><a ewd:lineID="68" style="cursor:pointer;"><path d=" M 2116.15,  129.26  L 2116.15,  469.21  L 2345.61,  469.21  L 2345.61,  273.74 " style="stroke:#99D9E8;stroke-width: 5.10 ;&st6;" /></a><a ewd:lineID="69" style="cursor:pointer;"><path d=" M 2158.64,  409.72  L 2158.64,  435.21  L 2209.63,  435.21  L 2209.63,  325.86 " style="stroke:#FFE600;stroke-width: 5.10 ;&st6;" /></a><a ewd:lineID="70" style="cursor:pointer;"><path d=" M 2158.64,  358.73  L 2158.64,  394.99 " style="stroke:#FFE600;stroke-width: 5.10 ;&st6;" /></a><a ewd:lineID="71" style="cursor:pointer;"><path d=" M 2158.64,  256.74  L 2158.64,  307.73 " style="stroke:#FFE600;stroke-width: 5.10 ;&st6;" /></a><a ewd:lineID="72" style="cursor:pointer;"><path d=" M 2158.64,  180.26  L 2158.64,  205.75 " style="stroke:#FFE600;stroke-width: 5.10 ;&st6;" /></a><a ewd:lineID="73" style="cursor:pointer;"><path d=" M 2209.63,  188.75  L 2209.63,  230.11 " style="stroke:#008837;stroke-width: 5.10 ;&st6;" /></a><a ewd:lineID="74" style="cursor:pointer;"><path d=" M 2209.63,   95.84  L 2209.63,  174.02 " style="stroke:#008837;stroke-width: 5.10 ;&st6;" /></a><a ewd:lineID="75" style="cursor:pointer;"><path d=" M 2243.63,  188.75  L 2243.63,  230.11 " style="stroke:#56077D;stroke-width: 5.10 ;&st6;" /></a><a ewd:lineID="76" style="cursor:pointer;"><path d=" M 2243.63,   95.84  L 2243.63,  174.02 " style="stroke:#56077D;stroke-width: 5.10 ;&st6;" /></a><a ewd:lineID="77" style="cursor:pointer;"><path d=" M 2277.62,   95.84  L 2277.62,  418.22  L 2660.06,  418.22  L 2660.06,  333.23 " style="stroke:#000000;stroke-width: 5.10 ;&st6;" /><path d=" M 2277.62,   95.84  L 2277.62,  418.22  L 2660.06,  418.22  L 2660.06,  333.23 " style="stroke:#FFFFFF;stroke-width: 4.53 ;&st6;" /></a><a ewd:lineID="78" style="cursor:pointer;"><path d=" M 2311.61,   95.84  L 2311.61,  392.72  L 2626.06,  392.72  L 2626.06,  333.23 " style="stroke:#992903;stroke-width: 5.10 ;&st6;" /></a><a ewd:lineID="79" style="cursor:pointer;"><path d=" M 2379.60,  273.74  L 2379.60,  469.21  L 2430.59,  469.21 " style="stroke:#000000;stroke-width: 5.10 ;&st6;" /><path d=" M 2379.60,  273.74  L 2379.60,  469.21  L 2430.59,  469.21 " style="stroke:#FFFFFF;stroke-width: 4.53 ;&st6;" /><path d=" M 2379.60,  273.74  L 2379.60,  469.21  L 2430.59,  469.21 " style="stroke:#000000;stroke-width: 1.13 ;&st6;" /></a><a ewd:lineID="80" style="cursor:pointer;"><path d=" M 2379.60,  103.77  L 2379.60,  154.76 " style="stroke:#000000;stroke-width: 5.10 ;&st6;" /></a><a ewd:lineID="81" style="cursor:pointer;"><path d=" M 2439.09,  477.71  L 2439.09,  681.67 " style="stroke:#000000;stroke-width: 5.10 ;&st6;" /><path d=" M 2439.09,  477.71  L 2439.09,  681.67 " style="stroke:#FFFFFF;stroke-width: 4.53 ;&st6;" /><path d=" M 2439.09,  477.71  L 2439.09,  681.67 " style="stroke:#000000;stroke-width: 1.13 ;&st6;" /></a><a ewd:lineID="82" style="cursor:pointer;"><path d=" M 2439.09,  273.74  L 2439.09,  460.71 " style="stroke:#000000;stroke-width: 5.10 ;&st6;" /><path d=" M 2439.09,  273.74  L 2439.09,  460.71 " style="stroke:#FFFFFF;stroke-width: 4.53 ;&st6;" /><path d=" M 2439.09,  273.74  L 2439.09,  460.71 " style="stroke:#000000;stroke-width: 1.13 ;&st6;" /></a><a ewd:lineID="83" style="cursor:pointer;"><path d=" M 2447.59,  154.76  L 2447.59,  103.77 " style="stroke:#FF0000;stroke-width: 5.10 ;&st6;" /></a><a ewd:lineID="84" style="cursor:pointer;"><path d=" M 2481.59,  273.74  L 2481.59,  562.69 " style="stroke:#000000;stroke-width: 5.10 ;&st6;" /></a><a ewd:lineID="85" style="cursor:pointer;"><path d=" M 2532.58,  273.74  L 2532.58,  562.69 " style="stroke:#00A0C6;stroke-width: 5.10 ;&st6;" /></a><a ewd:lineID="86" style="cursor:pointer;"><path d=" M 2626.06,  239.75  L 2626.06,  307.73 " style="stroke:#56077D;stroke-width: 5.10 ;&st6;" /></a><a ewd:lineID="87" style="cursor:pointer;"><path d=" M 2626.06,   95.84  L 2626.06,  214.25 " style="stroke:#C3AF96;stroke-width: 5.10 ;&st6;" /></a><a ewd:lineID="88" style="cursor:pointer;"><path d=" M 2660.06,  239.75  L 2660.06,  307.73 " style="stroke:#000000;stroke-width: 5.10 ;&st6;" /><path d=" M 2660.06,  239.75  L 2660.06,  307.73 " style="stroke:#FFFFFF;stroke-width: 4.53 ;&st6;" /></a><a ewd:lineID="89" style="cursor:pointer;"><path d=" M 2660.06,   95.84  L 2660.06,  214.25 " style="stroke:#F668B2;stroke-width: 5.10 ;&st6;" /></a><a ewd:lineID="90" style="cursor:pointer;"><path d=" M 2711.05,  265.24  L 2711.05,  571.19  L 3084.98,  571.19  L 3084.98,  205.75  L 3042.49,  205.75  L 3042.49,  247.68 " style="stroke:#000000;stroke-width: 5.10 ;&st6;" /></a><a ewd:lineID="91" style="cursor:pointer;"><path d=" M 2711.05,   95.84  L 2711.05,  214.25 " style="stroke:#000000;stroke-width: 5.10 ;&st6;" /></a><a ewd:lineID="92" style="cursor:pointer;"><path d=" M 2745.04,  228.98  L 2745.04,  392.72 " style="stroke:#7FC97F;stroke-width: 5.10 ;&st6;" /></a><a ewd:lineID="93" style="cursor:pointer;"><path d=" M 2745.04,   95.84  L 2745.04,  214.25 " style="stroke:#FF0000;stroke-width: 5.10 ;&st6;" /></a><a ewd:lineID="94" style="cursor:pointer;"><path d=" M 2779.04,  228.98  L 2779.04,  392.72 " style="stroke:#999999;stroke-width: 5.10 ;&st6;" /></a><a ewd:lineID="95" style="cursor:pointer;"><path d=" M 2779.04,   95.84  L 2779.04,  214.25 " style="stroke:#FFE600;stroke-width: 5.10 ;&st6;" /></a><a ewd:lineID="96" style="cursor:pointer;"><path d=" M 2813.03,  511.70  L 2813.03,  681.67 " style="stroke:#000000;stroke-width: 5.10 ;&st6;" /><path d=" M 2813.03,  511.70  L 2813.03,  681.67 " style="stroke:#FFFFFF;stroke-width: 4.53 ;&st6;" /><path d=" M 2813.03,  511.70  L 2813.03,  681.67 " style="stroke:#000000;stroke-width: 1.13 ;&st6;" /></a><a ewd:lineID="97" style="cursor:pointer;"><path d=" M 2813.03,  435.21  L 2813.03,  494.70 " style="stroke:#000000;stroke-width: 5.10 ;&st6;" /><path d=" M 2813.03,  435.21  L 2813.03,  494.70 " style="stroke:#FFFFFF;stroke-width: 4.53 ;&st6;" /><path d=" M 2813.03,  435.21  L 2813.03,  494.70 " style="stroke:#000000;stroke-width: 1.13 ;&st6;" /></a><a ewd:lineID="98" style="cursor:pointer;"><path d=" M 2813.03,  228.98  L 2813.03,  392.72 " style="stroke:#56077D;stroke-width: 5.10 ;&st6;" /></a><a ewd:lineID="99" style="cursor:pointer;"><path d=" M 2813.03,   95.84  L 2813.03,  214.25 " style="stroke:#56077D;stroke-width: 5.10 ;&st6;" /></a><a ewd:lineID="100" style="cursor:pointer;"><path d=" M 2881.02,  103.77  L 2881.02,  247.68 " style="stroke:#00A0C6;stroke-width: 5.10 ;&st6;" /></a><a ewd:lineID="101" style="cursor:pointer;"><path d=" M 2974.50,  247.68  L 2974.50,  239.75  L 2966.00,  231.25  L 2906.51,  231.25  L 2906.51,  163.26 " style="stroke:#FF0000;stroke-width: 5.10 ;&st6;" /></a><a ewd:lineID="102" style="cursor:pointer;"><path d=" M 2974.50,  188.75  L 2974.50,  197.25  L 2966.00,  205.75  L 2932.01,  205.75  L 2932.01,  163.26 " style="stroke:#FF0000;stroke-width: 5.10 ;&st6;" /></a><a ewd:lineID="103" style="cursor:pointer;"><path d=" M 2974.50,  435.78  L 2974.50,  681.67 " style="stroke:#992903;stroke-width: 5.10 ;&st6;" /></a><a ewd:lineID="104" style="cursor:pointer;"><path d=" M 2974.50,  247.68  L 2974.50,  188.75 " style="stroke:#FF0000;stroke-width: 5.10 ;&st6;" /></a><a ewd:lineID="105" style="cursor:pointer;"><path d=" M 2974.50,  103.77  L 2974.50,  137.76 " style="stroke:#FFE600;stroke-width: 5.10 ;&st6;" /></a><a ewd:code="OL2" ewd:figID="76" ewd:figtype="w2w" ewd:pinNo="4" style="cursor:pointer;"><path d=" M 1393.77,  477.71  L 1376.77,  477.71  L 1376.77,  486.20  L 1393.77,  486.20  L 1393.77,  477.71 " style="&st2;" /><text style="&st8;" transform="matrix(&st16;  1378.2  484.45 )"><tspan style="&st18;" x="0" y="0">OL2</tspan></text></a><a ewd:code="NL2" ewd:figID="77" ewd:figtype="w2w" ewd:pinNo="4" style="cursor:pointer;"><path d=" M 1470.25,  477.71  L 1453.26,  477.71  L 1453.26,  486.20  L 1470.25,  486.20  L 1470.25,  477.71 " style="&st2;" /><text style="&st8;" transform="matrix(&st16;  1454.99  484.45 )"><tspan style="&st18;" x="0" y="0">NL2</tspan></text></a><a ewd:code="PS1" ewd:figID="78" ewd:figtype="w2w" ewd:pinNo="6" style="cursor:pointer;"><path d=" M 1138.81,  477.71  L 1121.81,  477.71  L 1121.81,  486.20  L 1138.81,  486.20  L 1138.81,  477.71 " style="&st2;" /><text style="&st8;" transform="matrix(&st16;  1123.73  484.45 )"><tspan style="&st18;" x="0" y="0">PS1</tspan></text></a><a ewd:code="PS1" ewd:figID="79" ewd:figtype="w2w" ewd:pinNo="19" style="cursor:pointer;"><path d=" M 1138.81,  469.21  L 1121.81,  469.21  L 1121.81,  477.71  L 1138.81,  477.71  L 1138.81,  469.21 " style="&st2;" /><text style="&st8;" transform="matrix(&st16;  1123.73  475.95 )"><tspan style="&st18;" x="0" y="0">PS1</tspan></text></a><a ewd:code="UL1" ewd:figID="80" ewd:figtype="w2w" ewd:pinNo="4" style="cursor:pointer;"><path d=" M 2252.12,  180.26  L 2235.13,  180.26  L 2235.13,  188.75  L 2252.12,  188.75  L 2252.12,  180.26 " style="&st2;" /><text style="&st8;" transform="matrix(&st16;  2237.27  187.0 )"><tspan style="&st18;" x="0" y="0">UL1</tspan></text></a><a ewd:code="UL1" ewd:figID="81" ewd:figtype="w2w" ewd:pinNo="5" style="cursor:pointer;"><path d=" M 2218.13,  180.26  L 2201.13,  180.26  L 2201.13,  188.75  L 2218.13,  188.75  L 2218.13,  180.26 " style="&st2;" /><text style="&st8;" transform="matrix(&st16;  2203.27  187.0 )"><tspan style="&st18;" x="0" y="0">UL1</tspan></text></a><a ewd:code="UL1" ewd:figID="82" ewd:figtype="w2w" ewd:pinNo="6" style="cursor:pointer;"><path d=" M 2167.14,  401.22  L 2150.14,  401.22  L 2150.14,  409.72  L 2167.14,  409.72  L 2167.14,  401.22 " style="&st2;" /><text style="&st8;" transform="matrix(&st16;  2152.28  407.96 )"><tspan style="&st18;" x="0" y="0">UL1</tspan></text></a><a ewd:code="LS1" ewd:figID="83" ewd:figtype="w2w" ewd:pinNo="22" style="cursor:pointer;"><path d=" M  883.85,  469.21  L  866.86,  469.21  L  866.86,  477.71  L  883.85,  477.71  L  883.85,  469.21 " style="&st2;" /><text style="&st8;" transform="matrix(&st16;  869.14  475.95 )"><tspan style="&st18;" x="0" y="0">LS1</tspan></text></a><a ewd:code="LS1" ewd:figID="84" ewd:figtype="w2w" ewd:pinNo="23" style="cursor:pointer;"><path d=" M  934.84,  205.75  L  917.85,  205.75  L  917.85,  214.25  L  934.84,  214.25  L  934.84,  205.75 " style="&st2;" /><text style="&st8;" transform="matrix(&st16;  920.14  212.49 )"><tspan style="&st18;" x="0" y="0">LS1</tspan></text></a><a ewd:code="VR1" ewd:figID="85" ewd:figtype="w2w" ewd:pinNo="12" style="cursor:pointer;"><path d=" M  781.87,  290.74  L  764.87,  290.74  L  764.87,  299.24  L  781.87,  299.24  L  781.87,  290.74 " style="&st2;" /><text style="&st8;" transform="matrix(&st16;  766.64  297.48 )"><tspan style="&st18;" x="0" y="0">VR1</tspan></text></a><a ewd:code="LR1" ewd:figID="86" ewd:figtype="w2w" ewd:pinNo="15" style="cursor:pointer;"><path d=" M  781.87,  205.75  L  764.87,  205.75  L  764.87,  214.25  L  781.87,  214.25  L  781.87,  205.75 " style="&st2;" /><text style="&st8;" transform="matrix(&st16;  767.01  212.49 )"><tspan style="&st18;" x="0" y="0">LR1</tspan></text></a><a ewd:code="QR1" ewd:figID="87" ewd:figtype="w2w" ewd:pinNo="19" style="cursor:pointer;"><path d=" M 1240.79,  477.71  L 1223.80,  477.71  L 1223.80,  486.20  L 1240.79,  486.20  L 1240.79,  477.71 " style="&st2;" /><text style="&st8;" transform="matrix(&st16;  1225.12  484.45 )"><tspan style="&st18;" x="0" y="0">QR1</tspan></text></a><a ewd:code="LS1" ewd:figID="88" ewd:figtype="w2w" ewd:pinNo="19" style="cursor:pointer;"><path d=" M 2753.54,  214.25  L 2736.54,  214.25  L 2736.54,  222.75  L 2753.54,  222.75  L 2753.54,  214.25 " style="&st2;" /><text style="&st8;" transform="matrix(&st16;  2738.83  220.99 )"><tspan style="&st18;" x="0" y="0">LS1</tspan></text></a><a ewd:code="NL1" ewd:figID="89" ewd:figtype="w2w" ewd:pinNo="2" style="cursor:pointer;"><path d=" M 1470.25,  248.24  L 1453.26,  248.24  L 1453.26,  256.74  L 1470.25,  256.74  L 1470.25,  248.24 " style="&st2;" /><text style="&st8;" transform="matrix(&st16;  1455.4  254.99 )"><tspan style="&st18;" x="0" y="0">NL1</tspan></text></a><a ewd:code="OL1" ewd:figID="90" ewd:figtype="w2w" ewd:pinNo="2" style="cursor:pointer;"><path d=" M 1393.77,  248.24  L 1376.77,  248.24  L 1376.77,  256.74  L 1393.77,  256.74  L 1393.77,  248.24 " style="&st2;" /><text style="&st8;" transform="matrix(&st16;  1378.61  254.99 )"><tspan style="&st18;" x="0" y="0">OL1</tspan></text></a><a ewd:code="LR1" ewd:figID="91" ewd:figtype="w2w" ewd:pinNo="50" style="cursor:pointer;"><path d=" M 1665.72,  129.26  L 1648.72,  129.26  L 1648.72,  137.76  L 1665.72,  137.76  L 1665.72,  129.26 " style="&st2;" /><text style="&st8;" transform="matrix(&st16;  1650.87  136.01 )"><tspan style="&st18;" x="0" y="0">LR1</tspan></text></a><a ewd:code="LR1" ewd:figID="92" ewd:figtype="w2w" ewd:pinNo="53" style="cursor:pointer;"><path d=" M 1954.67,  256.74  L 1937.68,  256.74  L 1937.68,  265.24  L 1954.67,  265.24  L 1954.67,  256.74 " style="&st2;" /><text style="&st8;" transform="matrix(&st16;  1939.82  263.49 )"><tspan style="&st18;" x="0" y="0">LR1</tspan></text></a><a ewd:code="LS1" ewd:figID="93" ewd:figtype="w2w" ewd:pinNo="36" style="cursor:pointer;"><path d=" M 1895.18,  256.74  L 1878.19,  256.74  L 1878.19,  265.24  L 1895.18,  265.24  L 1895.18,  256.74 " style="&st2;" /><text style="&st8;" transform="matrix(&st16;  1880.48  263.49 )"><tspan style="&st18;" x="0" y="0">LS1</tspan></text></a><a ewd:code="LR1" ewd:figID="94" ewd:figtype="w2w" ewd:pinNo="54" style="cursor:pointer;"><path d=" M 1835.69,  256.74  L 1818.70,  256.74  L 1818.70,  265.24  L 1835.69,  265.24  L 1835.69,  256.74 " style="&st2;" /><text style="&st8;" transform="matrix(&st16;  1820.84  263.49 )"><tspan style="&st18;" x="0" y="0">LR1</tspan></text></a><a ewd:code="LS1" ewd:figID="95" ewd:figtype="w2w" ewd:pinNo="35" style="cursor:pointer;"><path d=" M 1767.70,  256.74  L 1750.71,  256.74  L 1750.71,  265.24  L 1767.70,  265.24  L 1767.70,  256.74 " style="&st2;" /><text style="&st8;" transform="matrix(&st16;  1753.0  263.49 )"><tspan style="&st18;" x="0" y="0">LS1</tspan></text></a><a ewd:code="PS1" ewd:figID="96" ewd:figtype="w2w" ewd:pinNo="8" style="cursor:pointer;"><path d=" M 1138.81,  248.24  L 1121.81,  248.24  L 1121.81,  256.74  L 1138.81,  256.74  L 1138.81,  248.24 " style="&st2;" /><text style="&st8;" transform="matrix(&st16;  1123.73  254.99 )"><tspan style="&st18;" x="0" y="0">PS1</tspan></text></a><a ewd:code="LS1" ewd:figID="97" ewd:figtype="w2w" ewd:pinNo="28" style="cursor:pointer;"><path d=" M 1138.81,  171.76  L 1121.81,  171.76  L 1121.81,  180.26  L 1138.81,  180.26  L 1138.81,  171.76 " style="&st2;" /><text style="&st8;" transform="matrix(&st16;  1124.1  178.5 )"><tspan style="&st18;" x="0" y="0">LS1</tspan></text></a><a ewd:code="QR1" ewd:figID="98" ewd:figtype="w2w" ewd:pinNo="8" style="cursor:pointer;"><path d=" M 1240.79,  248.24  L 1223.80,  248.24  L 1223.80,  256.74  L 1240.79,  256.74  L 1240.79,  248.24 " style="&st2;" /><text style="&st8;" transform="matrix(&st16;  1225.12  254.99 )"><tspan style="&st18;" x="0" y="0">QR1</tspan></text></a><a ewd:code="LR1" ewd:figID="99" ewd:figtype="w2w" ewd:pinNo="10" style="cursor:pointer;"><path d=" M 1240.79,  171.76  L 1223.80,  171.76  L 1223.80,  180.26  L 1240.79,  180.26  L 1240.79,  171.76 " style="&st2;" /><text style="&st8;" transform="matrix(&st16;  1225.94  178.5 )"><tspan style="&st18;" x="0" y="0">LR1</tspan></text></a><a ewd:code="LS1" ewd:figID="100" ewd:figtype="w2w" ewd:pinNo="17" style="cursor:pointer;"><path d=" M 2821.53,  214.25  L 2804.53,  214.25  L 2804.53,  222.75  L 2821.53,  222.75  L 2821.53,  214.25 " style="&st2;" /><text style="&st8;" transform="matrix(&st16;  2806.82  220.99 )"><tspan style="&st18;" x="0" y="0">LS1</tspan></text></a><a ewd:code="LS1" ewd:figID="101" ewd:figtype="w2w" ewd:pinNo="18" style="cursor:pointer;"><path d=" M 2787.53,  214.25  L 2770.54,  214.25  L 2770.54,  222.75  L 2787.53,  222.75  L 2787.53,  214.25 " style="&st2;" /><text style="&st8;" transform="matrix(&st16;  2772.83  220.99 )"><tspan style="&st18;" x="0" y="0">LS1</tspan></text></a><a ewd:code="S1" ewd:figID="102" ewd:figtype="gp" style="cursor:pointer;"><path d=" M 2802.41,  681.67  L 2823.65,  681.67  L 2813.03,  697.25  L 2802.41,  681.67 " style="&st2;" /><text style="&st8;" transform="matrix(&st16;  2808.9  689.83 )"><tspan style="&st18;" x="0" y="0">S1</tspan></text></a><a ewd:code="A3" ewd:figID="103" ewd:figtype="gp" style="cursor:pointer;"><path d=" M 2428.47,  681.67  L 2449.72,  681.67  L 2439.09,  697.25  L 2428.47,  681.67 " style="&st2;" /><text style="&st8;" transform="matrix(&st16;  2434.56  689.83 )"><tspan style="&st18;" x="0" y="0">A3</tspan></text></a><a ewd:code="L1" ewd:figID="104" ewd:figtype="gp" style="cursor:pointer;"><path d=" M 1595.61,  681.67  L 1616.85,  681.67  L 1606.23,  697.25  L 1595.61,  681.67 " style="&st2;" /><text style="&st8;" transform="matrix(&st16;  1602.48  689.83 )"><tspan style="&st18;" x="0" y="0">L1</tspan></text></a><a ewd:code="L3" ewd:figID="105" ewd:figtype="gp" style="cursor:pointer;"><path d=" M 1374.65,  681.67  L 1395.89,  681.67  L 1385.27,  697.25  L 1374.65,  681.67 " style="&st2;" /><text style="&st8;" transform="matrix(&st16;  1381.1  689.83 )"><tspan style="&st18;" x="0" y="0">L3</tspan></text></a><a ewd:code="L1" ewd:figID="106" ewd:figtype="gp" style="cursor:pointer;"><path d=" M 1451.13,  681.67  L 1472.38,  681.67  L 1461.76,  697.25  L 1451.13,  681.67 " style="&st2;" /><text style="&st8;" transform="matrix(&st16;  1458.0  689.83 )"><tspan style="&st18;" x="0" y="0">L1</tspan></text></a><a ewd:code="A2" ewd:figID="107" ewd:figtype="gp" style="cursor:pointer;"><path d=" M  669.26,  681.67  L  690.51,  681.67  L  679.89,  697.25  L  669.26,  681.67 " style="&st2;" /><text style="&st8;" transform="matrix(&st16;  675.35  689.83 )"><tspan style="&st18;" x="0" y="0">A2</tspan></text></a><a ewd:code="S1" ewd:figID="108" ewd:figtype="gp" style="cursor:pointer;"><path d=" M  915.72,  681.67  L  936.97,  681.67  L  926.35,  697.25  L  915.72,  681.67 " style="&st2;" /><text style="&st8;" transform="matrix(&st16;  922.22  689.83 )"><tspan style="&st18;" x="0" y="0">S1</tspan></text></a><a ewd:code="R1" ewd:figID="109" ewd:figtype="gp" style="cursor:pointer;"><path d=" M 1646.60,  681.67  L 1667.85,  681.67  L 1657.22,  697.25  L 1646.60,  681.67 " style="&st2;" /><text style="&st8;" transform="matrix(&st16;  1652.95  689.83 )"><tspan style="&st18;" x="0" y="0">R1</tspan></text></a><a ewd:code="L2" ewd:figID="110" ewd:figtype="gp" style="cursor:pointer;"><path d=" M 2963.88,  681.67  L 2985.13,  681.67  L 2974.50,  697.25  L 2963.88,  681.67 " style="&st2;" /><text style="&st8;" transform="matrix(&st16;  2970.34  689.83 )"><tspan style="&st18;" x="0" y="0">L2</tspan></text></a><a ewd:code="L3" ewd:figID="111" ewd:figtype="gp" style="cursor:pointer;"><path d=" M 1706.09,  681.67  L 1727.34,  681.67  L 1716.71,  697.25  L 1706.09,  681.67 " style="&st2;" /><text style="&st8;" transform="matrix(&st16;  1712.55  689.83 )"><tspan style="&st18;" x="0" y="0">L3</tspan></text></a><a ewd:code="S1" ewd:figID="112" ewd:figtype="gp" style="cursor:pointer;"><path d=" M 1119.69,  681.67  L 1140.93,  681.67  L 1130.31,  697.25  L 1119.69,  681.67 " style="&st2;" /><text style="&st8;" transform="matrix(&st16;  1126.18  689.83 )"><tspan style="&st18;" x="0" y="0">S1</tspan></text></a><a ewd:code="R1" ewd:figID="113" ewd:figtype="gp" style="cursor:pointer;"><path d=" M 1221.67,  681.67  L 1242.92,  681.67  L 1232.29,  697.25  L 1221.67,  681.67 " style="&st2;" /><text style="&st8;" transform="matrix(&st16;  1228.02  689.83 )"><tspan style="&st18;" x="0" y="0">R1</tspan></text></a><a ewd:code="13477" ewd:figID="114" ewd:figtype="sp" style="cursor:pointer;"><path d=" M  675.64,  460.71  L  684.14,  460.71  L  688.38,  464.96  L  688.38,  473.46  L  684.14,  477.71  L  675.64,  477.71  L  671.39,  473.46  L  671.39,  464.96  L  675.64,  460.71 " style="&st2;" /></a><a ewd:code="20041" ewd:figID="115" ewd:figtype="sp" style="cursor:pointer;"><path d=" M 2434.84,  460.71  L 2443.34,  460.71  L 2447.59,  464.96  L 2447.59,  473.46  L 2443.34,  477.71  L 2434.84,  477.71  L 2430.59,  473.46  L 2430.59,  464.96  L 2434.84,  460.71 " style="&st2;" /></a></g></svg>