﻿<?xml version="1.0" encoding="utf-8"?>
<!DOCTYPE svg PUBLIC "-//W3C//DTD SVG 1.0//EN" "http://www.w3.org/TR/2001/REC-SVG-20010904/DTD/svg10.dtd"[
	<!ENTITY ns_flows "http://ns.adobe.com/Flows/1.0/">
	<!ENTITY ns_svg "http://www.w3.org/2000/svg">
	<!ENTITY ns_xlink "http://www.w3.org/1999/xlink">
	<!ENTITY st0 "font-size:7px;font-family:'MS-PGothic';adobe-font-script:japanese;">
	<!ENTITY st1 "font-size:6px;font-family:'ArialMT';">
	<!-- White fill  -->
	<!ENTITY st2 "fill:#FFFFFF;stroke:#000000; stroke-width:1.41;stroke-linecap:round;stroke-linejoin:round;">
	<!-- Yellow fill  -->
	<!ENTITY st3 "fill:#FFFFCC;stroke:#FFFFCC; stroke-width:0.1;stroke-linecap:round;stroke-linejoin:round;">
	<!-- Gray fill  -->
	<!ENTITY st4 "fill:#CCCCCC;stroke:#CCCCCC; stroke-width:0.1;stroke-linecap:round;stroke-linejoin:round;">
	<!-- Light-blue fill -->
	<!ENTITY st5 "fill:#CCECF4;stroke:#000000; stroke-width:1.133;stroke-linecap:round;stroke-linejoin:round;">
	<!ENTITY st6 "fill:none;stroke-linecap:butt; stroke-linejoin:round;">
	<!ENTITY st7 "fill:none;stroke:#000000;stroke-linecap:round;stroke-linejoin:round;">
	<!ENTITY st8 "enable-background:new    ;">
	<!-- Black fill -->
	<!ENTITY st9 "fill:#000000;stroke:#000000; stroke-linecap:round;stroke-linejoin:round;">
	<!-- SRS note   -->
	<!ENTITY st10 "font-size:9px;font-family:'ArialMT';">
	<!ENTITY st11 "font-size:9px;font-family:'Svg Symbol';">
	<!ENTITY st12 "font-size:6px;font-family:'Svg Symbol';">
	<!ENTITY st13 "fill:none;stroke:#ff0000;stroke-linecap:round;stroke-linejoin:round;">
	<!-- Yellow fill  -->
	<!ENTITY st14 "fill:#FFFF00;stroke:#FFFF00; stroke-width:0.1;stroke-linecap:round;stroke-linejoin:round;">
	<!ENTITY st15 "font-size:6px;font-family:'MS-PGothic';adobe-font-script:japanese;">
	<!ENTITY st16 "1.00 0.00 0.00 1.00">
	<!ENTITY st17 "0.00 -1.00 1.00 0.00">
	<!ENTITY st18 "font-size:6px;font-family:'Arial';">
	<!ENTITY st19 "font-size:9px;font-family:'Arial';">
	<!ENTITY st20 "font-size:6px;font-family:'MS-PGothic','MS PGothic';adobe-font-script:japanese;">
	<!ENTITY st21 "font-size:7px;font-family:'MS-PGothic','MS PGothic';adobe-font-script:japanese;">
	<!ATTLIST svg
		xmlns:ewd CDATA #FIXED "http://shcl.co.jp/ewd"
		xmlns:a CDATA #FIXED "http://ns.adobe.com/AdobeSVGViewerExtensions/3.0/"
		ewd:ver CDATA #IMPLIED
	>
	<!ATTLIST a
		ewd:lineID CDATA #IMPLIED
		ewd:groupID CDATA #IMPLIED
		ewd:figtype CDATA #IMPLIED
		ewd:code CDATA #IMPLIED
		ewd:figID CDATA #IMPLIED
		ewd:pinNo CDATA #IMPLIED
		ewd:comment CDATA #IMPLIED >
	<!ATTLIST g
		ewd:lineID CDATA #IMPLIED
		ewd:groupID CDATA #IMPLIED
		ewd:figtype CDATA #IMPLIED
		ewd:code CDATA #IMPLIED
		ewd:figID CDATA #IMPLIED
		ewd:pinNo CDATA #IMPLIED
		ewd:comment CDATA #IMPLIED >
	<!ATTLIST text
		ewd:textID CDATA #IMPLIED >
	<!ATTLIST title
		ewd:textID CDATA #IMPLIED >
]>
<!-- Generator: Shintec Hozumi YS   -->
<svg onload="call_execInitLoadProc_svg('system')" style="overflow:visible;  enable-background:new 0 0 3087.817 710.000" viewBox="0 0 3087.817 710.000" height="710.000" width="3087.817" xml:space="preserve" ewd:ver="L2.1.2.6" xmlns="&ns_svg;" xmlns:a="http://ns.adobe.com/AdobeSVGViewerExtensions/3.0/" xmlns:ewd="http://shcl.co.jp/ewd" xmlns:xlink="&ns_xlink;">
<path d=" M  866.86,  469.21  L  875.35,  469.21 " style="stroke-width: 1.42 ;&st7; " /><path d=" M  682.01,  120.77  L  677.76,  120.77 " style="stroke-width: 1.42 ;&st7; " /><path d=" M  682.01,  129.26  L  677.76,  129.26 " style="stroke-width: 1.42 ;&st7; " /><path d=" M  614.02,  129.26  L  609.77,  129.26 " style="stroke-width: 1.42 ;&st7; " /><path d=" M  614.02,  120.77  L  609.77,  120.77 " style="stroke-width: 1.42 ;&st7; " /><path d=" M  679.89,  351.64  L  678.19,  327.53 " style="stroke-width: 1.42 ;&st7; " /><path d=" M  679.89,  358.73  L  679.89,  354.48 " style="stroke-width: 0.85 ;&st7; " /><path d=" M  679.89,  328.98  L  679.89,  324.73 " style="stroke-width: 0.85 ;&st7; " /><path d=" M  688.38,  465.68  L  683.41,  460.71 " style="stroke-width: 1.42 ;&st7; " /><path d=" M  671.39,  472.74  L  676.36,  477.71 " style="stroke-width: 1.42 ;&st7; " /><path d=" M  683.41,  477.71  L  688.38,  472.74 " style="stroke-width: 1.42 ;&st7; " /><path d=" M  676.36,  460.71  L  671.39,  465.68 " style="stroke-width: 1.42 ;&st7; " /><path d=" M  563.03,  129.26  L  558.78,  129.26 " style="stroke-width: 1.42 ;&st7; " /><path d=" M  563.03,  120.77  L  558.78,  120.77 " style="stroke-width: 1.42 ;&st7; " /><path d=" M  775.50,  120.77  L  771.25,  120.77 " style="stroke-width: 1.42 ;&st7; " /><path d=" M  775.50,  129.26  L  771.25,  129.26 " style="stroke-width: 1.42 ;&st7; " /><path d=" M  781.87,  214.25  L  773.37,  214.25 " style="stroke-width: 1.42 ;&st7; " /><path d=" M  764.87,  290.74  L  773.37,  290.74 " style="stroke-width: 1.42 ;&st7; " /><path d=" M  934.84,  214.25  L  926.35,  214.25 " style="stroke-width: 1.42 ;&st7; " /><path d=" M  773.37,  115.87  L  770.54,  113.04  L  770.54,  117.29  L  773.37,  120.12  L  776.20,  117.29  L  776.20,  113.04  L  773.37,  115.87 " style="stroke-width: 0.28 ;&st9;" /><path d=" M  777.62,  223.31  L  773.37,  219.07  L  769.12,  223.31 " style="stroke-width: 1.42 ;&st7; " /><path d=" M  777.62,  219.92  L  773.37,  215.67  L  769.12,  219.92 " style="stroke-width: 1.42 ;&st7; " /><path d=" M  769.12,  281.67  L  773.37,  285.92  L  777.62,  281.67 " style="stroke-width: 1.42 ;&st7; " /><path d=" M  777.62,  285.07  L  773.37,  289.32  L  769.12,  285.07 " style="stroke-width: 1.42 ;&st7; " /><path d=" M  756.37,  367.22  L  756.37,  401.22  L  790.37,  401.22  L  790.37,  367.22  L  756.37,  367.22 " style="stroke-width: 1.42 ;&st7; " /><path d=" M  756.37,  503.20  L  756.37,  537.20  L  790.37,  537.20  L  790.37,  503.20  L  756.37,  503.20 " style="stroke-width: 1.42 ;&st7; " /><path d=" M  773.37,   86.77  L  773.37,  120.77 " style="stroke-width: 0.85 ;&st7; " /><path d=" M  930.59,  219.92  L  926.34,  215.67  L  922.10,  219.92 " style="stroke-width: 1.42 ;&st7; " /><path d=" M  930.59,  223.31  L  926.34,  219.07  L  922.10,  223.31 " style="stroke-width: 1.42 ;&st7; " /><path d=" M  858.36,  367.22  L  858.36,  401.22  L  943.34,  401.22  L  943.34,  367.22  L  858.36,  367.22 " style="stroke-width: 1.42 ;&st7; " /><path d=" M  871.10,  460.14  L  875.35,  464.39  L  879.60,  460.14 " style="stroke-width: 1.42 ;&st7; " /><path d=" M  879.60,  463.54  L  875.35,  467.79  L  871.10,  463.54 " style="stroke-width: 1.42 ;&st7; " /><path d=" M  917.85,  503.20  L  934.84,  503.20  L  934.84,  520.20  L  917.85,  520.20  L  917.85,  503.20 " style="stroke-width: 1.42 ;&st7; " /><path d=" M  926.34,  503.20  L  926.34,  520.20 " style="stroke-width: 0.85 ;&st7; " /><path d=" M  926.34,  697.25  L  926.34,  701.50 " style="stroke-width: 0.85 ;&st7; " /><path d=" M  917.85,  701.50  L  934.84,  701.50 " style="stroke-width: 0.85 ;&st7; " /><path d=" M  922.10,  704.33  L  930.59,  704.33 " style="stroke-width: 0.85 ;&st7; " /><path d=" M  923.51,  707.17  L  929.18,  707.17 " style="stroke-width: 0.85 ;&st7; " /><path d=" M  924.93,  710.00  L  927.76,  710.00 " style="stroke-width: 0.85 ;&st7; " /><path d=" M  679.89,  697.25  L  679.89,  701.50 " style="stroke-width: 0.85 ;&st7; " /><path d=" M  671.39,  701.50  L  688.38,  701.50 " style="stroke-width: 0.85 ;&st7; " /><path d=" M  675.64,  704.33  L  684.14,  704.33 " style="stroke-width: 0.85 ;&st7; " /><path d=" M  677.05,  707.17  L  682.72,  707.17 " style="stroke-width: 0.85 ;&st7; " /><path d=" M  678.47,  710.00  L  681.30,  710.00 " style="stroke-width: 0.85 ;&st7; " /><path d=" M  679.89,  115.87  L  677.05,  113.04  L  677.05,  117.29  L  679.89,  120.12  L  682.72,  117.29  L  682.72,  113.04  L  679.89,  115.87 " style="stroke-width: 0.28 ;&st9;" /><path d=" M  679.89,   86.77  L  679.89,  120.77 " style="stroke-width: 0.85 ;&st7; " /><path d=" M  611.90,   86.77  L  611.90,  120.77 " style="stroke-width: 0.85 ;&st7; " /><path d=" M  611.90,  115.87  L  609.06,  113.04  L  609.06,  117.29  L  611.90,  120.12  L  614.73,  117.29  L  614.73,  113.04  L  611.90,  115.87 " style="stroke-width: 0.28 ;&st9;" /><path d=" M  688.38,  324.73  L  688.38,  358.73  L  671.39,  358.73  L  671.39,  324.73  L  688.38,  324.73 " style="stroke-width: 1.42 ;&st7; " /><path d=" M  560.91,   86.77  L  560.91,  120.77 " style="stroke-width: 0.85 ;&st7; " /><path d=" M  560.91,  115.87  L  558.07,  113.04  L  558.07,  117.29  L  560.91,  120.12  L  563.74,  117.29  L  563.74,  113.04  L  560.91,  115.87 " style="stroke-width: 0.28 ;&st9;" /><path d=" M  883.85,  414.82  L  913.60,  414.82 " style="stroke-width: 0.85 ;&st7;stroke-dasharray:3, 1.5;" /><path d=" M  883.85,  405.75  L  913.60,  405.75 " style="stroke-width: 0.85 ;&st7;stroke-dasharray:3, 1.5;" /><path d=" M  771.25,  120.77  C  768.90   120.77   767.00   122.67   767.00   125.01 " style="stroke-width: 1.42 ;&st7; " /><path d=" M  767.00,  125.01  C  767.00   127.36   768.90   129.26   771.25   129.26 " style="stroke-width: 1.42 ;&st7; " /><path d=" M  775.50,  129.26  C  777.84   129.26   779.74   127.36   779.74   125.01 " style="stroke-width: 1.42 ;&st7; " /><path d=" M  779.74,  125.01  C  779.74   122.67   777.84   120.77   775.50   120.77 " style="stroke-width: 1.42 ;&st7; " /><path d=" M  777.90,  362.69  C  777.90   360.19   775.87   358.16   773.37   358.16 " style="stroke-width: 1.42 ;&st7; " /><path d=" M  773.37,  358.16  C  770.87   358.16   768.84   360.19   768.84   362.69 " style="stroke-width: 1.42 ;&st7; " /><path d=" M  768.84,  362.69  C  768.84   365.19   770.87   367.22   773.37   367.22 " style="stroke-width: 1.42 ;&st7; " /><path d=" M  773.37,  367.22  C  775.87   367.22   777.90   365.19   777.90   362.69 " style="stroke-width: 1.42 ;&st7; " /><path d=" M  777.90,  405.75  C  777.90   403.25   775.87   401.22   773.37   401.22 " style="stroke-width: 1.42 ;&st7; " /><path d=" M  773.37,  401.22  C  770.87   401.22   768.84   403.25   768.84   405.75 " style="stroke-width: 1.42 ;&st7; " /><path d=" M  768.84,  405.75  C  768.84   408.25   770.87   410.28   773.37   410.28 " style="stroke-width: 1.42 ;&st7; " /><path d=" M  773.37,  410.28  C  775.87   410.28   777.90   408.25   777.90   405.75 " style="stroke-width: 1.42 ;&st7; " /><path d=" M  930.88,   91.30  C  930.88    88.80   928.85    86.77   926.35    86.77 " style="stroke-width: 1.42 ;&st7; " /><path d=" M  926.35,   86.77  C  923.84    86.77   921.81    88.80   921.81    91.30 " style="stroke-width: 1.42 ;&st7; " /><path d=" M  921.81,   91.30  C  921.81    93.81   923.84    95.84   926.35    95.84 " style="stroke-width: 1.42 ;&st7; " /><path d=" M  926.35,   95.84  C  928.85    95.84   930.88    93.81   930.88    91.30 " style="stroke-width: 1.42 ;&st7; " /><path d=" M  686.26,  125.01  C  686.26   122.67   684.36   120.77   682.01   120.77 " style="stroke-width: 1.42 ;&st7; " /><path d=" M  677.76,  120.77  C  675.41   120.77   673.51   122.67   673.51   125.01 " style="stroke-width: 1.42 ;&st7; " /><path d=" M  673.51,  125.01  C  673.51   127.36   675.41   129.26   677.76   129.26 " style="stroke-width: 1.42 ;&st7; " /><path d=" M  682.01,  129.26  C  684.36   129.26   686.26   127.36   686.26   125.01 " style="stroke-width: 1.42 ;&st7; " /><path d=" M  618.27,  125.01  C  618.27   122.67   616.37   120.77   614.02   120.77 " style="stroke-width: 1.42 ;&st7; " /><path d=" M  614.02,  129.26  C  616.37   129.26   618.27   127.36   618.27   125.01 " style="stroke-width: 1.42 ;&st7; " /><path d=" M  605.52,  125.01  C  605.52   127.36   607.43   129.26   609.77   129.26 " style="stroke-width: 1.42 ;&st7; " /><path d=" M  609.77,  120.77  C  607.43   120.77   605.52   122.67   605.52   125.01 " style="stroke-width: 1.42 ;&st7; " /><path d=" M  681.30,  353.06  C  681.30   352.28   680.67   351.64   679.89   351.64 " style="stroke-width: 0.85 ;&st7; " /><path d=" M  679.89,  351.64  C  679.10   351.64   678.47   352.28   678.47   353.06 " style="stroke-width: 0.85 ;&st7; " /><path d=" M  678.47,  353.06  C  678.47   353.84   679.10   354.48   679.89   354.48 " style="stroke-width: 0.85 ;&st7; " /><path d=" M  679.89,  354.48  C  680.67   354.48   681.30   353.84   681.30   353.06 " style="stroke-width: 0.85 ;&st7; " /><path d=" M  681.30,  330.40  C  681.30   329.61   680.67   328.98   679.89   328.98 " style="stroke-width: 0.85 ;&st7; " /><path d=" M  679.89,  328.98  C  679.10   328.98   678.47   329.61   678.47   330.40 " style="stroke-width: 0.85 ;&st7; " /><path d=" M  678.47,  330.40  C  678.47   331.18   679.10   331.81   679.89   331.81 " style="stroke-width: 0.85 ;&st7; " /><path d=" M  679.89,  331.81  C  680.67   331.81   681.30   331.18   681.30   330.40 " style="stroke-width: 0.85 ;&st7; " /><path d=" M  567.28,  125.01  C  567.28   122.67   565.38   120.77   563.03   120.77 " style="stroke-width: 1.42 ;&st7; " /><path d=" M  563.03,  129.26  C  565.38   129.26   567.28   127.36   567.28   125.01 " style="stroke-width: 1.42 ;&st7; " /><path d=" M  930.88,  362.69  C  930.88   360.19   928.85   358.16   926.35   358.16 " style="stroke-width: 1.42 ;&st7; " /><path d=" M  926.35,  358.16  C  923.84   358.16   921.81   360.19   921.81   362.69 " style="stroke-width: 1.42 ;&st7; " /><path d=" M  921.81,  362.69  C  921.81   365.19   923.84   367.22   926.35   367.22 " style="stroke-width: 1.42 ;&st7; " /><path d=" M  926.35,  367.22  C  928.85   367.22   930.88   365.19   930.88   362.69 " style="stroke-width: 1.42 ;&st7; " /><path d=" M  930.88,  353.63  C  930.88   351.12   928.85   349.09   926.35   349.09 " style="stroke-width: 1.42 ;&st7; " /><path d=" M  926.35,  349.09  C  923.84   349.09   921.81   351.12   921.81   353.63 " style="stroke-width: 1.42 ;&st7; " /><path d=" M  921.81,  353.63  C  921.81   356.13   923.84   358.16   926.35   358.16 " style="stroke-width: 1.42 ;&st7; " /><path d=" M  926.35,  358.16  C  928.85   358.16   930.88   356.13   930.88   353.63 " style="stroke-width: 1.42 ;&st7; " /><path d=" M  930.88,  414.82  C  930.88   412.31   928.85   410.28   926.35   410.28 " style="stroke-width: 1.42 ;&st7; " /><path d=" M  926.35,  410.28  C  923.84   410.28   921.81   412.31   921.81   414.82 " style="stroke-width: 1.42 ;&st7; " /><path d=" M  921.81,  414.82  C  921.81   417.32   923.84   419.35   926.35   419.35 " style="stroke-width: 1.42 ;&st7; " /><path d=" M  926.35,  419.35  C  928.85   419.35   930.88   417.32   930.88   414.82 " style="stroke-width: 1.42 ;&st7; " /><path d=" M  930.88,  405.75  C  930.88   403.25   928.85   401.22   926.35   401.22 " style="stroke-width: 1.42 ;&st7; " /><path d=" M  926.35,  401.22  C  923.84   401.22   921.81   403.25   921.81   405.75 " style="stroke-width: 1.42 ;&st7; " /><path d=" M  921.81,  405.75  C  921.81   408.25   923.84   410.28   926.35   410.28 " style="stroke-width: 1.42 ;&st7; " /><path d=" M  926.35,  410.28  C  928.85   410.28   930.88   408.25   930.88   405.75 " style="stroke-width: 1.42 ;&st7; " /><path d=" M  879.89,  414.82  C  879.89   412.31   877.86   410.28   875.35   410.28 " style="stroke-width: 1.42 ;&st7; " /><path d=" M  875.35,  410.28  C  872.85   410.28   870.82   412.31   870.82   414.82 " style="stroke-width: 1.42 ;&st7; " /><path d=" M  870.82,  414.82  C  870.82   417.32   872.85   419.35   875.35   419.35 " style="stroke-width: 1.42 ;&st7; " /><path d=" M  875.35,  419.35  C  877.86   419.35   879.89   417.32   879.89   414.82 " style="stroke-width: 1.42 ;&st7; " /><path d=" M  879.89,  405.75  C  879.89   403.25   877.86   401.22   875.35   401.22 " style="stroke-width: 1.42 ;&st7; " /><path d=" M  875.35,  401.22  C  872.85   401.22   870.82   403.25   870.82   405.75 " style="stroke-width: 1.42 ;&st7; " /><path d=" M  870.82,  405.75  C  870.82   408.25   872.85   410.28   875.35   410.28 " style="stroke-width: 1.42 ;&st7; " /><path d=" M  875.35,  410.28  C  877.86   410.28   879.89   408.25   879.89   405.75 " style="stroke-width: 1.42 ;&st7; " /><path d=" M  554.53,  125.01  C  554.53   127.36   556.43   129.26   558.78   129.26 " style="stroke-width: 1.42 ;&st7; " /><path d=" M  558.78,  120.77  C  556.43   120.77   554.53   122.67   554.53   125.01 " style="stroke-width: 1.42 ;&st7; " /><text ewd:textID="34" style="&st18;" transform="matrix(&st16;  946.48  384.77 )">Theft Warning <tspan dy="6" x="0">Siren Assembly</tspan></text><text style="&st18;" transform="matrix(&st16;  946.48  377.67 )">S21(A),S23(B)</text><text style="&st18;" transform="matrix(&st16;  932.32  364.66 )">(*6)</text><text style="&st18;" transform="matrix(&st16;  924.01  364.66 )">B</text><text style="&st18;" transform="matrix(&st16;  915.47  364.66 )">4</text><text style="&st18;" transform="matrix(&st16;  932.32  355.6 )">(*5)</text><text style="&st18;" transform="matrix(&st16;  924.01  355.6 )">A</text><text style="&st18;" transform="matrix(&st16;  915.47  355.6 )">3</text><text style="&st18;" transform="matrix(&st16;  932.32  416.79 )">(*6)</text><text style="&st18;" transform="matrix(&st16;  924.01  416.79 )">B</text><text style="&st18;" transform="matrix(&st16;  915.47  416.79 )">2</text><text style="&st18;" transform="matrix(&st16;  932.32  407.72 )">(*5)</text><text style="&st18;" transform="matrix(&st16;  924.01  407.72 )">A</text><text style="&st18;" transform="matrix(&st16;  915.47  407.72 )">2</text><text style="&st18;" transform="matrix(&st16;  873.02  416.79 )">B</text><text style="&st18;" transform="matrix(&st16;  864.48  416.79 )">5</text><text style="&st18;" transform="matrix(&st16;  873.02  407.72 )">A</text><text style="&st18;" transform="matrix(&st16;  865.25  407.72 )">1</text><text style="&st18;" transform="matrix(&st16;  763.62  83.07 )">GPBS</text><text style="&st18;" transform="matrix(&st16;  763.4  94.96 )">19</text><text style="&st18;" transform="matrix(&st16;  769.06  126.98 )">2B</text><text style="&st18;" transform="matrix(&st16;  757.5  126.98 )">15</text><text style="&st18;" transform="matrix(&st16;  755.38  211.97 )">15</text><text style="&st18;" transform="matrix(&st16;  755.38  296.96 )">12</text><text style="&st18;" transform="matrix(&st16;  764.22  397.52 )">SSR-</text><text style="&st18;" transform="matrix(&st16;  763.27  364.66 )">1</text><text style="&st18;" transform="matrix(&st16;  771.04  364.66 )">A</text><text style="&st18;" transform="matrix(&st16;  771.04  407.72 )">B</text><text style="&st18;" transform="matrix(&st16;  763.27  407.72 )">1</text><text style="&st18;" transform="matrix(&st16;  764.22  510.84 )">SSR+</text><text style="&st18;" transform="matrix(&st16;  766.58  499.51 )">2</text><text style="&st18;" transform="matrix(&st17;  769.67  447.07 )">W</text><text style="&st18;" transform="matrix(&st17;  781.01  449.5 )">(*1)</text><text style="&st18;" transform="matrix(&st17;  769.67  327.06 )">V</text><text style="&st18;" transform="matrix(&st17;  781.01  330.52 )">(*1)</text><text style="&st18;" transform="matrix(&st17;  769.67  250.57 )">V</text><text style="&st18;" transform="matrix(&st17;  781.01  254.04 )">(*1)</text><text style="&st18;" transform="matrix(&st17;  769.67  165.59 )">V</text><text style="&st18;" transform="matrix(&st17;  781.01  169.05 )">(*1)</text><text style="&st18;" transform="matrix(&st16;  764.22  374.86 )">SSR+</text><text ewd:textID="17" style="&st18;" transform="matrix(&st17;  805.09  403.74 )">Glass Breakage Sensor <tspan dy="6" x="0">(Back Door Glass)</tspan></text><text style="&st18;" transform="matrix(&st17;  797.98  403.74 )">V11(A),V12(B)</text><text ewd:textID="18" style="&st18;" transform="matrix(&st17;  805.09  539.72 )">Glass Breakage Sensor <tspan dy="6" x="0">(Back Window Fix Glass)</tspan></text><text style="&st18;" transform="matrix(&st17;  797.98  539.72 )">V13</text><text style="&st18;" transform="matrix(&st16;  917.23  83.07 )">SSCL</text><text style="&st18;" transform="matrix(&st16;  912.29  93.27 )">18</text><text style="&st18;" transform="matrix(&st16;  924.01  93.27 )">B</text><text style="&st18;" transform="matrix(&st16;  907.57  211.97 )">23</text><text style="&st18;" transform="matrix(&st16;  918.64  397.52 )">GND</text><text style="&st18;" transform="matrix(&st16;  871.01  397.52 )">+B</text><text style="&st18;" transform="matrix(&st16;  916.53  374.86 )">CONT</text><text style="&st18;" transform="matrix(&st16;  856.58  475.43 )">22</text><text style="&st18;" transform="matrix(&st16;  916.38  528.39 )">10</text><text style="&st18;" transform="matrix(&st16;  919.56  499.51 )">7</text><text style="&st18;" transform="matrix(&st17;  922.65  629.88 )">W-B</text><text style="&st18;" transform="matrix(&st17;  933.98  627.97 )">(*1)</text><text style="&st18;" transform="matrix(&st17;  922.65  446.04 )">B</text><text style="&st18;" transform="matrix(&st17;  933.98  449.5 )">(*1)</text><text style="&st18;" transform="matrix(&st17;  871.66  446.04 )">Y</text><text style="&st18;" transform="matrix(&st17;  882.99  449.5 )">(*1)</text><text style="&st18;" transform="matrix(&st17;  922.65  284.22 )">L</text><text style="&st18;" transform="matrix(&st17;  933.98  288.03 )">(*1)</text><text style="&st18;" transform="matrix(&st17;  922.65  165.24 )">L</text><text style="&st18;" transform="matrix(&st17;  933.98  169.05 )">(*1)</text><text ewd:textID="23" style="&st18;" transform="matrix(&st17;  949.56  522.72 )">Junction <tspan dy="6" x="0">Connector</tspan></text><text style="&st18;" transform="matrix(&st17;  942.45  522.72 )">S20</text><text style="&st18;" transform="matrix(&st17;  871.66  514.03 )">Y</text><text style="&st18;" transform="matrix(&st17;  882.99  517.49 )">(*1)</text><text style="&st18;" transform="matrix(&st16;  669.14  94.96 )">20</text><text style="&st18;" transform="matrix(&st16;  670.49  83.07 )">HCTY</text><text style="&st18;" transform="matrix(&st16;  675.44  126.98 )">2C</text><text style="&st18;" transform="matrix(&st16;  663.24  126.98 )">38</text><text style="&st18;" transform="matrix(&st17;  676.19  165.73 )">R</text><text style="&st18;" transform="matrix(&st17;  676.19  434.41 )">W-B</text><text ewd:textID="12" style="&st18;" transform="matrix(&st17;  703.1  361.25 )">Engine Hood Courtesy <tspan dy="6" x="0">Switch Assembly</tspan></text><text style="&st18;" transform="matrix(&st17;  696.0  361.25 )">A47</text><text style="&st18;" transform="matrix(&st17;  619.53  169.44 )">(*2)</text><text style="&st18;" transform="matrix(&st17;  608.2  165.59 )">Y</text><text style="&st18;" transform="matrix(&st16;  595.25  126.98 )">39</text><text style="&st18;" transform="matrix(&st16;  607.45  126.98 )">2C</text><text style="&st18;" transform="matrix(&st16;  601.93  94.96 )">17</text><text style="&st18;" transform="matrix(&st16;  607.09  83.07 )">SH</text><text style="&st18;" transform="matrix(&st17;  676.19  542.0 )">BR</text><text style="&st18;" transform="matrix(&st16;  673.1  366.92 )">2</text><text style="&st18;" transform="matrix(&st16;  673.87  321.04 )">1</text><text ewd:textID="25" style="&st18;" transform="matrix(&st16;  668.86  32.08 )">Main Body ECU</text><text style="&st18;" transform="matrix(&st16;  668.86  24.98 )">L7(A),L8(B)</text><text style="&st18;" transform="matrix(&st16;  541.58  363.53 )">Y</text><text style="&st18;" transform="matrix(&st16;  537.73  374.86 )">(*2)</text><text style="&st18;" transform="matrix(&st16;  541.58  652.48 )">Y</text><text style="&st18;" transform="matrix(&st16;  538.12  663.81 )">(*1)</text><text style="&st18;" transform="matrix(&st17;  557.21  165.59 )">Y</text><text style="&st18;" transform="matrix(&st16;  545.04  126.98 )">18</text><text style="&st18;" transform="matrix(&st16;  556.46  126.98 )">2C</text><text style="&st18;" transform="matrix(&st16;  550.16  94.96 )">30</text><text style="&st18;" transform="matrix(&st16;  551.3  83.07 )">BECU</text><text style="&st18;" transform="matrix(&st16;  541.58  270.04 )">Y</text></svg>