﻿<?xml version="1.0" encoding="utf-8"?>
<!DOCTYPE svg PUBLIC "-//W3C//DTD SVG 1.0//EN" "http://www.w3.org/TR/2001/REC-SVG-20010904/DTD/svg10.dtd"[
	<!ENTITY ns_flows "http://ns.adobe.com/Flows/1.0/">
	<!ENTITY ns_svg "http://www.w3.org/2000/svg">
	<!ENTITY ns_xlink "http://www.w3.org/1999/xlink">
	<!ENTITY st0 "font-size:7px;font-family:'MS-PGothic';adobe-font-script:japanese;">
	<!ENTITY st1 "font-size:6px;font-family:'ArialMT';">
	<!-- White fill  -->
	<!ENTITY st2 "fill:#FFFFFF;stroke:#000000; stroke-width:1.41;stroke-linecap:round;stroke-linejoin:round;">
	<!-- Yellow fill  -->
	<!ENTITY st3 "fill:#FFFFCC;stroke:#FFFFCC; stroke-width:0.1;stroke-linecap:round;stroke-linejoin:round;">
	<!-- Gray fill  -->
	<!ENTITY st4 "fill:#CCCCCC;stroke:#CCCCCC; stroke-width:0.1;stroke-linecap:round;stroke-linejoin:round;">
	<!-- Light-blue fill -->
	<!ENTITY st5 "fill:#CCECF4;stroke:#000000; stroke-width:1.133;stroke-linecap:round;stroke-linejoin:round;">
	<!ENTITY st6 "fill:none;stroke-linecap:butt; stroke-linejoin:round;">
	<!ENTITY st7 "fill:none;stroke:#000000;stroke-linecap:round;stroke-linejoin:round;">
	<!ENTITY st8 "enable-background:new    ;">
	<!-- Black fill -->
	<!ENTITY st9 "fill:#000000;stroke:#000000; stroke-linecap:round;stroke-linejoin:round;">
	<!-- SRS note   -->
	<!ENTITY st10 "font-size:9px;font-family:'ArialMT';">
	<!ENTITY st11 "font-size:9px;font-family:'Svg Symbol';">
	<!ENTITY st12 "font-size:6px;font-family:'Svg Symbol';">
	<!ENTITY st13 "fill:none;stroke:#ff0000;stroke-linecap:round;stroke-linejoin:round;">
	<!-- Yellow fill  -->
	<!ENTITY st14 "fill:#FFFF00;stroke:#FFFF00; stroke-width:0.1;stroke-linecap:round;stroke-linejoin:round;">
	<!ENTITY st15 "font-size:6px;font-family:'MS-PGothic';adobe-font-script:japanese;">
	<!ENTITY st16 "1.00 0.00 0.00 1.00">
	<!ENTITY st17 "0.00 -1.00 1.00 0.00">
	<!ENTITY st18 "font-size:6px;font-family:'Arial';">
	<!ENTITY st19 "font-size:9px;font-family:'Arial';">
	<!ENTITY st20 "font-size:6px;font-family:'MS-PGothic','MS PGothic';adobe-font-script:japanese;">
	<!ENTITY st21 "font-size:7px;font-family:'MS-PGothic','MS PGothic';adobe-font-script:japanese;">
	<!ATTLIST svg
		xmlns:ewd CDATA #FIXED "http://shcl.co.jp/ewd"
		xmlns:a CDATA #FIXED "http://ns.adobe.com/AdobeSVGViewerExtensions/3.0/"
		ewd:ver CDATA #IMPLIED
	>
	<!ATTLIST a
		ewd:lineID CDATA #IMPLIED
		ewd:groupID CDATA #IMPLIED
		ewd:figtype CDATA #IMPLIED
		ewd:code CDATA #IMPLIED
		ewd:figID CDATA #IMPLIED
		ewd:pinNo CDATA #IMPLIED
		ewd:comment CDATA #IMPLIED >
	<!ATTLIST g
		ewd:lineID CDATA #IMPLIED
		ewd:groupID CDATA #IMPLIED
		ewd:figtype CDATA #IMPLIED
		ewd:code CDATA #IMPLIED
		ewd:figID CDATA #IMPLIED
		ewd:pinNo CDATA #IMPLIED
		ewd:comment CDATA #IMPLIED >
	<!ATTLIST text
		ewd:textID CDATA #IMPLIED >
	<!ATTLIST title
		ewd:textID CDATA #IMPLIED >
]>
<!-- Generator: Shintec Hozumi YS   -->
<svg onload="call_execInitLoadProc_svg('system')" style="overflow:visible;  enable-background:new 0 0 4125.262 710.000" viewBox="0 0 4125.262 710.000" height="710.000" width="4125.262" xml:space="preserve" ewd:ver="L2.1.2.6" xmlns="&ns_svg;" xmlns:a="http://ns.adobe.com/AdobeSVGViewerExtensions/3.0/" xmlns:ewd="http://shcl.co.jp/ewd" xmlns:xlink="&ns_xlink;">
<path d=" M 1474.50,  520.20  L 1466.01,  520.20 " style="stroke-width: 0.85 ;&st7; " /><path d=" M 1317.28,   69.77  L 1317.28,   95.27 " style="stroke-width: 0.85 ;&st7; " /><path d=" M 1319.40,   95.27  L 1315.16,   95.27 " style="stroke-width: 1.42 ;&st7; " /><path d=" M 1319.40,  103.77  L 1315.16,  103.77 " style="stroke-width: 1.42 ;&st7; " /><path d=" M 1342.78,  494.70  L 1342.78,  498.95 " style="stroke-width: 0.85 ;&st7; " /><path d=" M 1342.78,  507.45  L 1342.78,  511.70 " style="stroke-width: 0.85 ;&st7; " /><path d=" M 1410.76,  507.45  L 1410.76,  511.70 " style="stroke-width: 0.85 ;&st7; " /><path d=" M 1410.76,  494.70  L 1410.76,  498.95 " style="stroke-width: 0.85 ;&st7; " /><path d=" M 1419.26,  584.66  L 1414.29,  579.69 " style="stroke-width: 1.42 ;&st7; " /><path d=" M 1402.27,  591.72  L 1407.23,  596.69 " style="stroke-width: 1.42 ;&st7; " /><path d=" M 1414.29,  596.69  L 1419.26,  591.72 " style="stroke-width: 1.42 ;&st7; " /><path d=" M 1407.23,  579.69  L 1402.27,  584.66 " style="stroke-width: 1.42 ;&st7; " /><path d=" M 1164.31,  273.74  L 1164.31,  299.24 " style="stroke-width: 0.85 ;&st7; " /><path d=" M 1166.43,  299.24  L 1162.18,  299.24 " style="stroke-width: 1.42 ;&st7; " /><path d=" M 1166.43,  307.73  L 1162.18,  307.73 " style="stroke-width: 1.42 ;&st7; " /><path d=" M 1166.43,  392.72  L 1162.18,  392.72 " style="stroke-width: 1.42 ;&st7; " /><path d=" M 1166.43,  384.22  L 1162.18,  384.22 " style="stroke-width: 1.42 ;&st7; " /><path d=" M 1166.43,  350.23  L 1162.18,  350.23 " style="stroke-width: 1.42 ;&st7; " /><path d=" M 1166.43,  341.73  L 1162.18,  341.73 " style="stroke-width: 1.42 ;&st7; " /><path d=" M 1089.94,  307.73  L 1085.69,  307.73 " style="stroke-width: 1.42 ;&st7; " /><path d=" M 1089.94,  299.24  L 1085.69,  299.24 " style="stroke-width: 1.42 ;&st7; " /><path d=" M 1087.82,  273.74  L 1087.82,  299.24 " style="stroke-width: 0.85 ;&st7; " /><path d=" M 1291.78,  214.25  L 1291.78,  222.75 " style="stroke-width: 0.85 ;&st7; " /><path d=" M 1291.78,  188.75  L 1291.78,  197.25 " style="stroke-width: 0.85 ;&st7; " /><path d=" M 1317.28,  188.75  L 1317.28,  193.00 " style="stroke-width: 0.85 ;&st7; " /><path d=" M 1317.28,  222.75  L 1317.28,  218.50 " style="stroke-width: 0.85 ;&st7; " /><path d=" M 1317.28,  215.67  L 1322.95,  193.00 " style="stroke-width: 1.42 ;&st7; " /><path d=" M 1319.40,  341.73  L 1315.16,  341.73 " style="stroke-width: 1.42 ;&st7; " /><path d=" M 1319.40,  333.23  L 1315.16,  333.23 " style="stroke-width: 1.42 ;&st7; " /><path d=" M 1317.28,  290.74  L 1317.28,  333.23 " style="stroke-width: 0.85 ;&st7; " /><path d=" M 1319.40,  154.76  L 1315.16,  154.76 " style="stroke-width: 1.42 ;&st7; " /><path d=" M 1319.40,  163.26  L 1315.16,  163.26 " style="stroke-width: 1.42 ;&st7; " /><path d=" M 1472.38,  333.23  L 1468.13,  333.23 " style="stroke-width: 1.42 ;&st7; " /><path d=" M 1472.38,  341.73  L 1468.13,  341.73 " style="stroke-width: 1.42 ;&st7; " /><path d=" M 1472.38,  367.22  L 1468.13,  367.22 " style="stroke-width: 1.42 ;&st7; " /><path d=" M 1472.38,  375.72  L 1468.13,  375.72 " style="stroke-width: 1.42 ;&st7; " /><path d=" M 1472.38,  409.72  L 1468.13,  409.72 " style="stroke-width: 1.42 ;&st7; " /><path d=" M 1472.38,  418.22  L 1468.13,  418.22 " style="stroke-width: 1.42 ;&st7; " /><path d=" M 1478.75,  452.21  L 1470.25,  452.21 " style="stroke-width: 1.42 ;&st7; " /><path d=" M 1387.39,  154.76  L 1383.14,  154.76 " style="stroke-width: 1.42 ;&st7; " /><path d=" M 1387.39,  163.26  L 1383.14,  163.26 " style="stroke-width: 1.42 ;&st7; " /><path d=" M 1472.38,  290.74  L 1468.13,  290.74 " style="stroke-width: 1.42 ;&st7; " /><path d=" M 1472.38,  299.24  L 1468.13,  299.24 " style="stroke-width: 1.42 ;&st7; " /><path d=" M 1470.25,  494.70  L 1470.25,  537.20 " style="stroke-width: 0.85 ;&st7; " /><path d=" M 1470.25,  537.20  L 1478.75,  537.20  L 1480.17,  534.36  L 1483.00,  540.03  L 1485.83,  534.36  L 1488.67,  540.03  L 1491.50,  534.36  L 1494.33,  540.03  L 1495.75,  537.20  L 1504.25,  537.20 " style="stroke-width: 0.85 ;&st7; " /><path d=" M 1470.25,  520.20  L 1464.59,  511.70  L 1475.92,  511.70  L 1470.25,  520.20 " style="stroke-width: 0.28 ;&st9;" /><path d=" M 1504.25,  520.20  L 1498.58,  511.70  L 1509.91,  511.70  L 1504.25,  520.20 " style="stroke-width: 0.28 ;&st9;" /><path d=" M 1453.26,  494.70  L 1453.26,  588.19  L 1521.25,  588.19  L 1521.25,  494.70  L 1453.26,  494.70 " style="stroke-width: 1.42 ;&st7; " /><path d=" M 1290.59,  230.24  L 1290.32,  230.71  L 1290.23,  231.25  L 1290.32,  231.78  L 1290.59,  232.25  L 1291.00,  232.60  L 1291.51,  232.78  L 1292.06,  232.78  L 1292.56,  232.60  L 1292.98,  232.25  L 1293.25,  231.78  L 1293.34,  231.25  L 1293.25,  230.71  L 1292.98,  230.24  L 1292.56,  229.90  L 1292.06,  229.71  L 1291.51,  229.71  L 1291.00,  229.90  L 1290.59,  230.24  L 1290.98,  230.96  L 1290.98,  231.54  L 1291.36,  231.98  L 1291.93,  232.08  L 1292.44,  231.79  L 1292.63,  231.25  L 1292.44,  230.70  L 1291.93,  230.41  L 1291.36,  230.51  L 1291.78,  231.25 " style="stroke-width: 0.85 ;&st7; " /><path d=" M 1290.59,  179.25  L 1290.32,  179.72  L 1290.23,  180.26  L 1290.32,  180.79  L 1290.59,  181.26  L 1291.00,  181.60  L 1291.51,  181.79  L 1292.06,  181.79  L 1292.56,  181.60  L 1292.98,  181.26  L 1293.25,  180.79  L 1293.34,  180.26  L 1293.25,  179.72  L 1292.98,  179.25  L 1292.56,  178.91  L 1292.06,  178.72  L 1291.51,  178.72  L 1291.00,  178.91  L 1290.59,  179.25  L 1290.98,  179.96  L 1290.98,  180.55  L 1291.36,  180.99  L 1291.93,  181.09  L 1292.44,  180.80  L 1292.63,  180.26  L 1292.44,  179.71  L 1291.93,  179.42  L 1291.36,  179.52  L 1291.78,  180.26 " style="stroke-width: 0.85 ;&st7; " /><path d=" M 1291.78,  180.26  L 1266.29,  180.26  L 1266.29,  197.25  L 1269.12,  198.67  L 1263.46,  201.50  L 1269.12,  204.33  L 1263.46,  207.17  L 1269.12,  210.00  L 1263.46,  212.83  L 1266.29,  214.25  L 1266.29,  231.25  L 1291.78,  231.25 " style="stroke-width: 0.85 ;&st7; " /><path d=" M 1304.53,   35.78  L 1304.53,   78.27  L 1330.03,   78.27  L 1330.03,   35.78  L 1304.53,   35.78 " style="stroke-width: 1.42 ;&st7; " /><path d=" M 1317.28,   90.37  L 1314.45,   87.54  L 1314.45,   91.79  L 1317.28,   94.62  L 1320.11,   91.79  L 1320.11,   87.54  L 1317.28,   90.37 " style="stroke-width: 0.28 ;&st9;" /><path d=" M 1402.27,  418.22  L 1419.26,  418.22 " style="stroke-width: 1.13 ;&st7;stroke-dasharray:3, 1.5;" /><path d=" M 1341.58,  408.71  L 1341.31,  409.18  L 1341.22,  409.72  L 1341.31,  410.25  L 1341.58,  410.72  L 1342.00,  411.07  L 1342.50,  411.25  L 1343.05,  411.25  L 1343.55,  411.07  L 1343.97,  410.72  L 1344.24,  410.25  L 1344.33,  409.72  L 1344.24,  409.18  L 1343.97,  408.71  L 1343.55,  408.37  L 1343.05,  408.18  L 1342.50,  408.18  L 1342.00,  408.37  L 1341.58,  408.71  L 1341.98,  409.43  L 1341.98,  410.01  L 1342.35,  410.45  L 1342.92,  410.55  L 1343.43,  410.26  L 1343.62,  409.72  L 1343.43,  409.17  L 1342.92,  408.88  L 1342.35,  408.98  L 1342.78,  409.72 " style="stroke-width: 0.85 ;&st7; " /><path d=" M 1410.76,  511.70  L 1410.76,  528.70 " style="stroke-width: 0.85 ;&st7; " /><path d=" M 1342.78,  511.70  L 1342.78,  528.70 " style="stroke-width: 0.85 ;&st7; " /><path d=" M 1410.76,  477.71  L 1410.76,  494.70 " style="stroke-width: 0.85 ;&st7; " /><path d=" M 1342.78,  418.22  L 1342.78,  401.22 " style="stroke-width: 0.85 ;&st7; " /><path d=" M 1342.78,  477.71  L 1342.78,  494.70 " style="stroke-width: 0.85 ;&st7; " /><path d=" M 1316.09,  315.23  L 1315.81,  315.70  L 1315.72,  316.23  L 1315.81,  316.77  L 1316.09,  317.24  L 1316.50,  317.58  L 1317.01,  317.77  L 1317.55,  317.77  L 1318.06,  317.58  L 1318.47,  317.24  L 1318.74,  316.77  L 1318.84,  316.23  L 1318.74,  315.70  L 1318.47,  315.23  L 1318.06,  314.88  L 1317.55,  314.70  L 1317.01,  314.70  L 1316.50,  314.88  L 1316.09,  315.23  L 1316.48,  315.94  L 1316.48,  316.52  L 1316.85,  316.97  L 1317.43,  317.07  L 1317.93,  316.78  L 1318.13,  316.23  L 1317.93,  315.69  L 1317.43,  315.40  L 1316.85,  315.50  L 1317.28,  316.23 " style="stroke-width: 0.85 ;&st7; " /><path d=" M 1469.06,  315.23  L 1468.79,  315.70  L 1468.70,  316.23  L 1468.79,  316.77  L 1469.06,  317.24  L 1469.47,  317.58  L 1469.98,  317.77  L 1470.53,  317.77  L 1471.03,  317.58  L 1471.45,  317.24  L 1471.72,  316.77  L 1471.81,  316.23  L 1471.72,  315.70  L 1471.45,  315.23  L 1471.03,  314.88  L 1470.53,  314.70  L 1469.98,  314.70  L 1469.47,  314.88  L 1469.06,  315.23  L 1469.45,  315.94  L 1469.45,  316.52  L 1469.83,  316.97  L 1470.40,  317.07  L 1470.91,  316.78  L 1471.10,  316.23  L 1470.91,  315.69  L 1470.40,  315.40  L 1469.83,  315.50  L 1470.25,  316.23 " style="stroke-width: 0.85 ;&st7; " /><path d=" M 1470.25,  299.24  L 1470.25,  333.23 " style="stroke-width: 0.85 ;&st7; " /><path d=" M 1317.28,  316.23  L 1470.25,  316.23 " style="stroke-width: 0.85 ;&st7; " /><path d=" M 1470.25,  304.13  L 1473.09,  306.96  L 1473.09,  302.71  L 1470.25,  299.88  L 1467.42,  302.71  L 1467.42,  306.96  L 1470.25,  304.13 " style="stroke-width: 0.28 ;&st9;" /><path d=" M 1316.09,  238.74  L 1315.81,  239.21  L 1315.72,  239.75  L 1315.81,  240.28  L 1316.09,  240.75  L 1316.50,  241.09  L 1317.01,  241.28  L 1317.55,  241.28  L 1318.06,  241.09  L 1318.47,  240.75  L 1318.74,  240.28  L 1318.84,  239.75  L 1318.74,  239.21  L 1318.47,  238.74  L 1318.06,  238.40  L 1317.55,  238.21  L 1317.01,  238.21  L 1316.50,  238.40  L 1316.09,  238.74  L 1316.48,  239.45  L 1316.48,  240.04  L 1316.85,  240.48  L 1317.43,  240.58  L 1317.93,  240.29  L 1318.13,  239.75  L 1317.93,  239.20  L 1317.43,  238.91  L 1316.85,  239.01  L 1317.28,  239.75 " style="stroke-width: 0.85 ;&st7; " /><path d=" M 1317.28,  239.75  L 1385.27,  239.75  L 1385.27,  214.25 " style="stroke-width: 0.85 ;&st7; " /><path d=" M 1385.27,  163.26  L 1385.27,  188.75 " style="stroke-width: 0.85 ;&st7; " /><path d=" M 1385.27,  168.15  L 1388.10,  170.99  L 1388.10,  166.74  L 1385.27,  163.90  L 1382.44,  166.74  L 1382.44,  170.99  L 1385.27,  168.15 " style="stroke-width: 0.28 ;&st9;" /><path d=" M 1495.75,  701.50  L 1512.75,  701.50 " style="stroke-width: 0.85 ;&st7; " /><path d=" M 1504.25,  562.69  L 1498.58,  554.19  L 1509.91,  554.19  L 1504.25,  562.69 " style="stroke-width: 0.28 ;&st9;" /><path d=" M 1474.50,  457.88  L 1470.25,  453.63  L 1466.00,  457.88 " style="stroke-width: 1.42 ;&st7; " /><path d=" M 1474.50,  461.27  L 1470.25,  457.03  L 1466.00,  461.27 " style="stroke-width: 1.42 ;&st7; " /><path d=" M 1470.25,  409.72  L 1470.25,  375.72 " style="stroke-width: 0.85 ;&st7; " /><path d=" M 1470.25,  404.82  L 1467.42,  401.99  L 1467.42,  406.24  L 1470.25,  409.07  L 1473.09,  406.24  L 1473.09,  401.99  L 1470.25,  404.82 " style="stroke-width: 0.28 ;&st9;" /><path d=" M 1470.25,  380.62  L 1473.09,  383.45  L 1473.09,  379.20  L 1470.25,  376.37  L 1467.42,  379.20  L 1467.42,  383.45  L 1470.25,  380.62 " style="stroke-width: 0.28 ;&st9;" /><path d=" M 1470.25,  328.33  L 1467.42,  325.50  L 1467.42,  329.75  L 1470.25,  332.58  L 1473.09,  329.75  L 1473.09,  325.50  L 1470.25,  328.33 " style="stroke-width: 0.28 ;&st9;" /><path d=" M 1402.27,  409.72  L 1419.26,  409.72 " style="stroke-width: 1.13 ;&st7;stroke-dasharray:3, 1.5;" /><path d=" M 1409.35,  710.00  L 1412.18,  710.00 " style="stroke-width: 0.85 ;&st7; " /><path d=" M 1407.93,  707.17  L 1413.60,  707.17 " style="stroke-width: 0.85 ;&st7; " /><path d=" M 1406.51,  704.33  L 1415.01,  704.33 " style="stroke-width: 0.85 ;&st7; " /><path d=" M 1402.27,  701.50  L 1419.26,  701.50 " style="stroke-width: 0.85 ;&st7; " /><path d=" M 1410.76,  697.25  L 1410.76,  701.50 " style="stroke-width: 0.85 ;&st7; " /><path d=" M 1393.77,  477.71  L 1393.77,  528.70  L 1436.26,  528.70  L 1436.26,  477.71  L 1393.77,  477.71 " style="stroke-width: 1.42 ;&st7; " /><path d=" M 1410.76,  401.22  L 1410.76,  426.71 " style="stroke-width: 0.85 ;&st7; " /><path d=" M 1402.27,  401.22  L 1402.27,  426.71  L 1419.26,  426.71  L 1419.26,  401.22  L 1402.27,  401.22 " style="stroke-width: 1.42 ;&st7; " /><path d=" M 1341.36,  710.00  L 1344.19,  710.00 " style="stroke-width: 0.85 ;&st7; " /><path d=" M 1339.94,  707.17  L 1345.61,  707.17 " style="stroke-width: 0.85 ;&st7; " /><path d=" M 1338.53,  704.33  L 1347.02,  704.33 " style="stroke-width: 0.85 ;&st7; " /><path d=" M 1334.28,  701.50  L 1351.27,  701.50 " style="stroke-width: 0.85 ;&st7; " /><path d=" M 1342.78,  697.25  L 1342.78,  701.50 " style="stroke-width: 0.85 ;&st7; " /><path d=" M 1325.78,  477.71  L 1325.78,  528.70  L 1368.27,  528.70  L 1368.27,  477.71  L 1325.78,  477.71 " style="stroke-width: 1.42 ;&st7; " /><path d=" M 1334.28,  401.22  L 1334.28,  418.22  L 1351.27,  418.22  L 1351.27,  401.22  L 1334.28,  401.22 " style="stroke-width: 1.42 ;&st7; " /><path d=" M 1317.28,  256.74  L 1317.28,  265.24 " style="stroke-width: 0.85 ;&st7; " /><path d=" M 1372.52,  180.26  L 1372.52,  222.75  L 1398.02,  222.75  L 1398.02,  180.26  L 1372.52,  180.26 " style="stroke-width: 1.42 ;&st7; " /><path d=" M 1317.28,  222.75  L 1317.28,  256.74 " style="stroke-width: 0.85 ;&st7; " /><path d=" M 1215.30,  214.25  L 1215.30,  248.24  L 1291.78,  248.24  L 1291.78,  222.75 " style="stroke-width: 0.85 ;&st7; " /><path d=" M 1316.09,  179.25  L 1315.81,  179.72  L 1315.72,  180.26  L 1315.81,  180.79  L 1316.09,  181.26  L 1316.50,  181.60  L 1317.01,  181.79  L 1317.55,  181.79  L 1318.06,  181.60  L 1318.47,  181.26  L 1318.74,  180.79  L 1318.84,  180.26  L 1318.74,  179.72  L 1318.47,  179.25  L 1318.06,  178.91  L 1317.55,  178.72  L 1317.01,  178.72  L 1316.50,  178.91  L 1316.09,  179.25  L 1316.48,  179.96  L 1316.48,  180.55  L 1316.85,  180.99  L 1317.43,  181.09  L 1317.93,  180.80  L 1318.13,  180.26  L 1317.93,  179.71  L 1317.43,  179.42  L 1316.85,  179.52  L 1317.28,  180.26 " style="stroke-width: 0.85 ;&st7; " /><path d=" M 1291.78,  188.75  L 1291.78,  180.26  L 1317.28,  180.26 " style="stroke-width: 0.85 ;&st7; " /><path d=" M 1317.28,  188.75  L 1317.28,  163.26 " style="stroke-width: 0.85 ;&st7; " /><path d=" M 1317.28,  168.15  L 1320.11,  170.99  L 1320.11,  166.74  L 1317.28,  163.90  L 1314.45,  166.74  L 1314.45,  170.99  L 1317.28,  168.15 " style="stroke-width: 0.28 ;&st9;" /><path d=" M 1304.53,  256.74  L 1304.53,  299.24  L 1330.03,  299.24  L 1330.03,  256.74  L 1304.53,  256.74 " style="stroke-width: 1.42 ;&st7; " /><path d=" M 1317.28,  328.33  L 1314.45,  325.50  L 1314.45,  329.75  L 1317.28,  332.58  L 1320.11,  329.75  L 1320.11,  325.50  L 1317.28,  328.33 " style="stroke-width: 0.28 ;&st9;" /><path d=" M 1283.29,  188.75  L 1283.29,  222.75  L 1325.78,  222.75  L 1325.78,  188.75  L 1283.29,  188.75 " style="stroke-width: 1.42 ;&st7; " /><path d=" M 1342.78,  409.72  L 1334.28,  409.72 " style="stroke-width: 0.85 ;&st7; " /><path d=" M 1151.56,  239.75  L 1151.56,  282.24  L 1177.05,  282.24  L 1177.05,  239.75  L 1151.56,  239.75 " style="stroke-width: 1.42 ;&st7; " /><path d=" M 1164.30,  294.34  L 1161.47,  291.51  L 1161.47,  295.76  L 1164.30,  298.59  L 1167.14,  295.76  L 1167.14,  291.51  L 1164.30,  294.34 " style="stroke-width: 0.28 ;&st9;" /><path d=" M 1164.30,  384.22  L 1164.30,  350.23 " style="stroke-width: 0.85 ;&st7; " /><path d=" M 1164.30,  379.33  L 1161.47,  376.49  L 1161.47,  380.74  L 1164.30,  383.58  L 1167.14,  380.74  L 1167.14,  376.49  L 1164.30,  379.33 " style="stroke-width: 0.28 ;&st9;" /><path d=" M 1164.30,  355.12  L 1167.14,  357.95  L 1167.14,  353.71  L 1164.30,  350.87  L 1161.47,  353.71  L 1161.47,  357.95  L 1164.30,  355.12 " style="stroke-width: 0.28 ;&st9;" /><path d=" M 1075.07,  239.75  L 1075.07,  282.24  L 1100.57,  282.24  L 1100.57,  239.75  L 1075.07,  239.75 " style="stroke-width: 1.42 ;&st7; " /><path d=" M 1087.82,  294.34  L 1084.98,  291.51  L 1084.98,  295.76  L 1087.82,  298.59  L 1090.65,  295.76  L 1090.65,  291.51  L 1087.82,  294.34 " style="stroke-width: 0.28 ;&st9;" /><path d=" M 1386.68,  212.83  C 1386.68   212.05  1386.05   211.42  1385.27   211.42 " style="stroke-width: 0.85 ;&st7; " /><path d=" M 1385.27,  211.42  C 1384.49   211.42  1383.85   212.05  1383.85   212.83 " style="stroke-width: 0.85 ;&st7; " /><path d=" M 1383.85,  212.83  C 1383.85   213.62  1384.49   214.25  1385.27   214.25 " style="stroke-width: 0.85 ;&st7; " /><path d=" M 1385.27,  214.25  C 1386.05   214.25  1386.68   213.62  1386.68   212.83 " style="stroke-width: 0.85 ;&st7; " /><path d=" M 1415.30,  396.69  C 1415.30   394.18  1413.27   392.15  1410.76   392.15 " style="stroke-width: 1.42 ;&st7; " /><path d=" M 1410.76,  392.15  C 1408.26   392.15  1406.23   394.18  1406.23   396.69 " style="stroke-width: 1.42 ;&st7; " /><path d=" M 1406.23,  396.69  C 1406.23   399.19  1408.26   401.22  1410.76   401.22 " style="stroke-width: 1.42 ;&st7; " /><path d=" M 1410.76,  401.22  C 1413.27   401.22  1415.30   399.19  1415.30   396.69 " style="stroke-width: 1.42 ;&st7; " /><path d=" M 1468.13,  333.23  C 1465.78   333.23  1463.88   335.13  1463.88   337.48 " style="stroke-width: 1.42 ;&st7; " /><path d=" M 1463.88,  337.48  C 1463.88   339.83  1465.78   341.73  1468.13   341.73 " style="stroke-width: 1.42 ;&st7; " /><path d=" M 1472.38,  341.73  C 1474.73   341.73  1476.63   339.83  1476.63   337.48 " style="stroke-width: 1.42 ;&st7; " /><path d=" M 1476.63,  337.48  C 1476.63   335.13  1474.73   333.23  1472.38   333.23 " style="stroke-width: 1.42 ;&st7; " /><path d=" M 1468.13,  367.22  C 1465.78   367.22  1463.88   369.13  1463.88   371.47 " style="stroke-width: 1.42 ;&st7; " /><path d=" M 1463.88,  371.47  C 1463.88   373.82  1465.78   375.72  1468.13   375.72 " style="stroke-width: 1.42 ;&st7; " /><path d=" M 1472.38,  375.72  C 1474.73   375.72  1476.63   373.82  1476.63   371.47 " style="stroke-width: 1.42 ;&st7; " /><path d=" M 1476.63,  371.47  C 1476.63   369.13  1474.73   367.22  1472.38   367.22 " style="stroke-width: 1.42 ;&st7; " /><path d=" M 1468.13,  409.72  C 1465.78   409.72  1463.88   411.62  1463.88   413.97 " style="stroke-width: 1.42 ;&st7; " /><path d=" M 1463.88,  413.97  C 1463.88   416.31  1465.78   418.22  1468.13   418.22 " style="stroke-width: 1.42 ;&st7; " /><path d=" M 1472.38,  418.22  C 1474.73   418.22  1476.63   416.31  1476.63   413.97 " style="stroke-width: 1.42 ;&st7; " /><path d=" M 1476.63,  413.97  C 1476.63   411.62  1474.73   409.72  1472.38   409.72 " style="stroke-width: 1.42 ;&st7; " /><path d=" M 1383.14,  154.76  C 1380.80   154.76  1378.89   156.66  1378.89   159.01 " style="stroke-width: 1.42 ;&st7; " /><path d=" M 1378.89,  159.01  C 1378.89   161.36  1380.80   163.26  1383.14   163.26 " style="stroke-width: 1.42 ;&st7; " /><path d=" M 1387.39,  163.26  C 1389.74   163.26  1391.64   161.36  1391.64   159.01 " style="stroke-width: 1.42 ;&st7; " /><path d=" M 1391.64,  159.01  C 1391.64   156.66  1389.74   154.76  1387.39   154.76 " style="stroke-width: 1.42 ;&st7; " /><path d=" M 1468.13,  290.74  C 1465.78   290.74  1463.88   292.64  1463.88   294.99 " style="stroke-width: 1.42 ;&st7; " /><path d=" M 1463.88,  294.99  C 1463.88   297.33  1465.78   299.24  1468.13   299.24 " style="stroke-width: 1.42 ;&st7; " /><path d=" M 1472.38,  299.24  C 1474.73   299.24  1476.63   297.33  1476.63   294.99 " style="stroke-width: 1.42 ;&st7; " /><path d=" M 1476.63,  294.99  C 1476.63   292.64  1474.73   290.74  1472.38   290.74 " style="stroke-width: 1.42 ;&st7; " /><path d=" M 1342.78,  507.45  C 1344.33   507.46  1345.60   506.21  1345.61   504.65 " style="stroke-width: 0.85 ;&st7; " /><path d=" M 1345.61,  504.65  C 1345.62   503.10  1344.36   501.83  1342.81   501.82 " style="stroke-width: 0.85 ;&st7; " /><path d=" M 1342.81,  501.82  C 1341.78   501.81  1340.89   502.31  1340.37   503.20 " style="stroke-width: 0.85 ;&st7; " /><path d=" M 1340.37,  503.20  C 1341.16   504.54  1342.89   504.98  1344.23   504.19 " style="stroke-width: 0.85 ;&st7; " /><path d=" M 1344.23,  504.19  C 1345.57   503.40  1346.01   501.67  1345.22   500.33 " style="stroke-width: 0.85 ;&st7; " /><path d=" M 1345.22,  500.33  C 1344.69   499.45  1343.81   498.94  1342.78   498.95 " style="stroke-width: 0.85 ;&st7; " /><path d=" M 1351.27,  503.20  C 1351.27   498.51  1347.47   494.70  1342.78   494.70 " style="stroke-width: 1.42 ;&st7; " /><path d=" M 1342.78,  494.70  C 1338.08   494.70  1334.28   498.51  1334.28   503.20 " style="stroke-width: 1.42 ;&st7; " /><path d=" M 1334.28,  503.20  C 1334.28   507.89  1338.08   511.70  1342.78   511.70 " style="stroke-width: 1.42 ;&st7; " /><path d=" M 1342.78,  511.70  C 1347.47   511.70  1351.27   507.89  1351.27   503.20 " style="stroke-width: 1.42 ;&st7; " /><path d=" M 1419.26,  503.20  C 1419.26   498.51  1415.46   494.70  1410.76   494.70 " style="stroke-width: 1.42 ;&st7; " /><path d=" M 1410.76,  494.70  C 1406.07   494.70  1402.27   498.51  1402.27   503.20 " style="stroke-width: 1.42 ;&st7; " /><path d=" M 1402.27,  503.20  C 1402.27   507.89  1406.07   511.70  1410.76   511.70 " style="stroke-width: 1.42 ;&st7; " /><path d=" M 1410.76,  511.70  C 1415.46   511.70  1419.26   507.89  1419.26   503.20 " style="stroke-width: 1.42 ;&st7; " /><path d=" M 1408.36,  503.20  C 1409.15   504.54  1410.88   504.98  1412.21   504.19 " style="stroke-width: 0.85 ;&st7; " /><path d=" M 1412.21,  504.19  C 1413.55   503.40  1414.00   501.67  1413.21   500.33 " style="stroke-width: 0.85 ;&st7; " /><path d=" M 1413.21,  500.33  C 1412.68   499.45  1411.80   498.94  1410.76   498.95 " style="stroke-width: 0.85 ;&st7; " /><path d=" M 1410.76,  507.45  C 1412.32   507.46  1413.59   506.21  1413.60   504.65 " style="stroke-width: 0.85 ;&st7; " /><path d=" M 1413.60,  504.65  C 1413.61   503.10  1412.35   501.83  1410.80   501.82 " style="stroke-width: 0.85 ;&st7; " /><path d=" M 1410.80,  501.82  C 1409.77   501.81  1408.88   502.31  1408.36   503.20 " style="stroke-width: 0.85 ;&st7; " /><path d=" M 1347.31,  473.17  C 1347.31   470.67  1345.28   468.64  1342.78   468.64 " style="stroke-width: 1.42 ;&st7; " /><path d=" M 1342.78,  468.64  C 1340.27   468.64  1338.24   470.67  1338.24   473.17 " style="stroke-width: 1.42 ;&st7; " /><path d=" M 1338.24,  473.17  C 1338.24   475.68  1340.27   477.71  1342.78   477.71 " style="stroke-width: 1.42 ;&st7; " /><path d=" M 1342.78,  477.71  C 1345.28   477.71  1347.31   475.68  1347.31   473.17 " style="stroke-width: 1.42 ;&st7; " /><path d=" M 1347.31,  464.11  C 1347.31   461.60  1345.28   459.58  1342.78   459.58 " style="stroke-width: 1.42 ;&st7; " /><path d=" M 1342.78,  459.58  C 1340.27   459.58  1338.24   461.60  1338.24   464.11 " style="stroke-width: 1.42 ;&st7; " /><path d=" M 1338.24,  464.11  C 1338.24   466.61  1340.27   468.64  1342.78   468.64 " style="stroke-width: 1.42 ;&st7; " /><path d=" M 1342.78,  468.64  C 1345.28   468.64  1347.31   466.61  1347.31   464.11 " style="stroke-width: 1.42 ;&st7; " /><path d=" M 1347.31,  533.23  C 1347.31   530.73  1345.28   528.70  1342.78   528.70 " style="stroke-width: 1.42 ;&st7; " /><path d=" M 1342.78,  528.70  C 1340.27   528.70  1338.24   530.73  1338.24   533.23 " style="stroke-width: 1.42 ;&st7; " /><path d=" M 1338.24,  533.23  C 1338.24   535.73  1340.27   537.76  1342.78   537.76 " style="stroke-width: 1.42 ;&st7; " /><path d=" M 1342.78,  537.76  C 1345.28   537.76  1347.31   535.73  1347.31   533.23 " style="stroke-width: 1.42 ;&st7; " /><path d=" M 1347.31,  542.29  C 1347.31   539.79  1345.28   537.76  1342.78   537.76 " style="stroke-width: 1.42 ;&st7; " /><path d=" M 1342.78,  537.76  C 1340.27   537.76  1338.24   539.79  1338.24   542.29 " style="stroke-width: 1.42 ;&st7; " /><path d=" M 1338.24,  542.29  C 1338.24   544.80  1340.27   546.83  1342.78   546.83 " style="stroke-width: 1.42 ;&st7; " /><path d=" M 1342.78,  546.83  C 1345.28   546.83  1347.31   544.80  1347.31   542.29 " style="stroke-width: 1.42 ;&st7; " /><path d=" M 1415.30,  473.17  C 1415.30   470.67  1413.27   468.64  1410.76   468.64 " style="stroke-width: 1.42 ;&st7; " /><path d=" M 1410.76,  468.64  C 1408.26   468.64  1406.23   470.67  1406.23   473.17 " style="stroke-width: 1.42 ;&st7; " /><path d=" M 1406.23,  473.17  C 1406.23   475.68  1408.26   477.71  1410.76   477.71 " style="stroke-width: 1.42 ;&st7; " /><path d=" M 1410.76,  477.71  C 1413.27   477.71  1415.30   475.68  1415.30   473.17 " style="stroke-width: 1.42 ;&st7; " /><path d=" M 1415.30,  464.11  C 1415.30   461.60  1413.27   459.58  1410.76   459.58 " style="stroke-width: 1.42 ;&st7; " /><path d=" M 1410.76,  459.58  C 1408.26   459.58  1406.23   461.60  1406.23   464.11 " style="stroke-width: 1.42 ;&st7; " /><path d=" M 1406.23,  464.11  C 1406.23   466.61  1408.26   468.64  1410.76   468.64 " style="stroke-width: 1.42 ;&st7; " /><path d=" M 1410.76,  468.64  C 1413.27   468.64  1415.30   466.61  1415.30   464.11 " style="stroke-width: 1.42 ;&st7; " /><path d=" M 1415.30,  533.23  C 1415.30   530.73  1413.27   528.70  1410.76   528.70 " style="stroke-width: 1.42 ;&st7; " /><path d=" M 1410.76,  528.70  C 1408.26   528.70  1406.23   530.73  1406.23   533.23 " style="stroke-width: 1.42 ;&st7; " /><path d=" M 1406.23,  533.23  C 1406.23   535.73  1408.26   537.76  1410.76   537.76 " style="stroke-width: 1.42 ;&st7; " /><path d=" M 1410.76,  537.76  C 1413.27   537.76  1415.30   535.73  1415.30   533.23 " style="stroke-width: 1.42 ;&st7; " /><path d=" M 1415.30,  542.29  C 1415.30   539.79  1413.27   537.76  1410.76   537.76 " style="stroke-width: 1.42 ;&st7; " /><path d=" M 1410.76,  537.76  C 1408.26   537.76  1406.23   539.79  1406.23   542.29 " style="stroke-width: 1.42 ;&st7; " /><path d=" M 1406.23,  542.29  C 1406.23   544.80  1408.26   546.83  1410.76   546.83 " style="stroke-width: 1.42 ;&st7; " /><path d=" M 1410.76,  546.83  C 1413.27   546.83  1415.30   544.80  1415.30   542.29 " style="stroke-width: 1.42 ;&st7; " /><path d=" M 1415.30,  431.25  C 1415.30   428.74  1413.27   426.71  1410.76   426.71 " style="stroke-width: 1.42 ;&st7; " /><path d=" M 1410.76,  426.71  C 1408.26   426.71  1406.23   428.74  1406.23   431.25 " style="stroke-width: 1.42 ;&st7; " /><path d=" M 1406.23,  431.25  C 1406.23   433.75  1408.26   435.78  1410.76   435.78 " style="stroke-width: 1.42 ;&st7; " /><path d=" M 1410.76,  435.78  C 1413.27   435.78  1415.30   433.75  1415.30   431.25 " style="stroke-width: 1.42 ;&st7; " /><path d=" M 1315.16,   95.27  C 1312.81    95.27  1310.91    97.17  1310.91    99.52 " style="stroke-width: 1.42 ;&st7; " /><path d=" M 1310.91,   99.52  C 1310.91   101.87  1312.81   103.77  1315.16   103.77 " style="stroke-width: 1.42 ;&st7; " /><path d=" M 1319.40,  103.77  C 1321.75   103.77  1323.65   101.87  1323.65    99.52 " style="stroke-width: 1.42 ;&st7; " /><path d=" M 1323.65,   99.52  C 1323.65    97.17  1321.75    95.27  1319.40    95.27 " style="stroke-width: 1.42 ;&st7; " /><path d=" M 1318.70,   68.36  C 1318.70    67.57  1318.06    66.94  1317.28    66.94 " style="stroke-width: 0.85 ;&st7; " /><path d=" M 1317.28,   66.94  C 1316.50    66.94  1315.86    67.57  1315.86    68.36 " style="stroke-width: 0.85 ;&st7; " /><path d=" M 1315.86,   68.36  C 1315.86    69.14  1316.50    69.77  1317.28    69.77 " style="stroke-width: 0.85 ;&st7; " /><path d=" M 1317.28,   69.77  C 1318.06    69.77  1318.70    69.14  1318.70    68.36 " style="stroke-width: 0.85 ;&st7; " /><path d=" M 1318.70,   45.69  C 1318.70    44.91  1318.06    44.28  1317.28    44.28 " style="stroke-width: 0.85 ;&st7; " /><path d=" M 1317.28,   44.28  C 1316.50    44.28  1315.86    44.91  1315.86    45.69 " style="stroke-width: 0.85 ;&st7; " /><path d=" M 1315.86,   45.69  C 1315.86    46.48  1316.50    47.11  1317.28    47.11 " style="stroke-width: 0.85 ;&st7; " /><path d=" M 1317.28,   47.11  C 1318.06    47.11  1318.70    46.48  1318.70    45.69 " style="stroke-width: 0.85 ;&st7; " /><path d=" M 1317.28,   66.94  C 1318.13    64.02  1317.47    61.13  1315.44    58.87 " style="stroke-width: 1.42 ;&st7; " /><path d=" M 1317.28,   66.94  C 1319.45    63.92  1319.45    60.05  1317.28    57.03 " style="stroke-width: 1.42 ;&st7; " /><path d=" M 1317.28,   66.94  C 1321.00    64.17  1321.81    58.96  1319.12    55.19 " style="stroke-width: 1.42 ;&st7; " /><path d=" M 1317.28,   47.11  C 1313.56    49.88  1312.75    55.10  1315.44    58.87 " style="stroke-width: 1.42 ;&st7; " /><path d=" M 1317.28,   47.11  C 1315.11    50.13  1315.11    54.00  1317.28    57.03 " style="stroke-width: 1.42 ;&st7; " /><path d=" M 1317.28,   47.11  C 1316.43    50.03  1317.09    52.92  1319.12    55.18 " style="stroke-width: 1.42 ;&st7; " /><path d=" M 1291.78,  214.25  C 1293.74   214.25  1295.33   212.66  1295.33   210.71 " style="stroke-width: 0.85 ;&st7; " /><path d=" M 1295.33,  210.71  C 1295.33   208.75  1293.74   207.17  1291.78   207.17 " style="stroke-width: 0.85 ;&st7; " /><path d=" M 1291.78,  207.17  C 1290.79   207.17  1289.95   207.52  1289.25   208.23 " style="stroke-width: 0.85 ;&st7; " /><path d=" M 1289.25,  208.23  C 1290.62   209.63  1292.87   209.65  1294.26   208.28 " style="stroke-width: 0.85 ;&st7; " /><path d=" M 1294.26,  208.28  C 1295.66   206.91  1295.68   204.67  1294.31   203.27 " style="stroke-width: 0.85 ;&st7; " /><path d=" M 1294.31,  203.27  C 1292.94   201.88  1290.70   201.85  1289.31   203.22 " style="stroke-width: 0.85 ;&st7; " /><path d=" M 1289.31,  203.22  C 1289.29   203.24  1289.27   203.25  1289.25   203.27 " style="stroke-width: 0.85 ;&st7; " /><path d=" M 1289.25,  203.27  C 1290.62   204.67  1292.87   204.69  1294.26   203.32 " style="stroke-width: 0.85 ;&st7; " /><path d=" M 1294.26,  203.32  C 1295.66   201.95  1295.68   199.71  1294.31   198.31 " style="stroke-width: 0.85 ;&st7; " /><path d=" M 1294.31,  198.31  C 1293.62   197.61  1292.77   197.25  1291.78   197.25 " style="stroke-width: 0.85 ;&st7; " /><path d=" M 1318.70,  194.42  C 1318.70   193.64  1318.06   193.00  1317.28   193.00 " style="stroke-width: 0.85 ;&st7; " /><path d=" M 1317.28,  193.00  C 1316.50   193.00  1315.86   193.64  1315.86   194.42 " style="stroke-width: 0.85 ;&st7; " /><path d=" M 1315.86,  194.42  C 1315.86   195.20  1316.50   195.84  1317.28   195.84 " style="stroke-width: 0.85 ;&st7; " /><path d=" M 1317.28,  195.84  C 1318.06   195.84  1318.70   195.20  1318.70   194.42 " style="stroke-width: 0.85 ;&st7; " /><path d=" M 1318.70,  217.08  C 1318.70   216.30  1318.06   215.67  1317.28   215.67 " style="stroke-width: 0.85 ;&st7; " /><path d=" M 1317.28,  215.67  C 1316.50   215.67  1315.86   216.30  1315.86   217.08 " style="stroke-width: 0.85 ;&st7; " /><path d=" M 1315.86,  217.08  C 1315.86   217.86  1316.50   218.50  1317.28   218.50 " style="stroke-width: 0.85 ;&st7; " /><path d=" M 1317.28,  218.50  C 1318.06   218.50  1318.70   217.86  1318.70   217.08 " style="stroke-width: 0.85 ;&st7; " /><path d=" M 1310.91,  337.48  C 1310.91   339.83  1312.81   341.73  1315.16   341.73 " style="stroke-width: 1.42 ;&st7; " /><path d=" M 1317.28,  287.90  C 1320.02   286.29  1320.93   282.76  1319.32   280.03 " style="stroke-width: 1.42 ;&st7; " /><path d=" M 1319.32,  280.03  C 1318.80   279.14  1318.16   278.51  1317.28   277.99 " style="stroke-width: 1.42 ;&st7; " /><path d=" M 1317.28,  268.07  C 1314.54   269.69  1313.63   273.21  1315.24   275.95 " style="stroke-width: 1.42 ;&st7; " /><path d=" M 1315.24,  275.95  C 1315.76   276.83  1316.40   277.47  1317.28   277.99 " style="stroke-width: 1.42 ;&st7; " /><path d=" M 1323.65,  337.48  C 1323.65   335.13  1321.75   333.23  1319.40   333.23 " style="stroke-width: 1.42 ;&st7; " /><path d=" M 1318.70,  289.32  C 1318.70   288.54  1318.06   287.90  1317.28   287.90 " style="stroke-width: 0.85 ;&st7; " /><path d=" M 1317.28,  287.90  C 1316.50   287.90  1315.86   288.54  1315.86   289.32 " style="stroke-width: 0.85 ;&st7; " /><path d=" M 1315.86,  289.32  C 1315.86   290.10  1316.50   290.74  1317.28   290.74 " style="stroke-width: 0.85 ;&st7; " /><path d=" M 1317.28,  290.74  C 1318.06   290.74  1318.70   290.10  1318.70   289.32 " style="stroke-width: 0.85 ;&st7; " /><path d=" M 1319.40,  341.73  C 1321.75   341.73  1323.65   339.83  1323.65   337.48 " style="stroke-width: 1.42 ;&st7; " /><path d=" M 1315.16,  333.23  C 1312.81   333.23  1310.91   335.13  1310.91   337.48 " style="stroke-width: 1.42 ;&st7; " /><path d=" M 1318.70,  266.66  C 1318.70   265.88  1318.06   265.24  1317.28   265.24 " style="stroke-width: 0.85 ;&st7; " /><path d=" M 1317.28,  265.24  C 1316.50   265.24  1315.86   265.88  1315.86   266.66 " style="stroke-width: 0.85 ;&st7; " /><path d=" M 1315.86,  266.66  C 1315.86   267.44  1316.50   268.07  1317.28   268.07 " style="stroke-width: 0.85 ;&st7; " /><path d=" M 1317.28,  268.07  C 1318.06   268.07  1318.70   267.44  1318.70   266.66 " style="stroke-width: 0.85 ;&st7; " /><path d=" M 1315.16,  154.76  C 1312.81   154.76  1310.91   156.66  1310.91   159.01 " style="stroke-width: 1.42 ;&st7; " /><path d=" M 1310.91,  159.01  C 1310.91   161.36  1312.81   163.26  1315.16   163.26 " style="stroke-width: 1.42 ;&st7; " /><path d=" M 1319.40,  163.26  C 1321.75   163.26  1323.65   161.36  1323.65   159.01 " style="stroke-width: 1.42 ;&st7; " /><path d=" M 1323.65,  159.01  C 1323.65   156.66  1321.75   154.76  1319.40   154.76 " style="stroke-width: 1.42 ;&st7; " /><path d=" M 1385.27,  191.59  C 1382.53   193.20  1381.62   196.73  1383.23   199.46 " style="stroke-width: 1.42 ;&st7; " /><path d=" M 1383.23,  199.46  C 1383.75   200.35  1384.39   200.98  1385.27   201.50 " style="stroke-width: 1.42 ;&st7; " /><path d=" M 1385.27,  211.42  C 1388.01   209.80  1388.92   206.28  1387.31   203.54 " style="stroke-width: 1.42 ;&st7; " /><path d=" M 1387.31,  203.54  C 1386.79   202.66  1386.15   202.02  1385.27   201.50 " style="stroke-width: 1.42 ;&st7; " /><path d=" M 1386.68,  190.17  C 1386.68   189.39  1386.05   188.75  1385.27   188.75 " style="stroke-width: 0.85 ;&st7; " /><path d=" M 1385.27,  188.75  C 1384.49   188.75  1383.85   189.39  1383.85   190.17 " style="stroke-width: 0.85 ;&st7; " /><path d=" M 1383.85,  190.17  C 1383.85   190.95  1384.49   191.59  1385.27   191.59 " style="stroke-width: 0.85 ;&st7; " /><path d=" M 1385.27,  191.59  C 1386.05   191.59  1386.68   190.95  1386.68   190.17 " style="stroke-width: 0.85 ;&st7; " /><path d=" M 1170.68,  303.48  C 1170.68   301.14  1168.78   299.24  1166.43   299.24 " style="stroke-width: 1.42 ;&st7; " /><path d=" M 1166.43,  307.73  C 1168.78   307.73  1170.68   305.83  1170.68   303.48 " style="stroke-width: 1.42 ;&st7; " /><path d=" M 1157.93,  303.48  C 1157.93   305.83  1159.83   307.73  1162.18   307.73 " style="stroke-width: 1.42 ;&st7; " /><path d=" M 1162.18,  299.24  C 1159.83   299.24  1157.93   301.14  1157.93   303.48 " style="stroke-width: 1.42 ;&st7; " /><path d=" M 1165.72,  272.32  C 1165.72   271.54  1165.09   270.91  1164.31   270.91 " style="stroke-width: 0.85 ;&st7; " /><path d=" M 1164.31,  270.91  C 1163.52   270.91  1162.89   271.54  1162.89   272.32 " style="stroke-width: 0.85 ;&st7; " /><path d=" M 1162.89,  272.32  C 1162.89   273.11  1163.52   273.74  1164.31   273.74 " style="stroke-width: 0.85 ;&st7; " /><path d=" M 1164.31,  273.74  C 1165.09   273.74  1165.72   273.11  1165.72   272.32 " style="stroke-width: 0.85 ;&st7; " /><path d=" M 1165.72,  249.66  C 1165.72   248.88  1165.09   248.24  1164.31   248.24 " style="stroke-width: 0.85 ;&st7; " /><path d=" M 1164.31,  248.24  C 1163.52   248.24  1162.89   248.88  1162.89   249.66 " style="stroke-width: 0.85 ;&st7; " /><path d=" M 1162.89,  249.66  C 1162.89   250.44  1163.52   251.08  1164.31   251.08 " style="stroke-width: 0.85 ;&st7; " /><path d=" M 1164.31,  251.08  C 1165.09   251.08  1165.72   250.44  1165.72   249.66 " style="stroke-width: 0.85 ;&st7; " /><path d=" M 1164.31,  270.91  C 1167.04   269.29  1167.96   265.77  1166.34   263.03 " style="stroke-width: 1.42 ;&st7; " /><path d=" M 1166.34,  263.03  C 1165.82   262.15  1165.19   261.51  1164.31   260.99 " style="stroke-width: 1.42 ;&st7; " /><path d=" M 1164.31,  251.08  C 1161.57   252.69  1160.66   256.22  1162.27   258.95 " style="stroke-width: 1.42 ;&st7; " /><path d=" M 1162.27,  258.95  C 1162.79   259.84  1163.42   260.47  1164.31   260.99 " style="stroke-width: 1.42 ;&st7; " /><path d=" M 1170.68,  388.47  C 1170.68   386.12  1168.78   384.22  1166.43   384.22 " style="stroke-width: 1.42 ;&st7; " /><path d=" M 1166.43,  392.72  C 1168.78   392.72  1170.68   390.82  1170.68   388.47 " style="stroke-width: 1.42 ;&st7; " /><path d=" M 1157.93,  388.47  C 1157.93   390.82  1159.83   392.72  1162.18   392.72 " style="stroke-width: 1.42 ;&st7; " /><path d=" M 1162.18,  384.22  C 1159.83   384.22  1157.93   386.12  1157.93   388.47 " style="stroke-width: 1.42 ;&st7; " /><path d=" M 1170.68,  345.98  C 1170.68   343.63  1168.78   341.73  1166.43   341.73 " style="stroke-width: 1.42 ;&st7; " /><path d=" M 1166.43,  350.23  C 1168.78   350.23  1170.68   348.32  1170.68   345.98 " style="stroke-width: 1.42 ;&st7; " /><path d=" M 1157.93,  345.98  C 1157.93   348.32  1159.83   350.23  1162.18   350.23 " style="stroke-width: 1.42 ;&st7; " /><path d=" M 1162.18,  341.73  C 1159.83   341.73  1157.93   343.63  1157.93   345.98 " style="stroke-width: 1.42 ;&st7; " /><path d=" M 1094.19,  303.48  C 1094.19   301.14  1092.29   299.24  1089.94   299.24 " style="stroke-width: 1.42 ;&st7; " /><path d=" M 1089.94,  307.73  C 1092.29   307.73  1094.19   305.83  1094.19   303.48 " style="stroke-width: 1.42 ;&st7; " /><path d=" M 1081.44,  303.48  C 1081.44   305.83  1083.35   307.73  1085.69   307.73 " style="stroke-width: 1.42 ;&st7; " /><path d=" M 1085.69,  299.24  C 1083.35   299.24  1081.44   301.14  1081.44   303.48 " style="stroke-width: 1.42 ;&st7; " /><path d=" M 1089.23,  272.32  C 1089.23   271.54  1088.60   270.91  1087.82   270.91 " style="stroke-width: 0.85 ;&st7; " /><path d=" M 1087.82,  270.91  C 1087.04   270.91  1086.40   271.54  1086.40   272.32 " style="stroke-width: 0.85 ;&st7; " /><path d=" M 1086.40,  272.32  C 1086.40   273.11  1087.04   273.74  1087.82   273.74 " style="stroke-width: 0.85 ;&st7; " /><path d=" M 1087.82,  273.74  C 1088.60   273.74  1089.23   273.11  1089.23   272.32 " style="stroke-width: 0.85 ;&st7; " /><path d=" M 1089.23,  249.66  C 1089.23   248.88  1088.60   248.24  1087.82   248.24 " style="stroke-width: 0.85 ;&st7; " /><path d=" M 1087.82,  248.24  C 1087.04   248.24  1086.40   248.88  1086.40   249.66 " style="stroke-width: 0.85 ;&st7; " /><path d=" M 1086.40,  249.66  C 1086.40   250.44  1087.04   251.08  1087.82   251.08 " style="stroke-width: 0.85 ;&st7; " /><path d=" M 1087.82,  251.08  C 1088.60   251.08  1089.23   250.44  1089.23   249.66 " style="stroke-width: 0.85 ;&st7; " /><path d=" M 1087.82,  270.91  C 1090.56   269.29  1091.47   265.77  1089.86   263.03 " style="stroke-width: 1.42 ;&st7; " /><path d=" M 1089.86,  263.03  C 1089.34   262.15  1088.70   261.51  1087.82   260.99 " style="stroke-width: 1.42 ;&st7; " /><path d=" M 1087.82,  251.08  C 1085.08   252.69  1084.17   256.22  1085.78   258.95 " style="stroke-width: 1.42 ;&st7; " /><path d=" M 1085.78,  258.95  C 1086.30   259.84  1086.94   260.47  1087.82   260.99 " style="stroke-width: 1.42 ;&st7; " /><text style="&st18;" transform="matrix(&st16;  1313.18  160.98 )">2F</text><text style="&st18;" transform="matrix(&st16;  1305.37  160.98 )">1</text><text style="&st18;" transform="matrix(&st16;  1334.59  277.13 )">10A <tspan dy="6" x="0">TAIL</tspan></text><text style="&st18;" transform="matrix(&st17;  1313.58  132.62 )">W</text><text style="&st18;" transform="matrix(&st16;  1206.4  210.55 )">TRLY</text><text style="&st18;" transform="matrix(&st16;  1205.33  222.44 )">14</text><text ewd:textID="50" style="&st18;" transform="matrix(&st16;  1328.92  204.89 )">TAIL <tspan dy="6" x="0">Relay</tspan></text><text style="&st18;" transform="matrix(&st16;  1312.83  339.45 )">2C</text><text style="&st18;" transform="matrix(&st16;  1301.41  339.45 )">10</text><text style="&st18;" transform="matrix(&st16;  1402.57  200.65 )">10A <tspan dy="6" x="0">PANEL</tspan></text><text style="&st18;" transform="matrix(&st17;  1313.58  372.03 )">BR</text><text style="&st18;" transform="matrix(&st17;  1339.08  452.76 )">BR</text><text style="&st18;" transform="matrix(&st17;  1339.08  570.39 )">W-B</text><text ewd:textID="30" style="&st18;" transform="matrix(&st17;  1365.99  420.74 )">Junction <tspan dy="6" x="0">Connector</tspan></text><text style="&st18;" transform="matrix(&st17;  1358.89  420.74 )">A55</text><text style="&st18;" transform="matrix(&st16;  1399.89  398.65 )">6</text><text style="&st18;" transform="matrix(&st16;  1408.43  398.65 )">B</text><text style="&st18;" transform="matrix(&st16;  1332.81  397.53 )">10</text><text style="&st18;" transform="matrix(&st17;  1407.07  452.76 )">BR</text><text style="&st18;" transform="matrix(&st17;  1382.96  531.22 )">A39(A),A40(B)</text><text style="&st18;" transform="matrix(&st17;  1407.07  570.39 )">W-B</text><text style="&st18;" transform="matrix(&st17;  1407.07  618.49 )">BR</text><text style="&st18;" transform="matrix(&st16;  1380.46  363.53 )">BR</text><text ewd:textID="30" style="&st18;" transform="matrix(&st17;  1433.98  429.24 )">Junction Connector</text><text style="&st18;" transform="matrix(&st17;  1426.87  429.24 )">A50(A),A51(B)</text><text style="&st18;" transform="matrix(&st16;  1465.95  339.45 )">2B</text><text style="&st18;" transform="matrix(&st16;  1457.56  339.45 )">7</text><text style="&st18;" transform="matrix(&st16;  1465.95  373.44 )">3B</text><text style="&st18;" transform="matrix(&st16;  1453.61  373.44 )">55</text><text style="&st18;" transform="matrix(&st16;  1465.95  415.94 )">3A</text><text style="&st18;" transform="matrix(&st16;  1453.61  415.94 )">79</text><text style="&st18;" transform="matrix(&st16;  1455.44  449.93 )">3</text><text style="&st18;" transform="matrix(&st17;  1466.56  474.01 )">BR</text><text style="&st18;" transform="matrix(&st17;  1466.56  359.28 )">BR</text><text style="&st18;" transform="matrix(&st17;  1466.56  435.77 )">BR</text><text style="&st18;" transform="matrix(&st16;  1380.96  160.98 )">2A</text><text style="&st18;" transform="matrix(&st16;  1368.62  160.98 )">35</text><text style="&st18;" transform="matrix(&st16;  1465.8  296.96 )">2D</text><text style="&st18;" transform="matrix(&st16;  1454.39  296.96 )">18</text><text style="&st18;" transform="matrix(&st16;  1497.46  596.38 )">5</text><text style="&st18;" transform="matrix(&st17;  1160.61  327.06 )">Y</text><text style="&st18;" transform="matrix(&st16;  1155.19  236.05 )">(BAT)</text><text style="&st18;" transform="matrix(&st16;  1157.52  290.43 )">2</text><text style="&st18;" transform="matrix(&st16;  1162.72  305.45 )">1</text><text style="&st18;" transform="matrix(&st17;  1186.11  281.09 )">7.5A ECU-B</text><text style="&st18;" transform="matrix(&st16;  1147.66  390.44 )">48</text><text style="&st18;" transform="matrix(&st16;  1160.0  390.44 )">2A</text><text style="&st18;" transform="matrix(&st16;  1148.44  347.95 )">18</text><text style="&st18;" transform="matrix(&st16;  1159.85  347.95 )">2C</text><text style="&st18;" transform="matrix(&st17;  1084.12  329.39 )">BE</text><text style="&st18;" transform="matrix(&st16;  1081.74  236.05 )">(IG)</text><text style="&st18;" transform="matrix(&st16;  1071.17  305.45 )">32</text><text style="&st18;" transform="matrix(&st16;  1083.51  305.45 )">2A</text><text style="&st18;" transform="matrix(&st16;  1105.12  260.14 )">10A <tspan dy="6" x="0">IGN</tspan></text><text style="&st18;" transform="matrix(&st16;  1009.0  525.0 )">Y</text><text style="&st18;" transform="matrix(&st16;  1059.99  525.0 )">Y</text><text style="&st18;" transform="matrix(&st16;  1007.98  626.98 )">W</text><text style="&st18;" transform="matrix(&st16;  1009.0  643.98 )">P</text><text style="&st18;" transform="matrix(&st16;  1058.97  626.98 )">W</text><text style="&st18;" transform="matrix(&st16;  1059.99  643.98 )">P</text><text style="&st18;" transform="matrix(&st16;  1348.75  475.14 )">(*2)</text><text style="&st18;" transform="matrix(&st16;  1331.9  475.14 )">2</text><text style="&st18;" transform="matrix(&st16;  1340.44  475.14 )">B</text><text style="&st18;" transform="matrix(&st16;  1348.75  466.08 )">(*1)</text><text style="&st18;" transform="matrix(&st16;  1331.9  466.08 )">5</text><text style="&st18;" transform="matrix(&st16;  1340.44  466.08 )">A</text><text style="&st18;" transform="matrix(&st16;  1348.75  535.2 )">(*1)</text><text style="&st18;" transform="matrix(&st16;  1331.9  535.2 )">4</text><text style="&st18;" transform="matrix(&st16;  1340.44  535.2 )">A</text><text style="&st18;" transform="matrix(&st16;  1348.75  544.26 )">(*2)</text><text style="&st18;" transform="matrix(&st16;  1332.68  544.26 )">1</text><text style="&st18;" transform="matrix(&st16;  1340.44  544.26 )">B</text><text style="&st18;" transform="matrix(&st17;  1314.98  531.22 )">A10(A),A11(B)</text><text ewd:textID="24" style="&st18;" transform="matrix(&st17;  1322.08  531.22 )">Headlight Assembly LH</text><text style="&st18;" transform="matrix(&st16;  1408.43  475.14 )">B</text><text style="&st18;" transform="matrix(&st16;  1399.89  475.14 )">2</text><text style="&st18;" transform="matrix(&st16;  1416.74  475.14 )">(*2)</text><text style="&st18;" transform="matrix(&st16;  1416.74  466.08 )">(*1)</text><text style="&st18;" transform="matrix(&st16;  1399.89  466.08 )">5</text><text style="&st18;" transform="matrix(&st16;  1408.43  466.08 )">A</text><text style="&st18;" transform="matrix(&st16;  1416.74  535.2 )">(*1)</text><text style="&st18;" transform="matrix(&st16;  1399.89  535.2 )">4</text><text style="&st18;" transform="matrix(&st16;  1408.43  535.2 )">A</text><text style="&st18;" transform="matrix(&st16;  1416.74  544.26 )">(*2)</text><text style="&st18;" transform="matrix(&st16;  1400.66  544.26 )">1</text><text style="&st18;" transform="matrix(&st16;  1408.43  544.26 )">B</text><text ewd:textID="25" style="&st18;" transform="matrix(&st17;  1390.07  531.22 )">Headlight Assembly RH</text><text style="&st18;" transform="matrix(&st16;  1332.81  426.41 )">12</text><text style="&st18;" transform="matrix(&st16;  1399.89  433.22 )">2</text><text style="&st18;" transform="matrix(&st16;  1408.43  433.22 )">A</text><text style="&st18;" transform="matrix(&st16;  1308.17  32.08 )">(BAT)</text><text style="&st18;" transform="matrix(&st16;  1334.59  56.17 )">125A <tspan dy="6" x="0">DC/DC</tspan></text><text style="&st18;" transform="matrix(&st16;  1313.22  101.49 )">1D</text><text style="&st18;" transform="matrix(&st16;  1305.37  101.49 )">1</text><text style="&st18;" transform="matrix(&st16;  1310.49  86.47 )">2</text><text style="&st18;" transform="matrix(&st16;  1335.28  485.9 )">B</text><text style="&st18;" transform="matrix(&st16;  1403.27  485.9 )">B</text><text ewd:textID="18" style="&st18;" transform="matrix(&st17;  1426.9  519.27 )">Clearance</text><text style="&st18;" transform="matrix(&st16;  1335.28  525.01 )">E</text><text ewd:textID="18" style="&st18;" transform="matrix(&st17;  1358.91  519.27 )">Clearance</text><text style="&st18;" transform="matrix(&st16;  1403.27  525.01 )">E</text><text style="&st18;" transform="matrix(&st16;  1464.24  491.01 )">1</text><text style="&st18;" transform="matrix(&st16;  1497.46  491.01 )">2</text><text ewd:textID="49" style="&st18;" transform="matrix(&st17;  1496.31  572.29 )">Stop/Tail</text><text style="&st18;" transform="matrix(&st16;  1473.09  502.9 )">B</text><text style="&st18;" transform="matrix(&st16;  1327.49  406.03 )">9</text><text ewd:textID="34" style="&st18;" transform="matrix(&st16;  1085.29  159.56 )">Main Body ECU</text><text style="&st18;" transform="matrix(&st16;  1085.29  152.46 )">L7(A),L8(B)</text><text style="&st18;" transform="matrix(&st16;  1006.67  508.0 )">BE</text><text style="&st18;" transform="matrix(&st16;  1057.66  508.0 )">BE</text></svg>